chh c1 sd mt lt rc2
(0.60095656,0.60095656,1.00000000) (0.60095656,0.60095656,1.00000000) (0.73476136,0.60095656,1.00000000) (0.60095656,0.60095656,1.00000000) (0.60095656,0.60095656,1.00000000) (0.60095656,0.60095656,1.00000000)
(0.60095656,0.60095656,0.60812617) (0.60095656,0.60095656,0.66980741) (0.72823069,0.60095656,0.95695954) (0.60095656,0.60095656,0.66222880) (0.60095656,0.60095656,0.66043174) (0.60095656,0.60095656,0.90481629)
(0.60095656,0.60095656,0.60223911) (0.60095656,0.60095656,0.89626265) (0.71652877,0.60095656,0.95365386) (0.60095656,0.60095656,0.62218149) (0.60095656,0.60095656,0.90273959) (0.60095656,0.60095656,0.88493061)
(0.60095656,0.60095656,0.60392006) (0.60095656,0.60095656,0.91957098) (0.70594616,0.60095656,0.95176802) (0.60095656,0.60095656,0.90817601) (0.60095656,0.60095656,0.60228011) (0.60095656,0.60095656,0.82314775)
(0.60095656,0.60095656,0.65552627) (0.60095656,0.60095656,0.86940033) (0.71791377,0.60095656,0.93794789) (0.60095656,0.60095656,0.74067049) (0.60095656,0.60095656,0.66491336) (0.60095656,0.60095656,0.85711932)
(0.60095656,0.60095656,0.71723969) (0.60095656,0.60095656,0.75791705) (0.70644843,0.60095656,0.88849448) (0.60095656,0.60095656,0.60105670) (0.60095656,0.60095656,0.66193536) (0.60095656,0.60095656,0.82421918)
(0.60095656,0.60095656,0.75230020) (0.60095656,0.60095656,0.60622843) (0.70652721,0.60095656,0.74704466) (0.60095656,0.60095656,0.76102834) (0.60095656,0.60095656,0.65987503) (0.60095656,0.60095656,0.84091384)
(0.60095656,0.60095656,0.78538792) (0.60095656,0.60095656,0.71242846) (0.70583170,0.60095656,0.61276705) (0.60095656,0.60095656,0.95999892) (0.60095656,0.60095656,0.64628384) (0.60095656,0.60095656,0.86844357)
(0.60095656,0.60095656,0.81486452) (0.60095656,0.60095656,0.62184491) (0.70678970,0.60095656,0.71969191) (0.60095656,0.60095656,0.71264305) (0.60095656,0.60095656,0.77944978) (0.60095656,0.60095656,0.86026307)
(0.60095656,0.60095656,0.87800104) (0.60095656,0.60095656,0.75181080) (0.88512060,0.94651327,0.85610434) (0.60095656,0.60095656,0.60442012) (0.60095656,0.60095656,0.85998132) (0.60095656,0.60095656,0.83338996)
(0.60095656,0.60095656,0.82034382) (0.60095656,0.60095656,0.65584777) (0.87523875,0.94618471,0.88793255) (0.60095656,0.60095656,0.77506812) (0.60095656,0.60095656,0.93300806) (0.60095656,0.60095656,0.76950359)
(0.60095656,0.60095656,0.85105178) (0.60095656,0.60095656,0.68013055) (0.86798144,0.94651327,0.75429038) (0.60095656,0.60095656,0.77280236) (0.60095656,0.60095656,0.96319292) (0.60095656,0.60095656,0.76893142)
(0.60095656,0.60095656,0.93045762) (0.60095656,0.60095656,0.63833699) (0.86105115,0.94630184,0.62281769) (0.60095656,0.60095656,0.60096470) (0.60095656,0.60095656,0.61568883) (0.60095656,0.60095656,0.66937356)
(0.84719518,0.99116439,0.95011132) (0.60095656,0.60095656,0.73870246) (0.63291542,0.60095656,0.64044795) (0.60095656,0.60095656,0.61580986) (0.60095656,0.60095656,0.63690000) (0.60095656,0.60095656,0.60095656)
(0.99400262,0.99146448,0.83360725) (0.60095656,0.60095656,0.84497149) (0.69996038,0.60095663,0.60242977) (0.60095656,0.60095656,0.67442017) (0.60095656,0.60095656,0.79734331) (0.73488901,0.60095656,0.61259073)
(0.77868297,0.99175462,0.74696448) (0.60095656,0.60095656,0.68292170) (0.60595397,0.60095678,0.61350582) (0.60095656,0.60095656,0.65242802) (0.60095656,0.60095656,0.78398949) (1.00000000,0.60095676,0.62374712)
(0.60095656,0.60095656,0.67966219) (0.60095656,0.60095656,0.62135523) (0.82988252,0.94543415,0.61730728) (0.60095656,0.60095656,0.77814760) (0.60095656,0.60095656,0.61613858) (0.60095656,0.60095656,0.60814085)
(0.60095656,0.60095656,0.62699064) (0.60095656,0.60095656,0.60783259) (0.80198296,0.94477703,0.61285349) (0.60095656,0.60095656,0.67342039) (0.60095656,0.60095656,0.79861555) (0.60095656,0.60095656,0.60216289)
(0.60095656,0.60095656,0.60552954) (0.60095656,0.60095656,0.61161167) (0.80128093,0.75657317,0.60764614) (0.60095656,0.60095656,0.70049783) (0.60095656,0.60095656,0.67665270) (0.60095656,0.60095656,0.64163578)
(0.60095656,0.60095656,0.61239182) (0.60095656,0.60095656,0.61024312) (0.80064204,0.60095656,0.61181231) (0.60095656,0.60095656,0.81585997) (0.60095656,0.60095656,0.60442208) (0.60095656,0.60095656,0.60095656)
(0.60095656,0.60095656,0.61341260) (0.60095656,0.60095656,0.68531722) (0.63056630,0.94607214,0.61344942) (0.60095656,0.60095656,0.72373169) (0.60095656,0.60095656,0.62576387) (1.00000000,1.00000000,0.64719505)
(0.60095656,0.60095656,0.61710073) (0.60095656,0.60095656,0.77151542) (0.66450819,0.94607215,0.62964810) (0.60095656,0.60095656,0.60454811) (0.60095656,0.60095656,0.67274458) (1.00000000,1.00000000,0.85902684)
(0.60970867,0.60095656,0.64934548) (0.60095656,0.60095656,0.69262185) (0.61798488,0.94603612,0.75276661) (0.60095656,0.60095656,0.99646511) (1.00000000,1.00000000,0.89585701) (0.60095656,0.60095656,0.60188729)
(0.99499564,0.60095656,0.94694260) (0.60095656,0.60095656,0.63023734) (0.76681297,0.94606963,0.62974849) (0.60095656,0.60095656,0.99856901) (1.00000000,1.00000000,0.60247421) (0.67977705,0.60095656,0.74931183)
(0.60095656,0.60095656,0.69539414) (0.60095656,0.60095656,0.60630179) (0.66458586,0.60095656,0.61354304) (0.60095656,0.60095656,0.65065498) (0.60095656,0.60095656,0.92280887) (1.00000000,0.60095656,0.94915187)
(0.60095656,0.60095656,0.63664074) (0.60095656,0.60095656,0.97301643) (0.80027762,0.60095656,0.60661276) (0.60095656,0.60095656,0.91206523) (0.60095656,0.60095656,0.95972012) (0.60095656,0.60095656,0.61390618)
(0.60095656,0.60095656,0.64368863) (0.60095656,0.60095656,0.90270642) (0.79979448,0.60095656,0.60505586) (0.60095656,0.60095656,0.91955686) (0.60095656,0.60095656,0.76969068) (0.60095656,0.60095656,0.66184960)
(0.60095656,0.60095656,0.63174881) (0.60095656,0.60095656,0.77361769) (0.79935860,0.60095656,0.80026733) (0.60095656,0.60095656,0.81544230) (0.60095656,0.60095656,0.74768898) (0.60095656,0.60095656,0.64456424)
(0.60095656,0.60095656,0.72746343) (0.60095656,0.60095656,0.67307358) (0.77099750,0.75945064,0.90036789) (0.60095656,0.60095656,0.75072597) (0.60095656,0.60095656,0.62941424) (0.60095656,0.60095656,0.69078482)
(0.60095656,0.60095656,0.74987906) (0.60095656,0.60095656,0.70185264) (0.74240260,0.60098486,0.90276824) (0.60095656,0.60095656,0.71869158) (0.60095656,0.60095656,0.69259784) (0.60095656,0.60095656,0.68707882)
(0.60095656,0.60095656,0.69876801) (0.60095656,0.60095656,0.61287608) (0.73537201,0.60096495,0.89492884) (0.60095656,0.60095656,0.61388840) (0.60095656,0.60095656,0.60168954) (0.60095656,0.60095656,0.75374755)
(0.60095656,0.60095656,0.63118176) (0.60095656,0.60095656,0.72814664) (0.72867919,0.60095678,0.62737362) (0.60095656,0.60095656,0.90074920) (0.60095656,0.60095656,0.63671496) (0.60095656,0.60095656,0.73717090)
(0.60095656,0.60095656,0.65374357) (0.60095656,0.60095656,0.63793814) (0.87264954,0.94620148,0.69432730) (0.60095656,0.60095656,0.65198378) (0.60095656,0.60095656,0.60254162) (0.60095656,0.60095656,0.95387212)
(0.98429781,0.99351563,0.83688750) (0.60095656,0.60095656,0.61640753) (0.66018645,0.60095656,0.64753305) (0.60095656,0.60095656,0.65381531) (0.60095656,0.60095656,0.89823347) (0.99999999,0.60095656,0.89361152)
(0.60095656,0.60095656,0.89618180) (0.60095656,0.60095656,0.61330619) (0.88141837,0.94647519,0.62812896) (0.60095656,0.60095656,0.67983176) (0.60095656,0.60095656,0.67876390) (0.60095656,0.60095656,0.89868314)
(0.60095656,0.60095656,0.76075752) (0.60095656,0.60095656,0.70441060) (0.63007032,0.94661210,0.64405031) (0.60095656,0.60095656,0.72235609) (0.60095656,0.60095656,0.63745531) (1.00000000,0.60095656,0.91514336)
(0.60095656,0.60095656,0.92976981) (0.60095656,0.60095656,0.92377239) (0.88112787,0.94675537,0.61502688) (0.60095656,0.60095656,0.89561979) (0.60095656,0.60095656,0.71220502) (0.60095656,0.60095656,0.66534017)
(0.60095656,0.60095656,0.94679877) (0.60095656,0.60095656,0.97825421) (0.88102627,0.94691121,0.60941134) (0.60095656,0.60095656,0.86583327) (0.60095656,0.60095656,0.68318176) (0.60095656,0.60095656,0.64238075)
(0.60095656,0.60095656,0.91533790) (0.60095656,0.60095656,0.97032089) (0.88230481,0.94707885,0.61846662) (0.60095656,0.60095656,0.75321931) (0.60095656,0.60095656,0.65184101) (0.60095656,0.60095656,0.65525331)
(0.60095656,0.60095656,0.87071261) (0.60095656,0.60095656,0.93108609) (0.88280636,0.94687924,0.65047351) (0.60095656,0.60095656,0.72681290) (0.60095656,0.60095656,0.89337169) (0.60095656,0.60095656,0.64187042)
(0.60095656,0.60095656,0.70914113) (0.60095656,0.60095656,0.71522125) (0.88210976,0.94656973,0.74114437) (0.60095656,0.60095656,0.64068495) (0.60095656,0.60095656,0.60754451) (0.60095656,0.60095656,0.88317420)
(0.98651881,0.99181575,0.62273587) (0.60095656,0.60095656,0.88523159) (0.63627019,0.60095656,0.70208846) (0.60095656,0.60095656,0.60461092) (0.60095656,0.60095656,0.76478524) (0.98785735,1.00000000,0.75285248)
(0.89463717,0.99201257,0.61075645) (0.60095656,0.60095656,0.63883134) (0.60851753,0.60095679,0.61661634) (0.60095656,0.60095656,0.88713179) (0.60095656,0.60095656,0.89403001) (1.00000000,1.00000000,0.92149662)
(0.60095656,0.60095656,0.60115060) (0.60095656,0.60095656,0.78879371) (0.88260917,0.94721414,0.62254822) (0.60095656,0.60095656,0.62804594) (0.60095656,0.60095656,0.72238797) (0.60095656,0.60095656,0.60377768)
(0.60095656,0.60095656,0.66994462) (0.60095656,0.60095656,0.67117179) (0.88368311,0.94700565,0.62186260) (0.60095656,0.60095656,0.67616516) (0.60095656,0.60095656,0.74741291) (0.60095656,0.60095656,0.61502659)
(0.60095656,0.60095656,0.98107388) (0.60095656,0.60095656,0.67887464) (0.88278758,0.94682017,0.60877089) (0.60095656,0.60095656,0.90427937) (0.60095656,0.60095656,0.98556023) (0.60095656,0.60095656,0.65630754)
(0.60095656,0.60095656,0.99693591) (0.60095656,0.60095656,0.84214339) (0.88268905,0.94697181,0.60262547) (0.60095656,0.60095656,0.98756317) (0.60095656,0.60095656,0.99207896) (0.60095656,0.60095656,0.63276005)
(0.60095656,0.60095656,0.99966362) (1.00000000,1.00000000,0.87696569) (0.66702635,0.60095656,0.62302181) (0.60095656,0.60095656,0.99999045) (0.60095656,0.60095656,0.91588654) (0.60095656,0.60095656,0.72897770)
(0.60095656,0.60095656,0.98676224) (0.60095656,0.60095656,0.99546217) (0.89969351,0.94730533,0.70632791) (0.60095656,0.60095656,0.92958102) (0.60095656,0.60095656,0.98910507) (0.60095656,0.60095656,0.67169627)
(0.60095656,0.60095656,0.89079013) (0.60095656,0.60095656,0.67164864) (0.79942596,0.60095656,0.76033670) (0.60095656,0.60095656,0.81689409) (0.60095656,0.60095656,0.98863005) (1.00000000,1.00000000,0.87490361)
(0.60095656,0.60095656,0.70041021) (0.60095656,0.60095656,0.71207185) (0.92121321,0.94748608,0.72334395) (0.60095656,0.60095656,0.71163576) (0.60095656,0.60095656,0.71302505) (0.60095656,0.60095656,0.81128175)
(0.95192741,0.60095656,0.60118386) (0.60095656,0.60095656,0.88183531) (0.60118211,0.94793558,0.79607835) (1.00000000,0.60095656,0.60202937) (0.60095656,0.60095656,0.73572129) (1.00000000,1.00000000,0.98180984)
(0.95255016,0.99367170,0.62399551) (0.60095656,0.60095656,0.60178346) (0.60101297,0.60095656,0.70627271) (0.60095656,0.60095656,0.70526651) (0.60095656,0.60095656,0.82758093) (1.00000000,1.00000000,0.88905459)
(0.60095656,0.60095656,0.68562054) (0.60095656,0.60095656,0.63380458) (0.78180058,0.94836578,0.73242098) (0.60095656,0.60095656,0.60793686) (0.60095656,0.60095656,0.69286971) (1.00000000,1.00000000,0.88346360)
(0.90325879,0.60095656,0.70426492) (0.60095656,0.60095656,0.77924408) (0.68909536,0.94859142,0.65969563) (0.60095656,0.60095656,0.78750198) (0.60095656,0.60095656,0.61248248) (0.60095656,0.60095656,0.70740203)
(0.60095656,0.60095656,0.63479774) (0.60095656,0.60095656,0.60848972) (0.93329331,0.94882351,0.68111592) (0.60095656,0.60095656,0.60971214) (0.60095656,0.60095656,0.60433141) (0.60095656,0.60095656,0.71022533)
(0.99190135,0.99177602,0.78946378) (0.60095656,0.60095656,0.62775407) (0.60276622,0.60095656,0.73967678) (0.60095656,0.60095656,0.60419623) (0.60095656,0.60095656,0.86949483) (0.60095656,0.60095656,0.75016701)
(0.99516924,0.99058736,0.64954793) (0.60095656,0.60095656,0.96499131) (0.61263075,0.60095656,0.81125128) (0.60095656,0.60095656,0.81700606) (0.60095656,0.60095656,0.78790863) (0.60095656,0.60095656,0.99937462)
(0.99158120,0.98931672,0.60111750) (0.60095656,0.60095656,0.64854613) (0.61398576,0.60095656,0.67901972) (0.60095656,0.60095656,0.73538788) (0.60095656,0.60095656,0.69783072) (0.99819329,1.00000000,0.91804341)
(0.60095656,0.60095656,0.60917478) (0.60095656,0.60095656,0.90627281) (0.64312682,0.60095656,0.79346861) (0.60095656,0.60095656,0.61244857) (0.60095656,0.60095656,0.79338819) (0.60095656,0.60095656,0.62188747)
(0.60095656,0.60095656,0.62481136) (0.60095656,0.60095656,0.60115689) (0.64314597,0.60095656,0.96478899) (0.60095656,0.60095656,0.70349609) (0.60095656,0.60095656,0.99476235) (0.60095656,0.60095656,0.73673014)
(0.60095656,0.60095656,0.60168231) (0.60095656,0.60095656,0.75988291) (0.64365304,0.60095656,0.89845751) (0.60095656,0.60095656,0.90725900) (0.60095656,0.60095656,0.94977171) (0.60095656,0.60095656,0.74642865)
(0.99700446,0.98984546,0.61246768) (0.60095656,0.60095656,0.81177845) (0.64384182,0.60095656,0.86504852) (0.60095656,0.60095656,0.98724335) (0.60095656,0.60095656,0.92971570) (0.60095656,0.60095656,0.68112629)
(0.99700382,0.99007568,0.69308009) (0.60095656,0.60095656,0.63966824) (0.64413854,0.60095656,0.87468903) (0.60095656,0.60095656,0.61312818) (0.60095656,0.60095656,0.98198933) (0.60095656,0.60095656,0.61618119)
(0.99706307,0.98888212,0.95323535) (0.60095656,0.60095656,0.64726016) (0.64445190,0.60095656,0.87962583) (0.60095656,0.60095656,0.61642018) (0.60095656,0.60095656,0.62611779) (0.60095656,0.60095656,0.60095667)
(0.99712151,0.98767241,0.90806169) (0.60095656,0.60095656,0.77153890) (0.64469499,0.60095656,0.88934552) (0.60095656,0.60095656,0.70841048) (0.60095656,0.60095656,0.60583160) (0.60095656,0.60095656,0.62406098)
(0.99673330,0.98645346,0.87244259) (0.60095656,0.60095656,0.77220509) (0.64487899,0.60095656,0.86210318) (0.60095656,0.60095656,0.69306968) (0.60095656,0.60095656,0.74083155) (0.60095656,0.60095656,0.84954108)
(0.60095656,0.60095656,0.62720222) (0.60095656,0.60095656,0.68560317) (0.64455187,0.60095656,0.74895439) (0.60095656,0.60095656,0.79775877) (0.60095656,0.60095656,0.99050076) (0.60095656,0.60095656,0.71669611)
(0.60095656,0.60095656,0.81382131) (0.60095656,0.60095656,0.85353943) (0.64720099,0.60095656,0.78705256) (0.60095656,0.60095656,0.95555086) (0.60095656,0.60095656,0.99503362) (0.60095656,0.60095656,0.76991169)
(0.60095656,0.60095656,0.86909684) (0.60095656,0.60095656,0.72984337) (0.64990805,0.60095656,0.81882263) (0.60095656,0.60095656,0.87934985) (0.60095656,0.60095656,0.80250440) (0.60095656,0.60095656,0.85468856)
(0.60095656,0.60095656,0.60098918) (0.60095656,0.60095656,0.60634868) (0.65741950,0.60095656,0.79466643) (0.60095656,0.60095656,0.65837200) (0.60095656,0.60095656,0.88337651) (0.60095656,0.60095656,0.78784782)
(0.99753085,0.98865739,0.95620080) (0.60095656,0.60095656,0.60788012) (0.64990805,0.60095656,0.95224048) (0.60095656,0.60095656,0.61809957) (0.60095656,0.60095656,0.99975590) (0.60095656,0.60095656,0.84907464)
(0.99704072,0.60095656,0.96183271) (0.60095656,0.60095656,0.62014712) (0.63871414,0.94905581,0.97626654) (0.60095656,0.60095656,0.61057482) (0.60095656,0.60095656,0.73473317) (0.60095656,0.60095656,0.80416971)
(0.98872739,0.98912102,0.84740896) (0.60095656,0.60095656,0.63509555) (0.60221881,0.60095656,0.97833160) (0.60095656,0.60095656,0.60095656) (0.60095656,0.60095656,0.65015669) (0.60095656,0.60095656,0.82085731)
(0.99771235,0.98934593,0.92973875) (0.60095656,0.60095656,0.92911040) (0.64660944,0.60095656,0.89733771) (0.60095656,0.60095656,0.81825520) (0.60095656,0.60095656,0.62158623) (0.60095656,0.60095656,0.84712690)
(0.60095656,0.60095656,0.99997274) (0.60095656,0.60095656,0.99912735) (0.64380873,0.60095656,0.85496307) (0.60095656,0.60095656,0.99578438) (0.60095656,0.60095656,0.60104171) (0.60095656,0.60095656,0.90121179)
(0.99684439,0.98707257,0.97873138) (0.60095656,0.60095656,0.96956615) (0.64385739,0.60095656,0.84876094) (0.60095656,0.60095656,0.83660640) (0.60095656,0.60095656,0.60104355) (0.60095656,0.60095656,0.84428226)
(0.60095656,0.60095656,0.92603153) (0.60095656,0.60095656,0.98751522) (0.64397229,0.60095656,0.93346782) (0.60095656,0.60095656,0.80656750) (0.60095656,0.60095656,0.64041275) (0.60095656,0.60095656,0.86719409)
(0.60095656,0.60095656,0.75946603) (0.60095656,0.60095656,0.98261586) (0.93593894,0.94880533,0.96846081) (0.60095656,0.60095656,0.60598406) (0.60095656,0.60095656,0.91329532) (0.60095656,0.60095656,0.82291321)
(0.87723083,0.60095656,0.74447528) (0.60095656,0.60095656,0.85032360) (0.69201331,0.94853248,0.98055810) (0.60095656,0.60095656,0.88958474) (0.60095656,0.60095656,0.99104013) (0.60095656,0.60095656,0.78399285)
(0.60095656,0.60095656,0.91489944) (0.60095656,0.60095656,0.87667114) (0.93723441,0.94809542,0.93410196) (0.60095656,0.60095656,0.93424909) (0.60095656,0.60095656,0.81608929) (0.60095656,0.60095656,0.80968546)
(0.60095656,0.60095656,0.99722258) (0.60095656,0.60095656,0.99616011) (0.93887089,0.94853248,0.95255848) (0.60095656,0.60095656,0.99076924) (0.60095656,0.60095656,0.90783423) (0.60095656,0.60095656,0.80795758)
(0.76055913,0.98667694,0.99984892) (0.60095656,0.60095656,0.99789776) (0.78954811,0.60095656,0.90359710) (0.60095656,0.60095656,0.99563037) (0.60095656,0.60095656,0.94925629) (0.60095656,0.60095656,0.77160583)
(0.60095656,0.60095656,0.99999202) (0.60095656,0.60095656,0.98209272) (0.93924785,0.94892933,0.64577207) (0.60095656,0.60095656,0.92617334) (0.60095656,0.60095656,0.88322470) (0.60095656,0.60095656,0.76508902)
(0.60095656,0.60095656,0.99251248) (0.60095656,0.60095656,0.63187290) (0.94000547,0.94865507,0.66503989) (0.60095656,0.60095656,0.64070155) (0.60095656,0.60095656,0.61941954) (0.60095656,0.60095656,0.75521881)
(0.60095656,0.60095656,0.98946413) (0.60095656,0.60095656,0.61003768) (0.94072877,0.94839775,0.70221270) (0.60095656,0.60095656,0.60242273) (0.60095656,0.60095656,0.78792409) (0.60095656,0.60095656,0.60225179)
(0.98385347,0.98630034,0.77633655) (0.60095656,0.60095656,0.70432671) (0.61384151,0.60095656,0.73710738) (0.60095656,0.60095656,0.83469023) (0.60095656,0.60095656,0.80326790) (0.99981640,1.00000000,0.87197795)
(0.98982177,0.98520834,0.65001356) (0.60095656,0.60095656,0.81718453) (0.63129155,0.60095656,0.72838798) (0.60095656,0.60095656,0.91129936) (0.60095656,0.60095656,0.88408401) (0.99689088,0.60865519,0.96026752)
(0.97505433,0.60095656,0.60103154) (0.60095656,0.60095656,0.60111545) (0.60765552,0.94851657,0.71237431) (0.60095656,0.60095656,0.73751763) (0.60095656,0.60095656,0.63211605) (0.99999939,1.00000000,0.90628943)
(0.60095656,0.60095656,0.60545815) (0.60095656,0.60095656,0.60445859) (0.94236976,0.94870311,0.72402179) (0.60095656,0.60095656,0.66997653) (0.60095656,0.60095656,0.73504556) (0.60095656,0.60095656,0.72560599)
(0.74816686,0.60095656,0.60151917) (0.60095656,0.60095656,0.64724554) (0.79232298,0.94827350,0.68831609) (0.60095656,0.60095656,0.63309886) (0.60095656,0.60095656,0.92248603) (0.60095656,0.60095656,0.79167262)
(0.60095656,0.60095656,0.61249464) (0.60095656,0.60095656,0.60435123) (0.64666077,0.94870310,0.69372002) (0.60095656,0.60095656,0.70652310) (0.60095656,0.60095656,0.92612736) (1.00000000,1.00000000,0.97946515)
(0.60095656,0.60095656,0.71014237) (0.60095656,0.60095656,0.60251799) (0.94368502,0.94889377,0.72013181) (0.60095656,0.60095656,0.74969608) (0.60095656,0.60095656,0.65149098) (0.60095656,0.60095656,0.75808075)
(0.60095656,0.60095656,0.60697979) (0.60095656,0.60095656,0.96503745) (0.94407206,0.94908836,0.74269024) (0.60095656,0.60095656,0.95527630) (0.60095656,0.60095656,0.60207126) (0.60095656,0.60095656,0.99965360)
(0.60095656,0.60095656,0.60674495) (0.60095656,0.60095656,0.60180817) (0.79639543,0.60095656,0.75180609) (0.60095656,0.60095656,0.60423888) (0.60095656,0.60095656,0.63402511) (1.00000000,1.00000000,0.86336987)
(0.60095656,0.60095656,0.60991574) (0.60095656,0.60095656,0.61129923) (0.94388636,0.94856655,0.73332544) (0.60095656,0.60095656,0.60710647) (0.60095656,0.60095656,0.73891501) (0.60095656,0.60095656,0.80888212)
(0.60095656,0.60095656,0.83433285) (1.00000000,1.00000000,0.98510201) (0.63021348,0.60095656,0.74697813) (0.60095656,0.60095656,0.65982431) (1.00000000,1.00000000,1.00000000) (0.60095656,0.60095656,0.60104600)
(0.60095656,0.60095656,0.71597584) (0.60095656,0.60095656,0.99728410) (0.94122879,0.94850211,0.65345437) (0.60095656,0.60095656,0.67640027) (0.60095656,0.60095656,0.63007107) (0.60095656,0.60095656,0.77588930)
(0.60095656,0.60095656,0.89377232) (0.60095656,0.60095656,0.93130860) (0.94346203,0.94867991,0.60617856) (0.60095656,0.60095656,0.89634228) (0.60095656,0.60095656,0.88744246) (0.60095656,0.60095656,0.78736366)
(0.60095656,0.60095656,0.64063010) (0.60095656,0.60095656,0.79416407) (0.61825022,0.94886150,0.67808395) (1.00000000,0.60095656,0.98026960) (0.60095656,0.60095656,0.98047276) (0.60095656,0.60095656,0.80309371)
(0.60095656,0.60095656,0.73128038) (0.60095656,0.60095656,0.84501989) (0.66237715,0.60095656,0.72245522) (0.60095656,0.60095656,0.60353567) (0.60095656,0.60095656,0.84064989) (0.60095656,0.60095656,0.76413020)
(0.99289613,0.97736426,0.91383718) (0.60095656,0.60095656,0.97165136) (0.66673883,0.60095656,0.67253529) (0.60095656,0.60095656,0.77506626) (0.60095656,0.60095656,0.79481126) (0.60095656,0.60095656,0.70287079)
(0.96826529,0.97527403,0.75765104) (0.60095656,0.60095656,0.98653534) (0.60298543,0.60098550,0.67266177) (0.60095656,0.60095656,0.88031417) (0.60095656,0.60095656,0.94165746) (0.60095656,0.60095656,0.63892967)
(0.60095656,0.60095656,0.60566518) (0.60095656,0.60095656,0.69706355) (0.82278303,0.60095656,0.65864659) (0.60095656,0.60095656,0.68916005) (0.60095656,0.60095656,0.63679278) (1.00000000,1.00000000,0.74192382)
(0.98925326,0.97356343,0.81131443) (0.60095656,0.60095656,0.60337784) (0.65880597,0.60095656,0.67780045) (0.60095656,0.60095656,0.92709726) (0.60095656,0.60095656,0.64611405) (0.68631619,0.60095656,0.77692336)
(0.98282888,0.60095656,0.78852258) (0.60095656,0.60095656,0.95067405) (0.64766138,0.94845467,0.70782339) (0.60095656,0.60095656,0.98921041) (0.60095656,0.60095656,0.92757516) (0.99887430,0.60095656,0.97920752)
(0.60095656,0.60095656,0.61390094) (0.60095656,0.60095656,0.75686124) (0.93426341,0.94845467,0.67979313) (0.60095656,0.60095656,0.85941655) (0.60095656,0.60095656,0.90541482) (0.60095656,0.60095656,0.71469383)
(0.91936966,0.60095656,0.85885091) (0.60095656,0.60095656,0.95936651) (0.61158733,0.94845467,0.62001020) (0.60095656,0.60095656,0.67538821) (0.60095656,0.60095656,0.77082899) (0.60095656,0.60095656,0.65000459)
(0.77439033,0.60095656,0.98206783) (0.60095656,0.60095656,0.97050252) (0.73408239,0.94845467,0.62016224) (0.60095656,0.60095656,0.89892823) (0.60095656,0.60095656,0.70995959) (0.60095656,0.60095656,0.76724592)
(0.60095656,0.60095656,0.87928162) (0.60095656,0.60095656,0.85630348) (0.93481980,0.94845467,0.62111850) (0.60095656,0.60095656,0.88209373) (0.60095656,0.60095656,0.69882055) (0.60095656,0.60095656,0.70965449)
(0.72817203,0.96641254,0.60320219) (0.60095656,0.60095656,0.69612278) (0.78643947,0.60095656,0.67238229) (0.60095656,0.60095656,0.91188564) (0.60095656,0.60095656,0.60392179) (0.60095656,0.60095656,0.64772638)
(0.60095656,0.60095656,0.63617260) (0.60095656,0.60095656,0.62967546) (0.94680843,0.94887588,0.71554452) (0.60095656,0.60095656,0.69607470) (0.60095656,0.60095656,0.60101422) (0.60095656,0.60095656,0.94995723)
(0.60095656,0.60095656,0.60894254) (0.60095656,0.60095656,0.60097154) (0.76256524,0.60095656,0.74909295) (0.60095656,0.60095656,0.69863607) (0.60095656,0.60095656,0.69094810) (1.00000000,1.00000000,0.87436170)
(0.60095656,0.60095656,0.63572501) (0.60095656,0.60095656,0.82876262) (0.60373441,0.94887593,0.74802952) (0.60095656,0.60095656,0.76594878) (1.00000000,0.60095656,0.81520690) (1.00000000,1.00000000,0.84142410)
(0.60095656,0.60095656,0.63611968) (0.60095656,0.60095656,0.91605351) (0.95497728,0.94887593,0.62424945) (0.60095656,0.60095656,0.62967099) (0.60095656,0.60095656,0.84085098) (0.60095656,0.60095656,0.66753602)
(0.60095656,0.60095656,0.67029351) (0.60095656,0.60095656,0.85064324) (0.95503376,0.94887593,0.60118294) (0.60095656,0.60095656,0.76986838) (0.60095656,0.60095656,0.66843858) (0.60095656,0.60095656,0.60184716)
(0.60095656,0.60095656,0.83785774) (0.60095656,0.60095656,0.89363526) (0.95844185,0.94887593,0.63015053) (0.60095656,0.60095656,0.87715909) (0.60095656,0.60095656,0.69863366) (0.60095656,0.60095656,0.60481543)
(0.60095656,0.60095656,0.95238163) (0.60095656,0.60095656,0.62102208) (0.95945185,0.94933077,0.63149459) (0.60095656,0.60095656,0.96308760) (0.60095656,0.60095656,0.95651954) (0.60095656,0.60095656,0.60460607)
(0.60095656,0.60095656,0.99716384) (0.60095656,0.60095656,0.89502266) (0.96046170,0.94981918,0.61023313) (0.60095656,0.60095656,0.99925789) (0.60095656,0.60095656,0.92059784) (0.60095656,0.60095656,0.60120249)
(0.60095656,0.60095656,0.99275052) (0.60095656,0.60095656,0.99132274) (0.96223025,0.95034113,0.64777449) (0.60095656,0.60095656,0.99902262) (0.60095656,0.60095656,0.60099508) (0.60095656,0.60095656,0.65346361)
(0.60095656,0.60095656,0.86618857) (0.60095656,0.60095656,0.61173617) (0.96463751,0.95089653,0.71708903) (0.60095656,0.60095656,0.64981444) (0.60095656,0.60095656,0.85100981) (0.60095656,0.60095656,0.96268335)
(0.91582669,0.96111776,0.77589714) (0.60095656,0.60095656,0.63468965) (0.60620807,0.60095656,0.68762796) (0.60095656,0.60095656,0.61468574) (0.60095656,0.60095656,0.63221901) (1.00000000,0.60095656,0.73153177)
(0.95655704,0.60095656,0.94633801) (0.60095656,0.60095656,0.98642466) (0.60854396,0.95089653,0.69608465) (0.60095656,0.60095656,0.83907729) (0.60095656,0.60095656,0.97400220) (1.00000000,1.00000000,0.71262278)
(0.60095656,0.60095656,0.74669009) (0.60095656,0.60095656,0.83980390) (0.96708209,0.95089653,0.95892809) (0.60095656,0.60095656,0.92232234) (0.60095656,0.60095656,0.60096437) (0.60095656,0.60095656,0.83535014)
(0.60095656,0.60095656,0.78874993) (0.60095656,0.60095656,0.60937407) (0.62763495,0.60095656,0.97586458) (0.60095656,0.60095656,0.61340939) (0.60095656,0.60095656,0.62409532) (0.60095656,0.60095656,0.87341834)
(0.60095656,0.60095656,0.86910457) (0.60095656,0.60095656,0.63294216) (0.62681202,0.60095656,0.98701130) (0.60095656,0.60095656,0.91027279) (0.60095656,0.60095656,0.71184831) (0.60095656,0.60095656,0.90823248)
(0.60140447,0.60095656,0.93665402) (0.60095656,0.60095656,0.78830607) (0.62473147,0.60095656,0.95009171) (0.60095656,0.60095656,0.97038367) (0.60095656,0.60095656,0.85857109) (0.60095656,0.60095656,0.79587215)
(0.95210109,0.95573449,0.87688713) (0.60095656,0.60095656,0.67043408) (0.62286519,0.60095656,0.92008882) (0.60095656,0.60095656,0.93306974) (0.60095656,0.60095656,0.60279276) (0.60095656,0.60095656,0.74786329)
(0.90569964,0.95494756,0.60216311) (0.60095656,0.60095656,0.69168831) (0.62252448,0.60095656,0.92951897) (0.60095656,0.60095656,0.60399399) (0.60095656,0.60095656,0.95666161) (0.60095656,0.60095656,0.72613891)
(0.68753899,0.60095656,0.97715287) (0.60095656,0.60095656,0.98976436) (0.62286519,0.60095656,0.91579174) (0.60095656,0.60095656,0.76126291) (0.60095656,0.60095656,0.60600075) (0.60095656,0.60095656,0.93310989)
(0.70966503,0.60095656,0.75618590) (0.60095656,0.60095656,0.60123634) (0.62290127,0.60095656,0.71917571) (0.60095656,0.60095656,0.74699175) (0.60095656,0.60095656,0.99597335) (0.60095656,0.60095656,0.95110581)
(0.70966503,0.60095656,0.92258088) (0.60095656,0.60095656,0.71244649) (0.62477077,0.60095656,0.80245870) (0.60095656,0.60095656,0.74825282) (0.60095656,0.60095656,0.89494436) (0.60095656,0.60095656,0.97401995)
(0.70966503,0.60095656,0.79861850) (0.60095656,0.60095656,0.62205221) (0.62477077,0.60095656,0.92504771) (0.60095656,0.60095656,0.85288493) (0.60095656,0.60095656,0.81643042) (0.60095656,0.60095656,0.92825098)
(0.70966503,0.60095656,0.63322702) (0.60095656,0.60095656,0.65442631) (0.62290127,0.60095656,0.92541394) (0.60095656,0.60095656,0.95672319) (0.60095656,0.60095656,0.70002771) (0.60095656,0.60095656,0.89010849)
(0.68713868,0.60095656,0.75066358) (0.60095656,0.60095656,0.74215391) (0.62471941,0.60095656,0.83312755) (0.60095656,0.60095656,0.63064947) (0.60095656,0.60095656,0.85392990) (0.60095656,0.60095656,0.72058605)
(0.68713868,0.60095656,0.87407716) (0.60095656,0.60095656,0.92152046) (0.62285416,0.60095656,0.73632016) (0.60095656,0.60095656,0.67036889) (0.60095656,0.60095656,0.63970564) (0.60095656,0.60095656,0.69470705)
(0.90498486,0.95573449,0.84422675) (0.60095656,0.60095656,0.93353587) (0.62211895,0.60095656,0.75021153) (0.60095656,0.60095656,0.81321044) (0.60095656,0.60095656,0.62204588) (0.60095656,0.60095656,0.64673450)
(0.64754167,0.95573449,0.71402019) (0.60095656,0.60095656,0.89979832) (0.75757626,0.60095656,0.80575927) (0.60095656,0.60095656,0.97604026) (0.60095656,0.60095656,0.94945818) (0.60095656,0.60095656,0.84882267)
(0.68713868,0.60095656,0.77263247) (0.60095656,0.60095656,0.60097839) (0.91186404,0.95345077,0.73110357) (1.00000000,0.60095656,0.81501666) (0.60095656,0.60095656,0.85007314) (0.60095656,0.60095656,0.70633846)
(0.68713868,0.60095656,0.98228299) (0.60095656,0.60095656,0.69850998) (0.97503846,0.95417182,0.79939183) (0.60095656,0.60095656,0.99988474) (0.60095656,0.60095656,0.79619632) (0.60095656,0.60095656,0.71931188)
(0.90498486,0.95573449,0.98219613) (0.60095656,0.60095656,0.80707011) (0.62130440,0.60095656,0.85793423) (0.60095656,0.60095656,0.92086507) (0.60095656,0.60095656,0.98810657) (0.60095656,0.60095656,0.84532564)
(0.68713868,0.60095656,0.92768287) (0.60095656,0.60095656,0.71961695) (0.61774126,0.60095656,0.86413234) (0.60095656,0.60095656,0.85271956) (0.60095656,0.60095656,0.94545070) (0.60095656,0.60095656,0.85315674)
(0.62412961,0.60095656,0.63555234) (0.60095656,0.60095656,0.66488977) (0.61443259,0.60095656,0.95178921) (0.60095656,0.60095656,0.98383467) (0.60095656,0.60095656,0.67875507) (0.60095656,0.60095656,0.75548034)
(0.60139303,0.60095656,0.62574748) (0.60095656,0.60095656,0.67334954) (0.84504396,0.95571058,0.88368818) (0.60095656,0.60095656,0.94818439) (1.00000000,0.60095662,0.65934549) (0.60095656,0.60095656,0.88077878)
(0.62384704,0.60095656,0.63539565) (0.60095656,0.60095656,0.91916333) (0.98218252,0.95652882,0.76411156) (0.60095656,0.60095656,0.90098118) (0.60095656,0.60095656,0.99798138) (0.60095656,0.60095656,0.81705705)
(0.62384704,0.60095656,0.60723355) (0.60095656,0.60095656,0.63101919) (0.61373499,0.60095656,0.84148852) (0.60095656,0.60095656,0.72220290) (0.60095656,0.60095656,0.77423874) (0.60095656,0.60095656,0.81221329)
(0.62384704,0.60095656,0.60521764) (0.60095656,0.60095656,0.72133993) (0.61377767,0.60095656,0.95253133) (0.60095656,0.60095656,0.60175323) (0.60095656,0.60095656,0.60352795) (0.60095656,0.60095656,0.92481160)
(0.62384704,0.60095656,0.60422432) (1.00000000,1.00000000,1.00000000) (0.61301654,0.60095656,0.87673756) (0.60095656,0.60095656,0.99994290) (0.60095656,0.60095656,0.95564137) (0.60095656,0.60095656,0.99711711)
(0.61328354,0.95655168,0.67539850) (1.00000000,0.60095656,1.00000000) (0.61375520,0.60095656,0.78993466) (0.60095656,0.60095656,1.00000000) (0.60095656,0.60095656,0.99325704) (0.60095656,0.60095656,0.99925422)
(0.68566692,0.60095656,0.61190941) (0.60095656,0.60095656,0.66956601) (0.61299547,0.60095656,0.81653993) (0.60095656,0.60095656,0.67027292) (0.60095656,0.60095656,0.63276343) (0.60095656,0.60095656,0.70154726)
(0.70727543,0.60095656,0.60449627) (0.60095656,0.60095656,0.80174826) (0.61056856,0.60095656,0.82231604) (0.60095656,0.60095656,0.60302720) (0.60095656,0.60095656,0.61058973) (0.60095656,0.60095656,0.66630553)
(0.70727543,0.60095656,0.60146731) (0.60095656,0.60095656,0.89290178) (0.61056856,0.60095656,0.91277143) (0.60095656,0.60095656,0.60556477) (0.60095656,0.60095656,0.73315240) (0.60095656,0.60095656,0.65714745)
(0.68489654,0.60095656,0.69843082) (0.60095656,0.60095656,0.95529554) (0.60913476,0.60095656,0.90507951) (0.60095656,0.60095656,0.75207674) (0.60095656,0.60095656,0.72191538) (0.60095656,0.60095656,0.65498123)
(0.94720674,0.95573264,0.88583091) (0.60095656,0.60095656,0.97205975) (0.60857923,0.60095656,0.93833773) (0.60095656,0.60095656,0.90118520) (0.60095656,0.60095656,0.89498744) (0.60095656,0.60095656,0.72426852)
(0.81214873,0.95573264,0.96314350) (0.60095656,0.60095656,0.99970059) (0.70115781,0.60095656,0.85640952) (0.60095656,0.60095656,0.66915251) (0.60095656,0.60095656,0.60591522) (0.60095656,0.60095656,0.69886846)
(0.60137827,0.60095656,0.99942106) (0.60095656,0.60095656,0.99990194) (0.98740259,0.96108908,0.65255531) (0.60095656,0.60095656,0.63894522) (0.60095656,0.60095656,0.64278366) (0.60095656,0.60095656,0.62137584)
(0.94563705,0.95573264,0.99986273) (0.60095656,0.60095656,0.60467233) (0.60743267,0.60095656,0.87214953) (0.60095656,0.60095656,0.77750246) (0.60095656,0.60095656,0.98332739) (0.60095656,0.60095656,0.68656807)
(0.96826509,0.95655168,0.99938376) (0.60095656,0.60095656,0.80021153) (0.60452111,0.60095656,0.88826171) (0.60095656,0.60095656,0.97024338) (0.60095656,0.60095656,0.81891417) (1.00000000,1.00000000,0.66002039)
(0.96863062,0.95740252,0.99956814) (0.60095656,0.60095656,0.95386210) (0.60486011,0.60095656,0.87744168) (0.60095656,0.60095656,0.99775286) (0.60095656,0.60095656,0.62140492) (1.00000000,1.00000000,0.90476115)
(0.96878030,0.60095656,0.99869962) (0.60095656,0.60095656,0.99892575) (0.60378485,0.60095656,0.87204155) (1.00000000,1.00000000,0.87172100) (0.60095656,0.60095656,0.60098321) (1.00000000,1.00000000,0.91220702)
(0.90300240,0.60095656,0.88276440) (0.60095656,0.60095656,0.88084213) (0.61257719,0.60095656,0.85307126) (0.60095656,0.60095656,0.60350024) (0.60095656,0.60095656,0.73827984) (1.00000000,1.00000000,0.81395570)
(0.60095656,0.60095656,0.82133560) (0.60095656,0.60095656,0.63065461) (0.90807552,0.96108908,0.84914184) (0.60095656,0.60095656,0.73421058) (0.60095656,0.60095656,0.64359648) (1.00000000,1.00000000,0.60114570)
(0.80045852,0.60095656,0.72199626) (0.60095656,0.60095656,0.69854212) (0.81631626,0.96108908,0.83683956) (0.60095656,0.60095656,0.77867787) (0.60095656,0.60095656,0.67350828) (0.60095656,0.60095656,0.93613710)
(0.74487739,0.95919568,0.68094915) (0.60095656,0.60095656,0.79928426) (0.74949076,0.60095656,0.84542106) (1.00000000,0.60095656,0.72221883) (0.60095656,0.60095656,0.96994100) (0.60095656,0.60095656,0.85830648)
(0.74590573,0.96013952,0.86858794) (0.60095656,0.60095656,0.63252625) (0.86820381,0.60095656,0.86133242) (0.60095656,0.60095656,0.78526656) (0.60095656,0.60095656,0.61370247) (0.60095656,0.60095656,0.99990477)
(0.95193560,0.96111337,0.69347126) (0.60095656,0.60095656,0.96999037) (0.60937348,0.60095656,0.90892417) (0.60095656,0.60095656,0.68347511) (0.60095656,0.60095656,0.73683491) (0.60095656,0.60095656,0.90544697)
(0.60095656,0.60095656,0.60132339) (0.60095656,0.60095656,0.60340607) (0.98508249,0.95917288,0.83907102) (0.60095656,0.60095656,0.62595627) (0.60095656,0.60095656,0.63443300) (0.60095656,0.60095656,0.97044551)
(0.60095656,0.60095656,0.60580462) (0.60095656,0.60095656,0.74182933) (0.98512129,0.95826035,0.82240889) (0.60095656,0.60095656,0.66883959) (0.60095656,0.60095656,0.85976368) (0.60095656,0.60095656,0.63355841)
(0.60095656,0.60095656,0.62332882) (0.60095656,0.60095656,0.96162329) (0.98512129,0.95826035,0.72020692) (0.60095656,0.60095656,0.69619748) (0.60095656,0.60095656,0.60801528) (0.60095656,0.60095656,0.68471196)
(0.60095656,0.60095656,0.64782563) (0.60095656,0.60095656,0.87803642) (0.98512129,0.95826035,0.61342380) (0.60095656,0.60095656,0.60212095) (0.60095656,0.60095656,0.60640144) (0.60095656,0.60095656,0.73039563)
(0.60095656,0.60095656,0.63395520) (0.60095656,0.60095656,0.60194991) (0.60737173,0.60095656,0.61911423) (0.60095656,0.60095656,0.64592376) (0.60095656,0.60095656,0.62938917) (0.60095656,0.60095656,0.66287414)
(0.60095656,0.60095656,0.67328235) (0.60095656,0.60095656,0.60746164) (0.60737173,0.60095656,0.61796580) (0.60095656,0.60095656,0.67352139) (0.60095656,0.60095656,0.84602893) (0.60095656,0.60095656,0.61791048)
(0.60095656,0.60095656,0.79321693) (0.60095656,0.60095656,0.64377997) (0.60737173,0.60095656,0.69449506) (0.60095656,0.60095656,0.98324247) (0.60095656,0.60095656,0.99630187) (0.60095656,0.60095656,0.60898568)
(0.60095656,0.60095656,0.80423874) (0.60095656,0.60095656,0.67635264) (0.98391342,0.95826035,0.86703513) (0.60095656,0.60095656,0.85327730) (0.60095656,0.60095656,0.97736145) (0.60095656,0.60095656,0.96096233)
(0.96589350,0.96529521,0.79716793) (0.60095656,0.60095656,0.71957978) (0.60192144,0.60095656,0.88925797) (0.60095656,0.60095656,0.76808333) (0.60095656,0.60095656,0.80699210) (0.60095656,0.60095656,0.74442868)
(0.97169941,0.96640808,0.91443695) (0.60095656,0.60095656,0.85891877) (0.60335048,0.60095656,0.89405352) (1.00000000,0.60095656,0.60238129) (0.60095656,0.60095656,0.60105626) (1.00000000,0.60095656,0.90717926)
(0.96480528,0.60095656,0.78632667) (0.60095656,0.60095656,0.84103210) (0.60124418,0.95571059,0.89428894) (0.60095656,0.60095656,0.77728692) (0.60095656,0.60095656,0.73768596) (1.00000000,1.00000000,0.97424138)
(0.67055806,0.60095656,0.74706260) (0.60095656,0.60095656,0.60228818) (0.92246101,0.95571059,0.85489974) (0.60095656,0.60095656,0.96786453) (0.60095656,0.60095656,0.90273656) (0.60095656,0.60095656,0.82074887)
(0.88474185,0.60095656,0.95431370) (0.60095656,0.60095656,0.94927644) (0.70632959,0.95571059,0.83499822) (0.60095656,0.60095656,0.72777277) (0.60095656,0.60095656,0.94114834) (0.60095656,0.60095656,0.84415857)
(0.95415845,0.60095656,0.98106281) (0.60095656,0.60095656,0.99419520) (0.61328289,0.95652882,0.81908829) (0.60095656,0.60095656,0.66516637) (0.60095656,0.60095656,0.95243502) (0.60095656,0.60095656,0.78868563)
(0.86732005,0.96754585,0.70687240) (0.60095656,0.60095656,0.86949701) (0.73312136,0.60095656,0.86242829) (0.60095656,0.60095656,0.84865581) (0.60095656,0.60095656,0.63728020) (0.60095656,0.60095656,0.81444254)
(0.97255144,0.96754585,0.65268421) (0.60095656,0.60095656,0.70540980) (0.60095805,0.60095656,0.92175508) (0.60095656,0.60095656,0.73433699) (0.60095656,0.60095656,0.95488321) (0.60095656,0.60095656,0.99995437)
(0.97541545,0.96754578,0.60761137) (0.60095656,0.60095656,0.60166695) (0.60263539,0.60095656,0.87710007) (0.60095656,0.60095656,0.61224023) (0.60095656,0.60095656,0.73256175) (1.00000000,1.00000000,0.98300994)
(0.89699271,0.60095656,0.63589978) (0.60095656,0.60095656,0.67355372) (0.70562980,0.95917288,0.75412579) (0.60095656,0.60095656,0.68026806) (0.60095656,0.60095656,0.61514766) (0.60095656,0.60095656,0.74796588)
(0.81371213,0.60095656,0.89089061) (0.60095656,0.60095656,0.86968185) (0.82065363,0.96011597,0.69620277) (0.60095656,0.60095656,0.69194446) (0.60095656,0.60095656,0.60910718) (0.60095656,0.60095656,0.75650328)
(0.96128885,0.60095656,0.96975643) (0.60095656,0.60095656,0.87084963) (0.61218246,0.96108908,0.61555722) (0.60095656,0.60095656,0.96942346) (0.60095656,0.60095656,0.82282974) (0.60095656,0.60095656,0.67322861)
(0.95746283,0.96870726,0.96648707) (0.60095656,0.60095656,0.97614795) (0.61819485,0.60095656,0.65852243) (0.60095656,0.60095656,0.82907499) (0.60095656,0.60095656,0.76518263) (0.60095656,0.60095656,0.68210579)
(0.97249508,0.96989093,0.92779724) (0.60095656,0.60095656,0.95530000) (0.60251810,0.60095656,0.71535237) (0.60095656,0.60095656,0.71689391) (0.60095656,0.60095656,0.61281278) (0.60095656,0.60095656,0.69558606)
(0.95379964,0.97109529,0.97574008) (0.60095656,0.60095656,0.96760123) (0.62974703,0.60095656,0.66468916) (0.60095656,0.60095656,0.84167836) (0.60095656,0.60095656,0.67018550) (0.60095656,0.60095656,0.66935824)
(0.60095656,0.60095656,0.74260909) (0.60095656,0.60095656,0.75460530) (0.99120566,0.96312282,0.92493599) (0.60095656,0.60095656,0.86155476) (0.60095656,0.60095656,0.90843250) (0.60095656,0.60095656,0.71902411)
(0.81732642,0.97109529,0.64165922) (0.60095656,0.60095656,0.61197575) (0.84336939,0.60095656,0.93461924) (0.60095656,0.60095656,0.80846356) (0.60095656,0.60095656,0.92400636) (0.60095656,0.60095656,0.76550341)
(0.90004815,0.97109529,0.61845981) (0.60095656,0.60095656,0.60461825) (0.70235589,0.60095656,0.86766759) (0.60095656,0.60095656,0.66171085) (0.60095656,0.60095656,0.81779188) (1.00000000,1.00000000,0.90357024)
(0.95040367,0.97109529,0.60178358) (0.60095656,0.60095656,0.74453000) (0.61841620,0.60095656,0.96453539) (0.60095656,0.60095656,0.87410333) (0.60095656,0.60095656,0.68798897) (1.00000000,1.00000000,0.98368007)
(0.90004815,0.60095656,0.76917413) (0.60095656,0.60095656,0.98777677) (0.74051868,0.96751756,0.92109131) (0.60095656,0.60095656,0.60258747) (0.60095656,0.60095656,0.61497908) (0.60095656,0.60095656,0.77817207)
(0.60095656,0.60095656,0.88483602) (0.60095656,0.60095656,0.98000726) (0.99447110,0.96867841,0.73605108) (0.60095656,0.60095656,0.66373864) (0.60095656,0.60095656,0.60974586) (0.60095656,0.60095656,0.72163960)
(0.81684083,0.60095656,0.84917597) (0.60095656,0.60095656,0.92647603) (0.85968823,0.96867841,0.76608074) (0.60095656,0.60095656,0.64802048) (0.60095656,0.60095656,0.60097598) (0.60095656,0.60095656,0.68733805)
(0.90004815,0.97109529,0.60137153) (0.60095656,0.60095656,0.66568842) (0.74941338,0.60095656,0.89285104) (0.60095656,0.60095656,0.63698222) (0.60095656,0.60095656,0.60100457) (0.60095656,0.60095656,0.76829881)
(0.97417350,0.97109529,0.61562034) (0.60095656,0.60095656,0.70303463) (0.60493651,0.60095656,0.90103943) (0.60095656,0.60095656,0.62469544) (0.60095656,0.60095656,0.62247733) (0.60095656,0.60095656,0.72435781)
(0.92526352,0.97109529,0.60293989) (0.60095656,0.60095656,0.68139899) (0.70467309,0.60095656,0.93283327) (0.60095656,0.60095656,0.68324810) (0.60095656,0.60095656,0.60235616) (0.60095656,0.60095656,0.77488902)
(0.60095656,0.60095656,0.75965193) (0.60095656,0.60095656,0.61921217) (0.99676722,0.97228828,0.89699563) (0.60095656,0.60095656,0.97986670) (0.60095656,0.60095656,0.93866380) (0.60095656,0.60095656,0.99463516)
(0.93682185,0.97010927,0.69355286) (0.60095656,0.60095656,0.94323663) (0.68381735,0.60100103,0.86509665) (0.60095656,0.60095656,0.63649689) (0.60095656,0.60095656,0.61481808) (0.60095656,0.60095656,0.64223873)
(0.96959018,0.97109529,0.60096091) (0.60095656,0.60095656,0.73013172) (0.61245612,0.60095656,0.86331272) (0.60095656,0.60095656,0.72383830) (0.60095656,0.60095656,0.60857212) (0.60095656,0.60095656,0.62549886)
(0.98316976,0.97231861,0.72588277) (0.60095656,0.60095656,0.71177124) (0.60135085,0.60095656,0.61488886) (0.60095656,0.60095656,0.77778335) (0.60095656,0.60095656,0.74860448) (0.60095656,0.60095656,0.60371040)
(0.98354680,0.97353714,0.60896101) (0.60095656,0.60095656,0.60410534) (0.60135012,0.60095656,0.60118567) (0.60095656,0.60095656,0.70164455) (0.60095656,0.60095656,0.60426076) (0.60095656,0.60095656,0.60938781)
(0.98354744,0.97353714,0.89776123) (0.60095656,0.60095656,0.88422474) (0.60135735,0.60095656,0.60112883) (0.60095656,0.60095656,0.64177597) (0.60095656,0.60095656,0.68682175) (0.60095656,0.60095656,0.60547227)
(0.98437894,0.97479252,0.99650635) (0.60095656,0.60095656,0.92031764) (0.60135755,0.60095656,0.60293217) (0.60095656,0.60095656,0.68072006) (0.60095656,0.60095656,0.88205206) (0.60095656,0.60095656,0.62049222)
(0.98506430,0.97479252,0.99601907) (0.60095656,0.60095656,0.97172914) (0.60135762,0.60095656,0.65386964) (0.60095656,0.60095656,0.89681055) (0.60095656,0.60095656,0.78390334) (0.60095656,0.60095656,0.63544975)
(0.95926396,0.97479252,0.92155089) (0.60095656,0.60095656,0.63885555) (0.64691699,0.60095656,0.94469664) (0.60095656,0.60095656,0.68040028) (0.60095656,0.60095656,0.70748292) (0.60095656,0.60095656,0.98326477)
(0.98264250,0.97479252,0.64714994) (0.60095656,0.60095656,0.67203503) (0.60097267,0.60095656,0.96664481) (0.60095656,0.60095656,0.64721183) (0.60095656,0.60095656,0.62261567) (0.84840959,0.60095656,0.94505408)
(0.97972641,0.97479252,0.69808279) (0.60095656,0.60095656,0.66884530) (0.60349951,0.60095656,0.95277324) (0.60095656,0.60095656,0.63585240) (0.60095656,0.60095656,0.61582590) (0.60095656,0.60095656,0.87496810)
(0.96920731,0.60095656,0.60209306) (0.60095656,0.60095656,0.70875182) (0.62493194,0.97991043,0.97370038) (0.60095656,0.60095656,0.63850975) (0.60095656,0.60095656,0.61976514) (0.60095656,0.60095656,0.86151194)
(0.96764945,0.60095656,0.91716179) (0.60095656,0.60095656,0.77215563) (0.63101333,0.97991043,0.87355314) (0.60095656,0.60095656,0.89290103) (0.60095656,0.60095656,0.73648849) (0.60095656,0.60095656,0.77969091)
(0.98070763,0.60095656,0.93288490) (0.60095656,0.60095656,0.71873143) (0.60401300,0.98119760,0.86840722) (0.60095656,0.60095656,0.99551269) (0.60095656,0.60095656,0.62484414) (0.60095656,0.60095656,0.74876203)
(0.97646159,0.97606048,0.88129925) (0.60095656,0.60095656,0.66091767) (0.61219759,0.60095656,0.90828793) (0.60095656,0.60095656,0.93718638) (0.60095656,0.60095656,0.81964119) (0.60095656,0.60095656,0.80476858)
(0.97283516,0.97606049,0.65806258) (0.60095656,0.60095656,0.68651783) (0.62104380,0.60095656,0.94820771) (0.60095656,0.60095656,0.72921077) (0.60095656,0.60095656,0.62068836) (0.60095656,0.60095656,0.82071327)
(0.98215984,0.97606049,0.60812605) (0.60095656,0.60095656,0.60846146) (0.60254951,0.60095656,0.96689189) (0.60095656,0.60095656,0.61724014) (0.60095656,0.60095656,0.73639447) (0.60095656,0.60095656,0.97988453)
(0.98339823,0.97606049,0.81688596) (0.60095656,0.60095656,0.66223894) (0.60151924,0.60095656,0.96547197) (0.60095656,0.60095656,0.70330133) (0.60095656,0.60095656,0.66309898) (0.60095656,0.60095656,0.73210384)
(0.98503517,0.97606049,0.62632453) (0.60095656,0.60095656,0.79427104) (0.60096063,0.60095656,0.71611655) (0.60095656,0.60095656,0.63812680) (0.60095656,0.60095656,0.74170335) (0.60095656,0.60095656,0.97186853)
(0.98503628,0.97606049,0.87199825) (0.60095656,0.60095656,0.67298991) (0.60096092,0.60095656,0.61312613) (0.60095656,0.60095656,0.80680173) (0.60095656,0.60095656,0.60937034) (0.60095656,0.60095656,0.75618885)
(0.98503628,0.97606049,0.95177679) (0.60095656,0.60095656,0.62904145) (0.60096125,0.60095656,0.68660088) (0.60095656,0.60095656,0.77774138) (0.60095656,0.60095656,0.68865211) (0.60095656,0.60095656,0.65148604)
(0.98503949,0.97606049,0.96525762) (0.60095656,0.60095656,0.73736699) (0.60096166,0.60095656,0.66659581) (0.60095656,0.60095656,0.81208438) (0.60095656,0.60095656,0.67050025) (0.60095656,0.60095656,0.61551354)
(0.98504083,0.97606919,0.94346392) (0.60095656,0.60095656,0.64479236) (0.60096002,0.60095656,0.64528380) (0.60095656,0.60095656,0.80272842) (0.60095656,0.60095656,0.74148025) (0.60095656,0.60095656,0.65230454)
(0.98448168,0.97734679,0.62853736) (0.60095656,0.60095656,0.61863354) (0.60095888,0.60095656,0.63914623) (0.60095656,0.60095656,0.64420417) (0.60095656,0.60095656,0.77564881) (0.88042670,1.00000000,0.67970669)
(0.98440324,0.97734679,0.99557301) (0.60095656,0.60095656,0.87135960) (0.60095845,0.60095656,0.62888822) (0.60095656,0.60095656,0.86288444) (0.60095656,0.60095656,0.63629873) (0.99614909,1.00000000,0.67062119)
(0.98589597,0.97734679,0.62398705) (0.60095656,0.60095656,0.61277125) (0.60095824,0.60095656,0.64919521) (0.60095656,0.60095656,0.73385565) (0.60095656,0.60095656,0.77784493) (0.60095656,0.60095656,0.66130191)
(0.98589703,0.97734679,0.66083217) (0.60095656,0.60095656,0.61484627) (0.60095824,0.60095656,0.65471663) (0.60095656,0.60095656,0.81887562) (0.60095656,0.60095656,0.74406535) (0.60095656,0.60095656,0.65015285)
(0.98589935,0.97734679,0.74296787) (0.60095656,0.60095656,0.60430156) (0.60095824,0.60095656,0.60196263) (0.60095656,0.60095656,0.76316593) (0.60095656,0.60095656,0.61189095) (0.60095656,0.60095656,0.62212792)
(0.98590179,0.97734679,0.65501782) (0.60095656,0.60095656,0.60355994) (0.60095824,0.60095656,0.60193774) (0.60095656,0.60095656,0.60844867) (0.60095656,0.60095656,0.66416033) (0.60095656,0.60095656,0.63238339)
(0.60095656,0.60095656,0.60118361) (0.60095656,0.60095656,0.61837288) (0.99999209,0.99314057,0.62393446) (0.60095656,0.60095656,0.69789006) (0.60095656,0.60095656,0.60519870) (0.60095656,0.60095656,0.61308740)
(0.98088028,0.60095656,0.72396839) (0.60095656,0.60095656,0.64408533) (0.61934992,0.99314057,0.77246168) (0.60095656,0.60095656,0.64747271) (0.60095656,0.60095656,0.80720787) (0.60095656,0.60095656,0.61722106)
(0.60095656,0.60095656,0.72346594) (0.60095656,0.60095656,0.61432299) (0.99999207,0.99314057,0.83635406) (0.60095656,0.60095656,0.60175054) (0.60095656,0.60095656,0.69209362) (0.60095656,0.60095656,0.64046024)
(0.60095656,0.60095656,0.60213281) (0.60095656,0.60095656,0.60215730) (0.60095912,0.60095656,0.65431633) (0.60095656,0.60095656,0.63030463) (0.60095656,0.60095656,0.62718925) (0.60095656,0.60095656,0.62807097)
(0.60095656,0.60095656,0.62397666) (0.60095656,0.60095656,0.60122978) (0.60095912,0.60095656,0.60631945) (0.60095656,0.60095656,0.62981614) (0.60095656,0.60095656,0.60096382) (0.60095656,0.60095656,0.62768464)
(0.60095656,0.60095656,0.63679556) (0.60095656,0.60095656,0.60662896) (0.99999207,0.99314057,0.61133227) (0.60095656,0.60095656,0.60259674) (0.60095656,0.60095656,0.60378396) (0.60095656,0.60095656,0.65415948)
(0.60095656,0.60095656,0.61240581) (0.60095656,0.60095656,0.60302185) (0.60095912,0.60095656,0.60740463) (0.60095656,0.60095656,0.60254615) (0.60095656,0.60095656,0.64937809) (0.60095656,0.60095656,0.66660378)
(0.60095656,0.60095656,0.60277941) (0.60095656,0.60095656,0.60098587) (0.60095935,0.60095656,0.63029276) (0.60095656,0.60095656,0.60109097) (0.60095656,0.60095656,0.65203024) (0.60095656,0.60095656,0.68288169)
(0.60095656,0.60095656,0.68690933) (0.60095656,0.60095656,0.60300414) (0.60096039,0.60095656,0.60616988) (0.60095656,0.60095656,0.76326767) (0.60095656,0.60095656,0.61464373) (0.60095656,0.60095656,0.61539707)
(0.60095656,0.60095656,0.68227197) (0.60095656,0.60095656,0.63842298) (0.99999204,0.99314057,0.78551741) (0.60095656,0.60095656,0.75568982) (0.60095656,0.60095656,0.71728897) (0.60095656,0.60095656,0.60741339)
(0.60095656,0.60095656,0.72139618) (0.60095656,0.60095656,0.62648604) (0.60096047,0.60095656,0.76652647) (0.60095656,0.60095656,0.74502631) (0.60095656,0.60095656,0.61398786) (0.60095656,0.60095656,0.61364550)
(0.60095660,0.60095656,0.83045498) (0.60095656,0.60095656,0.60116015) (0.60095960,0.60095656,0.67735620) (0.60095656,0.60095656,0.76460996) (0.60095656,0.60095656,0.60437541) (0.60095656,0.60095656,0.61393016)
(0.60095683,0.60095656,0.67918036) (0.60095656,0.60095656,0.61800499) (0.60095993,0.60095656,0.65878293) (0.60095656,0.60095656,0.60655888) (0.60095656,0.60095656,0.73607239) (0.60095656,0.60095656,0.73518662)
(0.60095684,0.60095656,0.60776844) (0.60095656,0.60095656,0.60615740) (0.60095993,0.60095656,0.60350129) (0.60095656,0.60095656,0.60885783) (0.60095656,0.60095656,0.81979291) (0.60095656,0.60095656,0.72939917)
(0.60095709,0.60095656,0.70375523) (0.60095656,0.60095656,0.61196012) (0.60095993,0.60095656,0.78179250) (0.60095656,0.60095656,0.67181691) (0.60095656,0.60095656,0.81248534) (0.60095656,0.60095656,0.66977330)
(0.98965327,0.98377494,0.72180636) (0.60095656,0.60095656,0.60379980) (0.60095993,0.60095656,0.60275616) (0.60095656,0.60095656,0.69793355) (0.60095656,0.60095656,0.71749063) (0.60095656,0.60095656,0.74188335)
(0.60095759,0.60095656,0.69896776) (0.60095656,0.60095656,0.60375014) (0.60095960,0.60095656,0.60244749) (0.60095656,0.60095656,0.68546893) (0.60095656,0.60095656,0.86086484) (0.60095656,0.60095656,0.78210874)
(0.60095806,0.60095656,0.61195548) (0.60095656,0.60095656,0.60150498) (0.60095975,0.60095656,0.62116073) (0.60095656,0.60095656,0.64336113) (0.60095656,0.60095656,0.91673761) (0.60095656,0.60095656,0.75969022)
(0.60095817,0.60095656,0.71327550) (0.60095656,0.60095656,0.60354431) (0.60095975,0.60095656,0.74193418) (0.60095656,0.60095656,0.60108187) (0.60095656,0.60095656,0.94010536) (0.60095656,0.60095656,0.78171395)
(0.60095828,0.60095656,0.61300342) (0.60095656,0.60095656,0.60220161) (0.99999997,0.99664732,0.60969652) (0.60095656,0.60095656,0.71192718) (0.60095656,0.60095656,0.92875440) (0.60095656,0.60095656,0.76020761)
(0.98966163,0.98250967,0.60098017) (0.60095656,0.60095656,0.60403530) (0.60095975,0.60095656,0.60551216) (0.60095656,0.60095656,0.66275461) (0.60095656,0.60095656,0.87293105) (0.60095656,0.60095656,0.79032110)
(0.98815570,0.98378842,0.80149835) (0.60095656,0.60095656,0.60148210) (0.60304544,0.60095656,0.76041804) (0.60095656,0.60095656,0.61288348) (0.60095656,0.60095656,0.79020720) (0.60095656,0.60095656,0.74860466)
(0.60095842,0.60095656,0.70024302) (0.60095656,0.60095656,0.61096629) (0.99999997,0.99664732,0.64577358) (0.60095656,0.60095656,0.60750546) (0.60095656,0.60095656,0.66817451) (0.60095656,0.60095656,0.82662017)
(0.60095852,0.60095656,0.65756908) (0.60095656,0.60095656,0.60204651) (0.60096013,0.60095656,0.61243263) (0.60095656,0.60095656,0.67142922) (0.60095656,0.60095656,0.62192581) (0.60095656,0.60095656,0.85261973)
(0.60095872,0.60095656,0.72587148) (0.60095656,0.60095656,0.60534350) (0.60096013,0.60095656,0.69406348) (0.60095656,0.60095656,0.70993193) (0.60095656,0.60095656,0.65509299) (0.60095656,0.60095656,0.81838211)
(0.60095986,0.60095656,0.61097667) (0.60095656,0.60095656,0.61746995) (0.60096013,0.60095656,0.78233342) (0.60095656,0.60095656,0.74671409) (0.60095656,0.60095656,0.66426491) (0.60095656,0.60095656,0.79341644)
(0.60095880,0.60095656,0.60582076) (0.60095656,0.60095656,0.61236208) (0.99999997,0.99664732,0.66930250) (0.60095656,0.60095656,0.60643166) (0.60095656,0.60095656,0.74563743) (0.60095656,0.60095656,0.69210474)
(0.60095881,0.60095656,0.66187994) (0.60095656,0.60095656,0.62040752) (0.60095979,0.60095656,0.70348195) (0.60095656,0.60095656,0.65762574) (0.60095656,0.60095656,0.64961522) (0.60095656,0.60095656,0.74128193)
(0.60095997,0.60095656,0.66869953) (0.60095656,0.60095656,0.63698521) (0.60095972,0.60095656,0.84664528) (0.60095656,0.60095656,0.60832827) (0.60095656,0.60095656,0.71328854) (0.60095656,0.60095656,0.81347284)
(0.60096003,0.60095656,0.60449942) (0.60095656,0.60095656,0.62296367) (1.00000000,0.99733612,0.86388894) (0.60095656,0.60095656,0.64413174) (0.60095656,0.60095656,0.74732075) (0.60095656,0.60095656,0.85111107)
(0.60096012,0.60095656,0.77766925) (0.60095656,0.60095656,0.60289840) (0.60095849,0.60095656,0.79930449) (0.60095656,0.60095656,0.72587499) (0.60095656,0.60095656,0.69990478) (0.60095656,0.60095656,0.87571669)
(0.60095900,0.60095656,0.91480135) (0.60095656,0.60095656,0.60295694) (0.60095792,0.60095656,0.68307717) (0.60095656,0.60095656,0.86761007) (0.60095656,0.60095656,0.64098347) (0.60095656,0.60095656,0.82375736)
(0.60095906,0.60095656,0.83219698) (0.60095656,0.60095656,0.62062975) (0.60095786,0.60095656,0.69746049) (0.60095656,0.60095656,0.60198345) (0.60095656,0.60095656,0.62974589) (0.60095656,0.60095656,0.83734157)
(0.60095910,0.60095656,0.71153403) (0.60095656,0.60095656,0.60095869) (0.60095784,0.60095656,0.68722634) (0.60095656,0.60095656,0.88999112) (0.60095656,0.60095656,0.60542817) (0.60095656,0.60095656,0.75884366)
(0.60096037,0.60095656,0.62651376) (0.60095656,0.60095656,0.60236165) (0.60095795,0.60095656,0.81045663) (0.60095656,0.60095656,0.62574620) (0.60095656,0.60095656,0.70718725) (0.60095656,0.60095656,0.85844707)
(0.60096038,0.60095656,0.60132562) (0.60095656,0.60095656,0.60103233) (1.00000000,0.99845978,0.81528101) (0.60095656,0.60095656,0.88060644) (0.60095656,0.60095656,0.77543032) (0.60095656,0.60095656,0.83651226)
(0.60096038,0.60095656,0.77192814) (0.60095656,0.60095656,0.60949969) (0.60095792,0.60095656,0.78708526) (0.60095656,0.60095656,0.63487940) (0.60095656,0.60095656,0.84407828) (0.60095656,0.60095656,0.85519816)
(0.60095914,0.60095656,0.71106970) (0.60095656,0.60095656,0.60315871) (1.00000000,0.99845978,0.83170059) (0.60095656,0.60095656,0.73630234) (0.60095656,0.60095656,0.79936849) (0.60095656,0.60095656,0.88248067)
(0.60095920,0.60095656,0.63340866) (0.95851423,0.60095656,0.72973589) (0.61276247,0.99845978,0.80900185) (0.60095656,0.60095656,0.63545629) (0.60095656,0.60095656,0.83027025) (0.60095656,0.60095656,0.93072114)
(0.60096048,0.60095656,0.61391971) (0.96429298,0.96289797,0.92891031) (0.60095656,0.60095656,0.63286418) (0.60095656,0.60095656,0.93644590) (0.60095656,0.60095656,0.88113034) (0.60095656,0.60095656,0.90857120)
(0.60096048,0.60095656,0.60103266) (0.96400227,0.96216206,0.99599462) (0.60095656,0.60095656,0.62273966) (0.60095656,0.60095656,0.99892791) (0.60095656,0.60095656,0.91085003) (0.60095656,0.60095656,0.96312407)
(0.60096230,0.60095656,0.87180585) (0.60095656,0.60095656,0.60111532) (0.60095656,0.60095656,0.64860851) (0.60095656,0.60095656,0.70950580) (0.60095656,0.60095656,0.75140049) (0.60095656,0.60095656,0.74318883)
(0.60096230,0.60095656,0.85122906) (0.60095656,0.60095656,0.61781015) (0.60095656,0.60095656,0.65509558) (0.60095656,0.60095656,0.64347669) (0.60095656,0.60095656,0.85567271) (0.60095656,0.60095656,0.70851837)
(0.60096297,0.60095656,0.80868748) (0.60095656,0.60095656,0.60899819) (0.60095656,0.60095656,0.71511686) (0.60095656,0.60095656,0.64935109) (0.60095656,0.60095656,0.83736584) (0.60095656,0.60095656,0.74965008)
(0.60096326,0.60095656,0.77164915) (0.60095656,0.60095656,0.60427198) (1.00000000,0.99970480,0.67645035) (0.60095656,0.60095656,0.69633967) (0.60095656,0.60095656,0.74980549) (0.60095656,0.60095656,0.71977335)
(0.60096373,0.60095656,0.72289037) (0.62579926,0.60095656,0.60568051) (1.00000000,0.99970480,0.76998769) (0.60095656,0.60095656,0.70125148) (0.60095656,0.60095656,0.75285870) (0.60095656,0.60095656,0.74159189)
(0.60096463,0.60095656,0.79974736) (0.75164652,0.60095656,0.62015600) (1.00000000,0.99983841,0.80091664) (0.60095656,0.60095656,0.77905454) (0.60095656,0.60095656,0.60221551) (0.60095656,0.60095656,0.75059964)
(0.60096486,0.60095656,0.78161657) (0.73012198,0.60095656,0.63313038) (0.60115449,0.99983841,0.75495613) (0.60095656,0.60095656,0.88851107) (0.60095656,0.60095656,0.82964978) (0.60095656,0.60095656,0.78407096)
(0.60096513,0.60095656,0.99520404) (0.69941632,0.95744248,0.99999177) (0.60095656,0.60095656,0.82799197) (0.84586774,0.60095656,0.92754207) (0.69732033,0.60095656,0.95656351) (0.60095656,0.60095656,0.63019709)
(0.60096539,0.60095656,0.99999940) (0.68063578,0.95698887,1.00000000) (0.60095656,0.60095656,0.86249609) (0.86194568,0.60095656,1.00000000) (0.70287888,0.60095656,0.96747333) (0.60095656,0.60095656,0.98704530)
(0.60096539,0.60095656,0.99999999) (0.67078415,0.95656773,1.00000000) (0.60095656,0.60095656,0.87970758) (0.97663319,1.00000000,1.00000000) (0.65222178,0.60095656,0.94348253) (0.60095656,0.60095656,0.99860596)
(0.60096550,0.60095656,1.00000000) (0.66130230,0.95617824,1.00000000) (0.60095656,0.60095656,0.93130722) (0.97042121,1.00000000,1.00000000) (0.63405635,0.60095656,0.63678194) (0.60095656,0.60095656,0.99876960)
(0.60096576,0.60095656,1.00000000) (0.64823562,0.95569720,1.00000000) (0.60095656,0.60095656,0.89609838) (0.80314424,0.60095656,1.00000000) (0.63007817,0.60095656,0.62350881) (0.60095656,0.60095656,0.99838363)
(0.60096587,0.60095656,0.99999995) (0.90113285,0.60095823,1.00000000) (0.60095656,0.60095656,0.80396796) (0.60095656,0.60095656,1.00000000) (0.82788250,0.60095656,0.83122636) (0.60095656,0.60095656,0.98531380)
(0.60096625,0.60095656,0.99974041) (0.63944808,0.95489917,0.99965167) (0.60095656,0.60095656,0.75667880) (0.60095656,0.60095656,0.99993373) (0.65583981,0.60095884,0.99984348) (0.60095656,0.60095656,0.73991242)
(0.60096668,0.60095656,0.84285555) (0.62266090,0.60095876,0.99999815) (0.60095656,0.60095656,0.62453608) (0.60095656,0.60095656,0.85183707) (0.60464308,1.00000000,1.00000000) (0.60095656,0.60095656,0.81328964)
(0.60096688,0.60095656,0.63953483) (0.61578496,0.95204810,1.00000000) (0.60095656,0.60095656,0.60413722) (0.60095656,0.60095656,0.99999533) (0.60194368,0.60095656,1.00000000) (0.60095656,0.60095656,0.96240694)
(0.60096697,0.60095656,0.99947266) (0.60228768,0.93211252,0.66572799) (0.60095656,0.60095656,0.76067408) (0.60095656,0.60095656,0.99830781) (0.99999083,0.60095656,1.00000000) (0.60095656,0.60095656,0.76271124)
(0.60096739,0.60095656,0.99999988) (0.79327944,0.89764892,1.00000000) (0.60095656,0.60095656,0.86308911) (0.60095656,0.60095656,1.00000000) (1.00000000,0.60095656,1.00000000) (0.60095656,0.60095656,0.98724941)
(0.60096783,0.60095656,0.99999999) (0.60656285,0.89764940,1.00000000) (0.60095656,0.60095656,0.81189032) (0.60095656,0.60095656,1.00000000) (1.00000000,0.60095656,1.00000000) (0.60095656,0.60095656,0.99799902)
(0.60096843,0.60095656,1.00000000) (0.60210203,0.87667384,1.00000000) (0.60095656,0.60095656,0.89413453) (0.60095656,0.60095656,1.00000000) (0.99999289,0.60095656,0.99999983) (0.60095656,0.60095656,0.99859133)
(0.60096894,0.60095656,0.99999993) (0.61148542,0.85720996,1.00000000) (0.60095656,0.60095656,0.79767184) (0.60095656,0.60095656,1.00000000) (0.65850891,0.60098366,0.99967540) (0.60095656,0.60095656,0.99693261)
(0.60096978,0.60095656,0.99999291) (0.61289944,0.77682169,0.99999994) (0.60095656,0.60095656,0.71568434) (0.60095656,0.60095656,0.99999969) (0.61055688,0.95425990,0.97060786) (0.60095656,0.60095656,0.97018814)
(0.60096995,0.60095656,0.99925304) (0.61163497,0.69864132,0.98993699) (0.60095656,0.60095656,0.66099249) (0.60095656,0.60095656,0.96889995) (0.65296390,0.63997518,0.96713905) (0.60095656,0.60095656,0.71570982)
(0.60097031,0.60095656,0.91564236) (0.61203059,0.60534523,0.74622027) (0.60095656,0.60095656,0.64295741) (0.60095656,0.60095656,0.78927203) (0.63494133,1.00000000,0.89957297) (0.60095656,0.60095656,0.79565190)
(0.60097095,0.60095656,0.61996852) (0.61049876,0.67429794,0.99996265) (0.60095656,0.60095656,0.90322404) (0.99996203,0.60095656,0.99993278) (0.68704802,0.60173048,0.98760490) (0.60095656,0.60095656,0.96414200)
(0.60097139,0.60095656,0.79640525) (0.60097783,0.61182776,1.00000000) (0.68536912,0.60095656,0.84406412) (1.00000000,0.60097466,0.99987921) (0.63968374,1.00000000,0.97927421) (1.00000000,1.00000000,1.00000000)
(0.60097168,0.60095656,0.60112464) (0.61909745,0.70406408,1.00000000) (0.72902857,0.60095656,0.61478968) (1.00000000,1.00000000,0.60867931) (0.60096101,0.71044088,0.70639767) (1.00000000,1.00000000,1.00000000)
(0.60097191,0.60095656,0.62558803) (0.63166107,0.60729173,1.00000000) (0.76506095,0.60095656,0.81284563) (1.00000000,0.60095656,0.96250858) (0.60462781,0.60095825,0.65702865) (1.00000000,1.00000000,1.00000000)
(0.60097241,0.60095656,0.60408111) (0.62696246,0.63717781,1.00000000) (0.78386487,0.60095656,0.93264950) (1.00000000,0.60095656,0.98698710) (0.60369322,0.62095920,0.65182243) (1.00000000,1.00000000,1.00000000)
(0.60097363,0.60095656,0.69365800) (0.61176050,0.64128790,1.00000000) (0.77372310,0.60095656,0.80767830) (1.00000000,0.60095656,0.63765076) (0.60170033,0.60095656,0.62646884) (1.00000000,1.00000000,1.00000000)
(0.60097443,0.60095656,0.93786575) (0.60096870,0.64171379,1.00000000) (0.73564451,0.60095656,0.61773180) (1.00000000,0.60299368,0.99260675) (0.62346766,0.60095656,0.93677028) (1.00000000,0.60095656,1.00000000)
(0.60096559,0.60095656,0.90622509) (0.60942653,0.63613890,0.99999982) (0.60467544,0.60095656,0.80997387) (1.00000000,1.00000000,0.99994980) (0.68270673,0.60095656,0.95164093) (0.62231612,0.60095656,0.99982611)
(0.60096636,0.60095656,0.71929237) (0.60297087,0.63083087,0.76700995) (0.60554693,0.60095656,0.99190220) (0.99877741,1.00000000,0.99998962) (0.62670720,0.60095656,0.96031276) (0.99999690,0.60095656,0.95783677)
(0.60097795,0.60095656,0.66406967) (0.60096142,0.63086788,0.99337831) (0.94422954,0.60095656,0.98658974) (0.99519197,1.00000000,0.99967732) (0.60980074,0.60095656,0.60218305) (1.00000000,0.60095656,0.99999962)
(0.60097067,0.60095656,0.99097166) (0.60612495,0.62619102,1.00000000) (0.99903259,1.00000000,0.95297201) (0.96039577,0.60095656,0.79345485) (0.74938286,0.60095656,0.85075857) (1.00000000,0.64828605,1.00000000)
(0.60095807,0.60095656,0.99961783) (0.64256761,0.62574241,1.00000000) (0.99999939,0.60095656,0.88912432) (0.60095656,0.60095656,0.64673803) (0.96194250,0.60095656,0.92534763) (1.00000000,0.87870355,1.00000000)
(0.60095658,0.60095656,0.99978042) (0.68824362,0.61985880,1.00000000) (1.00000000,0.60095656,0.79250619) (0.60095656,0.60095656,0.91000795) (0.99100221,0.60095656,0.90228973) (1.00000000,1.00000000,1.00000000)
(0.60134049,0.60095656,0.99885295) (0.66204951,0.80544490,1.00000000) (0.99913950,0.60095656,0.61303184) (0.60095656,0.60095656,0.99464205) (0.98658600,0.60095656,0.92319851) (1.00000000,1.00000000,0.99999999)
(0.60140054,0.60095656,0.99611683) (0.60103580,0.92429624,0.99999995) (0.60095656,0.60095656,0.63155032) (0.60095656,0.60095656,0.99829685) (0.93258973,0.60095656,0.91817956) (0.99938593,1.00000000,0.99934639)
(0.60101041,0.60095656,0.99716160) (0.60990342,0.60164022,0.99859465) (0.60095656,0.60095656,0.67588992) (0.60095656,0.60095656,0.99823335) (0.71817022,1.00000000,0.85137628) (0.60135051,0.60095656,0.66135890)
(0.60102914,0.60095656,0.99134671) (0.60681459,0.93697758,0.65277339) (0.62426766,0.60095656,0.61006347) (0.60095656,0.60095656,0.98002473) (0.60288190,0.60095656,0.74302510) (0.96762729,1.00000000,0.97852554)
(0.60106546,0.60095656,0.96849585) (0.60666439,0.60106183,0.85014595) (0.67176857,0.60095656,0.60098388) (0.99414486,0.60095656,0.77917443) (0.60338726,0.60095656,0.63268572) (0.94941187,1.00000000,0.99983184)
(0.60095811,0.60095656,0.85273724) (0.61050345,0.60342795,0.96630413) (0.63720588,0.60095656,0.69718107) (0.99995146,0.60095656,0.60137043) (0.60720514,0.61348038,0.61236334) (0.63987621,0.60095656,0.99928839)
(0.65995139,0.60095656,0.64136228) (0.60921338,0.60168963,0.99500501) (0.60467587,0.60095656,0.97772461) (1.00000000,0.60097602,0.93768201) (0.60991788,0.99873185,0.61479497) (0.60263840,0.60095656,0.98662219)
(0.60375202,0.60095656,0.95785760) (0.61245573,0.60095690,0.99863543) (0.60556229,1.00000000,0.99313429) (1.00000000,0.60095656,0.99996279) (0.61234540,1.00000000,0.63025676) (0.60095656,0.60095656,0.86902369)
(0.60302965,0.60095656,0.99932779) (0.61199703,0.60265267,0.99947787) (0.61347827,1.00000000,0.99828251) (1.00000000,0.60095656,0.99999999) (0.61083814,0.60095658,0.66284039) (0.60184069,0.60095656,0.63971888)
(0.60288593,0.60095656,0.99985024) (0.60848537,0.60266206,0.99688472) (0.60095656,0.60095656,0.97828234) (1.00000000,0.60095656,0.99999979) (0.60911472,0.60095656,0.65944215) (0.75535993,0.60095656,0.60097558)
(0.60811871,0.60095656,0.99925136) (0.60631828,0.60267464,0.95860284) (0.60095656,0.60095656,0.97346917) (1.00000000,0.60096053,0.99975047) (0.60612506,0.60095991,0.61154805) (0.90162234,0.60095656,0.62973267)
(0.60185730,0.60095656,0.96868378) (0.61015649,0.60244382,0.86769030) (0.67774462,0.60095656,0.99456893) (0.99999996,1.00000000,0.99293016) (0.60412849,0.60095656,0.60095662) (0.70745054,0.60095656,0.62711201)
(0.60400474,0.60095656,0.80549905) (0.61302430,0.60202749,0.64083946) (0.70890686,0.60095656,0.97872184) (1.00000000,1.00000000,0.87056916) (0.60489471,0.60095656,0.61638229) (0.60320510,0.60095656,0.64743570)
(0.60126912,0.60095656,0.60177741) (0.61422819,0.60203990,0.60603561) (0.64288771,0.60095656,0.96530698) (0.99999038,0.61539438,0.60970844) (0.60104739,0.60095656,0.68989477) (0.60098176,0.60095656,0.60189162)
(0.60158217,1.00000000,0.81397942) (0.61480960,0.60158360,0.85896442) (0.61420921,0.60095658,0.88168060) (0.98469943,0.60095656,0.81858803) (0.60388923,0.60095656,0.72318897) (0.60104907,0.60095656,0.62446016)
(0.60194891,0.60095656,0.97001582) (0.61439741,0.60166119,0.93685505) (0.60095656,0.60095656,0.71421766) (0.60095656,0.60095656,0.98865221) (0.61854936,0.60095656,0.67670487) (0.60105105,0.60095656,0.60756317)
(0.60172115,0.60095656,0.95483300) (0.61399183,0.60166118,0.97249334) (0.60679839,1.00000000,0.64603621) (0.79016472,0.60095656,0.99863751) (0.61947565,0.60095656,0.63139349) (0.60105105,0.60095656,0.69820959)
(0.60167708,0.60124952,0.82446771) (0.61462830,0.60166119,0.97474677) (0.60095656,0.60095656,0.60111827) (0.60095656,0.60095656,0.99646556) (0.61255675,0.60095656,0.61064009) (0.60098272,0.60095656,0.81519068)
(0.60171115,0.60095656,0.61296787) (0.61520291,0.60166119,0.93713970) (0.60095656,0.60095656,0.60228007) (0.60095656,0.60095656,0.95427735) (0.60826699,0.60095656,0.60331118) (0.60097909,0.60095656,0.86204343)
(0.60101089,0.60095656,0.71636841) (0.61562470,0.60098269,0.83641618) (0.60095656,0.60095656,0.63641646) (0.60095656,0.60095656,0.95592152) (0.60260906,0.99216047,0.60155363) (0.60097909,0.60095656,0.81883126)
(0.60109660,0.60095656,0.69296985) (0.61541456,0.60149554,0.64473076) (0.60095656,0.60095656,0.89517117) (0.60095656,0.60095656,0.76898645) (0.60097362,0.60202978,0.60158925) (0.60143418,0.60095656,0.68561216)
(0.60100607,0.60095656,0.63154039) (0.60959679,0.95883091,0.60417291) (0.60095656,0.60095656,0.93213157) (1.00000000,0.60095656,0.75401824) (0.60517026,1.00000000,0.63291390) (0.60178509,0.60095656,0.62935838)
(0.60225677,0.60128255,0.61937219) (0.61336114,0.96468318,0.60556705) (0.70920605,0.60095656,0.98297271) (1.00000000,0.60095656,0.64041411) (0.60098012,1.00000000,0.63083412) (0.60176460,0.60095656,0.60095656)
(0.60223023,1.00000000,0.62912795) (0.61408830,0.61453614,0.61161761) (0.62640442,0.60095656,0.96195057) (0.99999957,1.00000000,0.76438431) (0.60174816,1.00000000,0.64722956) (0.60104956,0.60095656,0.60326975)
(0.60364203,0.60095656,0.68344896) (0.61544487,0.96631516,0.61270837) (0.60095656,0.60095656,0.88092647) (0.99999999,0.60095656,0.86728056) (0.60157293,1.00000000,0.68231122) (0.60104969,0.60095656,0.61173650)
(0.60100146,0.60095656,0.79967343) (0.61493022,0.60096116,0.60225678) (0.60095656,0.60095656,0.73721033) (0.99536837,0.60135962,0.71217365) (0.60171161,0.98029405,0.67447628) (0.60104951,0.60095656,0.60613188)
(0.65439513,0.60095656,0.83261007) (0.61211290,0.60141137,0.60270205) (0.60488824,0.60095656,0.62398868) (0.99513711,1.00000000,0.60412165) (0.60129374,0.60095656,0.66083420) (0.60095662,0.60095656,0.60436268)
(0.60097136,0.60095656,0.66508965) (0.61431486,0.60137680,0.61031305) (0.60506369,0.60095656,0.62180215) (0.99604111,0.60095656,0.61156805) (0.60105355,0.60095656,0.64947886) (0.60095656,0.60095656,0.61922514)
(0.60120294,0.60095933,0.60098410) (0.61362585,0.60134345,0.61581436) (0.62150411,0.60095656,0.75225812) (0.97285823,0.60095656,0.60786177) (0.60096799,0.60095656,0.61656735) (0.60095656,0.60095656,0.60095656)
(0.60098260,0.60095656,0.64422004) (0.61314001,0.60133220,0.64303736) (0.76851262,0.60095656,0.94060585) (0.99999965,0.60095656,0.60924946) (0.60097092,0.60095656,0.60736361) (0.60104800,0.60095656,0.64432263)
(0.63693827,0.60095656,0.67814403) (0.61065424,0.60131618,0.67199391) (0.87792565,0.60095656,0.93556824) (0.97394801,0.60095656,0.60740000) (0.60097384,0.60095656,0.61071753) (0.60104832,0.60095656,0.66221547)
(0.71903671,0.60095656,0.69567830) (0.60955238,0.60129079,0.71209104) (0.60592915,0.60095656,0.60886163) (0.60095656,0.60095656,0.61025443) (0.60107464,0.60095656,0.61113389) (0.60104829,0.60095656,0.61588158)
(0.67459608,0.60095656,0.71721736) (0.61051194,0.60126620,0.66394014) (0.60095656,0.60095656,0.79097923) (0.60095656,0.60095656,0.64630902) (0.60143266,0.60095656,0.60776641) (0.60095709,0.60095656,0.60287379)
(0.60098319,0.60095656,0.77033680) (0.61317782,0.60125753,0.65834297) (0.62372114,0.60095656,0.78417696) (0.60095656,0.60095656,0.60686483) (0.60111863,0.60095656,0.60657615) (0.60095684,0.60095656,0.60578763)
(0.60154350,0.60095667,0.62126918) (0.61288952,0.72894448,0.64857150) (0.60652880,0.60095656,0.78116429) (0.87658232,0.60095656,0.60364335) (0.60111041,1.00000000,0.60221050) (0.60104813,0.60095656,0.60705670)
(0.60177568,0.60095656,0.69021954) (0.61361566,0.64420502,0.62831137) (0.60628555,0.60095656,0.82980612) (0.96817360,1.00000000,0.61675500) (0.60100000,1.00000000,0.60337170) (0.60104865,0.60095656,0.60279750)
(0.64144813,0.60095656,0.80806403) (0.61141156,0.61439465,0.62601608) (0.60095656,0.60095656,0.81540067) (0.86423137,1.00000000,0.60859226) (0.60115269,1.00000000,0.62469266) (0.60104916,0.60095656,0.60542372)
(0.87458128,0.99491977,0.86021422) (0.60664972,0.62214923,0.60762449) (0.60095656,0.60095656,0.71063264) (0.85659142,0.60095656,0.60647750) (0.60195660,1.00000000,0.66915807) (0.60095672,0.60095656,0.62731108)
(0.70467543,1.00000000,0.73488802) (0.60979823,0.97779494,0.60424072) (0.60095656,0.60095656,0.65487335) (0.86231714,0.60095656,0.64232076) (0.60107755,0.60095656,0.67427278) (0.60095661,0.60095656,0.65668757)
(0.60095659,1.00000000,0.60604583) (0.61289307,0.60119370,0.60498178) (0.60095656,0.60095656,0.64550332) (0.85148385,0.60095656,0.60480261) (0.60095754,0.60095656,0.67136989) (0.60104693,0.60095656,0.67954645)
(0.60253211,0.60115536,0.60915644) (0.61072442,0.60113699,0.61837672) (0.60095656,0.60095656,0.72059983) (0.95667686,0.60095656,0.60123156) (0.60099856,0.60095656,0.67235097) (0.60104768,0.60095656,0.64953656)
(0.60253701,0.60095656,0.60563163) (0.61131530,0.60112214,0.61848046) (0.60095656,0.60095656,0.60189078) (0.85384047,1.00000000,0.60315339) (0.60095677,0.60095656,0.65709287) (0.60104782,0.60095656,0.63879248)
(0.65451803,0.60095656,0.67882216) (0.60737377,0.60110780,0.60688999) (0.60095656,0.60095656,0.60191838) (0.95779877,0.60095656,0.62173402) (0.60095748,0.60095656,0.62466260) (0.60095657,0.60095656,0.62470800)
(0.85863766,0.60095656,0.70174012) (0.60322392,0.60107299,0.60825258) (0.74991540,0.60095656,0.60098663) (0.93089635,0.60095656,0.70323593) (0.60098188,0.60095656,0.61962564) (0.60095660,0.60095656,0.62538051)
(0.65142785,1.00000000,0.64782047) (0.60713435,0.60102196,0.62410409) (0.60095656,0.60095656,0.67150471) (0.75241365,0.60095656,0.73749296) (0.60095840,0.60095656,0.60654598) (0.60095656,0.60095656,0.61877328)
(0.60283937,1.00000000,0.60097490) (0.60984022,0.98532486,0.63800995) (0.60095656,0.60095656,0.82389329) (0.61369524,0.60095656,0.65439591) (0.60095835,0.60095656,0.60182384) (0.60104824,0.60095656,0.62317617)
(0.60273635,1.00000000,0.60651049) (0.60997498,0.60845083,0.64699406) (0.60095656,0.60095656,0.66576780) (0.74833471,0.60095656,0.61507730) (0.60096165,1.00000000,0.61507223) (0.60104831,0.60095656,0.61646372)
(0.60193263,0.60095656,0.61052882) (0.60956700,0.94230748,0.62397059) (0.60095656,0.60095656,0.63488224) (0.89835026,0.60095656,0.61719162) (0.60098155,1.00000000,0.64045951) (0.60104861,0.60095656,0.64843311)
(0.79517642,0.60095656,0.63906668) (0.60273517,0.72688000,0.60436060) (0.60095656,0.60095656,0.70888867) (0.73435012,1.00000000,0.65014086) (0.60118991,1.00000000,0.65453526) (0.60095676,0.60095656,0.65276412)
(0.73894941,0.60095656,0.64551418) (0.60364464,0.60122377,0.60334482) (0.60095656,0.60095656,0.91472263) (0.72283954,1.00000000,0.62891107) (0.60112839,0.89220181,0.68829911) (0.60095676,0.60095656,0.63335374)
(0.60110511,0.60095656,0.64329062) (0.60836002,0.60103026,0.61463375) (0.63338918,0.60095656,0.91784926) (0.72751147,0.60095656,0.62088371) (0.60095656,0.60095661,0.69754900) (0.60104740,0.60095656,0.60603180)
(0.60298838,1.00000000,0.60223863) (0.60748297,0.99071427,0.63211398) (0.60335789,1.00000000,0.87448706) (0.72730159,0.60095656,0.60747011) (0.60095850,0.60095656,0.67994989) (0.60104867,0.60095656,0.60163280)
(0.60239415,0.60095656,0.61328290) (0.60876175,0.60097931,0.62408409) (0.61114010,0.60095656,0.86270801) (0.73001633,0.60095656,0.60541448) (0.60105420,0.60095656,0.67828159) (0.60104995,0.60095656,0.60206515)
(0.60359757,0.60095656,0.68573163) (0.60840583,0.60097866,0.62538073) (0.60313592,0.60095656,0.64073042) (0.72797328,0.60095656,0.60379106) (0.60101741,0.60095656,0.67095637) (0.60096137,0.60095656,0.61153372)
(0.69128296,0.60095656,0.73396038) (0.60463397,0.60097804,0.61659998) (0.60957055,0.60095656,0.62840429) (0.72519586,0.60095656,0.60189954) (0.60097113,0.60095656,0.66545441) (0.60097283,0.60095656,0.61096380)
(0.60463164,0.60433821,0.69214505) (0.61461330,0.60097213,0.62026580) (0.60974791,0.60095656,0.65908649) (0.72486649,0.60095656,0.60280935) (0.60112387,0.60095656,0.64110263) (0.60114067,0.60095656,0.60306541)
(0.60095656,1.00000000,0.63232725) (0.62033249,0.68019184,0.62993530) (0.60992641,0.60095656,0.66562250) (0.72101785,1.00000000,0.64440499) (0.60113207,1.00000000,0.63784085) (0.60115018,0.60095656,0.60117762)
(0.60095665,0.88100414,0.60479528) (0.62039977,0.73283183,0.65218884) (0.61024673,0.60095656,0.66478117) (0.71511917,0.60296238,0.60226996) (0.60109864,1.00000000,0.63528722) (0.60120437,0.60095656,0.60159331)
(0.60258831,0.60095656,0.64187461) (0.62158779,0.99688191,0.62245611) (0.61059960,0.60095656,0.67910059) (0.71294466,0.60095656,0.60095800) (0.60110842,1.00000000,0.61636028) (0.60102450,0.60095656,0.60095656)
(0.64096754,0.60095656,0.71761440) (0.61280740,0.60096053,0.60102097) (0.61021263,0.60095656,0.68018793) (0.69956529,0.60095656,0.62805830) (0.60374242,0.60095656,0.60237950) (0.60108682,0.60095656,0.60243411)
(0.61376035,0.60095656,0.74530932) (0.61953702,0.60095973,0.61349409) (0.61059960,0.60095656,0.68488194) (0.68539561,0.60095656,0.60322402) (0.60762726,0.60095656,0.60282866) (0.60099755,0.60095656,0.62834271)
(0.60343614,0.60095656,0.71829414) (0.63278851,0.60095656,0.62020550) (0.61097002,0.60095656,0.65857738) (0.67355477,0.60095656,0.60345963) (0.61505560,0.60226142,0.60338289) (0.60120801,0.60095656,0.71418623)
(0.60104413,0.62190615,0.71721150) (0.62803067,0.60095987,0.60545347) (0.61117291,0.60095656,0.64404236) (0.66335986,0.60095656,0.67743035) (0.62204816,0.60095656,0.61350285) (0.60457007,0.60095656,0.74503000)
(0.60404753,0.60095656,0.74784016) (0.63904664,0.60096069,0.60111160) (0.61153707,0.60095656,0.63358967) (0.64422584,0.60095656,0.75768129) (0.63216248,0.60095656,0.61369488) (0.60312145,0.60095656,0.75024365)
(0.60115117,0.60095656,0.87452908) (0.63857045,0.60096004,0.60220724) (0.61190610,0.60095656,0.63449989) (0.63046019,0.60095656,0.70956527) (0.65012510,0.60095656,0.61581131) (0.60171110,0.60095656,0.76377119)
(0.60974701,0.60095656,0.92830897) (0.63858471,0.60164545,0.60115830) (0.61193858,0.60095656,0.63528495) (0.61541960,1.00000000,0.63917309) (0.66938166,0.80426602,0.61070459) (0.60132209,0.60095656,0.77054036)
(0.60165457,1.00000000,0.97566589) (0.63857480,0.60096029,0.63447730) (0.61197120,0.60095656,0.62114552) (0.60479863,1.00000000,0.71265807) (0.66917219,0.60095656,0.60663619) (0.62028391,0.60095656,0.69068183)
(0.60599165,1.00000000,0.97966407) (0.61326070,0.60097331,0.60577318) (0.61245210,0.60095656,0.62216374) (0.60391428,0.60095656,0.63065228) (0.66692770,0.60145137,0.60312231) (0.69012182,0.60296226,0.68579320)
(0.64305914,0.60096059,0.95140582) (0.60095699,0.60095985,0.61753614) (0.61299269,0.60095656,0.63239891) (0.60449896,0.60095656,0.63022750) (0.63422455,0.60095656,0.63663968) (0.75238178,0.60095656,0.71764495)
(0.69134940,0.60095656,0.97422197) (0.61374061,0.60096009,0.65199827) (0.61254498,0.60095656,0.62107782) (0.60459322,0.60095656,0.61022865) (0.62226882,0.60095656,0.66770492) (0.86235299,0.60095656,0.74091488)
(0.78393942,0.60095656,0.99548654) (0.63452532,0.60096002,0.62904765) (0.61211026,0.60095656,0.62496663) (0.63000830,1.00000000,0.63982193) (0.61941076,0.60095656,0.66022793) (0.89459851,0.60095656,0.76010411)
(0.82801808,0.60095656,0.99833442) (0.63750594,0.60096008,0.61453302) (0.61250516,0.60095656,0.61519497) (0.63117700,0.60095656,0.65136964) (0.63562883,0.60095656,0.63645776) (0.90758066,0.60095656,0.77939136)
(0.91798755,0.60578901,0.99835787) (0.66158542,0.60096015,0.62068122) (0.61290523,0.60095656,0.62141929) (0.63128877,0.60095656,0.63128337) (0.63697298,0.60095656,0.64284958) (0.91786314,0.60095656,0.80248027)
(0.98553307,0.60095659,0.88116544) (0.70116889,0.60096197,0.65140822) (0.61293844,0.60095656,0.60467951) (0.60278319,0.60095656,0.60128616) (0.63553713,0.60421072,0.63671893) (0.89148792,0.60095656,0.71458681)
(0.99860809,0.60095656,0.65008435) (0.73922838,0.60095668,0.63699698) (0.61297182,0.60095656,0.60180873) (0.60258703,0.60095656,0.61902731) (0.64296978,0.60152179,0.61505658) (0.86143107,0.60095656,0.60096895)
(0.99932751,0.60095656,0.72051453) (0.72797673,0.60096137,0.60171142) (0.61305881,0.60095656,0.60771442) (0.60698095,0.60095656,0.61953715) (0.65122725,0.60095656,0.60113387) (0.80956189,0.60095656,0.65901617)
(0.99761579,0.60095656,0.64299340) (0.71695055,0.60096176,0.63880810) (0.61314608,0.60095656,0.60925480) (0.60189929,0.60095656,0.60404567) (0.63154504,0.60095656,0.64200053) (0.79334427,0.60095656,0.67004980)
(0.99318795,0.60095656,0.93776937) (0.86476780,0.82956041,0.85923593) (0.64655912,0.60095656,0.60401304) (0.63345226,0.60095656,0.96041431) (0.60100059,0.60095656,0.62546199) (0.99650368,1.00000000,0.99990214)
(0.97750732,0.60109959,0.99861748) (0.99775098,0.99955425,0.97566098) (0.98790843,0.60095656,0.63768312) (0.72884566,0.60095656,0.99103918) (0.61994442,0.60095656,0.69601166) (1.00000000,1.00000000,1.00000000)
(0.97384713,0.60095656,0.99851162) (0.99707003,0.60112125,0.99132847) (0.99577560,0.60095692,0.63424732) (0.71881143,0.60095656,0.99214987) (0.65081733,0.60095656,0.84205611) (1.00000000,0.62560318,0.99999998)
(0.97067606,0.60095656,0.97650562) (0.98219073,0.99993843,0.98527044) (0.92149469,1.00000000,0.61489099) (0.71984787,0.60095656,0.99163252) (0.73208218,0.60095656,0.92395955) (0.99999997,1.00000000,0.99996663)
(0.97366448,0.60095656,0.79813850) (0.88600253,0.80032839,0.97006728) (0.81128752,0.60095656,0.73298512) (0.72198391,0.60095656,0.83718190) (0.80465491,0.60095656,0.93189911) (0.97791888,1.00000000,0.96700973)
(0.97013436,0.60095656,0.67236579) (0.80355255,0.60733137,0.92869741) (0.60818081,0.60095656,0.82793966) (0.72412996,0.60095656,0.60359778) (0.80850531,0.60183723,0.93514047) (0.80471133,0.94686394,0.67528154)
(0.96943210,0.60335454,0.62402763) (0.82051621,0.60241752,0.86630443) (0.62631217,0.60095656,0.77064139) (0.72730487,0.60095656,0.64092407) (0.81210762,0.79621020,0.95100108) (0.84314516,0.60095656,0.64477394)
(0.96742352,0.60095659,0.63155878) (0.88276997,0.60097373,0.86503670) (0.87489331,0.60095656,0.73318143) (0.73049477,0.60095656,0.69224117) (0.83444954,0.60097297,0.96704680) (0.95056436,0.60095656,0.71357986)
(0.96600572,0.60095656,0.60098709) (0.89641464,0.60096799,0.86065575) (0.92513486,0.60095656,0.67020332) (0.73135223,0.60095656,0.61855523) (0.88425438,0.60095656,0.97363565) (0.95043787,0.60699680,0.75385970)
(0.96622023,1.00000000,0.62727485) (0.89806196,0.74967805,0.87459736) (0.60622886,0.60095656,0.69880577) (0.73222025,0.60095656,0.69762758) (0.96499648,0.60095656,0.97981652) (0.88411222,1.00000000,0.77620083)
(0.96812391,1.00000000,0.62397509) (0.86798504,0.99983949,0.88977120) (0.62764545,0.60095656,0.78285907) (0.73266562,0.60095656,0.60352813) (0.98290407,0.60095656,0.97808538) (0.68236415,0.83131133,0.71016836)
(0.96317478,1.00000000,0.74606668) (0.86774528,0.60097599,0.89398770) (0.61386222,0.60096679,0.83009001) (0.73541187,0.60095656,0.60095935) (0.98396171,0.60095656,0.98154312) (0.65829014,0.60095656,0.68104581)
(0.95817189,0.60097082,0.69946988) (0.87754051,0.60096768,0.88056379) (0.99478536,0.60095656,0.86328928) (0.64985950,0.60095656,0.60641337) (0.97497781,0.60095656,0.97987429) (0.69223298,0.60095656,0.76552241)
(0.95364558,0.60095656,0.65616557) (0.92281895,0.60096132,0.88497590) (0.99905959,0.60095656,0.82820625) (0.65662254,0.60095656,0.72652085) (0.98401186,0.60095656,0.98038471) (0.86681060,0.60095656,0.84185235)
(0.94715362,0.60095656,0.60101245) (0.94838418,0.60096114,0.88710522) (0.90013075,0.60095656,0.76488341) (0.75593355,0.60095656,0.78940013) (0.99257607,0.60095656,0.97904643) (0.93468533,0.60095656,0.89455332)
(0.95316744,0.60095656,0.60095656) (0.95281368,0.60096097,0.90714869) (0.60631839,0.60095656,0.75446755) (0.76594160,0.60095656,0.75956602) (0.99302077,0.60095656,0.97986157) (0.94077801,0.60095656,0.86973104)
(0.93957059,0.60095658,0.63351272) (0.94758449,0.60162312,0.90462650) (0.60095804,0.60095656,0.77112661) (0.77953619,0.60095656,0.67256898) (0.99537631,0.60539533,0.97948363) (0.92001503,0.85683544,0.82629330)
(0.94936470,0.60095656,0.67073329) (0.92409087,0.60096021,0.93258137) (0.60096281,0.60095656,0.74097103) (0.67253312,0.60095656,0.78142814) (0.99451413,0.60095656,0.97486163) (0.81335351,0.60098008,0.73902357)
(0.94249129,0.60100494,0.62666409) (0.92702306,0.99973974,0.94011653) (0.95188919,0.60095656,0.79117182) (0.80734438,0.60095656,0.74239853) (0.99410799,0.94501342,0.97330813) (0.80023193,1.00000000,0.74259261)
(0.93968236,0.60095656,0.60453359) (0.94055470,0.99973286,0.93174090) (0.99180429,0.60095656,0.78503253) (0.81258559,0.60095656,0.80612480) (0.99460314,0.60095656,0.97107468) (0.88404599,1.00000000,0.82755550)
(0.93793785,0.60095656,0.61206134) (0.95142262,0.60096331,0.93079777) (0.98822890,1.00000000,0.79629867) (0.80735313,0.60095656,0.83291865) (0.99378969,0.60095656,0.97488626) (0.94108419,0.60117383,0.87975272)
(0.93158708,0.60095656,0.60318990) (0.95621014,0.60096043,0.91490015) (0.96140803,1.00000000,0.80575992) (0.79811895,0.60095656,0.90006126) (0.99342721,0.60095996,0.97192557) (0.95804053,0.60095656,0.92335220)
(0.92560637,0.60095789,0.61060411) (0.95962403,0.60096622,0.90174591) (0.88856185,0.60095656,0.80645690) (0.79087722,0.60095656,0.88019698) (0.99440282,0.60095656,0.97007766) (0.95726745,0.60095656,0.93154108)
(0.92341130,0.60095656,0.60228196) (0.95698348,0.69474649,0.89959069) (0.72759654,0.60095656,0.80788979) (0.67749883,0.60095656,0.89356517) (0.99400464,0.60095656,0.97270656) (0.96228078,1.00000000,0.96180915)
(0.92648767,0.60095656,0.66066432) (0.96444354,0.60120950,0.88824902) (0.68754498,0.60095656,0.77875891) (0.80173219,0.60095656,0.87230522) (0.99460318,0.63862596,0.97322384) (0.97493039,0.60096638,0.97912911)
(0.92153597,0.60095656,0.61624324) (0.96803830,0.60576159,0.91308075) (0.73139375,1.00000000,0.77272825) (0.80323113,0.60095656,0.98230776) (0.99347437,0.90389315,0.96898877) (0.98682285,0.60101931,0.97090061)
(0.91341566,0.60095656,0.63409086) (0.96811019,0.60657794,0.90491409) (0.92975335,1.00000000,0.74549628) (0.80661318,0.60095656,0.98801868) (0.99312046,0.60368277,0.96805004) (0.98915163,0.99999999,0.97938371)
(0.90427798,0.60095760,0.60095656) (0.97066496,0.60096004,0.89058151) (0.99881753,0.60095656,0.77363548) (0.81001554,0.60095656,0.99422603) (0.99334740,0.60095656,0.96725462) (0.98954339,0.60095656,0.98556645)
(0.90147340,0.60095656,0.63904007) (0.97305260,0.60095996,0.89805275) (0.99907199,0.60095656,0.74285882) (0.68768644,0.60095656,0.99230057) (0.99320041,0.60095656,0.96609385) (0.99302506,0.60095656,0.98392164)
(0.89759632,0.60095656,0.67140304) (0.97377494,0.60095668,0.86965747) (0.99648971,1.00000000,0.72634655) (0.82175041,0.60095656,0.98733609) (0.99304533,0.60124846,0.96254080) (0.99504548,0.60095656,0.98988638)
(0.91578462,0.60095656,0.72327505) (0.97769135,0.60165716,0.88955499) (0.96895199,0.60095656,0.68532226) (0.84301593,0.60095656,0.99048887) (0.99499799,0.69022797,0.96862685) (0.99629522,0.60725568,0.99036824)
(0.91292207,0.60095656,0.71195903) (0.97390963,0.99826106,0.88204695) (0.96872198,0.60095656,0.72631615) (0.70809137,0.60095656,0.99302746) (0.99240149,0.60095656,0.96695122) (0.99621609,1.00000000,0.99193155)
(0.89631791,0.60095656,0.70138139) (0.97020800,0.61952906,0.90504286) (0.99071124,0.60095656,0.77478953) (0.83912441,0.60095656,0.99559578) (0.98959332,0.99035373,0.96744936) (0.99418810,0.89883481,0.99170918)
(0.90195391,0.60095656,0.67553964) (0.96220318,0.60240834,0.91000462) (0.99853558,0.60095656,0.84698638) (0.83635316,0.60095656,0.99615440) (0.98069704,0.73800798,0.96626992) (0.99271045,0.60479696,0.99141176)
(0.89036898,0.60095656,0.68557274) (0.95160280,0.60317811,0.92174012) (0.99778029,1.00000000,0.85383033) (0.80188400,0.60095656,0.99521325) (0.96985584,0.63835977,0.95729911) (0.98896378,0.99588002,0.97535922)
(0.91398229,0.60095656,0.62025533) (0.91892944,0.69993547,0.94085520) (0.99670745,0.60095656,0.78853749) (0.76027413,0.60095656,0.96210185) (0.93307705,0.97631101,0.95925073) (0.96082894,1.00000000,0.88784300)
(0.93182161,0.60095656,0.61483838) (0.87602092,0.61794006,0.96956800) (0.99970046,0.60095656,0.81040640) (0.74488403,0.60095656,0.84478157) (0.91445458,0.99748288,0.95410975) (0.80297466,0.60095656,0.67408346)
(0.92163000,0.60095656,0.60719483) (0.87440438,0.60095675,0.97906923) (0.99999563,1.00000000,0.86105719) (0.72901171,0.60095656,0.95268843) (0.88681465,0.60122795,0.95578491) (0.82959811,0.60095656,0.67842407)
(0.70728958,0.60095656,1.00000000) (1.00000000,0.99951672,1.00000000) (0.61500225,0.60095656,1.00000000) (0.72989140,0.60095656,1.00000000) (0.90781232,0.60095656,1.00000000) (0.60427819,0.60095656,1.00000000)
(0.70907336,0.60095656,1.00000000) (1.00000000,0.99948536,1.00000000) (0.61525557,0.60095656,1.00000000) (0.73313413,0.60095656,1.00000000) (0.90590511,0.60095656,1.00000000) (0.60471249,0.60095656,1.00000000)
(0.71513620,0.60095656,1.00000000) (1.00000000,0.99944832,1.00000000) (0.61477130,0.60095656,1.00000000) (0.72901216,0.60095656,1.00000000) (0.90408184,0.60095656,1.00000000) (0.60587922,0.60095656,1.00000000)
(0.72132388,0.60095656,1.00000000) (1.00000000,0.99940878,1.00000000) (0.61502017,0.60095656,1.00000000) (0.73225522,0.60095656,1.00000000) (0.90230145,0.60095656,1.00000000) (0.60719382,0.60095656,1.00000000)
