chh c1 sd mt lt rc2
(0.61079323,0.60095656,1.00000000) (0.67060124,0.60095656,1.00000000) (0.60095656,0.60095656,1.00000000) (0.60095656,0.60095656,1.00000000) (0.60095656,0.60095656,1.00000000) (0.60095656,0.60095656,1.00000000)
(0.61341958,0.60095656,0.87846696) (0.67330309,0.60095656,0.60400138) (0.60095656,0.60095656,0.81308585) (0.60095656,0.60095656,0.65111950) (0.60095656,0.60095656,0.72072163) (0.60095656,0.60095656,0.60095902)
(0.61149874,0.60095656,0.85303842) (0.68516793,0.60095656,0.60096902) (0.60095656,0.60095656,0.73308593) (0.60095656,0.60095656,0.60609049) (0.60095656,0.60095656,0.70360515) (0.60095656,0.60095656,0.60737346)
(0.60970885,0.60095656,0.82822800) (0.69732851,0.60095656,0.60189333) (0.60095656,0.60095656,0.68900920) (0.60095656,0.60095656,0.62008239) (0.60095656,0.60095656,0.71202312) (0.60095656,0.60095656,0.60556630)
(0.60938535,0.60095656,0.84989931) (0.69808202,0.60095656,0.60106872) (0.60095656,0.60095656,0.74564551) (0.60095656,0.60095656,0.60411423) (0.60095656,0.60095656,0.70122439) (0.60095656,0.60095656,0.60097401)
(0.60905834,0.60095656,0.86244912) (0.69874720,0.60095656,0.60623454) (0.60095656,0.60095656,0.75138316) (0.60095656,0.60095656,0.65465666) (0.60095656,0.60095656,0.72559608) (0.60095656,0.60095656,0.60097805)
(0.60953421,0.60095656,0.83688704) (0.69998665,0.60095656,0.60225290) (0.60095656,0.60095656,0.86123167) (0.60095656,0.60095656,0.62631993) (0.60095656,0.60095656,0.69913708) (0.60095656,0.60095656,0.60145681)
(0.60984605,0.60095656,0.83179174) (0.70035703,0.60095656,0.60186928) (0.60095656,0.60095656,0.82496647) (0.60095656,0.60095656,0.61212902) (0.60095656,0.60095656,0.71557701) (0.60095656,0.60095656,0.60397600)
(0.61135002,0.60095656,0.89707162) (0.69924970,0.60095855,0.60095932) (0.60095656,0.60095656,0.69123047) (0.60095656,0.60095656,0.60463571) (0.60095656,0.60095656,0.72732692) (0.60095656,0.60095656,0.60095722)
(0.99236717,0.97702449,0.84758451) (0.69902613,0.60096442,0.60123102) (0.60095656,0.60095656,0.78635146) (0.60095656,0.60095656,0.61075289) (0.60095656,0.60095656,0.70864979) (0.60095656,0.60095656,0.60106099)
(0.61421985,0.60095656,0.84319099) (0.70105233,0.60096679,0.60104615) (0.60095656,0.60095656,0.87123608) (0.60095656,0.60095656,0.62603962) (0.60095656,0.60095656,0.77300576) (0.60095656,0.60095656,0.60142515)
(0.61596402,0.60095656,0.84201593) (0.70347224,0.60096962,0.60107119) (0.60095656,0.60095656,0.86472385) (0.60095656,0.60095656,0.60111680) (0.60095656,0.60095656,0.78699164) (0.60095656,0.60095656,0.61260974)
(0.61697018,0.60095656,0.83209423) (0.70370876,0.60097679,0.60492542) (0.60095656,0.60095656,0.90701019) (0.60095656,0.60095656,0.61344249) (0.60095656,0.60095656,0.71018344) (0.60095656,0.60095656,0.60283672)
(0.61620214,0.60095656,0.81434887) (0.70355929,0.60098546,0.60152648) (0.60095656,0.60095656,0.61700344) (0.60095656,0.60095656,0.60467302) (0.60095656,0.60095656,0.66356464) (0.60095656,0.60095656,0.60224391)
(0.61562531,0.60095656,0.78705164) (0.70762210,0.60101117,0.60243544) (0.60095656,0.60095656,0.60115114) (0.60095656,0.60095656,0.61104589) (0.60095656,0.60095656,0.61924660) (0.60095656,0.60095656,0.60138928)
(0.61648428,0.60095656,0.79114746) (0.71234357,0.60104584,0.60410334) (0.60095656,0.60095656,0.83637991) (0.60095656,0.60095656,0.61775467) (0.60095656,0.60095656,0.62813399) (0.60095656,0.60095656,0.60161727)
(0.61754580,0.60095656,0.80922845) (0.74135950,0.60106508,0.60098060) (0.60095656,0.60095656,0.60142897) (0.60095656,0.60095656,0.61598783) (0.60095656,0.60095656,0.63186559) (0.60095656,0.60095656,0.60285496)
(0.61863774,0.60095656,0.85613547) (0.77138030,0.60108612,0.60291889) (1.00000000,1.00000000,0.67893351) (0.60095656,0.60095656,0.60215036) (0.60095656,0.60095656,0.60172040) (0.60095656,0.60095656,0.60689146)
(0.61890865,0.60095656,0.86596521) (0.77636784,0.60128705,0.61116060) (0.60095656,0.60095656,0.65305058) (0.60095656,0.60095656,0.61466220) (0.60095656,0.60095656,0.70773945) (0.60095656,0.60095656,0.63463329)
(0.61884580,0.60095656,0.87014719) (0.77338409,0.60108671,0.63643927) (0.60095656,0.60095656,0.62473785) (0.60095656,0.60095656,0.60925258) (0.60095656,0.60095656,0.64188931) (0.60095656,0.60095656,0.60459221)
(0.61895027,0.60095656,0.86516114) (0.92041886,0.95585683,0.63977887) (0.60095656,0.60095656,0.60203379) (0.60095656,0.60095656,0.60236784) (0.60095656,0.60095656,0.76324946) (0.60095656,0.60095656,0.61047419)
(0.62036115,0.60095656,0.81025750) (0.84805426,0.95693896,0.68728891) (0.60095656,0.60095656,0.64910099) (1.00000000,1.00000000,0.63995993) (1.00000000,0.60095656,0.98512391) (0.60095656,0.60095656,0.61901337)
(0.61796100,0.60095656,0.71758767) (0.73691912,0.95712372,0.69129291) (0.60095656,0.60095656,0.65545064) (1.00000000,1.00000000,0.73968560) (1.00000000,0.60095656,0.99979645) (0.60095656,0.60095656,0.64073143)
(0.62066355,0.60095656,0.77913988) (0.72964295,0.95775978,0.70776393) (0.60095656,0.60095656,0.67813461) (1.00000000,0.60095656,0.71912398) (1.00000000,0.60095656,0.99977680) (0.60095656,0.60095656,0.64102986)
(0.62148853,0.60095656,0.73622497) (0.76484258,0.94812843,0.68139899) (0.60095656,0.60095656,0.63882783) (1.00000000,0.60095656,0.69955034) (1.00000000,1.00000000,0.99916189) (0.60095656,0.60095656,0.61609061)
(0.62233069,0.60095656,0.83244074) (0.93757658,0.60610043,0.68207221) (0.60095656,0.60095656,0.61590888) (0.60095656,0.60095656,0.61424267) (0.97677429,1.00000000,0.97373206) (0.60095656,0.60095656,0.60223410)
(0.62284370,0.60095656,0.83601519) (0.94573494,0.95780950,0.60126283) (0.62836419,0.60095656,0.82221399) (0.60095656,0.60095656,0.70067379) (0.61011295,0.60095656,0.80681104) (0.60095656,0.60095656,0.60444062)
(0.99629921,0.98130944,0.77144500) (0.71166326,0.60108868,0.61250683) (0.60095656,0.60095656,0.62552968) (0.60095656,0.60095656,0.60232080) (0.61219240,0.60095656,0.79024640) (0.60095656,0.60095656,0.60119044)
(0.99639961,0.98168170,0.84196064) (0.71566421,0.60129080,0.62813331) (0.60095656,0.60095656,0.61799689) (0.60095656,0.60095656,0.61509024) (0.61287595,0.60095656,0.75804110) (0.60095656,0.60095656,0.60096743)
(0.99410335,0.98204766,0.88459393) (0.71954750,0.60158313,0.63296958) (0.60095656,0.60095656,0.63641726) (0.60095656,0.60095656,0.60429268) (0.99977870,0.60095656,0.73050682) (0.60095656,0.60095656,0.60201853)
(0.99585052,0.98195972,0.71686974) (0.74883032,0.60165751,0.60666252) (0.60095656,0.60095656,0.67182472) (0.60095656,0.60095656,0.63887802) (0.61468803,0.60095656,0.61609959) (0.66077506,0.60132166,0.60253940)
(0.75168882,0.60095656,0.70149109) (0.68023356,0.95191288,0.63542931) (0.60095656,0.60095656,0.63025348) (0.60095656,0.60095656,0.67610586) (0.61700295,0.60095656,0.69674358) (0.60095656,0.60095656,0.60943858)
(0.62240499,0.60095656,0.64436177) (0.90366586,0.95019342,0.60996327) (0.60095656,0.60095656,0.73740391) (0.60095656,0.60095656,0.61091662) (0.61589209,0.60095656,0.95145428) (0.60095656,0.60095656,0.60099851)
(0.93812760,0.60095656,0.60099804) (0.63935684,0.94985458,0.61870124) (0.60095656,0.60095656,0.61270243) (1.00000000,0.60095656,0.60214236) (1.00000000,0.60095656,0.99836213) (0.60095656,0.60095656,0.61410390)
(0.94318833,0.98432005,0.60202347) (0.65616586,0.60345368,0.62251282) (0.60095656,0.60095656,0.60784354) (0.99918566,1.00000000,0.60754331) (1.00000000,0.60095656,0.99956603) (0.60200444,0.60095656,0.62514493)
(0.94663321,0.98207573,0.60108225) (0.67975570,0.60285360,0.61122128) (0.60095656,0.60095656,0.61382028) (0.99970373,0.64736310,0.69284570) (1.00000000,0.60095656,0.99903810) (0.60204908,0.60095656,0.61815722)
(0.98551285,0.60095656,0.64612957) (0.70205034,0.94186460,0.61216890) (0.60095656,0.60095656,0.62447099) (1.00000000,1.00000000,0.60414049) (0.73990956,1.00000000,0.94942739) (0.60095656,0.60095656,0.60722709)
(0.60289319,0.60095656,0.73040318) (0.83699244,0.94208730,0.60882017) (0.60095656,0.60095656,0.61980708) (0.60095656,0.60095656,0.60460001) (0.61469188,0.60095656,0.75028749) (0.60095656,0.60095656,0.60292427)
(0.96672015,0.60095656,0.72159517) (0.64822310,0.94083433,0.60562154) (0.60095656,0.60095656,0.61564135) (0.60095656,0.60095656,0.60173708) (0.61822097,0.60095656,0.74552384) (0.60095656,0.60095656,0.60096088)
(0.99808085,0.98644212,0.60181200) (0.83187156,0.60747537,0.60114035) (0.60095656,0.60095656,0.63746309) (0.60095656,0.60095656,0.66295547) (0.62215273,0.60095656,0.67303999) (0.60095656,0.60095656,0.60406825)
(0.99759545,0.98652529,0.92817079) (0.83491275,0.60755904,0.62277093) (0.60095656,0.60095656,0.74253414) (0.60095656,0.60095656,0.85134409) (0.62395912,0.60095656,0.64330798) (0.66010151,0.60095656,0.61633551)
(0.99799458,0.98818794,0.98318664) (0.83783886,0.60762734,0.64375093) (0.60095656,0.60095656,0.75041675) (0.60095656,0.60095656,0.90702099) (0.62809070,0.60095656,0.67496469) (0.75818550,0.60095656,0.61434673)
(0.99872262,0.98845471,0.84042715) (0.85422081,0.60847913,0.61694070) (0.60095656,0.60095656,0.70253706) (0.60095656,0.60095656,0.76960144) (0.63074712,0.60095656,0.65762531) (0.60095656,0.60095656,0.60587552)
(0.62030670,0.60095656,0.60095656) (0.82833489,0.93788692,0.60177100) (0.60095656,0.60095656,0.64834172) (0.60095656,0.60095656,0.63669292) (0.63339981,0.60095656,0.74813586) (0.60095656,0.60095656,0.60376276)
(0.77012079,0.98897133,0.61468839) (0.61334278,0.61720022,0.60096613) (0.60095656,0.60095656,0.62821559) (0.60095656,0.60095656,0.60321058) (0.63343283,0.60095656,0.83487007) (0.60095656,0.60095656,0.60442580)
(0.98982420,0.98922153,0.60104894) (0.75540463,0.62705064,0.60175908) (0.60095656,0.60095656,0.65742489) (0.60095656,0.60095656,0.60095656) (0.60662988,0.60095656,0.92435289) (0.60095656,0.60095656,0.60558047)
(0.99303405,0.98950923,0.60297290) (0.78886970,0.65028500,0.60116123) (0.60095656,0.60095656,0.70231547) (0.99962109,0.60095656,0.60703852) (0.61144938,0.60095656,0.92177579) (0.60181781,0.60095656,0.60524198)
(0.99690667,0.98974774,0.61165634) (0.83596912,0.67881397,0.60188063) (0.61440684,0.60095656,0.74100572) (0.60095656,0.60095656,0.71385736) (0.63119830,0.60095656,0.82463523) (0.60235835,0.60095656,0.60450572)
(0.99887767,0.98998117,0.62732615) (0.89338149,0.68102919,0.60678751) (0.62971686,0.60095656,0.72738852) (0.60095656,0.60095656,0.69117324) (0.63075906,0.60095656,0.66404173) (0.60095656,0.60095656,0.60121170)
(0.60226984,0.60095656,0.60749782) (0.74166625,0.86150052,0.60851504) (0.62095468,1.00000000,0.73441643) (0.60095656,0.60095656,0.64508564) (0.63033040,0.60095656,0.61308170) (0.60095656,0.60095656,0.60275890)
(0.98819613,0.60095656,0.60566557) (0.78201055,0.83494559,0.60739145) (0.60095656,0.60095656,0.60668763) (0.60095656,0.60095656,0.61397245) (0.63010511,0.60095656,0.65115847) (0.60096576,0.60095656,0.60097397)
(0.95144841,0.60095656,0.60160329) (0.66868666,0.80667125,0.60601423) (0.60095656,0.60095656,0.77335907) (0.60095656,0.60095656,0.61453525) (0.63094016,0.60095656,0.61253874) (0.60100136,0.60095656,0.60215747)
(0.94735802,0.99180576,0.60097415) (0.66659837,0.75201010,0.60185151) (0.60095656,0.60095656,0.76594372) (0.60095656,0.60095656,0.66813919) (0.62929180,0.60095656,0.63958558) (0.60100325,0.60095656,0.60345832)
(0.99750565,0.99155263,0.60318270) (0.85581291,0.74060772,0.60285547) (0.60095656,0.60095656,0.68689518) (0.60095656,0.60095656,0.65819166) (0.62771062,0.60095656,0.63796521) (0.60100143,0.60095656,0.60188659)
(0.99940441,0.99175128,0.60096749) (0.90856469,0.71099506,0.60451030) (0.60095656,0.60095656,0.74448138) (0.60095656,0.60095656,0.65851256) (0.62749295,0.60095656,0.60095905) (0.60100013,0.60095656,0.60122315)
(0.60095674,0.99194550,0.60177908) (0.72988175,0.74046433,0.61452539) (0.60095656,0.60095656,0.61495654) (0.60095656,0.60095656,0.60700117) (0.62630103,0.60095656,0.60295902) (0.60099883,0.60095656,0.60261957)
(0.63402719,0.60102196,0.60447055) (0.65968267,0.79192724,0.66942471) (0.60095656,0.60095656,0.74133476) (0.60095656,0.60095656,0.60978714) (0.62543982,0.60095656,0.64136625) (0.60096718,0.60095656,0.60737422)
(0.60148448,0.60095656,0.63515664) (0.70563818,0.78423302,0.76881414) (0.60095656,0.60095656,0.60536625) (0.95549522,0.60095656,0.64586167) (0.60167213,0.60095656,0.70518889) (0.60099931,0.60095656,0.63022081)
(0.60117581,0.60097994,0.64030603) (0.70657406,0.75521054,0.77780957) (0.60095656,0.60095656,0.60543395) (0.99913978,1.00000000,0.66700604) (0.60300490,0.60095656,0.69434872) (0.60096730,0.60095656,0.63676629)
(0.60104600,0.99269541,0.62349186) (0.70683432,0.80704161,0.74809906) (0.60095656,0.60095656,0.60112856) (0.99999603,1.00000000,0.64864862) (0.60659269,0.60095656,0.71828902) (0.60095656,0.60095656,0.62408770)
(0.60338819,0.60095656,0.60096930) (0.68329468,0.72771673,0.63799237) (0.60095656,0.60095656,0.67010952) (0.60095656,0.60095656,0.60639272) (0.68727088,0.60095656,0.70331682) (0.60095656,0.60095656,0.60237366)
(0.60296164,0.60095656,0.60552277) (0.73300028,0.71462006,0.60399042) (0.60095656,0.60095656,0.66289044) (0.60095656,0.60095656,0.60185269) (0.62343482,0.60095656,0.61388787) (0.60095656,0.60095656,0.60113936)
(0.97426315,0.60095656,0.61134140) (0.74461784,0.70695357,0.60219626) (0.60095656,0.60095656,0.74049040) (0.60095656,0.60095656,0.60674042) (0.90415000,0.60095656,0.62736288) (0.60095656,0.60095656,0.60311267)
(0.99970694,0.99416446,0.60848780) (0.92369575,0.84609302,0.60814290) (0.60095656,0.60095656,0.61679660) (0.60095656,0.60095656,0.60824229) (0.62205691,0.60095656,0.60769608) (0.60095656,0.60095656,0.60343075)
(0.99972207,0.99431096,0.60630032) (0.92451759,0.85507313,0.60463206) (0.60095656,0.60095656,0.64902865) (0.60095656,0.60095656,0.69372261) (0.62235045,0.60095656,0.62847950) (0.60095656,0.60095656,0.60759628)
(0.99973498,0.99447016,0.61089543) (0.92486764,0.86397206,0.60611080) (0.60095656,0.60095656,0.72417633) (0.60095656,0.60095656,0.62221266) (0.62259958,0.60095656,0.61575698) (0.60095656,0.60095656,0.60163585)
(0.91114153,0.60095656,0.60291439) (0.92544688,0.86584181,0.61094026) (1.00000000,1.00000000,0.80915624) (0.60095656,0.60095656,0.66070783) (0.62543527,0.60095656,0.60926818) (0.60095656,0.60095656,0.60115155)
(0.62456920,0.60095656,0.64590968) (0.76699817,0.86668743,0.60394405) (0.62434625,1.00000000,0.77369100) (0.60095656,0.60095656,0.62249253) (0.62837673,0.60095656,0.60682139) (0.60095656,0.60095656,0.60115868)
(0.62388528,0.60095656,0.61943639) (0.76183331,0.67824294,0.80854747) (0.60100665,0.60095656,0.60318485) (0.97074878,0.60095656,0.65505226) (0.60310720,0.60095656,0.96984731) (0.60095656,0.60095656,0.63123373)
(0.61954743,0.60095656,0.60117067) (0.76109735,0.68030696,0.96564049) (0.60115780,0.60095656,0.69016110) (0.96359225,0.60868923,0.88299702) (0.61996191,0.60095656,0.99886997) (0.60095656,0.60095656,0.69951719)
(0.61718346,0.60095656,0.60671082) (0.75712085,0.69039852,0.97730825) (0.60122229,0.60095656,0.67695853) (0.92461810,0.60095656,0.86927086) (0.61079849,0.60095919,0.99921693) (0.60095656,0.60095656,0.72059994)
(0.68035426,0.99543041,0.62997061) (0.62461332,0.84286311,0.95362446) (0.60133710,0.60095656,0.61134282) (0.91276125,0.60095656,0.71756506) (0.61330085,0.60095656,0.99813685) (0.60128101,0.60095656,0.67456375)
(0.61287421,0.60095656,0.60460422) (0.75207381,0.69142081,0.84181113) (0.60147606,0.60095656,0.60357526) (0.95184767,0.60095656,0.60153509) (0.61596678,0.60095656,0.97688898) (0.60095656,0.60095656,0.63580080)
(0.60679377,0.60095656,0.85395613) (0.74680637,0.70178703,0.64161676) (0.60163810,0.60095656,0.60199742) (0.60095656,0.60095656,0.61140618) (0.62862483,0.60095656,0.90050660) (0.60095656,0.60095656,0.62026989)
(0.99988199,0.99624643,0.87159714) (0.93050413,0.84409524,0.60707496) (0.60179745,0.60095656,0.92400936) (0.60095656,0.60095656,0.62358185) (0.62932172,0.60095656,0.63729080) (0.60095656,0.60095656,0.60864580)
(0.99208805,0.99634553,0.83524944) (0.76988829,0.85099574,0.61325523) (0.60197164,0.60095656,0.75257536) (0.60095656,0.60095656,0.63939350) (0.62929153,0.60095656,0.60147662) (0.60095656,0.60095656,0.60614694)
(0.99699282,0.99641566,0.60141387) (0.84524654,0.85999681,0.60272847) (0.61531381,0.60095656,0.69235305) (0.60095656,0.60095656,0.75942516) (0.60207909,0.60095656,0.62047374) (0.67268095,0.60116697,0.60130230)
(0.62999867,0.60095656,0.63259864) (0.93187849,0.86915360,0.60379912) (0.60200976,0.60095656,0.62186934) (0.60095656,0.60095656,0.72528156) (0.62538757,0.60095656,0.79433864) (0.60095656,0.60095656,0.60152074)
(0.60221194,0.60095656,0.65033369) (0.71050479,0.68078828,0.65691429) (0.60200062,0.60095656,0.64021934) (0.60095656,0.60095656,0.69302815) (0.62547527,0.60095656,0.91143371) (0.60095656,0.60095656,0.60099316)
(0.76682134,0.60095656,0.69800035) (0.60104060,0.67866731,0.63081136) (0.60199144,0.60095656,0.73411106) (0.60095656,0.60095656,0.60231662) (0.72880551,0.60095656,0.91843087) (0.60095656,0.60095656,0.63033835)
(0.65154686,0.60095656,0.88878738) (0.62838674,0.66414961,0.86418532) (0.60200785,0.60095656,0.60322012) (0.94036689,0.60095656,0.66442636) (0.69085898,0.60095656,0.68837643) (0.60095656,0.60095656,0.70071558)
(0.60579348,0.60095656,0.91531009) (0.67401921,0.65060035,0.92579239) (0.60215090,0.60095656,0.61563302) (0.85672441,1.00000000,0.69950256) (0.67057803,0.60095656,0.60170874) (0.60095656,0.60095656,0.72289056)
(0.60914617,0.60095656,0.88921164) (0.72414160,0.64894889,0.91397458) (0.60112672,0.60095656,0.60721454) (0.86151060,1.00000000,0.65639632) (0.68937916,0.60095656,0.60097015) (0.60095656,0.60095656,0.72428813)
(0.61620719,0.60095656,0.78757903) (0.73758933,0.61275161,0.88281586) (0.62307210,1.00000000,0.60540376) (0.92584190,0.60095656,0.60773589) (0.66186986,1.00000000,0.62737075) (0.60095656,0.60095656,0.70548651)
(0.60151376,0.60095656,0.80306241) (0.61116552,0.88719670,0.78203566) (1.00000000,1.00000000,0.60213963) (0.97179635,0.60095656,0.63321916) (0.61445612,0.60095656,0.70052449) (0.83367282,0.60095656,0.61174037)
(0.60113710,0.60095656,0.84767963) (0.77176919,0.87483171,0.60097125) (1.00000000,0.60095656,1.00000000) (0.60095656,0.60095656,0.60304921) (0.60362773,0.60095656,0.81748996) (1.00000000,1.00000000,0.96642959)
(0.60101077,0.60095656,0.90375268) (0.90751180,0.87255638,0.71402701) (1.00000000,0.60095656,1.00000000) (0.60095656,0.60095656,0.83141481) (0.60430638,0.60095656,0.77382942) (1.00000000,1.00000000,0.99982653)
(0.60312652,0.60095656,0.85426069) (0.93612153,0.87160599,0.79343983) (1.00000000,0.60095656,1.00000000) (0.60095656,0.60095656,0.83716810) (0.61726406,0.60095656,0.75596069) (1.00000000,1.00000000,0.99997195)
(0.60550082,0.60136490,0.74045905) (0.93805713,0.86248290,0.80191249) (1.00000000,0.60095656,1.00000000) (0.60095656,0.60095656,0.89593026) (0.61256131,0.60095656,0.70567400) (1.00000000,1.00000000,0.99995755)
(0.61106209,0.60095656,0.71178879) (0.93780919,0.87121406,0.77275692) (1.00000000,0.60095656,1.00000000) (0.60095656,0.60095656,0.89173267) (0.61525159,0.60095656,0.60101051) (1.00000000,1.00000000,0.99944897)
(0.61088258,0.60095656,0.65402230) (0.63563626,0.87348940,0.74496952) (1.00000000,0.60095656,1.00000000) (0.60095656,0.60095656,0.72451238) (0.61448993,0.60095656,0.71566603) (1.00000000,1.00000000,0.99659417)
(0.61857051,0.60095656,0.94576129) (0.74532059,0.67956784,0.85783495) (0.97391535,0.60095656,0.97528151) (0.80547550,1.00000000,0.92773675) (0.60484988,0.60095656,0.96818170) (0.68106054,0.60129973,0.83898562)
(0.61157886,0.99556164,0.99999638) (0.76460329,0.85534713,0.99981382) (0.61823590,0.60095656,0.65557388) (0.71806830,0.60095895,0.99714693) (0.60677398,0.60096136,0.97611820) (0.60257487,0.60095656,0.60126925)
(0.60631166,0.81594417,1.00000000) (0.68754691,0.62091690,0.99999800) (0.86584280,0.60095656,0.63514512) (0.66655801,1.00000000,0.99751809) (0.60133463,0.61630732,0.92762933) (0.74553896,0.60095670,0.61216870)
(0.62518845,0.79455486,1.00000000) (0.65971898,0.60750203,0.99999998) (0.95040815,1.00000000,0.79398742) (0.64900623,0.60095656,0.99789361) (0.60095693,0.60095656,0.93463959) (0.76818851,0.60098253,0.66015905)
(0.62550007,0.60095656,1.00000000) (0.76177165,0.65134324,0.99999553) (0.99385452,1.00000000,0.93137727) (0.67236210,0.60095656,0.99998622) (0.60243458,0.60095656,0.91927001) (0.69652493,0.60103960,0.60289671)
(0.62683368,0.60095656,0.99910993) (0.76374219,0.67630196,0.99895758) (0.99779829,1.00000000,0.80355041) (0.70025552,0.60095656,0.99993795) (0.60606780,0.60095656,0.99241849) (0.64130789,0.60095656,0.65819326)
(0.63015904,0.60095656,0.92582949) (0.76481999,0.87199917,0.98222717) (0.99954098,0.60095656,0.60776022) (0.76842844,0.60095656,0.99616498) (0.60413158,1.00000000,0.99710676) (0.66009101,0.60095656,0.68067925)
(0.60571791,0.60095656,0.65991714) (0.67533709,0.73458812,0.65291694) (0.99998847,0.60095656,0.87923881) (0.96867017,0.60095656,0.75568298) (0.60155168,0.68996120,0.86119964) (0.99750639,1.00000000,0.72939740)
(0.91795450,0.60100429,0.65350768) (0.91783624,0.90187339,0.95379686) (0.99917993,0.60095656,0.96016199) (0.60095656,0.60095656,0.73554908) (0.60170773,0.60095656,0.69035407) (1.00000000,1.00000000,0.92315710)
(0.61028693,0.60095656,0.95957669) (0.61128565,0.64851711,0.99999725) (0.99999366,0.60095656,0.85773173) (0.95743651,0.60095656,0.99996170) (0.60152163,0.60095656,0.65199080) (0.99999990,0.60657577,0.99844301)
(0.60431138,0.60095656,0.99197932) (0.67809999,0.65001685,0.99999995) (0.99999787,0.60095656,0.86734635) (1.00000000,0.60095656,0.99999974) (0.60367679,0.60095656,0.62970112) (0.99799893,0.60095656,0.99976485)
(0.61222727,0.60095656,0.98912876) (0.70831911,0.64214139,0.99999995) (0.99976466,0.60095656,0.86732574) (1.00000000,0.60095656,0.99999507) (0.60629676,0.60095656,0.75898613) (0.99472107,0.60095656,0.99996168)
(0.61010855,0.60095656,0.99731965) (0.70995817,0.64191702,0.99999971) (0.99879566,0.60095656,0.93408408) (1.00000000,0.60095656,0.99997021) (0.60786410,0.60095656,0.74109946) (0.99263207,0.60110048,0.99974664)
(0.61855983,0.60095656,0.99237722) (0.72801384,0.63093419,0.99999658) (0.97883504,0.60095656,0.98328351) (1.00000000,1.00000000,0.99999827) (0.60620741,0.60095670,0.62443190) (0.99695671,0.60098669,0.99418145)
(0.78921056,0.98852691,0.60097042) (0.60169206,0.91853475,0.99997628) (0.61525801,0.60095656,0.99807284) (0.99993296,0.60095656,1.00000000) (0.60478204,0.60095656,0.62823480) (0.96461328,1.00000000,0.99046963)
(0.99251786,0.99740760,0.99396309) (0.77225128,0.92995245,0.99506419) (0.60489583,1.00000000,0.99954004) (0.64666327,0.60095656,0.99999998) (0.60625619,0.60095656,0.61727382) (0.91256393,0.60095730,0.98188972)
(0.99986117,0.99675196,0.99999999) (0.94092383,0.92445482,0.61442581) (0.67227822,0.60095656,0.99966069) (0.60095656,0.60095656,0.99966237) (0.61172026,0.60095656,0.61412363) (0.97747884,0.60095656,0.87722262)
(0.99126563,0.60095656,1.00000000) (0.78811467,0.62174642,0.89486791) (0.62005907,1.00000000,0.99935699) (0.62878155,1.00000000,0.98187687) (0.60513727,0.60095663,0.82935209) (0.98059198,0.61663132,0.74569823)
(0.85454656,0.60095656,1.00000000) (0.60396095,0.62324603,0.99755769) (0.60110195,0.60095656,0.83004139) (0.69809088,0.60095942,0.65232299) (0.60310907,0.60095659,0.88288320) (0.94177993,0.60147471,0.60279772)
(0.67685869,0.60095656,1.00000000) (0.65044211,0.61819220,0.99999057) (0.60376449,0.60095656,0.60379015) (0.67367492,0.60095656,0.98917124) (0.60158289,0.60522227,0.98225978) (0.80730113,0.60095700,0.63305258)
(0.60744370,0.60095656,1.00000000) (0.72426851,0.61668130,0.99999915) (0.61804640,0.60095656,0.97911721) (0.72474442,0.60095656,0.99974292) (0.60097867,0.60095658,0.98058036) (0.73424416,0.60095656,0.66997479)
(0.60972775,0.60095656,0.99999967) (0.77891664,0.61668325,0.99999549) (0.62209763,0.60095656,0.99820318) (0.69759943,0.60095656,0.99989998) (0.60181003,0.60095656,0.90299660) (0.78683652,0.60095656,0.71012842)
(0.60107748,0.60095656,0.96221172) (0.73796314,0.60110930,0.78270598) (0.61242314,0.60095656,0.98782610) (0.70267646,0.60095656,0.81152917) (0.60193883,0.60106031,0.60882461) (0.81131636,0.99999994,0.61342563)
(0.65447490,0.60095656,0.96007098) (0.64736929,0.69214717,0.99168272) (0.61967092,0.60095656,0.99809871) (0.76910591,1.00000000,0.99869725) (0.60134488,1.00000000,0.63742261) (0.81455673,0.60095656,0.66902314)
(0.71031736,0.60095656,0.86922449) (0.62006887,0.61171772,0.98720705) (0.61987925,1.00000000,0.99735881) (0.70913256,0.60095657,0.99844775) (0.60100821,0.60095656,0.65117710) (0.77067185,0.60095656,0.68086208)
(0.79953565,0.60095656,0.69059783) (0.60108615,0.60799299,0.96420156) (0.62390834,0.60095656,0.98506952) (0.75123378,0.62338485,0.99683868) (0.60095950,0.60095656,0.66729650) (0.76330200,0.60095656,0.66380312)
(0.93185735,0.60095684,0.60875542) (0.66547332,0.60755132,0.72312418) (0.60249638,0.60095656,0.79493948) (0.74765068,0.60095656,0.93672233) (0.60247490,1.00000000,0.61158446) (0.91179019,0.67931247,0.60713919)
(0.99735626,0.99749385,0.63860711) (0.92012840,0.95863058,0.73210979) (0.64416743,0.60095656,0.75114400) (0.60095656,0.60095656,0.61139904) (0.60937505,0.60095656,0.64284543) (0.99941826,0.60095656,0.73448237)
(0.99683074,0.99743124,0.63256150) (0.97172073,0.96017389,0.81237488) (0.99033512,0.60095656,0.97453971) (0.60095656,0.60095656,0.61438874) (0.61976481,0.60095656,0.61687034) (1.00000000,0.60258602,0.89088171)
(0.62806003,0.92653337,0.67486786) (0.92234570,0.96117233,0.99100990) (1.00000000,0.60095656,1.00000000) (0.60095656,0.60095656,0.60459698) (0.61418896,0.60095656,0.66730678) (1.00000000,1.00000000,0.99997456)
(0.60305184,0.61377808,0.77448173) (0.91728403,0.95968965,0.99869476) (1.00000000,0.60095656,1.00000000) (0.66232530,0.60095656,0.60098795) (0.61290534,0.60095656,0.75930855) (1.00000000,1.00000000,0.99999987)
(0.62464666,0.61661155,0.80457726) (0.90852325,0.91451739,0.99951154) (0.99999999,0.60095656,0.99999993) (0.63900457,0.60095656,0.63418393) (0.61416504,0.60095656,0.70928027) (1.00000000,1.00000000,0.99999991)
(0.69916088,0.95964752,0.91400705) (0.90215308,0.94136146,0.99928694) (0.99999859,1.00000000,0.99931912) (0.73526846,0.60095656,0.82448161) (0.61530174,0.60095656,0.69409122) (1.00000000,1.00000000,0.99999950)
(0.76334117,0.98827155,0.93271205) (0.88558920,0.95872281,0.99426540) (0.99999866,0.60095656,0.99010541) (0.80946821,0.60095656,0.76216531) (0.61418696,0.60095656,0.60128289) (1.00000000,0.99998637,0.99994450)
(0.68869103,0.60095656,0.84264131) (0.63088292,0.60530555,0.97367267) (0.99992234,0.60095656,0.75334591) (0.60095656,0.60095656,0.77734914) (0.61116682,0.60095656,0.79553499) (0.99999870,0.60096201,0.98843526)
(0.66858531,0.60095656,0.65455067) (0.60218061,0.60481715,0.98938099) (0.65949403,0.60095656,0.66638943) (0.60095656,0.60095656,0.86666205) (0.72551058,0.60095657,0.99944221) (0.60817771,0.60095656,0.74307621)
(0.61957809,0.60095656,0.67595268) (0.75953304,0.60528932,0.83939492) (0.62472733,1.00000000,0.71309966) (0.84300931,1.00000000,0.87916904) (0.63914502,0.60095665,0.93226767) (0.60100876,0.60096669,0.85230708)
(0.62653565,0.60095656,0.91390868) (0.78339726,0.60524262,0.99905873) (0.71608160,0.60095656,0.84011241) (0.70755655,1.00000000,0.99957948) (0.60899511,0.60098022,0.75722078) (0.60102360,0.60095656,0.97282566)
(0.63111306,0.60095724,0.98624727) (0.78134190,0.60473782,0.99995510) (0.72660444,0.60095656,0.88049597) (0.68069506,0.60095656,0.99999860) (0.60889706,0.60098033,0.82688567) (0.60100319,0.60095656,0.98536090)
(0.63004538,0.60095656,0.99904171) (0.79046273,0.60099817,0.99998924) (0.64927265,0.60095656,0.88919738) (0.67297956,0.60095656,0.99999995) (0.60539640,0.99980196,0.85123984) (0.60105024,0.60095656,0.98223626)
(0.62595651,0.60095656,0.99359421) (0.79025249,0.60482977,0.99877190) (0.61034984,0.60095656,0.91515067) (0.67584080,0.60095656,0.99999818) (0.60765019,0.60095656,0.88733675) (0.60099993,0.60095656,0.89341022)
(0.62313060,0.60095656,0.98774369) (0.76646595,0.85597063,0.99659726) (0.64570198,0.60095656,0.99705066) (0.64459728,0.60095656,0.99999307) (0.61412772,0.60095656,0.82746499) (0.63108606,1.00000000,0.80063844)
(0.62555149,0.60227603,0.90003984) (0.73097982,0.92920872,0.89847649) (0.63877768,0.60095656,0.99943297) (0.74062966,0.60095656,0.99948000) (0.61935610,0.60095656,0.89837093) (0.85267836,1.00000000,0.61220604)
(0.62387916,0.60095656,0.69290781) (0.63275490,0.92695590,0.61718052) (0.73979787,0.60095656,0.99878823) (0.98468282,1.00000000,0.92931355) (0.65092080,1.00000000,0.97506079) (0.99886713,1.00000000,0.73977161)
(0.60237540,0.60095656,0.60108573) (0.88123255,0.62209268,0.96940826) (1.00000000,0.60095656,0.98058537) (0.60095656,0.60095656,0.60294404) (0.64405932,0.99999704,0.99797467) (1.00000000,0.99990421,0.95338513)
(0.60424394,0.60095656,0.60590351) (0.69539465,0.60552501,0.99509906) (1.00000000,0.60095656,0.82867559) (0.98209837,0.60095656,0.85348124) (0.60159524,0.60095656,0.95369785) (1.00000000,0.60095656,0.99241209)
(0.61937102,0.60095656,0.99845642) (0.62860765,0.60800220,0.99999770) (0.84612043,0.60095656,0.60138393) (0.99986295,0.60095656,0.99975278) (0.60991444,0.60095656,0.84331634) (0.97708912,0.60095656,0.99821799)
(0.60095670,0.60095656,0.99739490) (0.69462196,0.61099342,0.99999657) (0.69397362,0.60095656,0.96520722) (1.00000000,0.60095656,0.99994178) (0.60982572,0.60095656,0.85746420) (0.93069121,0.60095656,0.99370357)
(0.60096600,0.77895350,0.98761058) (0.73119550,0.64330053,0.99995638) (0.69575806,0.60095656,0.99633754) (1.00000000,0.60095656,0.99964477) (0.61384631,0.60095656,0.86454711) (0.74411891,0.60095656,0.98007003)
(0.60454636,0.61107132,0.99755555) (0.77524622,0.60205808,0.99996269) (0.67495099,1.00000000,0.89035095) (1.00000000,0.60095656,0.99990617) (0.61348419,0.60095656,0.83589000) (0.62120594,0.60095656,0.97524638)
(0.66685422,0.60095656,0.99900439) (0.66220436,0.60806541,0.99998941) (0.62909038,1.00000000,0.99933016) (1.00000000,0.60095656,0.99982251) (0.61313320,0.60095669,0.84735953) (0.66203926,0.60095656,0.98139546)
(0.65852110,0.60095656,0.99696147) (0.60250855,0.65527900,0.99993752) (0.61922519,0.60095656,0.99933443) (0.99046874,1.00000000,0.99625401) (0.60721266,0.60095656,0.89723341) (0.99815816,1.00000000,0.97282975)
(0.61262189,0.60095656,0.77611891) (0.60287327,0.76908241,0.95406146) (0.60107403,0.60095656,0.99476632) (0.60095656,0.60095656,0.79826546) (0.60438600,0.60095656,0.75271890) (0.99993096,1.00000000,0.84381657)
(0.84900264,0.60095656,0.60772160) (0.74871550,0.60223239,0.87974499) (0.69612133,0.60095656,0.63357731) (0.60095656,0.60095656,0.65688321) (0.60171455,0.60095656,0.94945325) (1.00000000,0.68388061,0.77492795)
(0.61051990,0.61060161,0.63513985) (0.60833342,0.60100186,0.71973046) (0.63814387,0.60095656,0.76076763) (0.99987853,1.00000000,0.68945769) (0.75243093,0.60095656,0.99612409) (0.98943270,0.60166157,0.64911917)
(0.62661972,0.60095656,0.85640545) (0.67056451,0.60506475,0.64216427) (0.65542449,0.60095656,0.82965525) (0.97585382,1.00000000,0.89212411) (0.65860686,0.60095656,0.98657064) (0.76397636,0.60107259,0.62089573)
(0.65103094,0.60095656,0.85710752) (0.70872093,0.60477737,0.80978883) (0.66813287,1.00000000,0.89815680) (0.90415991,0.60095656,0.97465826) (0.62401855,0.60095660,0.95745871) (0.78467210,0.60106637,0.73336603)
(0.64977586,0.60095656,0.93478115) (0.72596269,0.60417216,0.92264756) (0.68021306,0.60095656,0.85263822) (0.87257651,0.60095656,0.96661906) (0.60996140,0.60095656,0.75822569) (0.77543798,0.60226161,0.79061520)
(0.60768602,0.60095656,0.82460494) (0.68225927,0.60366029,0.88646905) (0.68046863,0.60095656,0.92026067) (0.87242497,0.60095656,0.96916446) (0.60101639,0.62969309,0.65173360) (0.69001480,0.60095656,0.72729798)
(0.61515302,0.60095656,0.84056971) (0.72734812,0.60465526,0.78653203) (0.69850373,0.60095656,0.70599734) (0.85801744,0.60095656,0.96892232) (0.60594680,0.60095668,0.85934664) (0.66131175,0.60095656,0.68972417)
(0.61646570,0.60174521,0.81391328) (0.60446692,0.60343677,0.60111949) (0.69911933,0.60095656,0.62419782) (0.98045804,1.00000000,0.84196218) (0.72394321,0.60095656,0.99830311) (0.76290507,0.60095657,0.61587910)
(0.60934898,0.99802244,0.68185082) (0.68969409,0.96266104,0.76386648) (0.69974391,0.60095656,0.82025063) (0.99999986,0.98332256,0.69863360) (0.87949429,0.60095656,0.99998067) (0.99921651,1.00000000,0.60095656)
(0.68924906,0.60095656,0.63944994) (0.99708208,0.96401372,0.83321775) (0.69627893,0.60095656,0.60601286) (0.60095656,0.60095656,0.63253214) (0.63505444,0.60095656,0.99962375) (0.60099395,0.60095656,0.60947857)
(0.62557831,0.60095656,0.83676620) (0.69049839,0.60219068,0.89209565) (0.99782639,0.60095656,0.68365378) (0.60095656,0.60095656,0.60105131) (0.60776923,0.81547553,0.97921958) (0.60099527,0.60095656,0.66554743)
(0.69651211,0.60095656,0.87553183) (0.75482303,0.60113505,0.96326734) (0.60121967,0.60095656,0.98182074) (0.98882592,0.60095656,0.86439694) (0.61397921,0.96314833,0.71724418) (0.60099601,0.60095656,0.83740942)
(0.60377886,0.60095656,0.75233672) (0.66689879,0.60316635,0.96391959) (0.60095761,0.60095656,0.99056433) (0.99932700,0.60095656,0.96538376) (0.61856905,0.99999784,0.60735550) (0.60267704,0.60095656,0.89835364)
(0.94870969,0.60095656,0.68646450) (0.60260836,0.60100882,0.94467642) (0.67622801,0.60095656,0.99203940) (0.99902617,0.60095656,0.96049284) (0.61537052,0.99708555,0.61149119) (0.60100302,0.60095656,0.86842729)
(0.81048003,0.60622985,0.72003741) (0.60331811,0.60859385,0.89083261) (0.60213475,0.60095656,0.79473224) (0.99979011,0.61296111,0.88536097) (0.63561300,0.99999996,0.60192915) (0.60100972,0.60095656,0.83048688)
(0.68519166,0.60095656,0.69604418) (0.68880543,0.60421753,0.81959693) (0.70431423,0.60095656,0.74330178) (1.00000000,1.00000000,0.78921717) (0.71732706,0.62104319,0.61639774) (0.60102066,0.60095656,0.79771687)
(0.68360832,0.60095656,0.69038938) (0.65786404,0.60475623,0.65644414) (0.70458445,0.60095656,0.63722900) (0.99999433,1.00000000,0.62896082) (0.80046358,0.60095656,0.79804994) (0.60103259,0.60095656,0.71385621)
(0.67758413,0.60095656,0.62617031) (0.60840799,0.60507381,0.61051735) (0.61551285,0.60095656,0.61605243) (0.60095656,0.60095656,0.65426826) (0.92303346,0.60095656,0.93579700) (0.60108443,0.60095656,0.70675157)
(0.73599325,0.60095656,0.61191168) (0.60710126,0.60540273,0.60190670) (0.60301134,0.60095656,0.71232562) (0.60095656,0.60095656,0.60098263) (0.83450791,0.60095656,0.65137631) (0.60114941,0.60095656,0.62418315)
(0.91589912,0.60095656,0.77122826) (0.62527620,0.60562991,0.62945568) (0.63273555,0.60095757,0.87846502) (0.60095656,0.60095656,0.74296370) (0.61041911,0.60095656,0.90742075) (0.60133163,0.60095656,0.61910726)
(0.66800292,0.61296900,0.87888525) (0.71332954,0.60168194,0.77443276) (0.63070709,0.60095656,0.96759543) (0.60095656,0.60095656,0.93552760) (0.60753877,0.60095656,0.95583250) (0.60159748,0.60095656,0.72663813)
(0.65916280,0.60095656,0.91218659) (0.80995681,0.60510415,0.84104444) (0.61917419,0.60095656,0.95758036) (0.60095656,0.60095656,0.98395169) (0.60372191,0.60095656,0.94044919) (0.60221167,0.60095656,0.74909547)
(0.68160654,0.60095656,0.83880617) (0.81258035,0.60120506,0.76837288) (0.63474602,0.60095656,0.75670117) (0.60095656,0.60095656,0.97970590) (0.60288377,0.92457832,0.91876977) (0.60302573,0.60095656,0.70843593)
(0.68511716,0.60095656,0.70390814) (0.79176219,0.96863461,0.67069920) (0.60098893,0.60095656,0.73427187) (0.60095656,0.60095656,0.90014499) (0.60110128,1.00000000,0.85061408) (0.60424969,0.60095656,0.65580179)
(0.62491953,0.60339236,0.61413156) (0.63594552,0.96043727,0.61494207) (0.61834013,0.60095656,0.80045225) (0.60095656,0.60095656,0.74794724) (0.74718872,1.00000000,0.60222623) (0.60574655,0.60095656,0.60259066)
(0.88443571,0.61211075,0.64457986) (0.84592176,0.76729312,0.60323495) (0.69476693,0.60095656,0.83756184) (0.60095656,0.60095656,0.60142713) (0.98956382,1.00000000,0.95014688) (0.60750663,0.60095656,0.61974932)
(0.95251044,0.99740473,0.67466757) (0.78681445,0.71182861,0.60433782) (0.63617219,0.60095656,0.60133507) (0.60095656,0.60095656,0.60159425) (0.95012996,0.60095656,0.99173187) (0.60952601,0.60095656,0.67623617)
(0.98450587,0.81307694,0.60779842) (0.73197659,0.63491857,0.60864168) (0.69250962,0.60095656,0.63088158) (0.99402286,0.60095656,0.62933625) (0.85773560,0.99882688,0.99695205) (0.61170585,0.60095656,0.70023746)
(0.87706668,0.60095656,0.60153872) (0.63284362,0.86284017,0.60535134) (0.60629589,0.60095656,0.68479766) (0.99248020,0.60095656,0.71653247) (0.82011391,1.00000000,0.99577775) (0.61410795,0.60095656,0.71526416)
(0.68423428,0.60095656,0.75008262) (0.61448535,0.78988772,0.60824295) (0.62491228,0.60095656,0.60269807) (0.99999938,0.60095656,0.64367722) (0.87781452,1.00000000,0.98800492) (0.61416383,0.60095656,0.69221952)
(0.60121197,0.60095656,0.63804928) (0.60097440,0.60554234,0.60739710) (0.60872606,0.60095656,0.64468819) (0.99999982,0.60095656,0.63457542) (0.86596300,0.60095656,0.94989180) (0.61516718,0.60095656,0.68781255)
(0.99881914,0.60095656,0.61197410) (0.79044498,0.60524122,0.60126940) (0.60246231,0.60095656,0.64588454) (0.89245422,0.60095656,0.69254849) (0.80523416,0.60095656,0.90688458) (0.61531580,0.60095656,0.67000199)
(0.94678545,0.78507082,0.60095656) (0.77931966,0.60372068,0.60826880) (0.60438418,0.60095656,0.66565398) (0.98406374,0.60095656,0.62124411) (0.94537789,0.60095656,0.72823928) (0.61546492,0.60095656,0.64451335)
(0.69722286,0.60095656,0.62064203) (0.84957556,0.60474038,0.61434841) (0.73533923,0.60095656,0.68832224) (0.60095656,0.60095656,0.61216262) (0.99993216,0.60095656,0.60128256) (0.61516617,0.60095656,0.60650516)
(0.69800895,0.60095656,0.63305783) (0.71027390,0.60453639,0.60102636) (0.73627072,0.60095656,0.60598274) (0.60095656,0.60095656,0.65041900) (0.99779484,0.60095656,0.60112594) (0.61531373,0.60095656,0.60415666)
(0.69675036,0.60095656,0.60816478) (0.60501181,0.60478017,0.60893031) (0.62150564,0.60095656,0.91214830) (0.60095656,0.60095656,0.68173046) (0.91447951,0.60095656,0.60374656) (0.61814907,0.60095656,0.62325614)
(0.67518755,0.60095656,0.74458314) (0.60095656,0.60493397,0.69754146) (0.60100768,0.60095656,0.66828399) (0.60095656,0.60095656,0.64605149) (0.79255208,0.60102304,0.68175290) (0.62121061,0.60095656,0.62458261)
(0.96032180,0.60096077,0.70692065) (0.64147599,0.60531381,0.72855623) (0.61915343,0.60095656,0.60095698) (0.60095656,0.60095656,0.88601798) (0.75141029,0.60095656,0.65767587) (0.62159523,0.60095656,0.60961894)
(0.77876288,0.60095656,0.65424717) (0.64698473,0.97054813,0.67693717) (0.69387368,0.60095656,0.60120584) (0.60095656,0.60095656,0.68331362) (0.90679510,1.00000000,0.77517250) (0.62198248,0.60095656,0.60145375)
(0.69537020,0.60095656,0.60272631) (0.71672758,0.75425678,0.61983133) (0.61795704,0.60095656,0.60224855) (0.60095656,0.60095656,0.61366829) (0.99681481,1.00000000,0.79814949) (0.62374799,0.60095656,0.60608484)
(0.69589611,0.60095656,0.62534015) (0.70400242,0.71419365,0.60095656) (0.60105528,0.60095656,0.60115483) (0.60095656,0.60095656,0.60754157) (0.99568409,1.00000000,0.80445839) (0.62792392,0.60095656,0.63244005)
(0.69429045,0.60095656,0.64773674) (0.61401651,0.97049356,0.62166377) (0.60365647,0.60095656,0.60096242) (0.60095656,0.60095656,0.67030084) (0.97357315,1.00000000,0.77040381) (0.62356369,0.60095656,0.65091904)
(0.66949440,0.60095656,0.60300434) (0.80952947,0.75997256,0.60262527) (0.60095656,0.60095656,0.70285883) (0.60095656,0.60095656,0.65379433) (0.99387221,1.00000000,0.86359241) (0.62174406,0.60095656,0.63041671)
(0.87533921,1.00000000,0.60209419) (0.85175233,0.97323615,0.60901829) (0.65705916,0.60095656,0.69504297) (0.60095656,0.60095656,0.60758073) (0.98513284,0.60095656,0.83920071) (0.62271316,0.60095656,0.62650453)
(0.62595561,0.60095656,0.60095656) (0.79683354,0.60462989,0.60445444) (0.76676826,0.60095656,0.70562548) (0.60095656,0.60095656,0.60433975) (0.99760617,0.60095656,0.73078631) (0.62362345,0.60095656,0.62052418)
(0.68816994,0.60095656,0.60230351) (0.82596727,0.60398991,0.60232347) (0.82367278,0.97886736,0.72739527) (0.60095656,0.60095656,0.60156578) (0.99917141,0.60095656,0.73960263) (0.62115355,0.60095656,0.61593494)
(0.68928412,0.60095656,0.62993110) (0.68573906,0.60340377,0.62028311) (0.71600520,0.60095656,0.69610785) (0.60095656,0.60095656,0.69163682) (0.98950494,0.60095656,0.71811170) (0.61863589,0.60095656,0.64480607)
(0.66024606,0.60095656,0.61089385) (0.67843430,0.60343825,0.64654514) (0.77092021,0.60095656,0.64392478) (0.60095656,0.60095656,0.73435812) (0.98230632,0.60095656,0.67023954) (0.61915465,0.60095656,0.68902801)
(0.60845185,0.60095656,0.60642034) (0.80163653,0.60343963,0.60465186) (0.81053344,0.60095656,0.79460631) (0.60095656,0.60095656,0.60187037) (0.99228302,0.60095656,0.76993443) (0.61876586,0.60095656,0.60586358)
(0.68348745,0.99996405,0.60350714) (0.81108104,0.76111223,0.60806663) (0.80719402,0.60095656,0.85541144) (0.60095656,0.60095656,0.60367505) (0.98265210,0.60095656,0.68237089) (0.61818881,0.60095656,0.60095831)
(0.84925741,0.94870066,0.60354157) (0.86451776,0.62911788,0.61059951) (0.73369280,0.60095656,0.80464183) (0.60095656,0.60095656,0.73904507) (0.98095950,0.60095656,0.61900572) (0.61786780,0.60095656,0.60157213)
(0.99999996,1.00000000,0.65198835) (0.97877423,0.97808949,0.61857934) (0.60221184,0.60095656,0.76886244) (0.60095656,0.60095656,0.60095840) (0.81877822,0.60095656,0.72130190) (0.60097947,0.99988766,0.60867441)
(1.00000000,0.95271165,0.79999321) (0.99248099,0.97774838,0.60854884) (0.61398454,0.60095656,0.60378568) (0.60095656,0.60095656,0.71198952) (0.75387908,0.60095656,0.75729589) (0.63070743,1.00000000,0.63022949)
(0.65713299,0.60095656,0.60105663) (0.86324313,0.60325783,0.60105696) (0.89192152,1.00000000,0.81134241) (0.60095656,0.60095656,0.63641192) (0.99926460,0.60095656,0.87069699) (0.61254459,0.60095656,0.60639707)
(0.76901108,0.60095656,0.60197169) (0.88719959,0.60225574,0.60095956) (0.79396319,1.00000000,0.61613722) (0.60095656,0.60095656,0.63998963) (0.99375255,0.60097171,0.87575220) (0.61009433,0.60095656,0.63460076)
(0.99985409,0.60095868,0.64077791) (0.96058910,0.60296264,0.60695350) (0.65653749,0.60095656,0.63593719) (0.60095656,0.60095656,0.60677459) (0.94185668,0.60095656,0.88996617) (0.60795456,0.60095656,0.64222153)
(0.60883848,0.60095656,0.60100423) (0.83463974,0.98050063,0.60715369) (0.77790343,0.60095656,0.63784549) (0.60095656,0.60095656,0.67315198) (0.99854699,1.00000000,0.76918104) (0.60628409,0.60095656,0.61085747)
(0.67407729,0.60095656,0.68998315) (0.85900824,0.60302692,0.60477953) (0.90624385,0.60095656,0.60603341) (0.60095656,0.60095656,0.64382696) (0.99913310,0.60095656,0.83993212) (0.60478327,0.60095656,0.60096361)
(0.68639559,0.60095656,0.72790829) (0.84728410,0.97948385,0.60295487) (0.99436310,1.00000000,0.61131271) (0.60095656,0.60095656,0.61386862) (0.99900203,0.60095656,0.87510052) (0.60337623,0.60095656,0.60095656)
(0.68239725,0.60095656,0.64187675) (0.82423751,0.60332825,0.60104009) (0.97480094,0.60095656,0.97802252) (0.60095656,0.60095656,0.61119381) (0.99853852,0.60095656,0.86894718) (0.60176799,0.60095656,0.60179452)
(0.75749971,0.60095656,0.60782711) (0.82626742,0.60336308,0.60096289) (0.83912532,0.60095656,0.71150243) (0.60095656,0.60095656,0.60430385) (0.98443325,0.60095656,0.77357858) (0.60103525,0.60095656,0.62306250)
(0.98337084,1.00000000,0.60706187) (0.91775576,0.97749182,0.60097460) (0.76327671,0.60095656,0.71827688) (0.60095656,0.60095656,0.61472090) (0.97429665,0.60095656,0.74972816) (0.60102316,0.60095656,0.61006912)
(0.68670323,0.60095656,0.60444489) (0.81921125,0.69635949,0.60228873) (0.93085202,0.60095656,0.63830796) (0.60095656,0.60095656,0.60821789) (0.99890748,0.99999782,0.76563506) (0.60101134,0.60095656,0.60096525)
(0.68901309,0.60095656,0.64474306) (0.85553386,0.74393600,0.60989756) (0.98327670,0.77009172,0.60119652) (0.60095656,0.60095656,0.60784405) (0.99919980,0.99999999,0.83241162) (0.60100388,0.60095656,0.60891659)
(0.69157194,0.60095656,0.63824675) (0.85753574,0.98123485,0.60806778) (0.98886435,0.60095656,0.60162250) (0.60095656,0.60095656,0.64136831) (0.99887063,1.00000000,0.62231771) (0.60099724,0.60095656,0.63940329)
(0.69322708,0.60095656,0.61033955) (0.71077724,0.60338820,0.60311132) (0.99991408,0.60095656,0.61721848) (0.60095656,0.60095656,0.60253850) (0.97961205,0.60095656,0.63529962) (0.60099628,0.60095656,0.65414360)
(0.92909125,0.60095656,0.60755963) (0.84059908,0.60347250,0.60151445) (0.99773091,0.60095656,0.63656293) (0.60095656,0.60095656,0.61673684) (0.91734843,0.60095656,0.61346657) (0.60099514,0.60095656,0.64419449)
(0.60106963,1.00000000,0.67280033) (0.61773474,0.98015370,0.60582652) (0.98771000,0.60095656,0.64635149) (0.60095656,0.60095656,0.65239629) (0.86576810,0.60095656,0.63344928) (0.60099345,0.60095656,0.75700970)
(0.69577253,0.60095656,0.70841900) (0.61424437,0.60347015,0.66044162) (0.87960577,0.60095656,0.60223094) (0.60095656,0.60095656,0.61648094) (0.81015233,0.60095657,0.63458756) (0.60929375,0.60095656,0.89966946)
(0.69153913,0.60095656,0.80192307) (0.66555640,0.97929848,0.62714489) (0.79957427,1.00000000,0.60341944) (0.60095656,0.60095656,0.60104227) (0.69709190,0.60095656,0.60778830) (0.65876783,0.60095656,0.92954219)
(0.68996002,0.60095656,0.80520308) (0.72513679,0.60339752,0.61443035) (0.71497197,0.60095656,0.65890740) (0.60095656,0.60095656,0.60097528) (0.63313678,0.60095656,0.60183658) (0.69493941,0.60095656,0.89865422)
(0.62561948,0.60095656,0.83570787) (0.75022195,0.60336511,0.60098345) (0.74640962,0.60095656,0.72484270) (0.60095656,0.60095656,0.64055299) (0.60360923,0.60095656,0.60621012) (0.69171821,0.60095656,0.88844428)
(0.60455255,0.99989857,0.91039419) (0.71284616,0.97726298,0.62591821) (0.69514795,0.60095656,0.75107810) (0.60095656,0.60095656,0.62337325) (0.60103361,0.60095656,0.62596335) (0.78074919,1.00000000,0.84682939)
(0.67357995,0.60095656,0.93932839) (0.74621350,0.60398013,0.64850711) (0.66406359,0.60095656,0.75487011) (0.60095656,0.60095656,0.63724396) (0.60095706,0.60095656,0.61901288) (0.88937677,0.60095656,0.83965422)
(0.67291206,0.60095656,0.91964352) (0.70962471,0.60333328,0.64152897) (0.60899362,0.60095656,0.65209999) (0.60095656,0.60095656,0.60101211) (0.60126227,0.60095656,0.63477342) (0.97209670,0.60095656,0.80282361)
(0.67857576,0.60095656,0.97086060) (0.70950027,0.60337422,0.66101146) (0.60096026,1.00000000,0.71873149) (0.60095656,0.60095656,0.65494371) (0.61053759,0.60095656,0.64560475) (0.99288435,0.60095656,0.80127619)
(0.64486527,0.60095656,0.96772917) (0.69556194,0.60096021,0.64267882) (0.60212140,1.00000000,0.75120306) (0.60095656,0.60095656,0.65312059) (0.61710773,0.60095656,0.64052133) (0.99531202,0.60095656,0.82847061)
(0.60343770,0.60095674,0.96838590) (0.64350082,0.98078143,0.64085076) (0.60124220,0.60095656,0.71711972) (0.60095656,0.60095656,0.60807143) (0.62682138,0.60095656,0.61283576) (0.99751880,1.00000000,0.84608718)
(0.60161112,1.00000000,0.96964705) (0.63774228,0.98232307,0.65472103) (0.60095656,0.60095656,0.75338468) (0.60095656,0.60095656,0.61292711) (0.63003573,0.60095656,0.61133148) (0.99815884,0.60095656,0.83370099)
(0.60112153,0.60095656,0.97644391) (0.65152777,0.60315829,0.65517240) (0.60104300,0.60095656,0.71990198) (0.60095656,0.60095656,0.61047423) (0.63389432,0.60095656,0.60342319) (0.99670123,0.60095656,0.84683126)
(0.60303134,0.60095656,0.98536718) (0.65446024,0.60292133,0.65127165) (0.61061812,0.60095656,0.71095166) (0.60095656,0.60095656,0.66331805) (0.63843735,0.60095656,0.60163514) (0.99503660,0.60095656,0.84669697)
(0.60138505,0.60095656,0.99149266) (0.65477691,0.60266788,0.65484008) (0.60884528,0.60095656,0.71530733) (0.60095656,0.60095656,0.63765970) (0.65276539,0.60095656,0.60103764) (0.99827014,0.60095656,0.87902126)
(0.60718741,0.64184061,0.98438694) (0.63972487,0.97359806,0.65692572) (0.60956032,0.60095656,0.79480121) (0.60095656,0.60095656,0.68130881) (0.65472568,0.60097161,0.60095656) (0.99885452,1.00000000,0.83741360)
(0.66551225,1.00000000,0.98756377) (0.61758764,0.98404851,0.64583415) (0.61853331,0.60095656,0.71364767) (0.60095656,0.60095656,0.65979862) (0.65720956,0.60095656,0.60202540) (0.99766609,0.60095656,0.85786527)
(0.66471077,0.60095656,0.98224988) (0.62092232,0.60340540,0.64713510) (0.61895210,0.60095656,0.71429965) (0.60095656,0.60095656,0.62529579) (0.65055837,0.60095656,0.60203503) (0.99619936,0.60095656,0.89196539)
(0.68971846,0.60095656,1.00000000) (0.99995156,0.98316891,1.00000000) (0.86049122,0.60095656,1.00000000) (0.60095656,0.60095656,1.00000000) (0.78187434,0.60095656,1.00000000) (0.60095656,0.60095656,1.00000000)
(0.69041764,0.60095656,1.00000000) (0.99995761,0.98279028,1.00000000) (0.85235523,0.60095656,1.00000000) (0.60095656,0.60095656,1.00000000) (0.78267197,0.60095656,1.00000000) (0.60095656,0.60095656,1.00000000)
(0.69480150,0.60095656,1.00000000) (0.99996218,0.98247069,1.00000000) (0.84339440,0.60095656,1.00000000) (0.60095656,0.60095656,1.00000000) (0.78672157,0.60095656,1.00000000) (0.60095656,0.60095656,1.00000000)
(0.69910061,0.60095656,1.00000000) (0.99996649,0.98208870,1.00000000) (0.85016612,0.60095656,1.00000000) (0.60095656,0.60095656,1.00000000) (0.79070732,0.60095656,1.00000000) (0.60095656,0.60095656,1.00000000)
