chh c1 sd mt lt rc2
(0.60095656,0.60095656,1.00000000) (0.60095656,0.60095656,1.00000000) (0.70957452,0.60095656,1.00000000) (0.60095656,0.60095656,1.00000000) (0.60507110,0.60095656,1.00000000) (0.60095656,0.60095656,1.00000000)
(0.60095656,0.60095656,0.68224885) (0.60095656,0.60095656,0.69219847) (0.70714541,0.60095656,0.88411596) (0.60095656,0.60095656,0.63197535) (0.60662245,0.60095656,0.67352881) (0.60095656,0.60095656,0.60098872)
(0.60095656,0.60095656,0.67532125) (0.60095656,0.60095656,0.60242985) (0.70406730,0.60095656,0.89944834) (0.60095656,0.60095656,0.63633346) (0.60668626,0.60095656,0.60220947) (0.60095656,0.60095656,0.73603540)
(0.60095656,0.60095656,0.60481304) (0.60095656,0.60095656,0.67963672) (0.70104972,0.60095656,0.97118374) (0.60095656,0.60095656,0.73016740) (0.60674790,0.60095656,0.61145617) (0.60095656,0.60095656,0.77472682)
(0.60095656,0.60095656,0.62014005) (0.60095656,0.60095656,0.71503419) (0.69724411,0.60095656,0.94610906) (0.60095656,0.60095656,0.71687476) (0.60719502,0.60095656,0.60427753) (0.60095656,0.60095656,0.72568629)
(0.60095656,0.60095656,0.72295760) (0.60095656,0.60095656,0.60882990) (0.93296288,0.94835380,0.78438781) (0.60095656,0.60095656,0.95057675) (0.60766156,0.60095656,0.60493436) (0.60095656,0.60095656,0.85316873)
(0.60095656,0.60095656,0.60376744) (0.60095656,0.60095656,0.60627285) (0.94909024,0.94854202,0.76128742) (0.60095656,0.60095656,0.89692272) (0.60812185,0.60095656,0.60964500) (0.60095656,0.60095656,0.92772567)
(0.60095656,0.60095656,0.63567074) (0.60095656,0.60095656,0.61205359) (0.96268250,0.94828186,0.85777066) (0.60095656,0.60095656,0.78328441) (0.60860236,0.60095656,0.60593898) (0.60095656,0.60095656,0.68033628)
(0.60095656,0.60095656,0.76024246) (0.60095656,0.60095656,0.60138333) (0.63827086,0.60095656,0.88064047) (0.60095656,0.60095656,0.61526566) (0.60915097,0.60095656,0.60169342) (0.60095656,0.60095656,0.74492738)
(0.60095656,0.60095656,0.81032312) (0.60095656,0.60095656,0.60801998) (0.63771342,0.60095656,0.92786466) (0.60095656,0.60095656,0.63676068) (0.60943622,0.60095656,0.60161575) (0.60095656,0.60095656,0.68625527)
(0.60095656,0.60095656,0.60721712) (0.60095656,0.60095656,0.60873171) (0.63740751,0.60095656,0.93956797) (0.60095656,0.60095656,0.70100061) (0.60898531,0.60095656,0.60568104) (0.60095656,0.60095656,0.60411660)
(0.60095656,0.60095656,0.60209342) (0.60095656,0.60095656,0.60257260) (0.63779882,0.60095656,0.84392110) (0.60095656,0.60095656,0.72861412) (0.61000983,0.60095656,0.60485911) (0.60095656,0.60095656,0.62547506)
(0.60095656,0.60095656,0.61596009) (0.60095656,0.60095656,0.65143558) (0.63675220,0.60095656,0.94388940) (0.60095656,0.60095656,0.65098903) (0.61058188,0.60095656,0.61033140) (0.60095656,0.60095656,0.68806723)
(0.60095656,0.60095656,0.69135071) (0.60095656,0.60095656,0.65621025) (0.96765614,0.94975129,0.95683226) (0.60095656,0.60095656,0.60173045) (0.61093008,0.60095656,0.60528227) (0.60095656,0.60095656,0.69397515)
(0.60095656,0.60095656,0.67924985) (0.60095656,0.60095656,0.60124870) (0.96832869,0.95003761,0.97289127) (0.60095656,0.60095656,0.63870906) (0.61022019,0.60095656,0.60697349) (0.60095656,0.60095656,0.60097162)
(0.60095656,0.60095656,0.77726592) (0.60095656,0.60095656,0.60863740) (0.96902397,0.94962173,0.98155463) (0.60095656,0.60095656,0.61087456) (0.60948670,0.60095656,0.63562197) (0.60095656,0.60095656,0.67242199)
(0.60095656,0.60095656,0.88593903) (0.60095656,0.60095656,0.60246526) (0.63355482,0.60095656,0.99998970) (0.60095656,0.60095656,0.62495359) (0.61362310,0.60095656,0.65451362) (0.60095656,0.60095656,0.60244641)
(0.60095656,0.60095656,0.64366706) (0.60095656,0.60095656,0.62524440) (0.63214946,0.60095656,0.98088725) (0.60095656,0.60095656,0.62621605) (0.61830981,0.60095656,0.71816786) (0.60095656,0.60095656,0.64312973)
(0.60095656,0.60095656,0.65812646) (0.60095656,0.60095656,0.60117338) (0.97143512,0.95048204,0.86940854) (0.60095656,0.60095656,0.60386180) (0.61692627,0.60095656,0.61611614) (0.60095656,0.60095656,0.65682193)
(0.60095656,0.60095656,0.86298441) (0.60095656,0.60095656,0.60158854) (0.63021667,0.60095656,0.88428258) (0.60095656,0.60095656,0.70283959) (0.61626330,0.60095656,0.61175618) (0.60095656,0.60095656,0.81317776)
(0.60095656,0.60095656,0.74180506) (0.60095656,0.60095656,0.67654469) (0.63008663,0.60095656,0.99179512) (0.60095656,0.60095656,0.62797932) (0.61570481,0.60095656,0.60276611) (0.60095656,0.60095656,0.79526628)
(0.60095656,0.60095656,0.60178321) (0.60095656,0.60095656,0.76388927) (0.97402399,0.95163253,0.99885364) (0.60095656,0.60095656,0.61229381) (0.61649685,0.60095656,0.60144791) (0.60095656,0.60095656,0.61505272)
(0.60095656,0.60095656,0.73961614) (0.60095656,0.60095656,0.60494789) (0.97427142,0.95197808,0.99613771) (0.60095656,0.60095656,0.62962550) (0.61883045,0.60095656,0.60488977) (0.60095656,0.60095656,0.62828395)
(0.60095656,0.60095656,0.97650051) (0.60095656,0.60095656,0.64790870) (0.97452630,0.95233070,0.97833398) (0.60095656,0.60095656,0.60101920) (0.62108332,0.60095656,0.62861400) (0.60095656,0.60095656,0.60601654)
(0.60095656,0.60095656,0.94374146) (0.60095656,0.60095656,0.60220483) (0.62923099,0.60095656,0.97735496) (0.60095656,0.60095656,0.60344341) (0.62157978,0.60095656,0.66494054) (0.60095656,0.60095656,0.60385834)
(0.60095656,0.60095656,0.68688531) (0.60095656,0.60095656,0.75429698) (0.62816212,0.60095656,0.84448383) (0.60095656,0.60095656,0.85057539) (0.62209129,0.60095656,0.60096351) (0.60095656,0.60095656,0.60124498)
(1.00000000,0.60095656,0.63110152) (0.60095656,0.60095656,0.64134164) (0.62596987,0.60095656,0.94254354) (1.00000000,1.00000000,0.64447917) (0.62059701,0.60095656,0.62621638) (0.60095656,0.60095656,0.83423321)
(0.60095656,0.60095656,0.89083397) (0.60095656,0.60095656,0.63151029) (0.70023053,0.95379929,0.66502267) (1.00000000,0.60095656,1.00000000) (0.62240340,0.60095656,0.65434130) (0.60095656,0.60095656,0.98094614)
(0.60095656,0.60095656,0.99745655) (0.60095656,0.60095656,0.84748071) (0.62599248,0.60095656,0.88746818) (1.00000000,1.00000000,1.00000000) (0.99940475,0.60095657,0.87548925) (0.60095656,0.60095656,0.98966063)
(0.60095656,0.60095656,0.96224063) (0.60095656,0.60095656,0.60513326) (0.70256908,0.60095656,0.76437347) (0.60095656,0.60095656,0.63176561) (0.99999924,0.96796581,0.97686525) (0.60095656,0.60095656,0.75445647)
(0.60095656,0.60095656,0.81051453) (0.60095656,0.60095656,0.60122441) (0.75544191,0.60095656,0.64328945) (0.60095656,0.60095656,0.63780124) (0.99990758,0.96632139,0.98615730) (0.60095656,0.60095656,0.80580198)
(1.00000000,1.00000000,0.74641450) (0.60095656,0.60095656,0.83404698) (0.77535883,0.95382486,0.78749717) (0.60095656,0.60095656,0.60158981) (0.99431882,0.60095656,0.93119850) (0.60095656,0.60095656,0.91170172)
(1.00000000,1.00000000,0.91293249) (0.60095656,0.60095656,0.89318652) (0.64488670,0.95418563,0.67797372) (0.60095656,0.60095656,0.67430817) (0.73302955,0.60095656,0.97643971) (0.60095656,0.60095656,0.94118489)
(1.00000000,0.60095656,0.78446892) (0.60095656,0.60095656,0.73587776) (0.78313729,0.95455034,0.76030780) (0.60095656,0.60095656,0.91028385) (0.71679947,0.60095656,0.97219592) (0.60095656,0.60095656,0.89243108)
(1.00000000,1.00000000,0.61325038) (0.60095656,0.60095656,0.62067314) (0.88361655,0.60095656,0.73506949) (0.60095656,0.60095656,0.66914757) (0.81060916,0.96607538,0.95485269) (0.60095656,0.60095656,0.86605118)
(0.60095656,0.60095656,0.88876693) (0.60095656,0.60095656,0.68257292) (0.84136278,0.60095656,0.60187971) (1.00000000,0.60095656,0.63379305) (0.95767268,0.96651524,0.93700334) (0.60095656,0.60095656,0.62615207)
(0.60095656,0.60095656,0.93802097) (0.60095656,0.60095656,0.86262291) (0.79274270,0.60095656,0.76735065) (1.00000000,1.00000000,0.99121123) (0.98084585,0.60232524,0.88794364) (0.60095656,0.60095656,0.60105246)
(0.60095656,0.60095656,0.68038121) (0.60095656,0.60095656,0.93101025) (0.75022153,0.95223830,0.70066646) (0.60095656,0.60095656,0.92414282) (0.99926242,0.60095656,0.94181185) (0.60095656,0.60095656,0.62148800)
(1.00000000,1.00000000,0.80816044) (0.60095656,0.60095656,0.66617180) (0.63338084,0.95175135,0.60156771) (0.60095656,0.60095656,0.91796635) (0.61799548,0.60095656,0.96258912) (0.60095656,0.60095656,0.74285463)
(1.00000000,1.00000000,0.63558796) (0.60095656,0.60095656,0.61573444) (0.64039931,0.95129765,0.61657992) (0.60095656,0.60095656,0.78426662) (0.66724560,0.60095656,0.88646962) (0.60095656,0.60095656,0.87054607)
(0.60095656,0.60095656,0.60755725) (0.60095656,0.60095656,0.65226737) (0.96954776,0.95067697,0.68208170) (0.60095656,0.60095656,0.94564307) (0.61406826,0.60095656,0.91054441) (0.60095656,0.60095656,0.67565219)
(0.60095656,0.60095656,0.95165822) (0.81120729,0.60095656,0.99999998) (0.63538243,0.95067697,0.90161056) (0.60095656,0.60095656,0.99999997) (0.92996059,0.60095656,0.99313214) (0.60095656,0.60095656,0.99999959)
(0.60095656,0.60095656,0.98461372) (0.99127862,0.92169924,1.00000000) (0.63487578,0.60095656,0.89266830) (0.60095656,0.60095656,1.00000000) (0.60576817,0.97025821,0.99917610) (0.60095656,0.60095656,1.00000000)
(0.60095656,0.60095656,0.60103762) (0.97910260,0.60095656,0.99565424) (0.60096663,0.60095656,0.97769928) (0.60095656,0.60095656,0.76218575) (0.60617039,0.97067601,0.85379136) (0.60095656,0.60095656,0.62286588)
(1.00000000,1.00000000,0.88178035) (0.95846563,0.72355585,0.88990530) (0.63540228,0.60095656,0.64579809) (0.60095656,0.60095656,0.95843973) (0.60187655,0.97108962,0.70991069) (0.60095656,0.60095656,0.94414315)
(0.94114623,0.66605462,0.81706039) (0.98368655,0.60095656,0.97304868) (0.60493717,0.94984310,0.60118421) (0.60095656,0.60095656,0.91063232) (0.60342939,0.60095656,0.76385640) (0.60095656,0.60095656,0.99980582)
(0.60095656,0.60095656,0.60095893) (0.98196142,1.00000000,0.99453193) (0.60168886,0.60095656,0.75162216) (0.60095656,0.60095656,0.87405152) (0.60466507,0.60095656,0.73397604) (0.60095656,0.60095656,0.99994945)
(0.60095656,0.60095656,0.60116447) (0.98016561,1.00000000,0.99352286) (0.60101723,0.60095656,0.71628071) (0.60095656,0.60095656,0.60770991) (0.60471270,0.60095656,0.66697425) (0.60095656,0.60095656,0.99811485)
(0.60095656,0.60095656,0.70567077) (0.97901333,0.95910788,0.60333683) (0.60096030,0.60095656,0.61005674) (0.60095656,0.60095656,0.60097197) (0.60367021,0.97270138,0.60138963) (0.60095656,0.60095656,0.60096441)
(1.00000000,1.00000000,0.93509163) (0.97254540,1.00000000,0.68762566) (0.60186151,0.60095656,0.63144539) (0.60095656,0.60095656,0.79626122) (0.60538577,0.60095656,0.61240057) (0.60095656,0.60095656,0.63348601)
(1.00000000,0.62664889,0.80816366) (0.94881917,1.00000000,0.79960004) (0.60920964,0.60095656,0.64804378) (0.60095656,0.60095656,0.77553650) (0.60099439,0.60095656,0.60100484) (0.60095656,0.60095656,0.79801896)
(0.60095656,0.60095656,0.64694257) (0.98533415,1.00000000,0.62394121) (0.60714353,0.94686411,0.68113031) (0.60095656,0.60095656,0.74566361) (0.60154150,0.60099280,0.64166685) (0.60095656,0.60095656,0.86851069)
(0.60095656,0.60095656,0.93804688) (0.98786039,1.00000000,0.77388476) (0.61063672,0.94877892,0.63237425) (0.60095656,0.60095656,0.78611442) (0.60203539,0.60096451,0.64319866) (0.60095656,0.60095656,0.73897446)
(1.00000000,1.00000000,0.60432098) (0.96834403,0.60095656,0.79013869) (0.61343858,0.60095656,0.60257300) (0.60095656,0.60095656,0.60495749) (0.60653622,0.60095656,0.61892820) (1.00000000,0.60095656,0.64565526)
(1.00000000,1.00000000,0.60118906) (0.97673031,0.60095656,0.93108356) (0.60953201,0.60095656,0.66406086) (0.60095656,0.60095656,0.80219434) (0.60924913,0.97285072,0.90787806) (0.60095656,0.60095656,0.60939904)
(1.00000000,1.00000000,0.68981078) (0.96184051,0.60095656,0.97574952) (0.61052163,0.60095656,0.68857810) (0.60095656,0.60095656,0.76870311) (0.60249750,0.97322711,0.95709993) (0.60095656,0.60095656,0.78903176)
(0.60095656,0.60095656,0.66142834) (0.97672058,1.00000000,0.99999987) (0.60641008,0.60095656,0.69012232) (0.60095656,0.60095656,0.60802579) (0.61363981,0.60098338,0.99282034) (0.60095656,0.60095656,0.98430352)
(0.60095656,0.60095656,0.88817474) (0.97715460,1.00000000,1.00000000) (0.60355024,0.60095656,0.70054887) (0.60095656,0.60095656,0.95922229) (0.60108489,0.60095656,0.98733830) (0.60095656,0.60095656,0.98301958)
(0.60095656,0.60095656,0.74069727) (0.95977566,0.60095656,0.99999957) (0.60119232,0.60095656,0.67638753) (0.60095656,0.60095656,0.74510786) (0.61362458,0.97433204,0.98837822) (0.60095656,0.60095656,0.91598956)
(0.60095656,0.60095656,0.60284296) (0.96015759,0.60095656,0.99952003) (0.60099529,0.94944145,0.65412597) (0.60095656,0.60095656,0.70301893) (0.62738316,0.60095656,0.93463917) (0.60095656,0.60095656,0.91543125)
(1.00000000,1.00000000,0.86289850) (0.94521041,0.60096037,0.99999916) (0.60132232,0.94904931,0.61913838) (0.60095656,0.60095656,0.86975394) (0.61745303,0.60095656,0.99953058) (0.60095656,0.60095656,0.99440130)
(1.00000000,1.00000000,0.98766125) (0.97257966,1.00000000,0.81207391) (0.60821734,0.60095656,0.60249596) (0.60095656,0.60095656,0.64132015) (0.60595999,0.60095656,0.94580932) (0.60095656,0.60095656,0.80194941)
(0.60095656,0.60095656,0.98089648) (0.98008996,1.00000000,0.63268122) (0.60615446,0.60095656,0.60381231) (0.60095656,0.60095656,0.64838821) (0.60553341,0.60095656,0.75135244) (0.60095656,0.60095656,0.62515115)
(0.60095656,0.60095656,0.75686383) (0.97740143,0.60095656,0.64971762) (0.60713299,0.60095656,0.60814935) (0.60095656,0.60095656,0.88197811) (0.60253693,0.97245509,0.84128779) (0.60095656,0.60095656,0.78951656)
(0.60095656,0.60095656,0.75628875) (0.85057232,0.60095656,0.75343534) (0.63046828,0.60095656,0.61396323) (0.60095656,0.60095656,0.93207428) (0.83043788,0.97281348,0.95749007) (0.60095656,0.60095656,0.83158813)
(0.60095656,0.60095656,0.61838082) (0.86467457,0.60095656,0.94843880) (0.69044489,0.94895626,0.64779604) (0.60095656,0.60095656,0.91957753) (0.60240704,0.60099606,0.61619346) (0.60095656,0.60095656,0.99701559)
(0.60095656,0.60095656,0.85288366) (0.60095656,0.60095656,0.63219422) (0.97208047,0.95044265,0.60533149) (0.60095656,0.60095656,0.83171847) (0.61882148,0.60095656,0.61057186) (0.60095656,0.60095656,0.75236016)
(0.60095656,0.60095656,0.60522504) (0.60095656,0.60095656,0.60329516) (0.97242054,0.95013329,0.60334815) (0.60095656,0.60095656,0.61652944) (0.61892976,0.60095656,0.60388775) (0.60095656,0.60095656,0.81359097)
(0.60095656,0.60095656,0.69861529) (0.60095656,0.60095656,0.64010252) (0.97271625,0.94984433,0.70806453) (0.60095656,0.60095656,0.68285486) (0.61919956,0.60095656,0.61227115) (0.60095656,0.60095656,0.72703205)
(0.60095656,0.60095656,0.75937919) (0.60095656,0.60095656,0.66687931) (0.97292734,0.95003512,0.60109756) (0.60095656,0.60095656,0.60151241) (0.61964109,0.60095656,0.60401281) (0.60095656,0.60095656,0.71974421)
(0.60095656,0.60095656,0.71271681) (0.60095656,0.60095656,0.70206882) (0.97342251,0.95003512,0.61303025) (0.60095656,0.60095656,0.60095810) (0.62028556,0.60095656,0.66858668) (0.60095656,0.60095656,0.81955162)
(0.60095656,0.60095656,0.75323121) (0.60095656,0.60095656,0.62872005) (0.97523712,0.95054170,0.84933144) (0.60095656,0.60095656,0.96576709) (0.62161116,0.60095656,0.68178338) (0.60095656,0.60095656,0.87943218)
(0.60095656,0.60095656,0.60622105) (0.60095656,0.60095656,0.63628264) (0.97629162,0.95075352,0.62733787) (0.60095656,0.60095656,0.74726439) (0.62213494,0.60095656,0.62299360) (0.60095656,0.60095656,0.60111527)
(0.60095656,0.60095656,0.80445360) (0.60095656,0.60095656,0.64526699) (0.97731434,0.95097002,0.73024372) (0.60095656,0.60095656,0.60095656) (0.62178293,0.60095656,0.62555175) (0.60095656,0.60095656,0.61561771)
(0.60095656,0.60095656,0.87091046) (0.60095656,0.60095656,0.80202582) (0.97613146,0.95063931,0.73270600) (0.60095656,0.60095656,0.80813230) (0.62218477,0.60095656,0.81085425) (0.60095656,0.60095656,0.68290945)
(0.60095656,0.60095656,0.88560856) (0.60095656,0.60095656,0.62194938) (0.97534369,0.95085034,0.69397931) (0.60095656,0.60095656,0.65818508) (0.62199202,0.60095656,0.64770972) (0.60095656,0.60095656,0.61473094)
(0.60095656,0.60095656,0.73728780) (0.60095656,0.60095656,0.60925140) (0.97534282,0.95106575,0.79500736) (0.60095656,0.60095656,0.60347197) (0.62194932,0.60095656,0.60115595) (0.60095656,0.60095656,0.75341194)
(0.60095656,0.60095656,0.60941322) (0.60095656,0.60095656,0.60171157) (0.97533721,0.95073538,0.82091826) (0.60095656,0.60095656,0.62155352) (0.62198382,0.60095656,0.80687355) (0.60095656,0.60095656,0.72631410)
(0.60095656,0.60095656,0.82123740) (0.60095656,0.60095656,0.63875144) (0.97560830,0.95054476,0.69938605) (0.60095656,0.60095656,0.62608606) (0.62101857,0.60095656,0.71173943) (0.60095656,0.60095656,0.86683973)
(0.60095656,0.60095656,0.96489710) (0.60095656,0.60095656,0.95128876) (0.97596507,0.95025037,0.70670976) (0.60095656,0.60095656,0.76796451) (0.62017577,0.60095656,0.60148631) (0.60095656,0.60095656,0.87965480)
(0.60095656,0.60095656,0.95660612) (0.60095656,0.60095656,0.94718705) (0.93993265,0.95025027,0.61675599) (1.00000000,0.60096125,0.60097041) (0.62006627,0.60095656,0.65748916) (0.60095656,0.60095656,0.62967422)
(0.60095656,0.60095656,0.90460467) (0.60095656,0.60095656,0.80669788) (0.71401380,0.95074522,0.85566239) (1.00000000,0.60095656,1.00000000) (0.62096410,0.60095656,0.60095663) (0.60095656,0.60095656,0.97833850)
(0.60095656,0.60095656,0.68216586) (0.60095656,0.60095656,0.71764729) (0.88611999,0.95094995,0.95149912) (0.60095656,0.60095656,0.99753740) (0.92692416,0.60095656,0.97979104) (0.60095656,0.60095656,0.92146311)
(0.60095656,0.60095656,0.60765207) (0.60095656,0.60095656,0.63867414) (0.87677729,0.60095656,0.90343930) (0.60095656,0.60095656,0.80139894) (0.93804827,0.97119394,0.99926848) (0.60095656,0.60095656,0.67863266)
(0.60095656,0.60095656,0.83961350) (0.60095656,0.60095656,0.60756781) (0.93146013,0.60095656,0.60285181) (0.60095656,0.60095656,0.70152053) (0.75261476,0.97151706,0.97965556) (0.60095656,0.60095656,0.66530237)
(0.60095656,0.60095656,0.70300583) (0.60095656,0.60095656,0.63065750) (0.93184445,0.95006443,0.78212955) (0.60095656,0.60095656,0.60532456) (0.74085228,0.60095656,0.89534443) (0.60095656,0.60095656,0.62482081)
(0.60095656,0.60095656,0.65580466) (0.60095656,0.60095656,0.62710581) (0.92985920,0.94980347,0.66208747) (0.60095656,0.60095656,0.74478358) (0.74260081,0.60095656,0.73432725) (0.60095656,0.60095656,0.74568086)
(0.60095656,0.60095656,0.84681004) (0.60095656,0.60095656,0.82371494) (0.93611325,0.94955862,0.62803909) (0.60095656,0.60095656,0.74298750) (0.70285854,0.60095656,0.83097322) (0.60095656,0.60095656,0.80296425)
(1.00000000,1.00000000,0.98050488) (0.60095656,0.60095656,0.88616990) (0.88820982,0.79163445,0.90626314) (0.60095656,0.60095656,0.70137266) (0.68327886,0.76209830,0.99660739) (0.60095656,0.60095656,0.92515301)
(0.60095656,0.60095656,0.68488227) (0.60095656,0.60095656,0.81682180) (0.93196880,0.60095656,0.81573373) (0.60095656,0.60095656,0.60241372) (0.73066920,0.97309217,0.99861633) (0.60095656,0.60095656,0.92475657)
(0.60095656,0.60095656,0.68067007) (0.60095656,0.60095656,0.60812873) (0.63135362,0.60095656,0.96290508) (0.60095656,0.60095656,0.86080050) (0.61537209,0.60095656,0.96679178) (0.60095656,0.60095656,0.68538051)
(0.60095656,0.60095656,0.95113105) (0.60095656,0.60095656,0.61712824) (0.63252349,0.60095656,0.90796003) (0.60095656,0.60095656,0.99967606) (0.61753154,0.60095656,0.80541246) (0.60095656,0.60095656,0.74643923)
(0.60095656,0.60095656,0.92208334) (0.60095656,0.60095656,0.60609794) (0.63361569,0.60095656,0.90591309) (0.60095656,0.60095656,0.99947645) (0.61791534,0.60095656,0.94310039) (0.60095656,0.60095656,0.88210880)
(0.60095656,0.60095656,0.61677180) (0.60095656,0.60095656,0.75093985) (0.97058374,0.94905342,0.75119438) (0.60095656,0.60095656,0.89541720) (0.61730979,0.60095656,0.87072183) (0.60095656,0.60095656,0.73729331)
(1.00000000,0.60095656,0.60216839) (0.60095656,0.60095656,0.88905898) (0.90454425,0.94919673,0.71511773) (0.60095656,0.60095656,0.66653879) (0.61714695,0.60095656,0.77997189) (0.60095656,0.60095656,0.96644655)
(0.60095656,0.60095656,0.83048547) (0.61973170,0.60095656,0.60095656) (0.62211600,0.94934499,0.60457976) (0.60095656,0.60095656,0.99872606) (0.99988855,0.60095656,0.99932531) (0.60095656,0.60095656,0.88097236)
(0.60095656,0.60095656,0.91477365) (0.95698367,0.60095656,1.00000000) (0.63575839,0.60095656,0.93502814) (0.60095656,0.60095656,1.00000000) (0.85387696,0.97337053,0.61658906) (0.60095656,0.60095656,1.00000000)
(0.60095656,0.60095656,0.65306506) (0.97620012,0.60095656,1.00000000) (0.60912760,0.60095656,0.99710553) (0.60095656,0.60095656,0.99998723) (0.60904981,0.97245877,0.98986936) (0.60095656,0.60095656,0.99999752)
(0.60095656,0.60095656,0.61364589) (0.96723653,0.60095656,0.99950860) (0.60116751,0.60095656,0.99528220) (0.60095656,0.60095656,0.81259208) (0.60106137,0.97275607,0.85065537) (0.60095656,0.60095656,0.76264170)
(1.00000000,1.00000000,0.99470447) (0.98705154,0.65920991,0.93379597) (0.63302178,0.60095656,0.89212031) (0.60095656,0.60095656,0.72586067) (0.60297926,0.97301858,0.60098329) (0.60095656,0.60095656,0.79866991)
(1.00000000,1.00000000,0.99637533) (0.98565319,1.00000000,0.95609336) (0.62831117,0.93860186,0.66258678) (0.60095656,0.60095656,0.72685936) (0.60202516,0.60095656,0.62800689) (0.60095656,0.60095656,0.60486399)
(0.60095656,0.60095656,0.99813759) (0.98821583,1.00000000,0.79992998) (0.63195105,0.60095656,0.84569528) (0.60095656,0.60095656,0.60166953) (0.60210111,0.60095656,0.60295119) (0.60095656,0.60095656,0.60534316)
(0.60095656,0.60095656,0.96395301) (0.98796702,0.60095656,0.96694500) (0.63443929,0.60095656,0.62490353) (0.60095656,0.60095656,0.79450275) (0.60242127,0.96955423,0.60218929) (0.60095656,0.60095656,0.80356672)
(0.60095656,0.60095656,0.93566628) (0.98950315,0.60095656,0.98866558) (0.63601258,0.60095656,0.60873394) (0.60095656,0.60095656,0.66929663) (0.60111709,0.96955423,0.63318835) (0.60095656,0.60095656,0.97291504)
(0.60095656,0.60095656,0.87261947) (0.99022346,0.60095656,0.95419458) (0.63674015,0.60095656,0.76248530) (0.60095656,0.60095656,0.78459543) (0.60254350,0.96955423,0.60441253) (0.60095656,0.60095656,0.98244522)
(0.60095656,0.60095656,0.60105709) (0.98898403,0.60095656,0.71423250) (0.63841667,0.60095656,0.60164972) (0.60095656,0.60095656,0.98619676) (0.60096261,0.96955423,0.82757988) (0.60095656,0.60095656,0.94380189)
(0.60095656,0.60095656,0.61078691) (0.97403288,0.60095656,0.69955497) (0.60304800,0.94891275,0.88601524) (0.60095656,0.60095656,0.78121610) (0.60109107,0.60095656,0.77572381) (0.60095656,0.60095656,0.87070515)
(0.60095656,0.60095656,0.60203875) (0.97189241,0.60095656,0.85718854) (0.60119009,0.60095656,0.71481316) (0.60095656,0.60095656,0.76221043) (0.60299263,0.96955348,0.71723323) (0.60095656,0.60095656,0.63064470)
(0.60095656,0.60095656,0.89787866) (0.96543817,0.60095656,0.99936173) (0.61198591,0.60095656,0.80507222) (0.60095656,0.60095656,0.69447140) (0.65180968,0.96955423,0.87202971) (0.60095656,0.60095656,0.73197228)
(0.60095656,0.60095656,0.90611243) (0.85650713,0.60095656,0.99800324) (0.63300562,0.60095656,0.66198738) (0.60095656,0.60095656,0.60582620) (0.98219905,0.96955423,0.81673953) (0.60095656,0.60095656,0.69971574)
(0.60095656,0.60095656,0.96861673) (0.95639228,0.60095656,0.99999955) (0.63584717,0.60095656,0.65163107) (0.60095656,0.60095656,0.60484490) (0.78539601,0.96955423,0.99200876) (0.60095656,0.60095656,0.82714338)
(0.60095656,0.60095656,0.65974373) (0.98326725,0.60095656,0.97860252) (0.64150922,0.60095656,0.61757987) (0.60095656,0.60095656,0.62216720) (0.62070894,0.96955423,0.98837951) (0.60095656,0.60095656,0.86633587)
(0.60095656,0.60095656,0.60096406) (0.97567474,0.60095656,0.99999859) (0.64229693,0.60095656,0.74441171) (0.60095656,0.60095656,0.90148596) (0.66860605,0.96955423,0.98083160) (0.60095656,0.60095656,0.90344582)
(0.60095656,0.60095656,0.83825259) (0.86277046,0.60095656,0.99594949) (0.61209347,0.60095656,0.60405602) (0.60095656,0.60095656,0.86145827) (0.94527529,0.96955423,0.92864294) (0.60095656,0.60095656,0.92656271)
(0.60095656,0.60095656,0.83059425) (0.90666963,0.60095656,0.99873776) (0.60976724,0.94861380,0.61803675) (0.60095656,0.60095656,0.89002926) (0.85012172,0.60095656,0.96828509) (0.60095656,0.60095656,0.87076539)
(0.60095656,0.60095656,0.95463757) (0.97528015,1.00000000,0.92876061) (0.62771342,0.60095656,0.69002371) (0.60095656,0.60095656,0.60854636) (0.61947193,0.60095656,0.98773761) (0.60095656,0.60095656,0.84460103)
(0.60095656,0.60095656,0.80442837) (0.96988180,0.60095656,0.88943886) (0.63553310,0.60095656,0.62168018) (0.60095656,0.60095656,0.61757238) (0.66130395,0.96843242,0.98716264) (0.60095656,0.60095656,0.60740848)
(0.60095656,0.60095656,0.61590512) (0.93162225,0.60095656,0.74498738) (0.63221318,0.60095656,0.65336834) (0.60095656,0.60095656,0.62720245) (0.84031599,0.96843242,0.79099895) (0.60095656,0.60095656,0.68458725)
(0.60095656,0.60095656,0.94906300) (0.94680701,0.99999976,0.99999997) (0.63749883,0.60095656,0.60214602) (0.60095656,0.60095656,0.99985561) (0.78602365,0.73721952,0.62366421) (0.60095656,0.60095656,0.99999610)
(0.60095656,0.60095656,0.64653611) (0.60095656,0.60095656,0.63286478) (0.64187550,0.60095656,0.71278496) (0.60095656,0.60095656,0.94192754) (0.99999994,0.96654476,0.72913368) (0.60095656,0.60095656,0.71968433)
(0.60095656,0.60095656,0.86567393) (0.60095656,0.60095656,0.67179206) (0.64201470,0.60095656,0.65034794) (0.60095656,0.60095656,0.62927682) (0.99999994,0.96654476,0.60413630) (0.60095656,0.60095656,0.92503752)
(0.60095656,0.60095656,0.74670295) (0.60095656,0.60095656,0.71982234) (0.64205190,0.60095656,0.63127142) (0.60095656,0.60095656,0.64606567) (0.99999994,0.96654476,0.63315720) (0.60095656,0.60095656,0.73505307)
(0.60095656,0.60095656,0.60694177) (0.60095656,0.60095656,0.64647155) (0.64095219,0.60095656,0.82155450) (0.60095656,0.60095656,0.60674057) (0.99999994,0.96654476,0.60602129) (0.60095656,0.60095656,0.73529024)
(0.60095656,0.60095656,0.60671115) (0.60095656,0.60095656,0.61013336) (0.64077355,0.60095656,0.96938984) (0.60095656,0.60095656,0.73915790) (0.99999994,0.96654476,0.61326347) (0.60095656,0.60095656,0.86409975)
(0.60095656,0.60095656,0.60132272) (0.60095656,0.60095656,0.60169539) (0.63982739,0.60095656,0.70821538) (0.60095656,0.60095656,0.69882867) (0.99999994,0.96549385,0.68154130) (0.60095656,0.60095656,0.86015645)
(0.60095656,0.60095656,0.60109458) (0.60095656,0.60095656,0.62471434) (0.63985675,0.60095656,0.65225709) (0.60095656,0.60095656,0.60155416) (0.99999994,0.96549385,0.66910091) (0.60095656,0.60095656,0.67295133)
(0.60095656,0.60095656,0.61872323) (0.60095656,0.60095656,0.60328461) (0.64172458,0.60095656,0.78305099) (0.60095656,0.60095656,0.71905535) (0.99999994,0.96549385,0.60252170) (0.60095656,0.60095656,0.60100636)
(0.60095656,0.60095656,0.95990066) (0.60095656,0.60095656,0.60099902) (0.89289894,0.61083628,0.88708719) (0.60095656,0.60095656,0.71052458) (0.85510981,0.94245031,0.60192349) (0.60095656,0.60095656,0.63075254)
(0.60095656,0.60095656,0.98712344) (0.60095656,0.60095656,0.60196755) (0.92049626,0.94891786,0.79892316) (0.60095656,0.60095656,0.82227672) (0.78021565,0.60095656,0.60518483) (0.60095656,0.60095656,0.71762977)
(0.60095656,0.60095656,0.98307530) (0.60095656,0.60095656,0.60158219) (0.75863253,0.60095656,0.83545401) (0.60095656,0.60095656,0.77198236) (0.98743985,0.96446937,0.60331760) (0.60095656,0.60095656,0.71498268)
(0.60095656,0.60095656,0.71012401) (0.60095656,0.60095656,0.61317824) (0.62676711,0.94861814,0.72198610) (0.60095656,0.60095656,0.68642222) (0.99981724,0.60095656,0.60649054) (0.60095656,0.60095656,0.60238311)
(0.60095656,0.60095656,0.60234691) (0.60095656,0.60095656,0.61308006) (0.64469998,0.60095656,0.96616476) (0.60095656,0.60095656,0.64724852) (0.99999995,0.96654460,0.62071503) (0.60095656,0.60095656,0.61650962)
(0.60095656,0.60095656,0.86731853) (0.60095656,0.60095656,0.60112996) (0.68851732,0.60095656,0.72324235) (0.60095656,0.60095656,0.60828382) (0.99799869,0.96654522,0.76592812) (0.60095656,0.60095656,0.76933188)
(0.60095656,0.60095656,0.66310688) (0.60095656,0.60095656,0.77753853) (0.75797958,0.94861954,0.62786103) (0.60095656,0.60095656,0.73496842) (0.98768424,0.60095656,0.60400097) (0.60095656,0.60095656,0.64216727)
(0.60095656,0.60095656,0.64362880) (0.60095656,0.60095656,0.61276377) (0.98038851,0.94861954,0.99951135) (0.60095656,0.60095656,0.60138781) (0.61674981,0.60095656,0.60096621) (0.60095656,0.60095656,0.91476685)
(0.60095656,0.60095656,0.62091981) (0.60095656,0.60095656,0.64774487) (0.97940437,0.94835303,0.96004946) (0.60095656,0.60095656,0.83418479) (0.61583534,0.60095656,0.89861225) (0.60095656,0.60095656,0.77380737)
(0.60095656,0.60095656,0.66247350) (0.60095656,0.60095656,0.62550637) (0.98000600,0.94835303,0.97185465) (0.60095656,0.60095656,0.73482574) (0.61522244,0.60095656,0.94695753) (0.60095656,0.60095656,0.79254447)
(0.60095656,0.60095656,0.86873980) (0.60095656,0.60095656,0.62247921) (0.98011702,0.94835303,0.80605416) (0.60095656,0.60095656,0.69736978) (0.61454344,0.60095656,0.97987478) (0.60095656,0.60095656,0.85918582)
(0.60095656,0.60095656,0.89454607) (0.60095656,0.60095656,0.60588324) (0.98039851,0.94861954,0.92819249) (0.60095656,0.60095656,0.77247936) (0.61442431,0.60095656,0.88483887) (0.60095656,0.60095656,0.69506962)
(0.60095656,0.60095656,0.64407790) (0.60095656,0.60095656,0.71242262) (0.76121930,0.94604871,0.86958537) (1.00000000,1.00000000,0.80236803) (0.61420161,0.60095656,0.88591229) (0.60095656,0.60095656,0.97726695)
(0.60095656,0.60095656,0.71657543) (0.60095656,0.60095656,0.85196509) (0.98064512,0.94891925,0.99985962) (0.60095656,0.60095656,0.75790692) (0.61339229,0.60095656,0.97313802) (0.60095656,0.60095656,0.99950046)
(0.60095656,0.60095656,0.78181863) (0.60095656,0.60095656,0.79652700) (0.98205759,0.94891925,0.98262196) (0.60095656,0.60095656,0.90426159) (0.61340891,0.60095656,0.99126299) (0.60095656,0.60095656,0.99916927)
(0.60095656,0.60095656,0.69059252) (0.60095656,0.60095656,0.72253870) (0.98189801,0.94891925,0.98305837) (0.60095656,0.60095656,0.73869028) (0.61344776,0.60095656,0.99667747) (0.60095656,0.60095656,0.99723077)
(0.60095656,0.60095656,0.63851711) (0.60095656,0.60095656,0.60326273) (0.98190919,0.94861954,0.77812652) (0.60095656,0.60095656,0.89168134) (0.61344677,0.60095656,0.93012704) (0.60095656,0.60095656,0.78458436)
(0.60095656,0.60095656,0.99677541) (0.60095656,0.60095656,0.73554810) (0.63504571,0.60095656,0.60154779) (1.00000000,1.00000000,0.99999924) (0.61344945,0.60095656,0.67286363) (0.60095656,0.60095656,0.60263784)
(0.60095656,0.60095656,0.96903629) (0.60095656,0.60095656,0.60718098) (0.76858027,0.94861954,0.61330344) (0.60095656,0.60095656,0.98212213) (0.99022789,0.60095656,0.70522266) (0.60095656,0.60095656,0.60100720)
(0.60095656,0.60095656,0.69159897) (0.60095656,0.60095656,0.95404628) (0.98201963,0.94891925,0.74009650) (0.60095656,0.60095656,0.96299494) (0.61344323,0.60095656,0.60718938) (0.60095656,0.60095656,0.62265661)
(0.60095656,0.60095656,0.60130590) (0.60095656,0.60095656,0.96397084) (0.98280907,0.94891925,0.70911261) (0.60095656,0.60095656,0.79327568) (0.61345661,0.60095656,0.92986375) (0.60095656,0.60095656,0.61548278)
(0.60095656,0.60095656,0.69999816) (0.60095656,0.60095656,0.99585616) (0.92092023,0.94891925,0.73426802) (0.60095656,0.60095656,0.65528534) (0.81441244,0.60095656,0.99999998) (0.60095656,0.60095656,0.91724902)
(0.60095656,0.60095656,0.92663324) (0.75197645,0.99995275,0.87604567) (0.62389752,0.60095656,0.83238220) (0.60095656,0.60095656,0.99942734) (0.99856574,0.61876054,0.99999882) (0.60095656,0.60095656,0.99999609)
(0.60095656,0.60095656,0.92661941) (0.93177606,0.60095656,1.00000000) (0.60102726,0.60095656,0.97702958) (0.60095656,0.60095656,0.99999999) (0.65357034,0.96867374,0.89264297) (0.60095656,0.60095656,0.99999999)
(0.60095656,0.60095656,0.95821259) (0.95320068,0.60095656,1.00000000) (0.60181999,0.60095656,0.98511549) (0.60095656,0.60095656,0.98423322) (0.60512037,0.96867859,0.97624872) (0.60095656,0.60095656,1.00000000)
(0.60095656,0.60095656,0.99905454) (0.97073910,0.99999771,1.00000000) (0.61102804,0.60095656,0.68047943) (0.60095656,0.60095656,0.98737655) (0.60158064,0.60095656,0.88322692) (0.60095656,0.60095656,0.99999942)
(0.60095656,0.60095656,0.99965275) (0.96620236,0.99999771,0.99997093) (0.60706417,0.60095656,0.77644066) (0.60095656,0.60095656,0.88090644) (0.60098360,0.60095656,0.73287726) (0.60095656,0.60095656,0.97737818)
(0.60095656,0.60095656,0.99924840) (0.97224588,0.99999164,0.99770786) (0.61142575,0.60345034,0.60464327) (0.60095656,0.60095656,0.80670953) (0.60422717,0.60095656,0.60543343) (0.60095656,0.60095656,0.97653017)
(0.60095656,0.60095656,0.98886869) (0.96996263,0.99999031,0.96372513) (0.61123424,0.60095656,0.63627729) (0.60095656,0.60095656,0.78833733) (0.60151734,0.60095656,0.61219499) (0.60095656,0.60095656,0.93971928)
(0.60095656,0.60095656,0.72707344) (0.96666808,0.60095656,0.84864591) (0.61366993,0.94890814,0.78185340) (0.60095656,0.60095656,0.74977829) (0.60276248,0.60095656,0.62320165) (0.60095656,0.60095656,0.67631121)
(0.60095656,0.60095656,0.60294239) (0.96809152,0.60095656,0.91192751) (0.61447308,0.94860931,0.75198936) (0.60095656,0.60095656,0.90973247) (0.60161989,0.60095656,0.65918483) (0.60095656,0.60095656,0.90593598)
(0.60095656,0.60095656,0.77303071) (0.95119351,0.60095656,0.72453274) (0.60099117,0.94834298,0.83693912) (0.60095656,0.60095656,0.91452991) (0.60129455,0.60095656,0.60104941) (0.60095656,0.60095656,0.75559236)
(0.60095656,0.60095656,0.91489402) (0.94059413,0.60118427,0.85396571) (0.60533488,0.94661450,0.67392123) (0.60095656,0.60095656,0.66212231) (0.60138271,0.60095656,0.67994466) (0.60095656,0.60095656,0.75443364)
(0.60095656,0.60095656,0.86620370) (0.96647285,0.60095656,0.84588470) (0.60581806,0.60095656,0.67238480) (0.60095656,0.60095656,0.69270563) (0.60161100,0.97093351,0.75288521) (0.60095656,0.60095656,0.60305302)
(0.60095656,0.60095656,0.63853839) (0.95476423,0.60095656,0.66495633) (0.60760686,0.60095656,0.69700461) (0.60095656,0.60095656,0.75538568) (0.62702989,0.97093351,0.89410949) (0.60095656,0.60095656,0.60315710)
(0.60095656,0.60095656,0.84025639) (0.79258249,0.60095656,0.79663669) (0.60277583,0.60095656,0.67145343) (0.60095656,0.60095656,0.60125631) (0.98347788,0.97093352,0.73957338) (0.60095656,0.60095656,0.68288827)
(0.60095656,0.60095656,0.67373390) (0.94821987,0.99999018,0.65674064) (0.61409944,0.60095656,0.62146559) (0.60095656,0.60095656,0.74181368) (0.68178424,0.60095656,0.91885768) (0.60095656,0.60095656,0.60117416)
(0.60095656,0.60095656,0.64068442) (0.96225889,0.60095656,0.61375928) (0.60971224,0.60095657,0.62573153) (0.60095656,0.60095656,0.61431505) (0.60815873,0.97210163,0.76956003) (0.60095656,0.60095656,0.67658372)
(0.60095656,0.60095656,0.61480577) (0.95195183,0.60095656,0.63017975) (0.60489360,0.60095657,0.60173547) (0.60095656,0.60095656,0.61181044) (0.62070771,0.97332906,0.88138029) (0.60095656,0.60095656,0.61886995)
(0.60095656,0.60095656,0.65729544) (0.69941853,0.60095656,0.64844029) (0.61189621,0.94832521,0.73276284) (0.60095656,0.60095656,0.60151667) (0.99258678,0.60095656,0.73419054) (0.60095656,0.60095656,0.69395825)
(0.60095656,0.60095656,0.83618408) (0.90814557,0.60095656,0.61687004) (0.60473317,0.94859112,0.75477898) (0.60095656,0.60095656,0.60427334) (0.80186356,0.60095656,0.89133892) (0.60095656,0.60095656,0.62047156)
(0.60095656,0.60095656,0.81215855) (0.96152626,0.99977200,0.60698419) (0.61208539,0.60095656,0.62729322) (0.60095656,0.60095656,0.61488012) (0.61204388,0.60095656,0.90000376) (0.60095656,0.60095656,0.69855477)
(0.60095656,0.60095656,0.62011763) (0.92026502,0.60095656,0.69405044) (0.61210739,0.60095656,0.75602599) (0.60095656,0.60095656,0.65764181) (0.79951165,0.97332153,0.82827581) (0.60095656,0.60095656,0.61452698)
(0.60095656,0.60095656,0.65822686) (0.84193595,0.60095656,0.60104896) (0.61154812,0.60095656,0.73888410) (0.60095656,0.60095656,0.60101100) (0.97003087,0.97332153,0.70529786) (0.60095656,0.60095656,0.68718848)
(0.60095656,0.60095656,0.83122952) (0.94207587,0.60095656,0.94849013) (0.60977255,0.60095656,0.60096065) (0.60095656,0.60095656,0.96408021) (0.69680945,0.97332133,0.64338559) (0.60095656,0.60095656,0.98875096)
(0.60095656,0.60095656,0.64012809) (0.60095656,0.60095656,0.63308160) (0.60875310,0.60095656,0.66533130) (0.60095656,0.60095656,0.60096880) (0.60846610,0.60095656,0.66972409) (0.60095656,0.60095656,0.60335628)
(0.60095656,0.60095656,0.70473957) (0.60095656,0.60095656,0.64238242) (0.96317723,0.95114705,0.66819777) (0.60095656,0.60095656,0.61747198) (0.78737535,0.60095656,0.60102446) (0.60095656,0.60095656,0.60142934)
(0.60095656,0.60095656,0.61793708) (0.60095656,0.60095656,0.63413651) (0.91376049,0.60095656,0.65313935) (0.60095656,0.60095656,0.65811838) (0.94782355,0.97302838,0.60536393) (0.60095656,0.60095656,0.60113031)
(0.60095656,0.60095656,0.62390651) (0.60095656,0.60095656,0.60634960) (0.77702187,0.60095656,0.78279842) (0.60095656,0.60095656,0.60767213) (0.99847294,0.97273276,0.68345562) (0.60095656,0.60095656,0.61602502)
(0.60095656,0.60095656,0.68182813) (0.60428730,0.60095656,0.63528304) (0.78373559,0.95209687,0.78928259) (0.60095656,0.60095656,0.62665784) (0.99844457,0.60095656,0.60723016) (0.60095656,0.60095656,0.60832551)
(0.60095656,0.60095656,0.65132193) (0.61410613,0.60095656,0.63304906) (0.86288306,0.94487335,0.85805555) (0.60095656,0.60095656,0.64064757) (0.99054967,0.60228232,0.60884517) (0.60095656,0.60095656,0.60796312)
(0.60095656,0.60095656,0.64360373) (0.64836879,0.60095656,0.62863188) (0.79643094,0.95281319,0.61799004) (0.60095656,0.60095656,0.60446548) (0.99837227,0.60095656,0.68339578) (0.60095656,0.60095656,0.60120573)
(0.60095656,0.60095656,0.67335200) (0.69809984,0.60095656,0.60103198) (0.60613928,0.60095656,0.65431880) (0.60095656,0.60095656,0.60177454) (0.61017415,0.60095656,0.60735551) (0.60095656,0.60095656,0.60187895)
(0.60095656,0.60095656,0.84209389) (0.71792629,0.60095656,0.60774554) (0.60572169,0.60095656,0.62191389) (0.60095656,0.60095656,0.62843741) (0.61065694,0.60095656,0.60456574) (0.60095656,0.60095656,0.60985665)
(0.60095656,0.60095656,0.89901875) (0.73839315,0.60095656,0.60132364) (0.60523931,0.60095656,0.69090051) (0.60095656,0.60095656,0.74838276) (0.61115023,0.60095656,0.61173275) (0.60095656,0.60095656,0.60249789)
(0.60095656,0.60095656,0.82274526) (0.74270012,0.60095656,0.60558619) (0.99804492,0.95402335,0.78285915) (0.60095656,0.60095656,0.67939656) (0.61077643,0.60095656,0.66956455) (0.60095656,0.60095656,0.62507678)
(0.60095656,0.60095656,0.72853203) (0.74747343,0.60095656,0.60410035) (0.99821446,0.95471905,0.76888182) (0.60095656,0.60095656,0.61210371) (0.61070300,0.60095656,0.61410994) (0.60095656,0.60095656,0.62756357)
(0.60095656,0.60095656,0.61696019) (0.75218793,0.60095656,0.60398296) (0.99837050,0.95446527,0.82974341) (0.60095656,0.60095656,0.60865596) (0.61020501,0.60095656,0.76997830) (0.60095656,0.60095656,0.63470592)
(0.60095656,0.60095656,0.78902727) (0.75691725,0.60095656,0.60123440) (0.99861307,0.95421335,0.83198445) (0.60095656,0.60095656,0.60139682) (0.60966527,0.60095656,0.83631913) (0.60095656,0.60095656,0.67000705)
(0.60095656,0.60095656,0.80302165) (0.76295788,0.60095656,0.64892683) (0.99881126,0.95466818,0.74511658) (0.60095656,0.60095656,0.68744414) (0.60936075,0.60095656,0.60990963) (0.60095656,0.60095656,0.67343473)
(0.60095656,0.60095656,0.63521121) (0.76900520,0.60095656,0.62711806) (0.77552438,0.95514399,0.63711187) (1.00000000,0.60095656,0.65158329) (0.60906286,0.60095656,0.60106613) (0.60095656,0.60095656,0.60224385)
(0.60095656,0.60095656,0.60128513) (0.77766535,0.60095656,0.60662381) (0.60387891,0.60095656,0.92722463) (1.00000000,1.00000000,0.60736133) (0.60897370,0.60095656,0.66442451) (0.60095656,0.60095656,0.60300224)
(0.60095656,0.60095656,0.61740739) (0.78629344,0.60095656,0.60996941) (0.94361388,0.60095656,0.87489732) (1.00000000,1.00000000,0.79166428) (0.60888466,0.60095656,0.79619275) (0.60095656,0.60095656,0.61663680)
(0.60095656,0.60095656,0.74003989) (0.79395115,0.60095656,0.60737113) (0.99863924,0.95480503,0.75440358) (0.60095656,0.60095656,0.68091701) (0.60149075,0.60095656,0.93821053) (1.00000000,0.60095656,0.60137616)
(0.60095656,0.60095656,0.63843875) (0.80155979,0.60095656,0.62633278) (0.99610988,0.95452518,0.94997363) (0.60095656,0.60095656,0.68697005) (0.65530200,0.60095656,0.95061949) (1.00000000,0.60095656,0.65245616)
(0.60095656,0.60095656,0.60097597) (0.80656973,0.60095656,0.60535702) (0.88621754,0.95376791,0.75578283) (0.60095656,0.60095656,0.60720638) (0.98928276,0.60095656,0.87586940) (0.60095656,0.60095656,0.60112089)
(0.60095656,0.60095656,0.67705864) (0.81184166,0.60095656,0.60608736) (0.60392119,0.60095656,0.81049300) (0.60095656,0.60095656,0.60124590) (0.99999959,0.96943916,0.90316310) (0.60095656,0.60095656,0.71387073)
(0.60095656,0.60095656,0.70716885) (0.82666176,0.60095656,0.61222791) (0.74333912,0.60095656,0.61198896) (0.60095656,0.60095656,0.74228322) (0.99955451,0.96910261,0.98663912) (0.60095656,0.60095656,0.83256549)
(0.60095656,0.60095656,0.70717035) (0.84102396,0.60095656,0.60946508) (0.79008446,0.95470783,0.61857421) (0.60095656,0.60095656,0.78802760) (0.99884710,0.60095660,0.99012618) (0.60095656,0.60095656,0.76632882)
(0.60095656,0.60095656,0.60146609) (0.84993197,0.60095656,0.60447087) (0.60391709,0.60095656,0.69357503) (0.60095656,0.60095656,0.66086510) (0.99999975,0.96842198,0.96862760) (0.60095656,0.60095656,0.62565759)
(0.60095656,0.60095656,0.72895063) (0.84011716,0.60095656,0.60206354) (0.60400248,0.60095656,0.61946188) (1.00000000,1.00000000,0.66541613) (0.99973512,0.60095656,0.70730015) (0.60095656,0.60095656,0.63848165)
(1.00000000,1.00000000,0.89031466) (0.82570870,0.60095656,0.60126229) (0.60388869,0.60095656,0.60095794) (0.60095656,0.60095656,0.63742299) (0.99906260,0.60095656,0.90220740) (0.60095656,0.60095656,0.60341143)
(0.60095656,0.60095656,0.70415476) (0.81064218,0.60095656,0.60139822) (0.60377450,0.60095656,0.63522968) (0.60095656,0.60095656,0.66088176) (0.99999969,0.97133421,0.94620209) (0.60095656,0.60095656,0.60326577)
(0.60095656,0.60095656,0.60617599) (0.80558132,0.60095656,0.62602650) (0.60385715,0.60095656,0.62243591) (0.60095656,0.60095656,0.64614956) (0.99999967,0.97236146,0.97975828) (0.60095656,0.60095656,0.61332534)
(0.60095656,0.60095656,0.60145824) (0.80042161,0.60095656,0.61869342) (0.64728764,0.60095660,0.72467926) (0.60095656,0.60095656,0.64111502) (0.99997212,0.97197983,0.98965077) (0.60095656,0.60095656,0.61089885)
(0.60095656,0.60095656,0.76330633) (0.79276492,0.60095656,0.62020461) (0.96551151,0.95364390,0.82035514) (0.60095656,0.60095656,0.81131326) (0.90566977,0.60095656,0.97782757) (0.60095656,0.60095656,0.65683396)
(1.00000000,1.00000000,0.78265548) (0.78540549,0.60095656,0.60477337) (0.98579176,0.60110467,0.69037194) (0.60095656,0.60095656,0.66613264) (0.73053296,0.60095656,0.94295507) (0.60095656,0.60095656,0.62655882)
(0.60095656,0.60095656,0.75000612) (0.77726063,0.60095656,0.61185503) (0.97738413,0.95336012,0.62462607) (0.60095656,0.60095656,0.82953287) (0.85307045,0.60095656,0.82266267) (0.60095656,0.60095656,0.60885575)
(0.60095656,0.60095656,0.82199541) (0.76912398,0.60095656,0.62033211) (0.99902219,0.95307883,0.85972383) (0.60095656,0.60095656,0.68897563) (0.60687200,0.60095656,0.60470817) (0.60095656,0.60095656,0.66620564)
(0.60095656,0.60095656,0.90243515) (0.76350959,0.60095656,0.60256619) (0.99896883,0.95280027,0.69743612) (0.60095656,0.60095656,0.81697794) (0.60674422,0.60095656,0.62686532) (0.60095656,0.60095656,0.64408410)
(0.60095656,0.60095656,0.90995238) (0.75734164,0.60095656,0.62430435) (0.99895861,0.95327704,0.66320737) (0.60095656,0.60095656,0.76622677) (0.60661904,0.60095656,0.89748626) (0.60095656,0.60095656,0.63390373)
(0.60095656,0.60095656,0.85583400) (0.60191580,0.99821563,0.67624259) (0.91770951,0.60095656,0.81194381) (0.60095656,0.60095656,0.60140165) (0.60668207,0.60095656,0.86020517) (1.00000000,0.60095656,0.62280080)
(0.60095656,0.60095656,0.60262403) (0.66809969,0.99815019,0.60165086) (0.75134828,0.60095656,0.67985874) (0.60095656,0.60095656,0.74738941) (0.60299560,0.60095656,0.62770582) (1.00000000,0.60095656,0.78349790)
(0.60095656,0.60095656,0.86269781) (0.60103401,0.99807425,0.72385030) (0.91940378,0.60095669,0.86180784) (0.60095656,0.60095656,0.71082553) (0.60123597,0.60095656,0.95714131) (1.00000000,0.60095656,0.61237048)
(0.60095656,0.60095656,0.83860179) (0.74168312,0.60095656,0.76102770) (0.64359323,0.95215297,0.60779581) (0.60095656,0.60095656,0.62980712) (0.60095720,0.60095656,0.96486021) (0.60095656,0.60095656,0.60326670)
(0.60095656,0.60095656,0.60944527) (0.85132085,0.60095656,0.62619785) (0.60198758,0.95145194,0.60122343) (0.60095656,0.60095656,0.64742537) (0.60213407,0.60095656,0.70324070) (0.60095656,0.60095656,0.60406454)
(0.60095656,0.60095656,0.62454970) (0.86695445,0.99726825,0.60396213) (0.60246392,0.60095656,0.74507007) (0.60095656,0.60095656,0.60712048) (0.60141286,0.60095656,0.90988166) (0.60095656,0.60095656,0.61807203)
(0.60095656,0.60095656,0.60110294) (0.90178566,0.60095656,0.65739170) (0.60586648,0.95091047,0.60928197) (0.60095656,0.60095656,0.76236249) (0.60102328,0.60095903,0.67454235) (0.60095656,0.60095656,0.63776382)
(0.60095656,0.60095656,0.76519703) (0.93454106,0.60095656,0.75259975) (0.63015122,0.60095656,0.61109416) (0.60095656,0.60095656,0.68518766) (0.60146302,0.98215440,0.75207360) (0.60095656,0.60095656,0.76658866)
(0.60095656,0.60095656,0.72389495) (0.95471936,0.99778554,0.62188349) (0.60282646,0.60095656,0.61645079) (0.60095656,0.60095656,0.66702778) (0.60122317,0.60095656,0.91726023) (0.60095656,0.60095656,0.62559784)
(0.60095656,0.60095656,0.73396288) (0.94356607,0.60095656,0.83486665) (0.61198714,0.60095656,0.62613717) (1.00000000,1.00000000,0.74749029) (0.60248639,0.97185869,0.94379195) (0.60095656,0.60095656,0.74030851)
(0.60095656,0.60095656,0.63191684) (0.95635078,0.60095656,0.70094533) (0.60106518,0.60095656,0.63128420) (1.00000000,0.60433533,0.63516353) (0.60119717,0.98441089,0.97465101) (0.60095656,0.60095656,0.63889807)
(0.60095656,0.60095656,0.67831067) (0.92066197,0.60095656,0.66560917) (0.61731920,0.95058549,0.60238647) (0.60095656,0.60095656,0.75015007) (0.61538726,0.60095656,0.68201196) (0.60095656,0.60095656,0.78397924)
(0.60095656,0.60095656,0.65222632) (0.96372846,0.60095656,0.61893369) (0.60156934,0.95034225,0.60805060) (0.60095656,0.60095656,0.61350274) (0.60265584,0.60095656,0.83895324) (0.60095656,0.60095656,0.61912750)
(0.60095656,0.60095656,0.61327839) (0.94799676,0.60095656,0.77239185) (0.60357246,0.95010516,0.60121453) (0.60095656,0.60095656,0.69673313) (0.60107603,0.60095656,0.89046275) (0.60095656,0.60095656,0.84010412)
(0.60095656,0.60095656,0.66650979) (0.96308451,0.60095656,0.70355056) (0.60174547,0.94955144,0.61048540) (0.60095656,0.60095656,0.67354633) (0.60276442,0.60095656,0.95157199) (0.60095656,0.60095656,0.68896955)
(0.60095656,0.60095656,0.78783183) (0.91156910,0.60095656,0.63674385) (0.60447409,0.60095656,0.60107202) (0.60095656,0.60095656,0.66930875) (0.67579558,0.98837397,0.95616935) (0.60095656,0.60095656,0.60774271)
(0.60095656,0.60095656,0.61248133) (0.92491133,0.99657979,0.61663856) (0.60296728,0.60095656,0.60099761) (0.60095656,0.60095656,0.60888235) (0.60258671,0.60095656,0.78316929) (0.60095656,0.60095656,0.65475914)
(0.60095656,0.60095656,0.60617082) (0.61274774,0.60095656,0.60123953) (0.90374618,0.94914023,0.65078766) (0.60095656,0.60095656,0.60105488) (0.60608624,0.60095656,0.61312012) (0.60095656,0.60095656,0.71131706)
(1.00000000,1.00000000,0.66698832) (0.71313096,0.60095656,0.61972079) (0.91586985,0.60095657,0.72606303) (0.60095656,0.60095656,0.66576488) (0.60630330,0.60095656,0.60195373) (0.60095656,0.60095656,0.62846267)
(1.00000000,1.00000000,0.72747652) (0.73295639,0.60095656,0.61868550) (0.78073570,0.60095660,0.74042744) (0.60095656,0.60095656,0.67800334) (0.60656539,0.60095656,0.76103039) (0.60095656,0.60095656,0.74249888)
(0.60095656,0.60095656,0.72237182) (0.73756143,0.60095656,0.60275727) (0.83216274,0.60095657,0.69097008) (0.60095656,0.60095656,0.62334975) (0.99740974,0.99418604,0.94428208) (0.60095656,0.60095656,0.65426703)
(0.60095656,0.60095656,0.63399659) (0.74219704,0.60095656,0.60275689) (0.88535050,0.94851440,0.65261854) (0.60095656,0.60095656,0.60325602) (0.99046543,0.60095656,0.84754330) (0.60095656,0.60095656,0.65669529)
(0.60095656,0.60095656,0.60451214) (0.74680095,0.60095656,0.60152452) (0.92256923,0.94830357,0.60713742) (0.60095656,0.60095656,0.63713481) (0.97639502,0.60095656,0.80372335) (0.60095656,0.60095656,0.64133791)
(0.60095656,0.60095656,0.79000879) (0.75143205,0.60095656,0.60711160) (0.90075019,0.94850098,0.61300469) (0.60095656,0.60095656,0.68228726) (0.99161231,0.60095685,0.95515356) (0.60095656,0.60095656,0.65602802)
(1.00000000,0.60101700,0.84363306) (0.75690991,0.60095656,0.60177812) (0.80724024,0.60095657,0.61554091) (0.60095656,0.60095656,0.61873229) (0.98883857,0.99494976,0.97852617) (0.60095656,0.60095656,0.67268810)
(0.60095656,0.60095656,0.70112471) (0.76278669,0.60095656,0.60100132) (0.99623869,0.94810274,0.65559735) (0.60095656,0.60095656,0.60095685) (0.60632889,0.60095656,0.87186907) (0.60095656,0.60095656,0.68842193)
(0.60095656,0.60095656,0.65873802) (0.77129994,0.60095656,0.65386221) (0.99624057,0.94837061,0.64070632) (0.60095656,0.60095656,0.74065835) (0.60642991,0.60095656,0.68150777) (0.60095656,0.60095656,0.76839993)
(0.60095656,0.60095656,0.60767410) (0.75598631,0.60095656,0.64782570) (0.60162286,0.60095656,0.60410469) (1.00000000,1.00000000,0.69647697) (0.60666051,0.60095656,0.62605342) (0.60095656,0.60095656,0.77642319)
(0.60095656,0.60095656,0.61383001) (0.76435185,0.99385536,0.61533331) (0.60292275,0.60095656,0.60170770) (0.60095656,0.60095656,0.76436810) (0.60663895,0.60095656,0.87987844) (0.60095656,0.60095656,0.72187505)
(0.60095656,0.60095656,0.79150155) (0.74022212,0.99365747,0.60978180) (0.60366437,0.60095656,0.61533452) (0.60095656,0.60095656,0.70658689) (0.60661739,0.60095656,0.97029590) (0.60095656,0.60095656,0.70411628)
(0.60095656,0.60095656,0.63772587) (0.71184655,0.60095656,0.85846230) (0.60398536,0.60095656,0.77525280) (0.60095656,0.60095656,0.69272840) (0.60299472,0.99538941,0.98631714) (0.60095656,0.60095656,0.79941756)
(0.60095656,0.60095656,0.92079233) (0.69086037,0.60095656,0.97083162) (0.60381955,0.95003722,0.89443191) (0.60095656,0.60095656,0.83346185) (0.60476280,0.60095656,0.91862546) (0.60095656,0.60095656,0.98505703)
(0.60095656,0.60095656,0.95290387) (0.66541223,0.60095656,0.96970025) (0.60324534,0.95039658,0.97578017) (0.60095656,0.60095656,0.99408347) (0.60098978,0.60095656,0.70995978) (0.60095656,0.60095656,0.96683831)
(0.60095656,0.60095656,0.89069356) (0.64330218,0.60095656,0.97694299) (0.60311658,0.95085415,0.98949995) (0.60095656,0.60095656,0.99956963) (0.60670876,0.60095656,0.86092487) (0.60095656,0.60095656,0.98489204)
(0.60095656,0.60095656,0.93238308) (0.63950941,0.60095656,0.97926574) (0.60327047,0.95085414,0.98581209) (0.60095656,0.60095656,0.99941269) (0.60481436,0.60095656,0.81615699) (0.60095656,0.60095656,0.97592871)
(0.60095656,0.60095656,0.88838114) (0.64588682,0.60095656,0.96285892) (0.60320965,0.60095656,0.98862080) (0.60095656,0.60095656,0.97180750) (0.60224346,0.99343791,0.60095656) (0.60095656,0.60095656,0.96970270)
(0.60095656,0.60095656,0.92610696) (0.65117420,0.99091765,0.97689053) (0.60324766,0.60095656,0.98041474) (0.60095656,0.60095656,0.96539705) (0.60664274,0.60095656,0.64729346) (0.60095656,0.60095656,0.98690882)
(0.60095656,0.60095656,0.91062908) (0.64314905,0.99062807,0.96683675) (0.60318323,0.60095656,0.97054005) (0.60095656,0.60095656,0.98781317) (0.60118180,0.60095666,0.60648034) (0.60095656,0.60095656,0.95407862)
(0.60095656,0.60095656,0.94612845) (0.63482269,0.99036672,0.97012063) (0.60219527,0.60095656,0.96614951) (0.60095656,0.60095656,0.99347212) (0.60170680,0.60095656,0.63452510) (0.60095656,0.60095656,0.96755984)
(0.60095656,0.60095656,0.93133817) (0.63907080,0.60095656,0.97470140) (0.60373013,0.60095656,0.96224954) (0.60095656,0.60095656,0.99686059) (0.60105681,0.99252534,0.61149472) (0.60095656,0.60095656,0.96503754)
(0.60095656,0.60095656,0.89900382) (0.64145700,0.98978360,0.96783443) (0.60428717,0.60095656,0.98669382) (0.60095656,0.60095656,0.96800323) (0.60180772,0.60095656,0.68496108) (0.60095656,0.60095656,0.94365719)
(0.60095656,0.60095656,0.83130484) (0.63986011,0.98947943,0.95326312) (0.60286585,0.60095656,0.98279160) (0.60095656,0.60095656,0.97416957) (0.60496287,0.60095656,0.60918685) (0.60095656,0.60095656,0.94454092)
(0.60095656,0.60095656,0.93559058) (0.63585514,0.60096165,0.94862042) (0.60343827,0.95297830,0.97822482) (0.60095656,0.60095656,0.92653854) (0.60291248,0.60097477,0.60117279) (0.60095656,0.60095656,0.95068403)
(0.60095656,0.60095656,0.95954045) (0.62656707,0.98982493,0.95979002) (0.60335531,0.60097511,0.93598353) (0.60095656,0.60095656,0.99549223) (0.60158783,0.60095656,0.78491991) (0.60095656,0.60095656,0.96052089)
(0.60095656,0.60095656,0.91701443) (0.62983895,0.60095759,0.95924985) (0.60305259,0.95239917,0.88792494) (0.60095656,0.60095656,0.99540621) (0.60104994,0.60095656,0.76915815) (0.60095656,0.60095656,0.98116178)
(0.60095656,0.60095656,0.89498601) (0.63574253,0.60095656,0.95763267) (0.60329746,0.60095656,0.92130684) (0.60095656,0.60095656,0.97914293) (0.60136978,0.99316748,0.62275509) (0.60095656,0.60095656,0.98689574)
(0.60095656,0.60095656,0.93821350) (0.64216384,0.99172591,0.98243216) (0.60307640,0.60095656,0.98379367) (0.60095656,0.60095656,0.97686583) (0.60281854,0.60095656,0.75052282) (0.60095656,0.60095656,0.97499203)
(0.60095656,0.60095656,0.95434896) (0.64469927,0.99299766,0.97777335) (0.60250158,0.60095656,0.96435265) (0.60095656,0.60095656,0.97487278) (0.60310494,0.60095656,0.72801274) (0.60095656,0.60095656,0.96644477)
(0.60095656,0.60095656,0.95927374) (0.64076942,0.60095661,0.95838093) (0.60227827,0.95123451,0.95142284) (0.60095656,0.60095656,0.96744434) (0.60096847,0.60095656,0.70641707) (0.60095656,0.60095656,0.98994824)
(0.60095656,0.60095656,0.96626360) (0.63627700,0.60095656,0.95982174) (0.60191282,0.95186619,0.91738385) (0.60095656,0.60095656,0.97968060) (0.60194952,0.60095656,0.66564427) (0.60095656,0.60095656,0.98464850)
(0.60095656,0.60095656,0.92843186) (0.64602945,0.60095656,0.95993764) (0.60173823,0.95251310,0.92793219) (0.60095656,0.60095656,0.95796304) (0.60098680,0.60095656,0.60958494) (0.60095656,0.60095656,0.98722833)
(0.60095656,0.60095656,0.90827148) (0.65655839,0.99373831,0.96753220) (0.60212899,0.60095656,0.95176972) (0.60095656,0.60095656,0.98138278) (0.60147171,0.60095656,0.61267592) (0.60095656,0.60095656,0.98592499)
(0.60095656,0.60095656,0.94748040) (0.67248589,0.99348869,0.95679022) (0.60219359,0.60095656,0.94715074) (0.60095656,0.60095656,0.97230878) (0.60221412,0.60095656,0.60317413) (0.60095656,0.60095656,0.96823652)
(0.60095656,0.60095656,0.90036165) (0.68246566,0.99323378,0.93414735) (0.60172812,0.60095656,0.94704206) (0.60095656,0.60095656,0.96834229) (0.60121655,0.60095656,0.74393553) (0.60095656,0.60095656,0.97966698)
(0.60095656,0.60095656,0.91253219) (0.70006387,0.60095656,0.95050942) (0.60138490,0.95232794,0.88563931) (0.60095656,0.60095656,0.99494719) (0.60106611,0.60095656,0.65983130) (0.60095656,0.60095656,0.93466309)
(0.60095656,0.60095656,0.90197690) (0.67394765,0.60095656,0.93726625) (0.60106733,0.95232795,0.86024250) (0.60095656,0.60095656,0.95175951) (0.60155549,0.60095656,0.63724320) (0.60095656,0.60095656,0.93431021)
(0.60095656,0.60095656,0.91460623) (0.70870357,0.99070620,0.97067318) (0.60135401,0.60095656,0.95228989) (0.60095656,0.60095656,0.97333158) (0.60286588,0.60305989,0.73216336) (0.60095656,0.60095656,0.95435487)
(0.60095656,0.60095656,0.91766016) (0.73220597,0.99269600,0.95881313) (0.60162192,0.60095656,0.93762448) (0.60095656,0.60095656,0.95272494) (0.60280177,0.60095656,0.62361292) (0.60095656,0.60095656,0.97033625)
(0.60095656,0.60095656,0.81946320) (0.76660207,0.99241138,0.93532785) (0.60133169,0.60095656,0.94601186) (0.60095656,0.60095656,0.96580487) (0.60222146,0.60095656,0.60872961) (0.60095656,0.60095656,0.95477398)
(0.60095656,0.60095656,0.88269987) (0.72263296,0.97811347,0.92094639) (0.60104065,0.61711543,0.94945076) (0.60095656,0.60095656,0.94582657) (0.60097194,0.60095656,0.69641876) (0.60095656,0.60095656,0.94979535)
(0.60095656,0.60095656,1.00000000) (0.79202769,0.60095656,1.00000000) (0.60180987,0.60095656,1.00000000) (0.60095656,0.60095656,1.00000000) (0.60478204,0.60095656,1.00000000) (0.60095656,0.60095656,1.00000000)
(0.60095656,0.60095656,1.00000000) (0.75666498,0.60095656,1.00000000) (0.60185019,0.60095656,1.00000000) (0.60095656,0.60095656,1.00000000) (0.60460218,0.60095656,1.00000000) (0.60095656,0.60095656,1.00000000)
(0.60095656,0.60095656,1.00000000) (0.75017063,0.60095656,1.00000000) (0.60226104,0.60095656,1.00000000) (0.60095656,0.60095656,1.00000000) (0.60449389,0.60095656,1.00000000) (0.60095656,0.60095656,1.00000000)
(0.60095656,0.60095656,1.00000000) (0.74316836,0.60095656,1.00000000) (0.60274622,0.60095656,1.00000000) (0.60095656,0.60095656,1.00000000) (0.60454692,0.60095656,1.00000000) (0.60095656,0.60095656,1.00000000)
