chh c1 sd mt lt rc2
(0.60095656,0.60095656,1.00000000) (0.60095656,0.60095656,1.00000000) (0.62680899,0.60095656,1.00000000) (0.60095656,0.60095656,1.00000000) (0.60628329,0.60095656,1.00000000) (0.60095656,0.60095656,1.00000000)
(0.60095656,0.60095656,0.60172665) (0.60095656,0.60095656,0.76950744) (0.62571586,0.60095656,0.65915192) (0.60095656,0.60095656,0.60249506) (0.60886680,0.60095656,0.62043303) (0.60095656,0.60095656,0.82965966)
(0.60095656,0.60095656,0.68897766) (0.60095656,0.60095656,0.68974925) (0.62205695,0.60095656,0.66390587) (0.60095656,0.60095656,0.72758557) (0.61142595,0.60095656,0.68388029) (0.60095656,0.60095656,0.76655109)
(0.60095656,0.60095656,0.60480764) (0.60095656,0.60095656,0.65221029) (0.61865405,0.60095656,0.66566393) (0.60095656,0.60095656,0.69509701) (0.61397936,0.60095656,0.62345253) (0.60095656,0.60095656,0.69925486)
(0.60095656,0.60095656,0.62887942) (0.60171632,0.60095656,0.60097490) (0.60886583,0.60095656,0.70479859) (0.60095656,0.60095656,0.67382860) (0.61128072,0.60095656,0.64704538) (0.60095656,0.60095656,0.60333136)
(0.60095656,0.60095656,0.60889976) (0.60095656,0.60095656,0.66316087) (0.60288362,0.60095656,0.72635907) (0.60095656,0.60095656,0.69235662) (0.60887251,0.60095656,0.66080446) (0.60095656,0.60095656,0.76593777)
(0.60095656,0.60095656,0.63439788) (0.60095656,0.60095656,0.76159114) (0.60880810,0.60095656,0.69601404) (0.60095656,0.60095656,0.60250352) (0.60691507,0.60095656,0.63778772) (0.60095656,0.60095656,0.68024167)
(0.60095656,0.60095656,0.64513127) (0.60095656,0.60095656,0.76050149) (0.60286755,0.60095656,0.71868352) (0.60095656,0.60095656,0.60449019) (0.60522155,0.60095656,0.65870241) (0.60095656,0.60095656,0.62469780)
(0.60095656,0.60095656,0.60249005) (0.60095656,0.60095656,0.69141412) (0.60208319,0.60095656,0.78819663) (0.60095656,0.60095656,0.61480418) (0.60415379,0.60095656,0.72496991) (0.60095656,0.60095656,0.63348939)
(0.60095656,0.60095656,0.60288083) (0.60095656,0.60095656,0.78780861) (0.60150201,0.60095656,0.85121951) (0.60095656,0.60095656,0.65381832) (0.60323345,0.60095656,0.72356234) (0.60095656,0.60095656,0.70670750)
(0.60095656,0.60095656,0.60211870) (0.60095656,0.60095656,0.76749129) (0.60141933,0.60095656,0.82276945) (0.60095656,0.60095656,0.66448635) (0.60152700,0.60095656,0.70268872) (0.60095656,0.60095656,0.75380536)
(0.60095656,0.60095656,0.62161623) (0.60095656,0.60095656,0.67967695) (0.60136944,0.60095656,0.69658871) (0.60095656,0.60095656,0.60212620) (0.60095656,0.60095656,0.65802955) (0.60095656,0.60095656,0.73104663)
(0.60095656,0.60095656,0.70727630) (0.60095656,0.60095656,0.60529366) (0.60145351,0.60095656,0.64125904) (0.60095656,0.60095656,0.65014860) (0.60095656,0.60095656,0.60746461) (0.60095656,0.60095656,0.92255306)
(0.60095656,0.60095656,0.60095656) (0.60095656,0.60095656,0.61346776) (0.60137414,0.60095656,0.84930721) (0.60095656,0.60095656,0.61224886) (0.60095656,0.60095656,0.65874025) (0.60095656,0.60095656,0.94396800)
(0.60095656,0.60095656,0.61547742) (0.60095656,0.60095656,0.63248369) (0.60142704,0.60095656,0.86513832) (0.60095656,0.60095656,0.61274674) (0.60095656,0.60095656,0.67824097) (0.60095656,0.60095656,0.76270592)
(0.60095656,0.60095656,0.61313079) (0.60095656,0.60095656,0.65840977) (0.60148184,0.60095656,0.84474614) (0.60095656,0.60095656,0.61004735) (0.60095656,0.60095656,0.64715474) (0.60095656,0.60095656,0.69065298)
(0.60095656,0.60095656,0.60844106) (0.60095656,0.60095656,0.66571816) (0.60140452,0.60095656,0.74179306) (0.60095656,0.60095656,0.60112670) (0.60095656,0.60095656,0.61705455) (0.60095656,0.60095656,0.64424128)
(0.60095656,0.60095656,0.69795805) (0.60095656,0.60095656,0.71310742) (0.99802526,0.98870819,0.94880368) (0.60095656,0.60095656,0.60131632) (0.60095656,0.60095656,0.60271408) (0.60095656,0.60095656,0.81141567)
(0.60095656,0.60095656,0.60097605) (0.60095656,0.60095656,0.60283805) (0.60140976,0.60095656,0.67930108) (1.00000000,1.00000000,0.97435621) (0.60095656,0.60095656,0.62262005) (0.60095656,0.60095656,0.64932046)
(0.60095656,0.60095656,0.86746874) (0.60095656,0.60095656,0.70768709) (0.99814638,0.98548998,0.89525934) (0.60095656,0.60095656,0.60316503) (0.60095656,0.60095656,0.61196121) (0.60095656,0.60095656,0.61372349)
(0.60095656,0.60095656,0.83134301) (0.60095656,0.60095656,0.71654208) (0.99814846,0.98349862,0.62522529) (0.60095656,0.60095656,0.95160519) (0.60095656,0.60095656,0.63662134) (0.60095656,0.60095656,0.65012352)
(0.60095656,0.60095656,0.60150602) (0.60095656,0.60095656,0.75987065) (0.99863796,0.98548998,0.60507294) (0.60095656,0.60095656,0.88577331) (0.60095656,0.60095656,0.70583225) (0.60095656,0.60095656,0.62629969)
(0.61374177,0.99871005,0.87205159) (0.60095656,0.60095656,0.84380574) (0.99766458,0.60095656,0.69297265) (0.60095656,0.60095656,0.63511265) (0.60095656,0.60095656,0.89420359) (0.60095656,0.60095656,0.60097005)
(0.60407292,0.99800470,0.97260417) (0.60095656,0.60095656,0.65252298) (0.98510314,0.60095656,0.60779687) (1.00000000,0.99609700,0.99999981) (0.60095656,0.60095656,0.76725714) (0.60095656,0.60095656,0.92578778)
(0.60095656,0.60095656,0.83257689) (0.60095656,0.60095656,0.78949186) (0.99804146,0.98585446,0.64863154) (0.60095656,0.60095656,0.95672765) (0.70984534,0.60095716,0.91338496) (0.60095656,0.60095656,0.68477963)
(0.60095656,0.60095656,0.64946033) (0.60095656,0.60095656,0.69930712) (0.99044743,0.98622445,0.80498493) (0.60095656,0.60095656,0.96876651) (0.99856476,0.60095656,0.95637930) (0.60095656,0.60095656,0.63207379)
(0.60095656,0.60095656,0.67414795) (0.66834353,0.97510902,0.60361064) (0.96623476,0.67591753,0.86364527) (0.60095656,0.60095656,0.95758201) (0.99577352,0.60095656,0.81077589) (0.60095656,0.60095656,0.80672336)
(0.60095656,0.60095656,0.94344582) (0.60095656,0.60095656,0.63677470) (0.98836054,0.98505236,0.95073874) (0.60095656,0.60095656,0.99471350) (0.99912220,0.60095656,0.98974942) (0.60095656,0.60095656,0.71706351)
(0.60335656,0.60095656,0.89985451) (0.60095656,0.60095656,0.66482610) (0.98815527,0.98539420,0.94556190) (0.60095656,0.60095656,0.99923427) (0.99735850,0.60095656,0.99406491) (0.60095656,0.60095656,0.65395164)
(0.60095656,0.60095656,0.71756016) (0.60964755,0.94408013,0.65786336) (0.99267281,0.75256883,0.90685846) (0.60095656,0.60095656,0.93777541) (0.94414524,0.60095656,0.91284719) (0.60095656,0.60095656,0.73560943)
(0.60095656,0.60095656,0.60121493) (0.60717353,0.60095656,0.65807501) (0.99244002,0.98390814,0.89229771) (0.60095656,0.60095656,0.99237920) (0.94901046,0.60095656,0.87170358) (0.60095656,0.60095656,0.68303276)
(0.70921490,0.60095656,0.86823712) (0.60095656,0.60095656,0.83007541) (0.97357392,0.60095656,0.85827856) (0.60095656,0.60095656,0.99766555) (0.98048154,0.99999998,0.96439939) (0.60095656,0.60095656,0.87253253)
(0.63115136,0.60095656,0.60330395) (0.60095656,0.60095656,0.61923669) (0.99149904,0.60095656,0.88046397) (0.60095656,0.60095656,0.98630667) (0.94697467,0.99999998,0.90094891) (0.60095656,0.60095656,0.85606664)
(0.60095656,0.60095656,0.69381672) (0.60095656,0.60095656,0.64420303) (0.99315287,0.98637791,0.83440187) (0.99999118,1.00000000,0.92314114) (0.99192771,0.60095656,0.80041508) (0.60095656,0.60095656,0.82938561)
(0.90983129,0.99476239,0.95128985) (0.60095656,0.60095656,0.60974080) (0.88728668,0.60095656,0.89535800) (0.60095656,0.60095656,0.71232295) (0.93914658,0.60095656,0.86173424) (0.60095656,0.60095656,0.88437016)
(0.95999948,0.99493412,0.97261491) (0.60095656,0.60095656,0.66049701) (0.83747356,0.60095656,0.96091676) (0.60095656,0.60095656,0.98957506) (0.83694527,0.60095656,0.91195894) (0.60095656,0.60095656,0.73343597)
(0.60098665,0.60095656,0.91218546) (0.60669425,0.99608730,0.74588480) (0.99898506,0.60095656,0.95293704) (0.60095656,0.60095656,0.99971084) (0.60914935,0.60095656,0.65305997) (0.60095656,0.60095656,0.66553700)
(0.83423302,0.60095656,0.60330239) (0.60095656,0.60095656,0.60266999) (0.97971153,0.98759453,0.97445405) (0.60095656,0.60095656,0.98130137) (0.61072820,0.60095656,0.66192211) (0.60095656,0.60095656,0.61390178)
(0.60913166,0.60095656,0.92566749) (0.98360075,0.62197958,1.00000000) (0.75412381,0.97435505,0.98936548) (0.60095656,0.60095656,0.61523070) (0.61163595,0.60095656,0.98518994) (0.60095656,0.60095656,0.99752944)
(0.60107599,0.60095656,0.64730519) (0.99514369,0.99410259,0.98049499) (0.65705778,0.60095656,0.98666300) (0.60095656,0.60095656,0.62711375) (0.69266342,0.60095656,0.66814972) (0.60095656,0.60095656,0.81928214)
(0.60915513,0.99297630,0.90934363) (0.97713286,0.60095656,0.83304796) (0.68964454,0.60095656,0.97986177) (0.99999991,0.60095656,0.60101836) (0.73726447,0.60095656,0.92202949) (0.60095656,0.60095656,0.75275647)
(0.60321186,0.60095656,0.83377043) (0.95535422,0.60095656,0.99996649) (0.70012660,0.60095656,0.91659749) (1.00000000,0.60095656,0.90105973) (0.92736109,0.99999964,0.99470949) (0.60095656,0.60095656,0.98922929)
(0.60182176,0.60095656,0.61885255) (0.97806756,0.99551462,0.99996776) (0.66635272,0.60095656,0.91108129) (1.00000000,1.00000000,0.93744389) (0.61677364,0.60095656,0.98047691) (0.60095656,0.60095656,0.99998324)
(0.70136153,0.60095656,0.80717279) (0.95256110,0.99566096,0.97693017) (0.63690563,0.60095656,0.94157452) (1.00000000,0.60095658,0.98646008) (0.60547315,0.60095656,0.78195713) (0.60095656,0.60095656,0.99998652)
(0.64346832,0.60095656,0.73329307) (0.97255382,0.99580263,0.69783751) (0.63687172,0.60095656,0.94281037) (1.00000000,0.60095656,0.73337444) (0.60115149,0.60095656,0.65007861) (0.60095656,0.60095656,0.99837913)
(0.60315639,0.60095656,0.69200582) (0.98948476,0.99591849,0.60096156) (0.63037093,0.60095704,0.91751488) (1.00000000,0.60095656,0.68306911) (0.60406899,0.60095656,0.63917267) (0.60095656,0.60095656,0.67765369)
(0.75977068,0.99116989,0.87086111) (0.92095828,0.60095656,0.63285184) (0.62151533,0.60095656,0.87356726) (1.00000000,1.00000000,0.66441565) (0.60744904,0.60095656,0.63588318) (0.60095656,0.60095656,0.61790574)
(0.66479342,0.99139507,0.81421474) (0.95167623,0.60095656,0.60095656) (0.67466332,0.60095656,0.89254689) (1.00000000,1.00000000,0.71686612) (0.60098701,0.60095656,0.64163763) (0.60095656,0.60095656,0.61425354)
(0.60177954,0.60095656,0.72353861) (0.86582221,0.60095656,0.96536685) (0.89354366,0.60095656,0.80989676) (1.00000000,1.00000000,0.85664006) (0.73308537,0.99994265,0.95497109) (0.60095656,0.60095656,0.95826686)
(0.68527460,0.60095656,0.60345305) (0.72423802,0.60095656,0.96469282) (0.91842493,0.60095656,0.83266487) (1.00000000,1.00000000,0.61029409) (0.61532313,0.99985233,0.87185737) (0.60095656,0.60095656,0.99683906)
(0.60146466,0.60095656,0.60108128) (0.88977085,0.99539689,0.95143317) (0.89445896,0.60095656,0.86465078) (0.99999994,1.00000000,0.90734546) (0.63208742,0.60095656,0.99375643) (0.60095656,0.60095656,0.99428200)
(0.60307789,0.60095656,0.80562245) (0.90040281,0.99644542,0.87162824) (0.93279814,0.60095656,0.93528286) (0.85344679,0.60095656,0.95306974) (0.63884167,0.60095656,0.92997284) (0.60095656,0.60095656,0.99141072)
(0.62075751,0.60095656,0.97864220) (0.67871943,0.60095656,0.96556316) (0.98386819,0.99315589,0.95728491) (0.91517034,0.60095656,0.98632829) (0.67398151,0.60095656,0.87673551) (0.60095656,0.60095656,0.99970093)
(0.60297666,0.60095656,0.68125726) (0.80482363,0.60095656,0.86808899) (0.97569524,0.79903279,0.96950600) (0.99970357,1.00000000,0.95463142) (0.65976954,0.60095656,0.92951239) (0.60095656,0.60095656,0.99997787)
(0.60125398,0.60095656,0.97731855) (0.97423500,0.60095656,0.85578335) (0.78302345,0.60095656,0.92893589) (0.99999992,1.00000000,0.79879637) (0.64184910,0.99995647,0.88354042) (0.60095656,0.60095656,0.94223464)
(0.72895428,0.60095656,0.99889970) (0.94412354,0.99688886,0.96737056) (0.67382153,0.60095656,0.91582302) (0.99967692,1.00000000,0.69555462) (0.60442568,0.60095656,0.79017885) (0.60095656,0.60095656,0.94218188)
(0.81906758,0.60095656,0.84076306) (0.72290250,0.60095656,0.60668108) (0.83345917,0.99385192,0.84574852) (0.99994666,1.00000000,0.88305900) (0.69219848,0.60095656,0.82497671) (0.60095656,0.60095656,0.98327316)
(0.60288293,0.60095656,0.76009218) (0.99387770,0.60095656,1.00000000) (0.72174132,0.99401489,0.91877178) (0.60095656,0.60095656,1.00000000) (0.61396248,0.60095656,0.60117170) (0.60095656,0.60095656,0.99975116)
(0.99302136,0.98617293,0.98147805) (0.60095656,0.60095656,0.60098419) (0.68712484,0.60095656,0.92417367) (0.60095656,0.60095656,0.99979383) (0.61369492,0.60095656,0.61964268) (0.60095656,0.60095656,0.87956595)
(0.70879174,0.98644636,0.98173252) (0.60095656,0.60095656,0.65448075) (0.99518471,0.60095656,0.99586472) (0.60095656,0.60095656,0.96605607) (0.61342933,0.60095656,0.60095820) (0.60095656,0.60095656,0.93323285)
(0.60270621,0.60095656,0.68544068) (0.60095656,0.60095656,0.93168932) (0.99984493,0.99190980,0.99893005) (0.60095656,0.60095656,0.71330802) (0.61249622,0.60095656,0.62274106) (0.60095656,0.60095656,0.95894550)
(0.96204570,0.60095656,0.60350620) (0.60095656,0.60095656,0.92678563) (0.86669893,0.99315974,0.99476870) (0.60095656,0.60095656,0.69844297) (0.61255059,0.60095656,0.60454965) (0.60095656,0.60095656,0.95963872)
(0.60280660,0.60095656,0.60128002) (0.60095656,0.60095656,0.90852339) (0.99990432,0.99333119,0.99994595) (0.60095656,0.60095656,0.63144647) (0.61080353,0.60095656,0.75805712) (0.60095656,0.60095656,0.98720251)
(0.60095907,0.60095656,0.85574612) (0.60095656,0.60095656,0.79120448) (0.99985094,0.99349847,0.99430069) (0.60095656,0.60095656,0.94304755) (0.60918874,0.60095656,0.60103947) (0.60095656,0.60095656,0.94212318)
(0.92582592,0.60095656,0.81043361) (0.60095656,0.60095656,0.78979474) (0.91046751,0.99247212,0.97632398) (0.60095656,0.60095656,0.77239970) (0.60714252,0.60095656,0.70914437) (0.60095656,0.60095656,0.85103624)
(0.60274484,0.60095656,0.60595952) (0.60095656,0.60095656,0.67973086) (0.99991833,0.99140899,0.83994097) (0.60095656,0.60095656,0.82585597) (0.60856353,0.60095656,0.66171780) (0.60095656,0.60095656,0.89110371)
(0.79693716,0.60095656,0.82188500) (0.60095656,0.60095656,0.72792145) (0.98553333,0.99031739,0.80275544) (0.60095656,0.60095656,0.73197920) (0.60925991,0.60095656,0.60097798) (0.60095656,0.60095656,0.94069605)
(0.98444017,0.81749417,0.91881916) (0.60095656,0.60095656,0.63725144) (0.71245352,0.84800055,0.67809125) (0.60095656,0.60095656,0.63782783) (0.61079875,0.60095656,0.60559536) (0.60095656,0.60095656,0.84291685)
(0.60271322,0.60095656,0.73185038) (0.60095656,0.60095656,0.71348824) (0.99992385,0.99072843,0.60335384) (0.60095656,0.60095656,0.84409339) (0.61170917,0.60095656,0.71872006) (0.60095656,0.60095656,0.63276988)
(0.99274666,0.98189242,0.96418940) (0.60095656,0.60095656,0.64733196) (0.60302699,0.60095656,0.60795102) (1.00000000,1.00000000,0.99306141) (0.61261127,0.60095656,0.96460004) (0.60095656,0.60095656,0.71529610)
(0.97599800,0.98189242,0.99150029) (0.60095656,0.60095656,0.72333622) (0.60105666,0.60095656,0.63137319) (1.00000000,1.00000000,1.00000000) (0.61191489,0.60095656,0.89714337) (0.60095656,0.60095656,0.96533159)
(0.60267005,0.60095656,0.84359303) (0.60095656,0.60095656,0.62079951) (0.99995775,0.99215911,0.60122909) (0.60095656,0.60095656,0.77311204) (0.61218422,0.60095656,0.88918004) (0.60095656,0.60095656,0.63147466)
(0.95536270,0.60095656,0.64018082) (0.67620775,0.99856674,0.60155579) (0.60108159,0.60095656,0.60125773) (0.60095656,0.60095656,0.89209337) (0.97865480,0.60095656,0.70877584) (0.60095656,0.60095656,0.78438735)
(0.91343201,0.60095656,0.64231307) (0.71787829,0.99861747,0.69587691) (0.60108295,0.60095656,0.62965749) (0.60095656,0.60095656,0.78645448) (0.99751195,0.60095656,0.84481707) (0.60095656,0.60095656,0.67207315)
(0.60262307,0.60095656,0.62465336) (0.70531902,0.60095656,0.66509074) (0.60108285,0.60095656,0.61896692) (0.60095656,0.60095656,0.70411254) (1.00000000,0.99998536,0.91715007) (0.60095656,0.60095656,0.81370569)
(0.76324486,0.98020658,0.67382107) (0.78556414,0.60095656,0.60124882) (0.60108272,0.60095656,0.62880006) (0.60095656,0.60095656,0.82750156) (0.99999988,0.60095656,0.73459817) (0.60095656,0.60095656,0.85055577)
(0.60257722,0.60095656,0.61414216) (0.78310887,0.99875925,0.61229553) (0.60108367,0.60095656,0.62457264) (0.60095656,0.60095656,0.65762815) (1.00000000,0.60095656,0.79970658) (0.60095656,0.60095656,0.91709295)
(0.60252436,0.60095656,0.71811058) (0.74620367,0.60095656,0.71148616) (0.60108506,0.60095656,0.63336711) (0.60095656,0.60095656,0.75563278) (1.00000000,0.99998808,0.96744309) (0.60095656,0.60095656,0.72514125)
(0.93047027,0.60095656,0.96287838) (0.64355622,0.60095656,0.76330853) (0.60108882,0.60095656,0.64163824) (0.60095656,0.60095656,0.73602317) (0.99969691,0.99998888,0.75943590) (0.60095656,0.60095656,0.70710299)
(0.94197021,0.60095656,0.79513687) (0.60437195,0.60095656,0.60108205) (0.60108635,0.60095656,0.65083093) (1.00000000,1.00000000,0.62033229) (0.99994580,0.60095656,0.68005780) (0.60095656,0.60095656,0.66020640)
(0.60314374,0.60095656,0.69860741) (0.60095656,0.60095656,0.80074531) (0.60108560,0.60095656,0.64030757) (0.60095656,0.60095656,0.69627074) (1.00000000,0.99998961,0.99898840) (0.60095656,0.60095656,0.72570647)
(0.99267902,0.97861379,0.81060718) (0.60095656,0.60095656,0.60177894) (0.60109277,0.60095656,0.63153917) (0.60095656,0.60095656,0.60820270) (0.78996565,0.60095656,0.98717749) (0.60095656,0.60095656,0.77875294)
(0.60265512,0.60095656,0.78647466) (0.60095656,0.60095656,0.85221043) (0.60109342,0.60095656,0.63109017) (0.60095656,0.60095656,0.60291586) (0.61776618,0.60095656,0.78731782) (0.60095656,0.60095656,0.63720687)
(0.60272887,0.60095656,0.68274403) (0.60095656,0.60095656,0.69017024) (0.60109406,0.60095656,0.60359226) (0.60095656,0.60095656,0.60336316) (0.61827122,0.60095656,0.61659811) (0.60095656,0.60095656,0.60770135)
(0.74571795,0.60095656,0.97798652) (0.98169604,0.99855939,0.99999968) (0.60109475,0.60095656,0.60183983) (0.60095656,0.60095656,0.87819859) (0.61793073,0.60095656,0.99563000) (0.60095656,0.60095656,0.98648448)
(0.60366092,0.60095656,0.94234703) (0.99952052,0.99860523,0.99989971) (0.60109544,0.60095656,0.60095671) (0.60095656,0.60095656,0.99783634) (0.60128368,0.60095661,0.73475280) (0.60095656,0.60095656,0.97985028)
(0.60388123,0.60095656,0.60323789) (0.99911247,0.99323342,0.97457177) (0.60109709,0.60095656,0.64314855) (0.60095656,0.60095656,0.60625771) (0.72018960,0.69144942,0.84911384) (0.60095656,0.60095656,0.60116231)
(0.60199011,0.83709911,0.63795960) (0.99808385,0.60095656,0.99975566) (0.60109881,0.60095656,0.63980625) (0.60095656,0.60095656,0.65384211) (0.71636494,0.95097294,0.98680779) (0.60095656,0.60095656,0.81278847)
(0.60497225,0.60095656,0.81013095) (0.99931049,0.99874054,0.99999899) (0.60110315,0.60095656,0.64023944) (0.60095656,0.60095656,0.83280484) (0.66902418,0.60095656,0.99600732) (0.60095656,0.60095656,0.99942707)
(0.63786445,0.60095656,0.90462637) (0.99355496,0.99878218,0.99999292) (0.60110741,0.60095656,0.63606201) (0.60095656,0.60095656,0.99203171) (0.62869654,0.60095656,0.93106912) (0.60095656,0.60095656,0.99983685)
(0.73402387,0.60095656,0.62229350) (0.97478874,0.60095656,0.99995582) (0.60110840,0.60095656,0.60286335) (0.60095656,0.60095656,0.93532796) (0.60189497,0.99999401,0.85797566) (0.60095656,0.60095656,0.99578543)
(0.60574458,0.60095656,0.79471196) (0.99973498,0.99916594,0.99996053) (0.60111976,0.60095656,0.60281518) (0.60095656,0.60095656,0.89949613) (0.61233655,0.60095656,0.73589459) (0.60095656,0.60095656,0.93784799)
(0.64510947,0.60095656,0.99647211) (0.99517373,0.99919556,0.99995238) (0.60112474,0.60095656,0.66459457) (0.60095656,0.60095656,0.85460283) (0.61151715,0.60095656,0.69373181) (0.60095656,0.60095656,0.60910874)
(0.65670389,0.60095656,0.86163934) (0.99334698,0.99922410,0.98901112) (0.60112984,0.60095656,0.63728908) (0.60095656,0.60095656,0.66026381) (0.61072475,0.60095656,0.67396980) (0.60095656,0.60095656,0.63671971)
(0.60800187,0.60095656,0.63832086) (0.99934756,0.60095656,0.99880465) (0.60113524,0.60095656,0.61575262) (0.60095656,0.60095656,0.91672900) (0.75153282,0.99999913,0.90926836) (0.60095656,0.60095656,0.63535000)
(0.71618806,0.60095656,0.63407772) (0.94535471,0.60095656,0.99013401) (0.60114067,0.60095656,0.60127429) (0.60095656,0.60095656,0.93741675) (0.94342246,0.99999920,0.90602981) (0.60095656,0.60095656,0.61189198)
(0.60181068,0.60095656,0.64383038) (0.99448074,0.60095656,0.99668649) (0.60114400,0.60095656,0.63910864) (0.60095656,0.60095656,0.64821074) (0.96675570,0.99999926,0.98845949) (0.60095656,0.60095656,0.61957820)
(0.61440910,0.60095656,0.60307246) (0.99932295,0.99932863,0.80259232) (0.60114739,0.60095656,0.61263320) (0.60095656,0.60095656,0.75018036) (0.79964984,0.60095656,0.97586690) (0.60095656,0.60095656,0.97232173)
(0.60956167,0.97417775,0.87048486) (0.98935139,0.60095656,0.99830358) (0.60115093,0.60095656,0.60915622) (0.60095656,0.60095656,0.61611559) (0.95896228,0.60095656,0.91863363) (0.60095656,0.60095656,0.65039522)
(0.61681055,0.60095656,0.69640535) (0.99416967,0.60095656,0.99641301) (0.60115452,0.60095656,0.63176765) (0.60095656,0.60095656,0.60962669) (0.99994592,0.99999942,0.80863824) (0.60095656,0.60095656,0.66571924)
(0.61719237,0.60095656,0.89805226) (0.99943207,0.99937550,0.66755726) (0.60119071,0.60095656,0.62529456) (0.60095656,0.60095656,0.64650857) (0.76556807,0.60095656,0.88055577) (0.60095656,0.60095656,0.81794753)
(0.63149161,0.60095656,0.95283875) (0.99190404,0.99937550,0.96088900) (0.60124548,0.60095656,0.60648619) (0.60095656,0.60095656,0.66150460) (0.60412969,0.60095656,0.75875358) (0.60095656,0.60095656,0.99206121)
(0.79647735,0.60095656,0.79611960) (0.78870204,0.99937550,0.70943831) (0.60131518,0.60095656,0.60186454) (0.60095656,0.60095656,0.80932526) (0.95601144,0.60095656,0.83689228) (0.60095656,0.60095656,0.81405768)
(0.64121950,0.60095656,0.75253464) (0.99972497,0.60095657,1.00000000) (0.60114215,0.98608885,0.60096147) (0.60095656,0.60095656,0.99999999) (0.60369268,0.60095656,0.84803370) (0.60095656,0.60095656,1.00000000)
(0.96094689,0.97093132,0.96093918) (0.60095656,0.60095656,0.79320515) (0.60101805,0.60095656,0.68989873) (0.60095656,0.60095656,0.80744923) (0.60369268,0.60095656,0.74973866) (0.60095656,0.60095656,0.89109709)
(0.63151827,0.96979141,0.82164988) (0.60095656,0.60095656,0.66304885) (0.99772186,0.60095656,0.71740684) (0.60095656,0.60095656,0.64602669) (0.60369268,0.60095656,0.80145381) (0.60095656,0.60095656,0.91091819)
(0.64689472,0.60095656,0.61301027) (0.60095656,0.60095656,0.62548184) (0.60155436,0.60095656,0.63888362) (0.60095656,0.60095656,0.60095690) (0.60369268,0.60095656,0.67448967) (0.60095656,0.60095656,0.73248090)
(0.64902157,0.60095656,0.69979985) (0.60095656,0.60095656,0.60156512) (0.60161695,0.60095656,0.73525911) (0.60095656,0.60095656,0.61985718) (0.60369268,0.60095656,0.65078027) (0.60095656,0.60095656,0.83789718)
(0.95049147,0.96757875,0.70313120) (0.60095656,0.60095656,0.60158802) (0.60172240,0.60095656,0.67999769) (0.60095656,0.60095656,0.62234921) (0.60369268,0.60095656,0.61886193) (0.60095656,0.60095656,0.90990618)
(0.94502477,0.96650864,0.60098985) (0.60095656,0.60095656,0.87696260) (0.60172240,0.60095656,0.94343199) (0.60095656,0.60095656,0.65152763) (0.60369268,0.60095656,0.64807553) (0.60095656,0.60095656,0.60449879)
(0.93789041,0.96546421,0.60525528) (0.60095656,0.60095656,0.79980897) (0.60095785,0.60095656,0.91939942) (0.60095656,0.60095656,0.60120828) (0.60369268,0.60095656,0.70097179) (0.60095656,0.60095656,0.63182206)
(0.93109904,0.60095656,0.74641403) (0.60095656,0.60095656,0.91244879) (0.60127858,0.98367561,0.96362131) (0.60095656,0.60095656,0.81405178) (0.60369268,0.60095656,0.67736358) (0.60095656,0.60095656,0.61621846)
(0.67513666,0.60095656,0.94309248) (0.60095656,0.60095656,0.86990551) (0.60172240,0.60095656,0.82046333) (0.60095656,0.60095656,0.71972576) (0.60369268,0.60095656,0.77358319) (0.60095656,0.60095656,0.60744779)
(0.67599276,0.60095656,0.90055192) (0.60095656,0.60095656,0.62765462) (0.99999676,0.98367561,0.68628857) (0.60095656,0.60095656,0.79952501) (0.60369268,0.60095656,0.79914693) (0.60095656,0.60095656,0.60794986)
(0.67599276,0.60095656,0.61818419) (0.60095656,0.60095656,0.60718692) (0.99999676,0.98367561,0.60646829) (0.60095656,0.60095656,0.71494320) (0.60369268,0.60095656,0.61660725) (0.60095656,0.60095656,0.91363077)
(0.93070548,0.96249446,0.96018567) (0.60095656,0.60095656,0.65664223) (0.60116879,0.60095656,0.62164531) (0.60095656,0.60095656,0.61177154) (0.60369268,0.60095656,0.70362973) (0.60095656,0.60095656,0.89389802)
(0.93104549,0.96249446,0.97156703) (0.60095656,0.60095656,0.60095686) (0.60124014,0.60095656,0.61933566) (0.60095656,0.60095656,0.95192862) (0.60369268,0.60095656,0.75577421) (0.60095656,0.60095656,0.63773524)
(0.92130977,0.60095656,0.87979832) (0.60095656,0.60095656,0.60636753) (0.60300608,0.98367561,0.60877549) (0.60095656,0.60095656,0.93098952) (0.60369268,0.60095656,0.63815806) (0.60095656,0.60095656,0.70227685)
(0.67599276,0.60095656,0.61100440) (0.60095656,0.60095656,0.75387928) (0.80779018,0.98489112,0.61770041) (0.60095656,0.60095656,0.80732513) (1.00000000,0.60095656,0.71189511) (0.60095656,0.60095656,0.61211816)
(0.67599276,0.60095656,0.65733797) (0.68871450,0.60095656,0.64680084) (0.72497860,0.98489112,0.60993209) (0.60095656,0.60095656,0.60252003) (1.00000000,0.60095656,0.62663318) (0.60095656,0.60095656,0.63249042)
(0.78850354,0.95291390,0.60681350) (0.60095656,0.60095656,0.94673547) (0.60201011,0.60095656,0.61091011) (0.60095656,0.60095656,0.69760792) (0.99999280,0.61378666,0.99242141) (0.60095656,0.60095656,0.66815103)
(0.90193606,0.67732943,0.78948650) (0.60138121,0.60095656,0.66613727) (0.60107193,0.92635168,0.60326335) (0.60095656,0.60095656,0.60430052) (0.76363878,0.60095656,0.93567428) (0.60095656,0.60095656,0.65052302)
(0.91236943,0.96249446,0.60291554) (0.60095656,0.60095656,0.64276244) (0.60102305,0.60095656,0.60481646) (0.60095656,0.60095656,0.60129174) (0.70343294,0.60095656,0.69880550) (0.60095656,0.60095656,0.60777993)
(0.60354142,0.60095656,0.91074991) (0.60095656,0.60095656,0.76933896) (0.60158186,0.60095656,0.61293720) (0.60095656,0.60095656,0.97408575) (1.00000000,0.99999942,0.84967287) (0.60095656,0.60095656,0.67862792)
(0.67583560,0.60095656,0.89248102) (0.68871450,0.60095656,0.75414363) (0.64962070,0.60095656,0.60799572) (0.60095656,0.60095656,0.93774695) (1.00000000,0.99999942,0.74812008) (0.60095656,0.60095656,0.61130920)
(0.67583560,0.60095656,0.88334991) (0.61406086,0.60095656,0.60421157) (0.62885076,0.98952529,0.60947419) (0.60095656,0.60095656,0.79992853) (1.00000000,0.60095932,0.60101565) (0.60095656,0.60095656,0.60512287)
(0.87879330,0.96444646,0.81790257) (0.60123364,0.60095656,0.63585410) (0.60140643,0.60095656,0.60140667) (1.00000000,1.00000000,0.97672993) (0.94694245,0.60095656,0.69243862) (0.60095656,0.60095656,0.61342705)
(0.91347004,0.96444646,0.98143349) (0.60102769,0.60095656,0.60384870) (0.60137152,0.60095656,0.60723837) (0.60095656,0.60095656,0.70848192) (0.73122837,0.60095656,0.94742976) (0.60095656,0.60095656,0.60371507)
(0.92592718,0.96444646,0.95445296) (0.60095656,0.60095656,0.85956657) (0.60095673,0.60095656,0.62650318) (0.60095656,0.60095656,0.81941727) (0.61266945,0.60095656,0.61038454) (0.60095656,0.60095656,0.62668191)
(0.60871638,0.60095656,0.66177604) (0.60095656,0.60095656,0.86255594) (0.99999966,0.99274749,0.63937206) (0.60095656,0.60095656,0.73232280) (0.60095656,0.60095656,0.86752909) (0.60095656,0.60095656,0.73934592)
(0.74930932,0.60095656,0.99998726) (0.84542213,0.99957868,1.00000000) (0.60099006,0.60095656,0.69036514) (0.60095656,0.60095656,0.96075649) (0.60095656,0.60095656,0.78216119) (0.60095656,0.60095656,0.99064333)
(0.65696023,0.60095656,0.99624378) (0.99924271,0.99956223,1.00000000) (0.60114784,0.60095656,0.70748192) (0.60095656,0.60095656,0.95665229) (0.69783860,0.60099851,0.67294300) (0.60095656,0.60095656,0.99989621)
(0.79766077,0.96273137,0.82870779) (0.73956845,0.60095656,0.99230677) (0.60095961,0.60095656,0.63633244) (0.60095656,0.60095656,0.69796102) (0.70227537,0.60156392,0.98226808) (0.60095656,0.60095656,0.73153744)
(0.81804970,0.96444646,0.81752736) (0.68642069,0.60095656,0.99999226) (0.60097475,0.60095656,0.60406571) (0.60095656,0.60095656,0.79435879) (0.82702145,0.60095656,0.98951610) (0.60095656,0.60095656,0.84208741)
(0.60233839,0.60095656,0.61861462) (0.97290092,0.99957868,0.99994372) (0.60106864,0.60095656,0.61448951) (0.60095656,0.60095656,0.91225325) (0.96340311,0.60095656,0.98770549) (0.60095656,0.60095656,0.76916307)
(0.67351867,0.60095656,0.94998604) (0.99927133,0.60095656,0.77139707) (0.60172305,0.60095656,0.62060754) (0.60095656,0.60095656,0.85244606) (0.91025015,1.00000000,0.96706411) (0.60095656,0.60095656,0.61292387)
(0.66974621,0.60095656,0.97104443) (0.99958203,0.99957868,0.81258835) (0.60167369,0.60095656,0.71305530) (0.60095656,0.60095656,0.68235779) (0.73116972,0.60095656,0.75431562) (0.60095656,0.60095656,0.83036010)
(0.64988113,0.60095656,0.71723629) (0.99943738,0.99975308,0.72666827) (0.60171639,0.60095656,0.76581891) (0.60095656,0.60095656,0.78280757) (0.63798700,0.60095656,0.61757272) (0.60095656,0.60095656,0.93582829)
(0.73719782,0.96650822,0.81657991) (0.86683628,0.60095656,0.77315600) (0.60117389,0.60095656,0.76193914) (0.60095656,0.60095656,0.77000148) (0.61918817,0.60095656,0.70817406) (0.60095656,0.60095656,0.96023613)
(0.75648337,0.96650864,0.76206473) (0.84109245,0.60095656,0.85766199) (0.60095656,0.60095656,0.76155599) (0.60095656,0.60095656,0.60590156) (0.62907492,0.60095656,0.73085101) (0.60095656,0.60095656,0.94208424)
(0.60098220,0.60095656,0.60894517) (0.99247211,0.60095656,0.60823566) (0.60095656,0.60095656,0.77702950) (0.60095656,0.60095656,0.73939608) (0.81420938,1.00000000,0.79245933) (0.60095656,0.60095656,0.99517199)
(0.66467865,0.60095656,0.84415744) (0.99393561,0.60095656,0.86506227) (0.60095656,0.60095656,0.81812902) (0.60095656,0.60095656,0.96006028) (0.99999999,1.00000000,0.73556850) (0.60095656,0.60095656,0.65167693)
(0.66467865,0.60095656,0.95773874) (0.99939209,0.60095656,0.88439788) (0.60095656,0.60095656,0.78664794) (0.60095656,0.60095656,0.70149753) (0.97187665,1.00000000,0.79116792) (0.60095656,0.60095656,0.98939396)
(0.60098216,0.96756857,0.81835114) (0.99260614,0.60095657,0.96203720) (0.60095656,0.60095656,0.75457325) (0.60095656,0.60095656,0.96656473) (0.85597462,0.60095656,0.71279387) (0.60095656,0.60095656,0.99691861)
(0.82593404,0.96757875,0.60906223) (0.70661975,0.60095656,0.93852136) (0.60095656,0.60095656,0.81297256) (0.60095656,0.60095656,0.62861277) (0.80352883,0.60095656,0.69413174) (0.60095656,0.60095656,0.60952161)
(0.78848500,0.96757875,0.60817553) (0.75290386,0.60095656,0.93924779) (0.60095656,0.60095656,0.94619309) (0.60095656,0.60095656,0.69682700) (0.89041087,0.60095656,0.64196755) (0.60095656,0.60095656,0.63596051)
(0.66425824,0.60095656,0.99903139) (0.99975649,0.99999846,0.99667053) (0.60095656,0.60095656,0.92126663) (0.60095656,0.60095656,0.68020547) (0.94095851,0.60095656,0.60343473) (0.60095656,0.60095656,0.98406752)
(0.65999083,0.60095656,0.99972450) (0.99981664,0.60095656,0.99986880) (0.60095656,0.60095656,0.86185569) (0.60095656,0.60095656,0.86092167) (0.90631122,1.00000000,0.65258331) (0.60095656,0.60095656,0.99758331)
(0.65978595,0.60095656,0.74292723) (0.98570121,0.60095656,0.73051303) (0.60095656,0.60095656,0.83093075) (0.60095656,0.60095656,0.87693646) (1.00000000,1.00000000,0.73458967) (0.60095656,0.60095656,0.82693951)
(0.73687199,0.96979141,0.64411424) (0.90701511,0.60095656,0.99999999) (0.60095656,0.60095656,0.64972453) (0.60095656,0.60095656,0.99999976) (0.60646495,0.60095656,0.65501934) (0.60095656,0.60095656,0.99999995)
(0.93358810,0.96979141,0.94901582) (0.60095656,0.60095656,0.69913915) (0.60095656,0.60095656,0.77850311) (0.60095656,0.60095656,0.93162691) (0.60347445,0.60095656,0.68096916) (0.60095656,0.60095656,0.66188675)
(0.93510963,0.96979141,0.92311637) (0.60095656,0.60095656,0.76596130) (0.60095656,0.60095656,0.65893181) (0.60095656,0.60095656,0.60515060) (0.60095656,0.60095656,0.72061292) (0.60095656,0.60095656,0.62091439)
(0.65953828,0.60095656,0.60834792) (0.60095656,0.60095656,0.71013008) (0.60095656,0.60095656,0.60098087) (0.60095656,0.60095656,0.76712653) (0.60095656,0.60095656,0.62020939) (0.60095656,0.60095656,0.66315406)
(0.65939823,0.60095656,0.79223945) (0.60095656,0.60095656,0.60455395) (0.60095656,0.60095656,0.72946032) (0.60095656,0.60095656,0.87053882) (0.60095656,0.60095656,0.74126294) (0.60095656,0.60095656,0.64191671)
(0.93480361,0.96979141,0.74047015) (0.60095656,0.60095656,0.60462598) (0.60095656,0.60095656,0.63695851) (0.60095656,0.60095656,0.92305050) (0.60095656,0.60095656,0.61094975) (0.60095656,0.60095656,0.60095962)
(0.93478376,0.96979141,0.82766985) (0.60095656,0.60095656,0.70153916) (0.60095656,0.60095656,0.99998388) (0.60095656,0.60095656,0.61181476) (0.60095656,0.60095656,0.63328179) (0.60095656,0.60095656,0.62226563)
(0.93899794,0.96979141,0.79341838) (0.60095656,0.60095656,0.96003772) (0.60095656,0.60095656,0.99999998) (0.60095656,0.60095656,0.66161842) (0.60095656,0.60095656,0.60289557) (0.60095656,0.60095656,0.68351404)
(0.93768360,0.60095656,0.71315038) (0.60095656,0.60095656,0.98041314) (0.73415181,0.99758315,0.99999945) (0.60095656,0.60095656,0.79687312) (0.60095656,0.60095656,0.60624402) (0.60095656,0.60095656,0.60348486)
(0.64082136,0.60095656,0.99417170) (0.60095656,0.60095656,0.90727186) (1.00000000,0.99814931,0.68709174) (0.60095656,0.60095656,0.67378025) (0.60095656,0.60095656,0.64497602) (0.60095656,0.60095656,0.63589153)
(0.62347910,0.60095656,0.93224005) (0.60095656,0.60095656,0.76076095) (0.60095656,0.60095656,0.65985798) (0.60095656,0.60095656,0.80031360) (0.60095656,0.60095656,0.65288884) (0.60095656,0.60095656,0.65340183)
(0.96796869,0.97209162,0.67117805) (0.60095656,0.60095656,0.60818904) (0.60095656,0.60095656,0.64132150) (0.60095656,0.60095656,0.61192130) (0.60095656,0.60095656,0.66747573) (0.60095656,0.60095656,0.71810640)
(0.96693569,0.97209162,0.99335274) (0.60095656,0.60095656,0.60750439) (0.61609293,0.60095656,0.62091859) (0.60095656,0.60095656,0.84924944) (0.60095656,0.60095656,0.97242278) (0.60095656,0.60095656,0.63250908)
(0.97207899,0.97209162,0.99707402) (0.60095656,0.60095656,0.80812909) (0.60095656,0.60095656,0.60353806) (1.00000000,0.60095656,0.99999721) (0.60095656,0.60095656,0.95674387) (0.60095656,0.60095656,0.60515107)
(0.96720289,0.60095656,0.60561190) (0.60095656,0.60095656,0.61618691) (0.95035643,0.99934427,0.60124755) (0.60095656,0.60095656,0.95697591) (0.60095656,0.60095656,0.79860950) (0.60095656,0.60095656,0.72155119)
(0.60432451,0.60095656,0.83278117) (0.67899622,0.60095656,0.74287370) (1.00000000,0.99958427,0.61196507) (0.60095656,0.60095656,0.61969828) (1.00000000,0.60095656,0.60465592) (0.60095656,0.60095656,0.60293340)
(0.60280349,0.60095656,0.76373848) (0.60095656,0.60095656,0.97443002) (1.00000000,0.99975628,0.66664982) (0.60095656,0.60095656,0.68117257) (1.00000000,0.60095656,0.91356339) (0.60095656,0.60095656,0.60216967)
(0.94922264,0.93675522,0.60329932) (0.60451556,0.60095701,0.97958099) (0.77859734,0.60095656,0.76027931) (0.60095656,0.60095656,0.87801076) (0.93001743,0.99996429,0.99354245) (0.60095656,0.60095656,0.65636384)
(0.96308378,0.97209162,0.64936836) (0.60794241,0.60095656,0.76953234) (0.64184957,0.60095656,0.66333586) (0.60095656,0.60095656,0.72607725) (0.72746961,0.60095656,0.81332531) (0.60095656,0.60095656,0.66629322)
(0.96318760,0.97205398,0.69696768) (0.60135744,0.60095656,0.83824431) (0.71098585,0.60095656,0.65859342) (0.60095656,0.60095656,0.99332632) (0.93119311,0.60095656,0.98885768) (0.60095656,0.60095656,0.74233786)
(0.60095656,0.60095656,0.97901028) (0.60095656,0.60095656,0.87007053) (1.00000000,0.60095656,0.70240379) (0.60095656,0.60095656,0.99857737) (1.00000000,1.00000000,0.93924836) (0.60095656,0.60095656,0.89864882)
(0.60095656,0.60095656,0.83423628) (0.60095656,0.60095656,0.70653699) (1.00000000,0.60095656,0.72472219) (0.60095656,0.60095656,0.60141829) (1.00000000,1.00000000,0.65995970) (0.60095656,0.60095656,0.94864782)
(0.60095656,0.60095656,0.61577165) (0.62943831,1.00000000,0.78663212) (1.00000000,0.60095656,0.79055455) (0.60095656,0.60095656,0.99980389) (1.00000000,0.60095656,0.60488417) (0.60095656,0.60095656,0.95369367)
(0.97660851,0.97445924,0.99863748) (0.60095656,0.60095656,0.69934623) (0.65759327,0.60095656,0.84148833) (0.60095656,0.60095656,0.99606852) (0.65261693,0.60095656,0.97112056) (0.60095656,0.60095656,0.80778764)
(0.97982345,0.97445924,0.99997951) (0.60095656,0.60095656,0.77683094) (0.65165829,0.60095656,0.95916788) (0.60095656,0.60095656,0.60448345) (0.60095656,0.60095656,0.95097101) (0.60095656,0.60095656,0.75107245)
(0.98040712,0.97445924,0.93863561) (0.60095656,0.60095656,0.65815419) (0.60095656,0.60095656,0.93792680) (0.60095656,0.60095656,0.99849747) (0.60095656,0.60095656,0.71152963) (0.60095656,0.60095656,0.88001329)
(0.60095656,0.60095656,0.63611862) (0.99648899,0.60095994,0.88278977) (1.00000000,0.99999473,0.94156654) (0.60095656,0.60095656,0.67346693) (0.60095656,0.60095656,0.88253849) (0.60095656,0.60095656,0.82680365)
(0.60095656,0.60095656,0.99972821) (0.99996258,1.00000000,1.00000000) (0.76398464,0.60095656,0.96978527) (0.60095656,0.60095656,0.98470449) (0.90038426,0.60095656,0.91492113) (0.60095656,0.60095656,0.96525147)
(0.75141801,0.97568440,0.90316416) (0.96800802,0.60095656,0.92019361) (0.83440565,0.60095656,0.89341753) (0.60095656,0.60095656,0.62614777) (0.99710936,0.60095656,0.99824223) (0.60095656,0.60095656,0.86387578)
(0.82476115,0.97568440,0.79332164) (0.94994800,0.60095656,0.99954794) (0.64305234,0.60095656,0.81271011) (0.60095656,0.60095656,0.99536625) (0.75674110,0.60095656,0.99849599) (0.60095656,0.60095656,0.87288970)
(0.78739585,0.97568440,0.82877857) (0.97536340,0.60095656,0.60115626) (0.60095656,0.60095656,0.65421230) (0.60095656,0.60095656,0.63076463) (0.77308894,0.60095656,0.91125815) (0.60095656,0.60095656,0.64412067)
(0.60095656,0.60095656,0.90268134) (0.99993315,1.00000000,0.99999927) (0.60095656,0.60095656,0.78576349) (0.60095656,0.60095656,0.99976674) (0.99877761,0.60095656,0.90305245) (0.60095656,0.60095656,0.99999999)
(0.60095656,0.60095656,0.64229904) (0.99658549,0.60095656,0.75973890) (0.60095656,0.60095656,0.75962982) (0.60095656,0.60095656,0.74940778) (1.00000000,1.00000000,0.71922002) (0.60095656,0.60095656,0.62589058)
(0.67581446,0.97692149,0.65842837) (0.99783984,0.60095656,0.99931889) (0.60095656,0.60095656,0.87075885) (0.60095656,0.60095656,0.99994418) (0.86334180,0.60095656,0.79985994) (0.60095656,0.60095656,0.99997970)
(0.97167031,0.97692128,0.97828162) (0.61442022,0.60095656,0.96139948) (0.72214099,0.60095656,0.95573091) (0.60095656,0.60095656,0.64935075) (0.60095656,0.60095656,0.87338381) (0.60095656,0.60095656,0.64057380)
(0.97944912,0.97610982,0.95983630) (0.60095656,0.60095656,0.62246775) (0.75580846,0.60112251,0.96732391) (0.60095656,0.60095656,0.60429964) (0.60095656,0.60095656,0.60252212) (0.60095656,0.60095656,0.69115509)
(0.97425092,0.60095656,0.84221990) (0.60095656,0.60095656,0.82860825) (0.99996056,0.99999478,0.89569496) (0.60095656,0.60095656,0.69631663) (0.60095656,0.60095656,0.93638717) (0.60095656,0.60095656,0.66652382)
(0.95105272,0.60095656,0.62296456) (0.60095656,0.60095656,0.94109226) (1.00000000,0.99999478,0.86645755) (0.60095656,0.60095656,0.95348312) (0.60095656,0.60095656,0.96447528) (0.60095656,0.60095656,0.82598092)
(0.96959945,0.60095656,0.63124903) (0.60095656,0.60095656,0.91942352) (1.00000000,0.99999478,0.74683981) (0.60095656,0.60095656,0.93330001) (0.60095656,0.60095656,0.97359218) (0.60095656,0.60095656,0.60227678)
(0.97742251,0.97704850,0.76584417) (0.60095656,0.60095656,0.99643398) (0.96449367,0.60095656,0.69101393) (0.60095656,0.60095656,0.61944031) (0.60095656,0.60095656,0.99992176) (0.60095656,0.60095656,0.61319144)
(0.97823544,0.97704850,0.93344807) (0.60095656,0.60095656,0.91446557) (0.89597551,0.60095656,0.62672453) (0.60095656,0.60095656,0.79984904) (0.60095656,0.60095656,0.99911322) (0.60095656,0.60095656,0.71357834)
(0.97705218,0.60095656,0.82748570) (0.60095656,0.60095656,0.81395115) (0.97247185,0.99999478,0.64747108) (0.60095656,0.60095656,0.66951532) (0.60095656,0.60095656,0.99435741) (0.60095656,0.60095656,0.83086697)
(0.97457487,0.60095656,0.75854809) (0.60095656,0.60095656,0.60103689) (0.99965754,0.99999478,0.65348427) (0.60095656,0.60095656,0.80890343) (0.60095656,0.60095656,0.98187997) (0.60095656,0.60095656,0.90292465)
(0.97401653,0.60095656,0.72997510) (0.60095656,0.60095656,0.71077695) (0.99991052,0.99999478,0.78818364) (0.60095656,0.60095656,0.66879242) (0.60095656,0.60095656,0.80717468) (0.60095656,0.60095656,0.94928144)
(0.97434965,0.97704850,0.66155459) (0.60095656,0.60095656,0.60703454) (0.99965754,0.60095656,0.80078345) (0.60095656,0.60095656,0.60795495) (0.60095656,0.60095656,0.60129893) (0.60095656,0.60095656,0.96541407)
(0.97630427,0.97704850,0.67800780) (0.60095656,0.60095656,0.61175986) (0.97612987,0.60095656,0.91208211) (0.60095656,0.60095656,0.65490158) (0.60095656,0.60095656,0.74172740) (0.60095656,0.60095656,0.99971969)
(0.97656770,0.97202397,0.60128287) (0.60095656,0.60095656,0.60283480) (0.96449367,0.60650369,0.89823146) (0.60095656,0.60095656,0.95259290) (0.60095656,0.60095656,0.96076573) (0.60095656,0.60095656,0.99698947)
(0.97565707,0.60095656,0.69317610) (0.60095656,0.60095656,0.68061529) (0.98816627,0.99999478,0.77566533) (0.60095656,0.60095656,0.94284560) (0.60095656,0.60095656,0.97366537) (0.60095656,0.60095656,0.99999858)
(0.97375235,0.60095656,0.69751022) (0.60095656,0.60095656,0.81601323) (0.99965754,0.99999478,0.66895291) (0.60095656,0.60095656,0.70926951) (0.60095656,0.60095656,0.88428682) (0.60095656,0.60095656,0.99999982)
(0.97375235,0.60095656,0.70741684) (0.60095656,0.60095656,0.70574673) (0.99965754,0.99999478,0.60176091) (0.60095656,0.60095656,0.86851117) (0.60095656,0.60095656,0.98891239) (0.60095656,0.60095656,0.99999868)
(0.97521619,0.97830895,0.92135760) (0.60095656,0.60095656,0.61554347) (0.99046944,0.60095656,0.60678573) (0.60095656,0.60095656,0.61570198) (0.60095656,0.60095656,0.94167701) (0.60095656,0.60095656,0.99996382)
(0.97546116,0.97830895,0.72025289) (0.60095656,0.60095656,0.69452922) (0.98557278,0.60095656,0.61045655) (0.60095656,0.60095656,0.69027026) (0.60095656,0.60095656,0.96125864) (0.60095656,0.60095656,0.99820471)
(0.97493720,0.97830895,0.84389941) (0.60095656,0.60095656,0.60685240) (0.99420451,0.60095656,0.66992875) (0.60095656,0.60095656,0.81159008) (0.60095656,0.60095656,0.95496431) (0.60095656,0.60095656,0.99905422)
(0.97380721,0.60095656,0.60541597) (0.60095656,0.60095656,0.64798982) (0.99902675,0.99999478,0.68463331) (0.60095656,0.60095656,0.61058149) (0.60095656,0.60095656,0.91487510) (0.60095656,0.60095656,0.99750565)
(0.97241120,0.60095656,0.60108014) (0.60095656,0.60095656,0.61921057) (0.99996056,0.99999478,0.62515956) (0.60095656,0.60095656,0.71350951) (0.60095656,0.60095656,0.90827746) (0.60095656,0.60095656,0.99887772)
(0.97485190,0.97830895,0.96832600) (0.60095656,0.60095656,0.87487554) (0.99258231,0.60095656,0.62013291) (0.60095656,0.60095656,0.84505791) (0.60095656,0.60095656,0.99851573) (0.60095656,0.60095656,0.61516709)
(0.97636184,0.97957506,0.97904308) (0.60095656,0.60095656,0.78708515) (0.98295203,0.60095656,0.62770334) (0.60095656,0.60095656,0.98757582) (0.60095656,0.60095656,0.99890176) (0.60095656,0.60095656,0.94974798)
(0.97616553,0.98084360,0.93756658) (0.60095656,0.60095656,0.77749748) (0.98634053,0.60095656,0.62738216) (0.60095656,0.60095656,0.98946383) (0.60095656,0.60095656,0.99188448) (0.60095656,0.60095656,0.92332387)
(0.97504804,0.60095656,0.96646551) (0.60095656,0.60095656,0.64810422) (0.99849230,0.99999900,0.63342600) (0.60095656,0.60095656,0.96510624) (0.60095656,0.60095656,0.94889284) (0.60095656,0.60095656,0.99021351)
(0.97975703,0.98084360,0.86654339) (0.60095656,0.60095656,0.93640344) (0.60095656,0.60095656,0.67960648) (0.60095656,0.60095656,0.75514512) (0.60095656,0.60095656,0.65801769) (0.60095656,0.60095656,0.98560240)
(0.98069875,0.98211103,0.87887344) (0.60095656,0.60095656,0.92009534) (0.60095656,0.60095656,0.65455374) (0.60095656,0.60095656,0.65856224) (0.60095656,0.60095656,0.77634620) (0.60095656,0.60095656,0.92892993)
(0.98163283,0.98337351,0.86530106) (0.60095656,0.60095656,0.64389058) (0.60095656,0.60095656,0.68476355) (0.60095656,0.60095656,0.60423194) (0.60095656,0.60095656,0.96526217) (0.60095656,0.60095656,0.88667835)
(0.98257270,0.98462689,0.92300734) (0.60095656,0.60095656,0.64552293) (0.60095656,0.60095656,0.66379906) (0.60095656,0.60095656,0.89347979) (0.60095656,0.60095656,0.99442632) (0.60095656,0.60095656,0.97533311)
(0.98351530,0.98462689,0.79160688) (0.60095656,0.60095656,0.60347369) (0.60095656,0.60095656,0.64177758) (0.60095656,0.60095656,0.92409788) (0.60095656,0.60095656,0.95066193) (0.60095656,0.60095656,0.99745092)
(0.60095656,0.60095656,0.67063791) (0.60095656,0.60095656,0.60915800) (0.60095656,0.60095656,0.74065381) (0.60095656,0.60095656,0.92792019) (0.60095656,0.60095656,0.80145918) (0.60095656,0.60095656,0.96112134)
(0.60095656,0.60095656,0.71965242) (0.60095656,0.60095656,0.70760857) (0.60095656,0.60095656,0.73196663) (0.60095656,0.60095656,0.71212479) (0.60095656,0.60095656,0.78879335) (0.60095656,0.60095656,0.93754437)
(0.60095656,0.60095656,0.65577089) (0.60095656,0.60095656,0.64826138) (0.60095656,0.60095656,0.76046568) (0.60095656,0.60095656,0.60165045) (0.60095656,0.60095656,0.90101813) (0.60095656,0.60095656,0.94467830)
(0.60095656,0.60095656,0.93367574) (0.60095656,0.60095656,0.67430843) (0.60095656,0.60095656,0.68384062) (0.60095656,0.60095656,0.96177231) (0.60095656,0.60095656,0.96185261) (0.60095656,0.60095656,0.82959122)
(0.60095656,0.60095656,0.86350205) (0.60095656,0.60095656,0.61141372) (0.60095656,0.60095656,0.64188429) (0.60095656,0.60095656,0.60909705) (0.60095656,0.60095656,0.97141276) (0.60095656,0.60095656,0.95108152)
(0.60095656,0.60095656,0.85414311) (0.60095656,0.60095656,0.60514599) (0.60095656,0.60095656,0.70855366) (0.60095656,0.60095656,0.95232071) (0.60095656,0.60095656,0.98811503) (0.60095656,0.60095656,0.99893244)
(0.60095656,0.60095656,0.61964630) (0.60095656,0.60095656,0.69672385) (0.60095656,0.60095656,0.78555302) (0.60095656,0.60095656,0.98554940) (0.60095656,0.60095656,0.99176815) (0.60095656,0.60095656,0.99999754)
(0.60095656,0.60095656,0.80394073) (0.60095656,0.60095656,0.73536445) (0.60095656,0.60095656,0.74924078) (0.60095656,0.60095656,0.85305580) (0.60095656,0.60095656,0.88230926) (0.60095656,0.60095656,0.99013876)
(0.60095656,0.60095656,0.81073513) (0.60095656,0.60095656,0.95639331) (0.60095656,0.60095656,0.87205713) (0.60095656,0.60095656,0.99908324) (0.60095656,0.60095656,0.61563830) (0.60095656,0.60095656,0.61027181)
(0.60095656,0.60095656,0.89609678) (0.60095656,0.60095656,0.97930433) (0.60095656,0.60095656,0.83307595) (0.60095656,0.60095656,0.99182107) (0.60095656,0.60095656,0.60243422) (0.60095656,0.60095656,0.78060699)
(0.60095656,0.60095656,0.95155740) (0.60095656,0.60095656,0.80853891) (0.60095656,0.60095656,0.71172994) (0.60095656,0.60095656,0.63224425) (0.60095656,0.60095656,0.69114328) (0.60095656,0.60095656,0.82472144)
(0.60095656,0.60095656,0.99293290) (0.60095656,0.60095656,0.91000545) (0.60095656,0.60095656,0.60334939) (0.60095656,0.60095656,0.60541014) (0.60095656,0.60095656,0.88478443) (0.60095656,0.60095656,0.96172803)
(0.60095656,0.60095656,0.80752119) (0.60095656,0.60095656,0.66519457) (0.60095656,0.60095656,0.60265234) (0.60095656,0.60095656,0.62830639) (0.60095656,0.60095656,0.76180482) (0.60095656,0.60095656,0.90586608)
(0.60095656,0.60095656,0.66114041) (0.60095656,0.60095656,0.74906062) (0.60095656,0.60095656,0.60318693) (0.60095656,0.60095656,0.84358516) (0.60095656,0.60095656,0.65065108) (0.60095656,0.60095656,0.72790575)
(0.60095656,0.60095656,0.60121395) (0.60095656,0.60095656,0.61651368) (0.60095656,0.60095656,0.60288933) (0.60095656,0.60095656,0.86325122) (0.60095656,0.60095656,0.62485976) (0.60095656,0.60095656,0.60107871)
(0.60095656,0.60095656,0.60240572) (0.60095656,0.60095656,0.72952440) (0.60095656,0.60095656,0.73254839) (0.60095656,0.60095656,0.89743654) (0.60095656,0.60095656,0.64911628) (0.60095656,0.60095656,0.92771038)
(0.60095656,0.60095656,0.70710929) (0.60095656,0.60095656,0.80625054) (0.60095656,0.60095656,0.76334902) (0.60095656,0.60095656,0.88230789) (0.60095656,0.60095656,0.60528295) (0.60095656,0.60095656,0.76931804)
(0.60095656,0.60095656,0.82604296) (0.60095656,0.60095656,0.73193564) (0.60095656,0.60095656,0.79722596) (0.60095656,0.60095656,0.67443082) (0.60095656,0.60095656,0.60413100) (0.60095656,0.60095656,0.70584423)
(0.60095656,0.60095656,0.70501619) (0.60095656,0.60095656,0.64485325) (0.60095656,0.60095656,0.79621674) (0.60095656,0.60095656,0.64183100) (0.60095656,0.60095656,0.60188147) (0.60095656,0.60095656,0.69445209)
(0.60095656,0.60095656,0.65009014) (0.60095656,0.60095656,0.60099926) (0.60095656,0.60095656,0.80461838) (0.60095656,0.60095656,0.88660102) (0.60095656,0.60095656,0.67501894) (0.60095656,0.60095656,0.61092573)
(0.60095656,0.60095656,0.62142777) (0.60095656,0.60095656,0.60529074) (0.60095656,0.60095656,0.77796882) (0.60095656,0.60095656,0.67083999) (0.60095656,0.60095656,0.60498697) (0.60095656,0.60095656,0.60484053)
(0.60095656,0.60095656,0.75894876) (0.60095656,0.60095656,0.60300333) (0.60095656,0.60095656,0.75461251) (0.60095656,0.60095656,0.85774387) (0.60095656,0.60095656,0.62823451) (0.60095656,0.60095656,0.60724674)
(0.60095656,0.60095656,0.66858700) (0.60095656,0.60095656,0.63366880) (0.60095656,0.60095656,0.73618945) (0.60095656,0.60095656,0.73736001) (0.60095656,0.60095656,0.60471299) (0.60095656,0.60095656,0.62390535)
(0.60095656,0.60095656,0.63807922) (0.60095656,0.60095656,0.75381939) (0.60095656,0.60095656,0.83796089) (0.60095656,0.60095656,0.81429548) (0.60095656,0.60095656,0.60896827) (0.60095656,0.60095656,0.68274331)
(0.60095656,0.60095656,0.73472798) (0.60095656,0.60095656,0.82375422) (0.60095656,0.60095656,0.83773700) (0.60095656,0.60095656,0.82011934) (0.60095656,0.60095656,0.65844569) (0.60095656,0.60095656,0.60440083)
(0.60095656,0.60095656,0.64123866) (0.60095656,0.60095656,0.76640422) (0.60095656,0.60095656,0.79709592) (0.60095656,0.60095656,0.73750303) (0.60095656,0.60095656,0.61177593) (0.60095656,0.60095656,0.64623341)
(0.60095656,0.60095656,0.65751140) (0.60095656,0.60095656,0.83827059) (0.60095656,0.60095656,0.81357355) (0.60095656,0.60095656,0.64364259) (0.60095656,0.60095656,0.61744645) (0.60095656,0.60095656,0.63115069)
(0.60095656,0.60095656,0.62272091) (0.60095656,0.60095656,0.71266844) (0.60095656,0.60095656,0.60104875) (0.60095656,0.60095656,0.77642676) (0.60095656,0.60095656,0.72566949) (0.60095656,0.60095656,0.72906099)
(0.60095656,0.60095656,0.60876197) (0.60095656,0.60095656,0.63106480) (0.60095656,0.60095656,0.62997698) (0.60095656,0.60095656,0.72445018) (0.60095656,0.60095656,0.60158973) (0.60095656,0.60095656,0.60353928)
(0.60095656,0.60095656,0.88616718) (0.60095656,0.60095656,0.66344560) (0.60095656,0.60095656,0.60111694) (0.60095656,0.60095656,0.66734731) (0.60095656,0.60095656,0.63306468) (0.60095656,0.60095656,0.66973006)
(0.60095656,0.60095656,0.61327137) (0.60095656,0.60095656,0.60377219) (0.60095656,0.60095656,0.61556644) (0.60095656,0.60095656,0.69267265) (0.60095656,0.60095656,0.68979495) (0.60095656,0.60095656,0.75726632)
(0.60095656,0.60095656,0.64433010) (0.60095656,0.60095656,0.64092875) (0.60095656,0.60095656,0.64979842) (0.60095656,0.60095656,0.61632503) (0.60095656,0.60095656,0.60397503) (0.60095656,0.60095656,0.70982397)
(0.60095656,0.60095656,0.67086524) (0.60095656,0.60095656,0.65413996) (0.60095656,0.60095656,0.63626653) (0.60095656,0.60095656,0.64716038) (0.60095656,0.60095656,0.60245830) (0.60095656,0.60095656,0.61128032)
(0.60095656,0.60095656,0.68193584) (0.60095656,0.60095656,0.74751659) (0.60095656,0.60095656,0.62197264) (0.60095656,0.60095656,0.60482305) (0.60095656,0.60095656,0.60116961) (0.60095656,0.60095656,0.84042561)
(0.60095656,0.60095656,0.85549968) (0.60095656,0.60095656,0.61168697) (0.60095656,0.60095656,0.62739247) (0.60095656,0.60095656,0.60226220) (0.60095656,0.60095656,0.67957419) (0.60095656,0.60095656,0.63562061)
(0.60095656,0.60095656,0.62420100) (0.60095656,0.60095656,0.62813753) (0.60095656,0.60095656,0.62181440) (0.60095656,0.60095656,0.65990438) (0.60095656,0.60095656,0.69126254) (0.60095656,0.60095656,0.74762385)
(0.60095656,0.60095656,0.76901216) (0.60095656,0.60095656,0.80075145) (0.60095656,0.60095656,0.64606140) (0.60095656,0.60095656,0.60095656) (0.60095656,0.60095656,0.72919784) (0.60095656,0.60095656,0.82568647)
(0.60095656,0.60095656,0.62174634) (0.60095656,0.60095656,0.60609352) (0.60095656,0.60095656,0.63937291) (0.60095656,0.60095656,0.65952180) (0.60095656,0.60095656,0.60612947) (0.60095656,0.60095656,0.74566626)
(0.60095656,0.60095656,0.64054903) (0.60095656,0.60095656,0.60981066) (0.60095656,0.60095656,0.62505952) (0.60095656,0.60095656,0.60156398) (0.60095656,0.60095656,0.63047377) (0.60095656,0.60095656,0.60280796)
(0.60095656,0.60095656,0.60133137) (0.60095656,0.60095656,0.60703032) (0.60095656,0.60095656,0.60650893) (0.60095656,0.60095656,0.66964357) (0.60095656,0.60095656,0.60235082) (0.60095656,0.60095656,0.83605724)
(0.60095656,0.60095656,0.75384160) (0.60095656,0.60095656,0.62015740) (0.60095656,0.60095656,0.61128632) (0.60095656,0.60095656,0.95189367) (0.60095656,0.60095656,0.60804693) (0.60095656,0.60095656,0.87802256)
(0.60095656,0.60095656,0.62855466) (0.60095656,0.60095656,0.62805735) (0.60095656,0.60095656,0.60401248) (0.60095656,0.60095656,0.81099899) (0.60095656,0.60095656,0.60234655) (0.60095656,0.60095656,0.83099782)
(0.60095656,0.60095656,0.60345204) (0.60095656,0.60095656,0.74979113) (0.60095656,0.60095656,0.60137001) (0.60095656,0.60095656,0.90735817) (0.60095656,0.60095656,0.60959095) (0.60095656,0.60095656,0.62161947)
(0.60095656,0.60095656,0.72780231) (0.60095656,0.60095656,0.72667172) (0.60095656,0.60095656,0.60442185) (0.60095656,0.60095656,0.73161577) (0.60095656,0.60095656,0.64997559) (0.60095656,0.60095656,0.62089241)
(0.60095656,0.60095656,0.74422133) (0.60095656,0.60095656,0.60265444) (0.60095656,0.60095656,0.62118242) (0.60095656,0.60095656,0.80332627) (0.60095656,0.60095656,0.60095656) (0.60095656,0.60095656,0.62572647)
(0.60095656,0.60095656,0.60095690) (0.60095656,0.60095656,0.60208248) (0.60095656,0.60095656,0.60655650) (0.60095656,0.60095656,0.66426601) (0.60095656,0.60095656,0.61474861) (0.60095656,0.60095656,0.80311014)
(0.60095656,0.60095656,0.60959336) (0.60095656,0.60095656,0.60868558) (0.60095656,0.60095656,0.60122632) (0.60095656,0.60095656,0.87976263) (0.60095656,0.60095656,0.62399530) (0.60095656,0.60095656,0.87110217)
(0.60095656,0.60095656,0.60518054) (0.60095656,0.60095656,0.60114729) (0.60095656,0.60095656,0.60506155) (0.60095656,0.60095656,0.70303661) (0.60095656,0.60095656,0.65408824) (0.60095656,0.60095656,0.61459782)
(0.60095656,0.60095656,0.60151462) (0.60095656,0.60095656,0.63520566) (0.60095656,0.60095656,0.62163196) (0.60095656,0.60095656,0.74274510) (0.60095656,0.60095656,0.63196251) (0.60095656,0.60095656,0.60095656)
(0.60095656,0.60095656,0.61446185) (0.60095656,0.60095656,0.62018808) (0.60095656,0.60095656,0.63357845) (0.60095656,0.60095656,0.60634687) (0.60095656,0.60095656,0.69543765) (0.60095656,0.60095656,0.61822411)
(0.60095656,0.60095656,0.69878004) (0.60095656,0.60095656,0.72506380) (0.60095656,0.60095656,0.68912417) (0.60095656,0.60095656,0.61513778) (0.60095656,0.60095656,0.60122070) (0.60095656,0.60095656,0.65273626)
(0.60095656,0.60095656,0.77644208) (0.60095656,0.60095656,0.60380898) (0.60095656,0.60095656,0.65271781) (0.60095656,0.60095656,0.93817001) (0.60095656,0.60095656,0.62876556) (0.60095656,0.60095656,0.63856936)
(0.60095656,0.60095656,0.60135359) (0.60095656,0.60095656,0.63266400) (0.60095656,0.60095656,0.64211083) (0.60095656,0.60095656,0.95970759) (0.60095656,0.60095656,0.63006541) (0.60095656,0.60095656,0.61213534)
(0.60095656,0.60095656,0.80472387) (0.60095656,0.60095656,0.68146925) (0.60095656,0.60095656,0.61501412) (0.60095656,0.60095656,0.70790883) (0.60095656,0.60095656,0.60834953) (0.60095656,0.60095656,0.80937892)
(0.60095656,0.60095656,0.64826694) (0.60095656,0.60095656,0.77665359) (0.60095656,0.60095656,0.64255597) (0.60095656,0.60095656,0.60284606) (0.60095656,0.60095656,0.60459530) (0.60095656,0.60095656,0.92928308)
(0.60095656,0.60095656,0.65376897) (0.60095656,0.60095656,0.62553879) (0.60095656,0.60095656,0.65234405) (0.60095656,0.60095656,0.67204287) (0.60095656,0.60095656,0.62662255) (0.60095656,0.60095656,0.89323382)
(0.60095656,0.60095656,0.76539034) (0.60095656,0.60095656,0.61551546) (0.60095656,0.60095656,0.61822162) (0.60095656,0.60095656,0.82030299) (0.60095656,0.60095656,0.60191393) (0.60095656,0.60095656,0.96229384)
(0.60095656,0.60095656,0.78387271) (0.60095656,0.60095656,0.60107095) (0.60095656,0.60095656,0.60828679) (0.60095656,0.60095656,0.60585565) (0.60095656,0.60095656,0.61902094) (0.60095656,0.60095656,0.80385510)
(0.60095656,0.60095656,0.62004051) (0.60095656,0.60095656,0.67671551) (0.60095656,0.60095656,0.60895768) (0.60095656,0.60095656,0.93269678) (0.60095656,0.60095656,0.60603465) (0.60095656,0.60095656,0.73251266)
(0.60095656,0.60095656,0.62562522) (0.60095656,0.60095656,0.74482551) (0.60095656,0.60095656,0.61026819) (0.60095656,0.60095656,0.96056113) (0.60095656,0.60095656,0.62068311) (0.60095656,0.60095656,0.74635577)
(0.60095656,0.60095656,0.88626196) (0.60095656,0.60095656,0.60433660) (0.60095656,0.60095656,0.69059235) (0.60095656,0.60095656,0.73908689) (0.60095656,0.60095656,0.65806646) (0.60095656,0.60095656,0.60248290)
(0.60095656,0.60095656,0.85418554) (0.60095656,0.60095656,0.60487385) (0.60095656,0.60095656,0.62808433) (0.60095656,0.60095656,0.94336783) (0.60095656,0.60095656,0.60329604) (0.60095656,0.60095656,0.62764077)
(0.60095656,0.60095656,0.65728396) (0.60095656,0.60095656,0.62103013) (0.60095656,0.60095656,0.60142736) (0.60095656,0.60095656,0.73597116) (0.60095656,0.60095656,0.61461486) (0.60095656,0.60095656,0.60588002)
(0.60095656,0.60095656,0.73894083) (0.60095656,0.60095656,0.69904036) (0.60095656,0.60095656,0.67596020) (0.60095656,0.60095656,0.62962689) (0.60095656,0.60095656,0.60146999) (0.60095656,0.60095656,0.62085859)
(0.60095656,0.60095656,0.71332643) (0.60095656,0.60095656,0.60109977) (0.60095656,0.60095656,0.79696992) (0.60095656,0.60095656,0.74298530) (0.60095656,0.60095656,0.60459879) (0.60095656,0.60095656,0.61137222)
(0.60095656,0.60095656,0.93115526) (0.60095656,0.60095656,0.60323596) (0.60095656,0.60095656,0.74591895) (0.60095656,0.60095656,0.77078298) (0.60095656,0.60095656,0.64640708) (0.60095656,0.60095656,0.60271984)
(0.60095656,0.60095656,0.75187387) (0.60095656,0.60095656,0.64500893) (0.60095656,0.60095656,0.74733477) (0.60095656,0.60095656,0.61821873) (0.60095656,0.60095656,0.61760855) (0.60095656,0.60095656,0.61618163)
(0.60095656,0.60095656,0.61418934) (0.60095656,0.60095656,0.72971947) (0.60095656,0.60095656,0.81205082) (0.60095656,0.60095656,0.92379145) (0.60095656,0.60095656,0.61319082) (0.60095656,0.60095656,0.63818337)
(0.60095656,0.60095656,0.63453507) (0.60095656,0.60095656,0.63795811) (0.60095656,0.60095656,0.66920020) (0.60095656,0.60095656,0.67208455) (0.60095656,0.60095656,0.60298624) (0.60095656,0.60095656,0.64031184)
(0.60095656,0.60095656,0.64998215) (0.60095656,0.60095656,0.85434708) (0.60095656,0.60095656,0.60117081) (0.60095656,0.60095656,0.62117069) (0.60095656,0.60095656,0.60341981) (0.60095656,0.60095656,0.60493126)
(0.60095656,0.60095656,0.60924798) (0.60095656,0.60095656,0.82456438) (0.60095656,0.60095656,0.60753331) (0.60095656,0.60095656,0.92750058) (0.60095656,0.60095656,0.64064104) (0.60095656,0.60095656,0.77570517)
(0.60095656,0.60095656,0.76899533) (0.60095656,0.60095656,0.63679646) (0.60095656,0.60095656,0.74017125) (0.60095656,0.60095656,0.94229237) (0.60095656,0.60095656,0.60095679) (0.60095656,0.60095656,0.74342905)
(0.60095656,0.60095656,0.61709246) (0.60095656,0.60095656,0.80023661) (0.60095656,0.60095656,0.68397534) (0.60095656,0.60095656,0.86296408) (0.60095656,0.60095656,0.60602144) (0.60095656,0.60095656,0.60290142)
(0.60095656,0.60095656,0.81631687) (0.60095656,0.60095656,0.79180257) (0.60095656,0.60095656,0.62810514) (0.60095656,0.60095656,0.78457661) (0.60095656,0.60095656,0.60594963) (0.60095656,0.60095656,0.79595554)
(0.60095656,0.60095656,0.63477707) (0.60095656,0.60095656,0.86293282) (0.60095656,0.60095656,0.62346290) (0.60095656,0.60095656,0.66362071) (0.60095656,0.60095656,0.60943686) (0.60095656,0.60095656,0.60149542)
(0.60095656,0.60095656,0.61861906) (0.60095656,0.60095656,0.77767672) (0.60095656,0.60095656,0.68560615) (0.60095656,0.60095656,0.62227561) (0.60095656,0.60095656,0.63590862) (0.60095656,0.60095656,0.61327204)
(0.60095656,0.60095656,0.60130099) (0.60095656,0.60095656,0.80989912) (0.60095656,0.60095656,0.63909055) (0.60095656,0.60095656,0.68513998) (0.60095656,0.60095656,0.63803214) (0.60095656,0.60095656,0.68581069)
(0.60095656,0.60095656,0.66110055) (0.60095656,0.60095656,0.72572105) (0.60095656,0.60095656,0.63605786) (0.60095656,0.60095656,0.60699547) (0.60095656,0.60095656,0.61783144) (0.60095656,0.60095656,0.63191627)
(0.60095656,0.60095656,0.95108545) (0.60095656,0.60095656,0.60849812) (0.60095656,0.60095656,0.60519709) (0.60095656,0.60095656,0.61553249) (0.60095656,0.60095656,0.60551323) (0.60095656,0.60095656,0.74539254)
(0.60095656,0.60095656,0.80249445) (0.60095656,0.60095656,0.75228203) (0.60095656,0.60095656,0.60097288) (0.60095656,0.60095656,0.69384524) (0.60095656,0.60095656,0.62372149) (0.60095656,0.60095656,0.83411711)
(0.60095656,0.60095656,0.67094676) (0.60095656,0.60095656,0.63917962) (0.60095656,0.60095656,0.67116663) (0.60095656,0.60095656,0.95109552) (0.60095656,0.60095656,0.62459776) (0.60095656,0.60095656,0.78880287)
(0.60095656,0.60095656,0.65147022) (0.60095656,0.60095656,0.84842678) (0.60095656,0.60095656,0.62798126) (0.60095656,0.60095656,0.60123423) (0.60095656,0.60095656,0.60834354) (0.60095656,0.60095656,0.70276954)
(0.60095656,0.60095656,0.84742521) (0.60095656,0.60095656,0.61653921) (0.60095656,0.60095656,0.76613563) (0.60095656,0.60095656,0.64221772) (0.60095656,0.60095656,0.76388034) (0.60095656,0.60095656,0.61337616)
(0.60095656,0.60095656,0.64485801) (0.60095656,0.60095656,0.70190949) (0.60095656,0.60095656,0.60652530) (0.60095656,0.60095656,0.60095679) (0.60095656,0.60095656,0.68126998) (0.60095656,0.60095656,0.73267731)
(0.60095656,0.60095656,0.77668307) (0.60095656,0.60095656,0.99856865) (0.60095656,0.60095656,0.60223164) (0.60095656,0.60095656,0.60102122) (0.60095656,0.60095656,0.62920892) (0.60095656,0.60095656,0.83210496)
(0.60095656,0.60095656,0.69030393) (0.60095656,0.60095656,0.95869616) (0.60095656,0.60095656,0.75987941) (0.60095656,0.60095656,0.63366370) (0.60095656,0.60095656,0.64889550) (0.60095656,0.60095656,0.86870551)
(0.60095656,0.60095656,0.77691843) (0.60095656,0.60095656,0.98774884) (0.60095656,0.60095656,0.78494917) (0.60095656,0.60095656,0.78832956) (0.60095656,0.60095656,0.61933167) (0.60095656,0.60095656,0.83597014)
(0.60095656,0.60095656,0.66843647) (0.60095656,0.60095656,0.60248304) (0.60095656,0.60095656,0.87435802) (0.60095656,0.60095656,0.69227377) (0.60095656,0.60095656,0.62478635) (0.60095656,0.60095656,0.68282811)
(0.60095656,0.60095656,0.66097215) (0.60095656,0.60095656,0.90244653) (0.60095656,0.60095656,0.97705346) (0.60095656,0.60095656,0.60318045) (0.60095656,0.60095656,0.65420069) (0.60095656,0.60095656,0.63420618)
(0.60095656,0.60095656,0.79912982) (0.60095656,0.60095656,0.61104145) (0.60095656,0.60095656,0.95658372) (0.60095656,0.60095656,0.70602216) (0.60095656,0.60095656,0.60178284) (0.60095656,0.60095656,0.64248015)
(0.60095656,0.60095656,0.94926758) (0.60095656,0.60095656,0.60300150) (0.60095656,0.60095656,0.81027336) (0.60095656,0.60095656,0.75184760) (0.60095656,0.60095656,0.65708347) (0.60095656,0.60095656,0.66692749)
(0.60095656,0.60095656,0.70710579) (0.60095656,0.60095656,0.61991696) (0.60095656,0.60095656,0.65638124) (0.60095656,0.60095656,0.60274943) (0.60095656,0.60095656,0.84386824) (0.60095656,0.60095656,0.80646269)
(0.60095656,0.60095656,0.62943404) (0.60095656,0.60095656,0.66241571) (0.60095656,0.60095656,0.61214120) (0.60095656,0.60095656,0.60136390) (0.60095656,0.60095656,0.89292250) (0.60095656,0.60095656,0.75477427)
(0.60095656,0.60095656,0.60109943) (0.60095656,0.60095656,0.61684923) (0.60095656,0.60095656,0.73497982) (0.60095656,0.60095656,0.76103201) (0.60095656,0.60095656,0.90135976) (0.60095656,0.60095656,0.87361045)
(0.60095656,0.60095656,0.60404424) (0.60095656,0.60095656,0.72503269) (0.60095656,0.60095656,0.91043955) (0.60095656,0.60095656,0.78499512) (0.60095656,0.60095656,0.60214829) (0.60095656,0.60095656,0.60987108)
(0.60095656,0.60095656,0.60466781) (0.60095656,0.60095656,0.77989417) (0.60095656,0.60095656,0.94050665) (0.60095656,0.60095656,0.60096034) (0.60095656,0.60095656,0.67125066) (0.60095656,0.60095656,0.90501215)
(0.60095656,0.60095656,0.60525831) (0.60095656,0.60095656,0.60874631) (0.60095656,0.60095656,0.78683661) (0.60095656,0.60095656,0.60108598) (0.60095656,0.60095656,0.76966499) (0.60095656,0.60095656,0.61745607)
(0.60095656,0.60095656,0.76991461) (0.60095656,0.60095656,0.64341999) (0.60095656,0.60095656,0.71295832) (0.60095656,0.60095656,0.60634723) (0.60095656,0.60095656,0.99426828) (0.60095656,0.60095656,0.60314419)
(0.60095656,0.60095656,0.60613593) (0.60095656,0.60095656,0.66350621) (0.60095656,0.60095656,0.69463776) (0.60095656,0.60095656,0.60133342) (0.60095656,0.60095656,0.93521116) (0.60095656,0.60095656,0.66631729)
(0.60095656,0.60095656,0.98501115) (0.60095656,0.60095656,0.93858762) (0.60095656,0.60095656,0.73073187) (0.60095656,0.60095656,0.73140620) (0.60095656,0.60095656,0.60095822) (0.60095656,0.60095656,0.75105674)
(0.60095656,0.60095656,0.67738547) (0.60095656,0.60095656,0.94763097) (0.60095656,0.60095656,0.76187965) (0.60095656,0.60095656,0.94294297) (0.60095656,0.60095656,0.60384703) (0.60095656,0.60095656,0.60097223)
(0.60095656,0.60095656,0.99547016) (0.60095656,0.60095656,0.93638268) (0.60095656,0.60095656,0.60343869) (0.60095656,0.60095656,0.83128111) (0.60095656,0.60095656,0.61703886) (0.60095656,0.60095656,0.60253775)
(0.60095656,0.60095656,0.91296966) (0.60095656,0.60095656,0.95042484) (0.60095656,0.60095656,0.63173753) (0.60095656,0.60095656,0.68473752) (0.60095656,0.60095656,0.67091769) (0.60095656,0.60095656,0.70890074)
(0.60095656,0.60095656,0.88943073) (0.60095656,0.60095656,0.70747182) (0.60095656,0.60095656,0.74309467) (0.60095656,0.60095656,0.75070802) (0.60095656,0.60095656,0.68826558) (0.60095656,0.60095656,0.69054012)
(0.60095656,0.60095656,0.86468045) (0.60095656,0.60095656,0.60095893) (0.60095656,0.60095656,0.86057196) (0.60095656,0.60095656,0.90189479) (0.60095656,0.60095656,0.73154302) (0.60095656,0.60095656,0.72245548)
(0.60095656,0.60095656,0.95754621) (0.60095656,0.60095656,0.95039438) (0.60095656,0.60095656,0.93495800) (0.60095656,0.60095656,0.77235746) (0.60095656,0.60095656,0.68838339) (0.60095656,0.60095656,0.97491316)
(0.60095656,0.60095656,1.00000000) (0.60095656,0.60095656,1.00000000) (0.60095656,0.60095656,1.00000000) (0.60095656,0.60095656,1.00000000) (0.60095656,0.60095656,1.00000000) (0.60095656,0.60095656,1.00000000)
(0.60095656,0.60095656,1.00000000) (0.60095656,0.60095656,1.00000000) (0.60095656,0.60095656,1.00000000) (0.60095656,0.60095656,1.00000000) (0.60095656,0.60095656,1.00000000) (0.60095656,0.60095656,1.00000000)
(0.60095656,0.60095656,1.00000000) (0.60095656,0.60095656,1.00000000) (0.60095656,0.60095656,1.00000000) (0.60095656,0.60095656,1.00000000) (0.60095656,0.60095656,1.00000000) (0.60095656,0.60095656,1.00000000)
