chh c1 sd mt lt rc2
(0.60095656,0.60095656,1.00000000) (0.60095656,0.60095656,1.00000000) (0.60226960,0.60095656,1.00000000) (0.60095656,0.60095656,1.00000000) (0.60095656,0.60095656,1.00000000) (0.95984966,0.95417681,1.00000000)
(0.60095656,0.60095656,0.66202022) (0.60095656,0.60095656,0.99977038) (0.60187748,0.60095656,0.89087637) (0.60095656,0.60095656,0.94971612) (0.60095656,0.60095656,0.98484732) (0.95984966,0.95417681,0.60331352)
(0.60095656,0.60095656,0.60156997) (0.60095656,0.60095656,0.94728609) (0.60118842,0.60095656,0.96338860) (0.60095656,0.60095656,0.80797916) (0.60095656,0.60095656,0.94104434) (0.95762170,0.95337330,0.69304627)
(0.60095656,0.60095656,0.86841656) (0.60095656,0.60095656,0.99280926) (0.60188217,0.60095656,0.97491694) (0.60095656,0.60095656,0.99736542) (0.60095656,0.60095656,0.88019776) (0.65368740,0.60095656,0.63787683)
(0.60095656,0.60095656,0.91559833) (0.60095656,0.60095656,0.99019375) (0.60240868,0.60095656,0.97390826) (0.60095656,0.60095656,0.99650283) (0.60095656,0.60095656,0.91241100) (0.65387806,0.60095656,0.63718010)
(0.60095656,0.60095656,0.99985305) (0.60095656,0.60095656,0.97349357) (0.60306285,0.60095656,0.95161750) (0.60095656,0.60095656,0.99774298) (0.60095656,0.60095656,0.92006951) (0.95961834,0.95349709,0.60846826)
(0.60095656,0.60095656,0.97554736) (0.60095656,0.60095656,0.97726123) (0.60320434,0.60095656,0.73145529) (0.60095656,0.60095656,0.99493120) (0.60095656,0.60095656,0.72318455) (0.95996165,0.95393822,0.65403267)
(0.60095656,0.60095656,0.99774622) (0.60095656,0.60095656,0.91302622) (0.60334745,0.60095656,0.94745003) (0.60095656,0.60095656,0.99643702) (0.60095656,0.60095656,0.95901535) (0.96021103,0.95438566,0.68968809)
(0.60095656,0.60095656,0.96151828) (0.60095656,0.60095656,0.97645776) (0.60323534,0.60095656,0.94676448) (0.60095656,0.60095656,0.99912913) (0.60095656,0.60095656,0.76152275) (0.65458671,0.60095656,0.62134987)
(0.60095656,0.60095656,0.95882184) (0.60095656,0.60095656,0.96176372) (0.60338254,0.60095656,0.74929310) (0.60095656,0.60095656,0.99774183) (0.60095656,0.60095656,0.60095656) (0.65476615,0.60095656,0.63441654)
(0.60095656,0.60095656,0.75534724) (0.60095656,0.60095656,0.89127369) (0.60461785,0.60095656,0.94621567) (0.60095656,0.60095656,0.88665383) (0.60095656,0.60095656,0.76172951) (0.96509590,0.95665390,0.62485686)
(0.60095656,0.60095656,0.87528140) (0.60095656,0.60095656,0.96060192) (0.60662033,0.60095656,0.93503877) (0.60095656,0.60095656,0.85668489) (0.60095656,0.60095656,0.98325881) (0.96676696,0.95553280,0.62323184)
(0.60095656,0.60095656,0.96041722) (0.60095656,0.60095656,0.97231419) (0.60865407,0.60095656,0.60223981) (0.60095656,0.60095656,0.74828032) (0.60095656,0.60095656,0.63537179) (0.96754659,0.95599306,0.60685639)
(0.60095656,0.60095656,0.88776445) (0.60095656,0.60095656,0.90111787) (0.60861230,0.60095656,0.67366390) (0.60095656,0.60095656,0.93094517) (0.60095656,0.60095656,0.80765445) (0.96825741,0.95645660,0.82499136)
(0.60095656,0.60095656,0.76916331) (0.60095656,0.60095656,0.87052041) (0.60767031,0.60095656,0.84615960) (0.60095656,0.60095656,0.93550954) (0.60095656,0.60095656,0.90212313) (0.64433577,0.60095656,0.89131798)
(0.60095656,0.60095656,0.60367244) (0.60095656,0.60095656,0.60095656) (0.60872717,0.60095656,0.93131513) (0.60095656,0.60095656,0.93282155) (0.60095656,0.60095656,0.81461634) (0.64101667,0.60095656,0.96915014)
(0.60095656,0.60095656,0.65049297) (0.60095656,0.60095656,0.84865946) (0.60999237,0.60095656,0.95610656) (0.60095656,0.60095656,0.96069310) (0.60095656,0.60095656,0.84268978) (0.97210113,0.95649711,0.81829701)
(0.60095656,0.60095656,0.88850588) (0.60095656,0.60095656,0.67615158) (0.61128735,0.60095656,0.96872733) (0.60095656,0.60095656,0.93783066) (0.60095656,0.60095656,0.73779778) (0.97281042,0.95566060,0.97917329)
(0.60095656,0.60095656,0.62753573) (0.60095656,0.60095656,0.65994428) (1.00000000,0.99827968,0.84339236) (0.60095656,0.60095656,0.90721134) (0.60095656,0.60095656,0.94365955) (0.97223272,0.95609660,0.96853480)
(0.60095656,0.60095656,0.84989995) (0.60095656,0.60095656,0.64044877) (0.61419217,0.60095656,0.78122556) (0.60095656,0.60095656,0.98591298) (0.60095656,0.60095656,0.60572133) (0.97394924,0.95653525,0.96984790)
(0.60095656,0.60095656,0.89885576) (0.60095656,0.60095656,0.60138713) (0.61270332,0.60095656,0.65320216) (0.60095656,0.60095656,0.96038821) (0.60095656,0.60095656,0.72705190) (0.97619532,0.95786179,0.99073101)
(0.60095656,0.60095656,0.74010631) (0.60095656,0.60095656,0.79838390) (0.61243815,0.60095656,0.76461269) (0.60095656,0.60095656,0.75061570) (0.60095656,0.60095656,0.71767987) (0.97619532,0.95786179,0.72038858)
(0.60095656,0.60095656,0.99000157) (0.60095656,0.60095656,0.99037798) (1.00000000,0.99911424,0.74077638) (0.60095656,0.60095656,0.72927065) (0.60095656,0.60095656,0.89612985) (0.97708252,0.95831922,0.68122296)
(0.60095656,0.60095656,0.97450660) (0.60095656,0.60095656,0.88525542) (1.00000000,0.99852348,0.96337273) (0.60095656,0.60095656,0.60294244) (0.60095656,0.60095656,0.70907681) (0.97813532,0.95742489,0.75079636)
(0.60095656,0.60095656,0.80641383) (0.60095656,0.60095656,0.74185616) (0.98297408,0.60095656,0.60484174) (0.60095656,0.60095656,0.91536471) (0.60095656,0.60095656,0.64270654) (0.65711750,0.60095656,0.60486684)
(0.60095656,0.60095656,0.96002494) (0.60095656,0.60095656,0.62224340) (0.61277725,0.60095656,0.61334541) (0.60095656,0.60095656,0.92557001) (0.60095656,0.60095656,0.60498889) (0.62590678,0.60095656,0.60880909)
(0.60095656,0.60095656,0.68396397) (0.60095656,0.60095656,0.89176423) (0.61450930,0.60095656,0.61424666) (0.60095656,0.60095656,0.83655369) (0.60095656,0.60095656,0.60710368) (0.62563437,0.60095656,0.61624398)
(0.60095656,0.60095656,0.78491301) (0.60095656,0.60095656,0.84658778) (0.61637061,0.60095656,0.61830716) (0.60095656,0.60095656,0.60439844) (0.60095656,0.60095656,0.60540513) (0.62536591,0.60095656,0.68666760)
(0.60095656,0.60095656,0.84832762) (0.60095656,0.60095656,0.95056604) (0.61470384,0.60095656,0.65043617) (0.60095656,0.60095656,0.79745802) (0.60095656,0.60095656,0.70321732) (0.98521797,0.95875125,0.77675121)
(0.60095656,0.60095656,0.94706432) (0.60095656,0.60095656,0.83980001) (1.00000000,0.99820965,0.61489728) (0.60095656,0.60095656,0.63917011) (0.60095656,0.60095656,0.70825868) (0.98461396,0.95917256,0.99502021)
(0.60095656,0.60095656,0.79260322) (0.60095656,0.60095656,0.69131807) (1.00000000,0.99820965,0.61047466) (0.60095656,0.60095656,0.63069856) (0.60095656,0.60095656,0.82044423) (0.98448830,0.95917256,0.79301842)
(0.60095656,0.60095656,0.61836599) (0.60095656,0.60095656,0.73977234) (0.99993868,0.99889646,0.60606128) (0.60095656,0.60095656,0.73572659) (0.60095656,0.60095656,0.85894454) (0.77543252,0.95786288,0.96132882)
(0.60095656,0.60095656,0.77055635) (0.60095656,0.60095656,0.86063761) (0.61629066,0.60095656,0.63061339) (0.60095656,0.60095656,0.87859787) (0.60095656,0.60095656,0.77380054) (0.98300807,0.95711343,0.80226307)
(0.60095656,0.60095656,0.88219446) (0.60095656,0.60095656,0.72938110) (0.61455105,0.60095656,0.75495714) (0.60095656,0.60095656,0.64434137) (0.60095656,0.60095656,0.82715888) (0.98321073,0.95750914,0.65588594)
(0.60095656,0.60095656,0.81499313) (0.60095656,0.60095656,0.83984509) (0.61294703,0.60095656,0.77006402) (0.60095656,0.60095656,0.73218098) (0.60095656,0.60095656,0.67547597) (0.62559652,0.60095656,0.78027965)
(0.60095656,0.60095656,0.73753411) (0.60095656,0.60095656,0.71947315) (0.61143863,0.60095656,0.96941629) (0.60095656,0.60095656,0.78561990) (0.60095656,0.60095656,0.63915316) (0.62525897,0.60095656,0.63883921)
(0.60095656,0.60095656,0.64037424) (0.60095656,0.60095656,0.65946957) (0.60747405,0.60095656,0.82734825) (0.60095656,0.60095656,0.82513768) (0.60095656,0.60095656,0.63601461) (0.60825539,0.60095656,0.63232863)
(0.60095656,0.60095656,0.60768696) (0.60095656,0.60095656,0.70246787) (0.62769694,0.60095656,0.88078627) (0.60095656,0.60095656,0.64818785) (0.60095656,0.60095656,0.82586565) (0.60537961,0.60095656,0.69695952)
(0.60095656,0.60095656,0.71122982) (0.60095656,0.60095656,0.71408360) (0.99994036,0.99813191,0.75021757) (0.60095656,0.60095656,0.80594030) (0.60095656,0.60095656,0.69843811) (0.78768011,0.95867087,0.73463755)
(0.60095656,0.60095656,0.62088878) (0.60095656,0.60095656,0.65990579) (0.97265428,0.99820845,0.83370899) (0.60095656,0.60095656,0.89105487) (0.60095656,0.60095656,0.87130354) (0.65252007,0.95905307,0.73002812)
(0.60095656,0.60095656,0.70838209) (0.60095656,0.60095656,0.69825702) (1.00000000,0.99820903,0.65320152) (0.60095656,0.60095656,0.69177274) (0.60095656,0.60095656,0.63440776) (0.98865613,0.96028537,0.71139745)
(0.60095656,0.60095656,0.74409310) (0.60095656,0.60095656,0.87278726) (0.99997778,0.60095662,0.92560632) (0.60095656,0.60095656,0.79055891) (0.60095656,0.60095656,0.66669599) (0.80518168,0.60095658,0.70901420)
(0.60095656,0.60095656,0.75815174) (0.60095656,0.60095656,0.60254604) (0.99968948,0.60095656,0.93000654) (0.60095656,0.60095656,0.66056072) (0.60095656,0.60095656,0.64843508) (0.75974463,0.60095656,0.65394406)
(0.60095656,0.60095656,0.70690247) (0.60095656,0.60095656,0.66140263) (0.83559866,0.60095656,0.97611381) (0.60095656,0.60095656,0.78635729) (0.60095656,0.60095656,0.60122572) (0.61310500,0.60095656,0.63034835)
(0.60095656,0.60095656,0.72125233) (0.60095656,0.60095656,0.69626941) (0.61200717,0.60095656,0.74577228) (0.60095656,0.60095656,0.60096069) (0.60095656,0.60095656,0.65057995) (0.61316556,0.60095656,0.61658502)
(0.60095656,0.60095656,0.60180578) (0.60095656,0.60095656,0.68029951) (0.99426220,0.99776801,0.70238382) (0.60095656,0.60095656,0.87000057) (0.60095656,0.60095656,0.63150709) (0.69859972,0.95942404,0.93502951)
(0.60095656,0.60095656,0.60543489) (0.60095656,0.60095656,0.69775555) (0.99455454,0.60095656,0.90132613) (0.60095656,0.60095656,0.65525778) (0.60095656,0.60095656,0.72401561) (0.70107655,0.60095656,0.72942841)
(0.60095656,0.60095656,0.60656926) (0.60095656,0.60095656,0.71077318) (0.96118352,0.60095656,0.60137588) (0.60095656,0.60095656,0.65283356) (0.60095656,0.60095656,0.72188360) (0.65150771,0.60095656,0.64203950)
(0.60095656,0.60095656,0.93933575) (0.60095656,0.60095656,0.68062086) (0.84837053,0.99801324,0.71486005) (0.60095656,0.60095656,0.65862947) (0.60095656,0.60095656,0.97162805) (0.61527783,0.96056136,0.82405557)
(0.60095656,0.60095656,0.91852731) (0.60095656,0.60095656,0.80640747) (0.89266426,0.60095731,0.99286049) (0.60095656,0.60095656,0.60267302) (0.60095656,0.60095656,0.76305460) (0.62662942,0.60095690,0.76767869)
(0.60095656,0.60095656,0.84931807) (0.60095656,0.60095656,0.71233403) (0.60809149,0.60095656,0.98780110) (0.60095656,0.60095656,0.60301686) (0.60095656,0.60095656,0.64334495) (0.61157429,0.60095656,0.70269964)
(0.60095656,0.60095656,0.85155487) (0.60095656,0.60095656,0.67939416) (0.60773358,0.60095656,0.65613883) (0.60095656,0.60095656,0.60163349) (0.60095656,0.60095656,0.89392139) (0.61157794,0.60095656,0.74970668)
(0.60095656,0.60095656,0.99346276) (0.60095656,0.60095656,0.61751638) (0.60734781,0.60095656,0.82024361) (0.60095656,0.60095656,0.69509526) (0.60095656,0.60095656,0.72964315) (0.61088217,0.60095656,0.77500860)
(0.60095656,0.60095656,0.99903912) (0.60095656,0.60095656,0.60781833) (0.76359067,0.60095656,0.85058555) (0.60095656,0.60095656,0.60857166) (0.60095656,0.60095656,0.70168642) (0.60618391,0.60095656,0.84937538)
(0.60095656,0.60095656,0.88098287) (0.60095656,0.60095656,0.63447867) (0.61812617,0.60095656,0.88275953) (0.60095656,0.60095656,0.60989015) (0.60095656,0.60095656,0.66095784) (0.60199888,0.60095656,0.69038727)
(0.60095656,0.60095656,0.96424587) (0.60095656,0.60095656,0.61303846) (0.60153543,0.60095656,0.75362397) (0.60095656,0.60095656,0.73283938) (0.60095656,0.60095656,0.97579075) (0.60793406,0.60095656,0.97971988)
(0.60095656,0.60095656,0.99742986) (0.60095656,0.60095656,0.63870073) (0.60523995,0.60095656,0.65869384) (0.60095656,0.60095656,0.94647762) (0.60095656,0.60095656,0.98340191) (0.60970306,0.60095656,0.99985582)
(0.60095656,0.60095656,0.99704960) (0.60095656,0.60095656,0.60217863) (0.60521631,0.60095656,0.68000880) (0.60095656,0.60095656,0.62620021) (0.60095656,0.60095656,0.67749394) (0.99315147,0.96198690,0.87226052)
(0.60095656,0.60095656,0.99355914) (0.60095656,0.60095656,0.71876508) (0.60511230,0.60095656,0.68073379) (0.60095656,0.60095656,0.82321297) (0.60095656,0.60095656,0.67267382) (0.60917934,0.60095656,0.82268193)
(0.60095656,0.60095656,0.99954654) (0.60095656,0.60095656,0.96283687) (0.60526944,0.60095656,0.65496479) (0.60095656,0.60095656,0.66101834) (0.60095656,0.60095656,0.64335085) (0.60922373,0.60095656,0.63319688)
(0.60095656,0.60095656,0.94779547) (0.60095656,0.60095656,0.92852104) (1.00000000,0.99721484,0.60914856) (0.60095656,0.60095656,0.69424699) (0.60095656,0.60095656,0.88294837) (0.99457393,0.96332496,0.67395778)
(0.60095656,0.60095656,0.97884274) (0.60095656,0.60095656,0.99007259) (0.93152475,0.99796265,0.61071657) (0.60095656,0.60095656,0.89780886) (0.60095656,0.60095656,0.99763756) (0.63635966,0.96332496,0.86396210)
(0.60095656,0.60095656,0.63428982) (0.60095656,0.60095656,0.95947916) (0.99107547,0.60095656,0.60297453) (0.60095656,0.60095656,0.70633674) (0.60095656,0.60095656,0.96418855) (0.68918965,0.60095656,0.60821795)
(0.60095656,0.60095656,0.63293266) (0.60095656,0.60095656,0.81912304) (0.60542307,0.60095656,0.60364308) (0.60095656,0.60095656,0.64871764) (0.60095656,0.60095656,0.63771110) (0.60773712,0.60095656,0.67819120)
(0.60095656,0.60095656,0.60095697) (0.60095656,0.60095656,0.71818542) (0.60537759,0.60095656,0.63608381) (0.60095656,0.60095656,0.61344490) (0.60095656,0.60095656,0.77292959) (0.60776332,0.60095656,0.61838712)
(0.60095656,0.60095656,0.91774727) (0.60095656,0.60095656,0.60518917) (0.97829389,0.60095656,0.64947018) (1.00000000,1.00000000,0.71648564) (0.60095656,0.60095656,0.72747462) (0.84896473,0.64794457,0.83936154)
(0.60095656,0.60095656,0.64977483) (0.60095656,0.60095656,0.65127526) (0.99817319,0.61080198,0.62246077) (0.60095656,0.60095656,0.70040871) (0.60095656,0.60095656,0.98895976) (0.72694923,0.60538275,0.77531660)
(0.60095656,0.60095656,0.83545535) (0.60095656,0.60095656,0.66935958) (0.99999861,0.99835434,0.77561874) (0.60095656,0.60095656,0.60603655) (0.60095656,0.60095656,0.67383889) (0.85097678,0.96541386,0.83951893)
(0.60095656,0.60095656,0.66176815) (0.60095656,0.60095656,0.63197915) (0.93804520,0.60095656,0.63379526) (0.60095656,0.60095656,0.64378166) (0.60095656,0.60095656,0.64995510) (0.64060522,0.60095656,0.74046815)
(0.60095656,0.60095656,0.64598367) (0.60095656,0.60095656,0.61587860) (0.60444967,0.60095656,0.60466226) (0.60095656,0.60095656,0.73509610) (0.60095656,0.60095656,0.60095656) (0.60693814,0.60095656,0.69323877)
(0.60095656,0.60095656,0.68278554) (0.60095656,0.60095656,0.77562697) (0.88769799,0.60095656,0.63376453) (1.00000000,1.00000000,0.66217057) (0.60095656,0.60095656,0.77053218) (0.73658738,0.96732736,0.90751649)
(0.60095656,0.60095656,0.68228018) (1.00000000,1.00000000,0.79678611) (0.60466655,0.60095656,0.67018738) (0.60095656,0.60095656,0.61624121) (0.60095656,0.60095656,0.76396053) (0.86225682,0.96732736,0.73934329)
(0.60095656,0.60095656,0.85582878) (1.00000000,1.00000000,0.61403377) (0.60465876,0.60095656,0.79038781) (0.60095656,0.60095656,0.67321395) (0.60095656,0.60095656,0.92294852) (0.86370370,0.96766922,0.64620016)
(0.60095656,0.60095656,0.60164557) (0.60095656,0.60095656,0.65597523) (0.99889693,0.60095656,0.86160020) (0.60095656,0.60095656,0.74768165) (0.60095656,0.60095656,0.64468138) (0.74044123,0.60095656,0.61591908)
(0.60095656,0.60095656,0.60265584) (0.60095656,0.60095656,0.66060417) (1.00000000,0.60095656,0.60317552) (0.60095656,0.60095656,0.73893050) (0.60095656,0.60095656,0.66391129) (0.94844066,0.60095656,0.66599002)
(0.60095656,0.60095656,0.60120178) (0.60095656,0.60095656,0.84066199) (0.99896483,0.60095656,0.60803753) (0.60095656,0.60095656,0.60142979) (0.60095656,0.60095656,0.97750008) (0.74142496,0.60095656,0.60758398)
(0.60095656,0.60095656,0.65110089) (0.60095656,0.60095656,0.80687135) (0.99993570,0.60095656,0.97464257) (0.60095656,0.60095656,0.60237311) (0.60095656,0.60095656,0.95895119) (0.79571119,0.60095656,0.76289803)
(0.60095656,0.60095656,0.79046003) (0.60095656,0.60095656,0.62499183) (0.80364441,0.60095656,0.98538153) (0.60095656,0.60095656,0.74220810) (0.60095656,0.60095656,0.87450082) (0.61306752,0.60095656,0.69189952)
(0.60095656,0.60095656,0.96929968) (0.60095656,0.60095656,0.60095820) (0.60115061,0.60095656,0.60522311) (0.60095656,0.60095656,0.62168019) (0.60095656,0.60095656,0.60329173) (0.60323093,0.60095656,0.70480712)
(0.60095656,0.60095656,0.99148111) (0.60095656,0.60095656,0.90978003) (0.60108912,0.60095656,0.83931169) (0.60095656,0.60095656,0.66499895) (0.60095656,0.60095656,0.74496200) (0.60335644,0.60095656,0.97993807)
(0.60095656,0.60095656,0.61334460) (0.60095656,0.60095656,0.73988516) (1.00000000,0.99923763,0.93155385) (0.60095656,0.60095656,0.61189134) (0.60095656,0.60095656,0.90593789) (0.99789737,0.97134591,0.71695434)
(0.60095656,0.60095656,0.61041008) (0.60095656,0.60095656,0.60478412) (0.95573171,0.99940021,0.68933791) (0.60095656,0.60095656,0.68818540) (0.60095656,0.60095656,0.62615797) (0.65112545,0.96854312,0.64662973)
(0.60095656,0.60095656,0.62295606) (0.60095656,0.60095656,0.60419197) (0.99781463,0.60095656,0.67449434) (0.60095656,0.60095656,0.66778941) (0.60095656,0.60095656,0.63214086) (0.72456728,0.60095656,0.61427433)
(0.60095656,0.60095656,0.75836425) (0.60095656,0.60095656,0.64985071) (0.99999886,0.60095656,0.63146999) (0.60095656,0.60095656,0.73818570) (0.60095656,0.60095656,0.94958310) (0.85337533,0.60095656,0.63765722)
(0.60095656,0.60095656,0.87513089) (0.60095656,0.60095656,0.63610332) (0.60486111,0.60095656,0.95267369) (0.60095656,0.60095656,0.71398075) (0.60095656,0.60095656,0.64648682) (0.60623041,0.60095656,0.71239302)
(0.60095656,0.60095656,0.61148159) (0.60095656,0.60095656,0.92233779) (0.63491163,0.60095658,0.99923821) (0.60095656,0.60095656,0.62707957) (0.60095656,0.60095656,0.65360691) (0.60096991,0.60095657,0.62051963)
(0.60095656,0.60095656,0.69761015) (0.60095656,0.60095656,0.60095819) (0.71051977,0.99961694,0.60102331) (0.60095656,0.60095656,0.89059686) (0.60095656,0.60095656,0.97584723) (0.60396463,0.97292591,0.60101461)
(0.60095656,0.60095656,0.60249595) (0.60095656,0.60095656,0.87742524) (0.93734056,0.99909665,0.64742115) (0.60095656,0.60095656,0.88434493) (0.60095656,0.60095656,0.94069582) (0.64154764,0.96210222,0.75162630)
(0.60095656,0.60095656,0.65269514) (0.60095656,0.60095656,0.77110035) (0.65308152,0.60095656,0.63771107) (0.60095656,0.60095656,0.70413432) (0.60095656,0.60095656,0.76319106) (0.60125606,0.60095656,0.72705398)
(0.60095656,0.60095656,0.60107678) (0.60095656,0.60095656,0.79112729) (0.77355960,0.60095656,0.78244876) (1.00000000,0.60095656,0.78509695) (0.60095656,0.60095656,0.61123915) (0.62905847,0.60095656,0.62535194)
(0.60095656,0.60095656,0.60392256) (0.60095656,0.60095656,0.69979348) (0.65650597,0.60095907,0.82885046) (0.60095656,0.60095656,0.62062534) (0.60095656,0.60095656,0.71326887) (0.60133751,0.60095754,0.60428481)
(0.60095656,0.60095656,0.60435244) (0.60095656,0.60095656,0.74129305) (0.60357421,0.60095656,0.75980185) (0.60095656,0.60095656,0.67813001) (0.60095656,0.60095656,0.68263881) (0.60613889,0.60095656,0.74826896)
(0.60095656,0.60095656,0.60097946) (0.60095656,0.60095656,0.85457646) (0.60358510,0.60095656,0.81356602) (0.60095656,0.60095656,0.61735797) (0.60095656,0.60095656,0.65188926) (0.60620341,0.60095656,0.89753871)
(0.60095656,0.60095656,0.62193928) (0.60095656,0.60095656,0.90592071) (0.60359605,0.60095656,0.60809572) (0.60095656,0.60095656,0.67381419) (0.60095656,0.60095656,0.75343619) (0.60628489,0.60095656,0.92554116)
(0.60095656,0.60095656,0.64494759) (0.60095656,0.60095656,0.82351221) (0.60354875,0.60095656,0.64594898) (0.60095656,0.60095656,0.67994397) (0.60095656,0.60095656,0.61536258) (0.60614934,0.60095656,0.83874017)
(0.60095656,0.60095656,0.60400591) (0.60095656,0.60095656,0.90536801) (0.71102692,0.60095656,0.61470574) (0.60095656,0.60095656,0.69995563) (0.60095656,0.60095656,0.79242159) (0.60288822,0.60095656,0.91008004)
(0.60095656,0.60095656,0.60649692) (0.60095656,0.60095656,0.68593563) (0.61213833,0.60095656,0.61933627) (0.60095656,0.60095656,0.60400073) (0.60095656,0.60095656,0.79959333) (0.60169176,0.60095656,0.60131631)
(0.60095656,0.60095656,0.61952027) (0.60095656,0.60095656,0.68824206) (0.69258830,0.60095656,0.61361438) (1.00000000,0.60095656,0.77001575) (0.60095656,0.60095656,0.98951466) (0.64098564,0.60095656,0.60892958)
(0.60095656,0.60095656,0.84689410) (0.60095656,0.60095656,0.96256679) (0.60315954,0.60095656,0.61082040) (0.60095656,0.60095656,0.73965496) (0.60095656,0.60095656,0.74463605) (0.60603018,0.60095656,0.71299903)
(0.60095656,0.60095656,0.70634250) (0.60095656,0.60095656,0.79807118) (0.60287165,0.60095656,0.72463525) (0.60095656,0.60095656,0.96492758) (0.60095656,0.60095656,0.76761221) (0.60615454,0.60095656,0.91600297)
(0.60095656,0.60095656,0.65809493) (0.60095656,0.60095656,0.95637726) (0.60249224,0.60095656,0.62536612) (0.60095656,0.60095656,0.77403942) (0.60095656,0.60095656,0.97246425) (0.60652557,0.60095656,0.96052753)
(0.60095656,0.60095656,0.75883042) (0.60095656,0.60095656,0.85207967) (0.60249224,0.60095656,0.82476450) (0.60095656,0.60095656,0.86627287) (0.60095656,0.60095656,0.71900091) (0.99799708,0.97427430,0.95612999)
(0.60095656,0.60095656,0.60746137) (0.60095656,0.60095656,0.82030016) (0.99432523,0.99986416,0.74537739) (0.60095656,0.60095656,0.82724805) (0.60095656,0.60095656,0.60187990) (0.68544577,0.97456029,0.77627027)
(0.60095656,0.60095656,0.70645160) (0.60095656,0.60095656,0.66932615) (0.65016974,0.60095656,0.71266402) (0.60095656,0.60095656,0.60101324) (0.60095656,0.60095656,0.70943388) (0.60095787,0.60095656,0.64956069)
(0.60095656,0.60095656,0.78820722) (0.60095656,0.60095656,0.85397799) (0.77615544,0.60095656,0.63858072) (0.60095656,0.60095656,0.60213873) (0.60095656,0.60095656,0.62748545) (0.60601552,0.60095656,0.67349961)
(0.60095656,0.60095656,0.75470974) (0.60095656,0.60095656,0.80542834) (0.63694849,0.60095656,0.76030297) (0.60095656,0.60095656,0.75341526) (0.60095656,0.60095656,0.70493347) (0.60109724,0.60095656,0.69843781)
(0.60095656,0.60095656,0.60546858) (0.60095656,0.60095656,0.60096447) (0.60732126,0.60095656,0.64301551) (0.60095656,0.60095656,0.60095661) (0.60095656,0.60095656,0.66350110) (0.60294663,0.60095656,0.60451758)
(0.60095656,0.60095656,0.60971342) (0.60095656,0.60095656,0.65158448) (0.60249373,0.60095656,0.60273379) (0.60095656,0.60095656,0.60137445) (0.60095656,0.60095656,0.64932283) (0.60733766,0.60095656,0.60117352)
(0.60095656,0.60095656,0.60320142) (0.60095656,0.60095656,0.68734759) (0.62002233,0.60095656,0.96872464) (0.60095656,0.60095656,0.75186224) (0.60095656,0.60095656,0.65084308) (0.60178655,0.60095656,0.61215985)
(0.60095656,0.60095656,0.60854484) (0.60095656,0.60095656,0.61843954) (0.80055619,0.60095656,0.95892672) (0.60095656,0.60095656,0.60681136) (0.60095656,0.60095656,0.60132079) (0.60766115,0.60095656,0.63731606)
(0.60095656,0.60095656,0.61100110) (0.60095656,0.60095656,0.68529260) (0.65603395,0.99974764,0.87653032) (0.60095656,0.60095656,0.61374243) (0.60095656,0.60095656,0.62758230) (0.60098655,0.96849289,0.62494281)
(0.60095656,0.60095656,0.93443450) (0.60095656,0.60095656,0.85454801) (0.63360995,0.60095656,0.72531062) (0.60095656,0.60095656,0.67359960) (0.60095656,0.60095656,0.82009303) (0.60148883,0.60095656,0.60144858)
(0.60095656,0.60095656,0.93498052) (0.60095656,0.60095656,0.61686875) (0.61054167,0.60095656,0.64312675) (0.60095656,0.60095656,0.62252469) (0.60095656,0.60095656,0.84744607) (0.60339527,0.60095656,0.78341861)
(0.60095656,0.60095656,0.70732931) (0.60095656,0.60095656,0.63175994) (0.60249540,0.60095656,0.92905852) (0.60095656,0.60095656,0.60095735) (0.60095656,0.60095656,0.77775218) (0.60925605,0.60095656,0.72962443)
(0.60095656,0.60095656,0.63976346) (0.60095656,0.60095656,0.74678972) (0.63800573,0.60095659,0.82762257) (0.60095656,0.60095656,0.62800075) (0.60095656,0.60095656,0.61922340) (0.60126601,0.60095657,0.60128233)
(0.60095656,0.60095656,0.60863615) (0.60095656,0.60095656,0.76945972) (0.69975357,0.99986416,0.60123477) (0.60095656,0.60095656,0.60458313) (0.60095656,0.60095656,0.97198352) (0.60142885,0.97832997,0.60556051)
(0.60095656,0.60095656,0.63938532) (0.60095656,0.60095656,0.72958023) (0.97140034,0.99986416,0.86854124) (0.60095656,0.60095656,0.60101243) (0.60095656,0.60095656,0.96898270) (0.65215596,0.97832997,0.60235526)
(0.60095656,0.60095656,0.88432496) (0.60095656,0.60095656,0.67037624) (0.99672195,0.60095656,0.98965320) (0.60095656,0.60095656,0.61176233) (0.60095656,0.60095656,0.75480012) (0.70664942,0.60095656,0.60164293)
(0.60095656,0.60095656,0.88536098) (0.60095656,0.60095656,0.62114083) (0.67437833,0.60095656,0.89488207) (0.60095656,0.60095656,0.67278727) (0.60095656,0.60095656,0.60098618) (0.60100813,0.60095656,0.60912281)
(0.60095656,0.60095656,0.93641532) (0.60095656,0.60095656,0.61171277) (0.60372946,0.60095656,0.66982563) (0.60095656,0.60095656,0.67444116) (0.60095656,0.60095656,0.60175430) (0.61071171,0.60095656,0.63183063)
(0.60095656,0.60095656,0.72502697) (0.60095656,0.60095656,0.64471092) (0.60373074,0.60095656,0.60199447) (0.60095656,0.60095656,0.67620700) (0.60095656,0.60095656,0.63270253) (0.61083015,0.60095656,0.60138307)
(0.60095656,0.60095656,0.77772679) (0.60095656,0.60095656,0.62887267) (0.60373214,0.60095656,0.62015747) (0.60095656,0.60095656,0.60114286) (0.60095656,0.60095656,0.60392349) (0.61101392,0.60095656,0.60409814)
(0.60095656,0.60095656,0.67470406) (0.60095656,0.60095656,0.60160507) (0.69088879,0.99993429,0.67558664) (0.60095656,0.60095656,0.65148852) (0.60095656,0.60095656,0.72234577) (0.60117496,0.98291520,0.60648527)
(0.60095656,0.60095656,0.62310225) (0.60095656,0.60095656,0.62168870) (0.69762406,0.78220477,0.60102066) (0.60095656,0.60095656,0.64262249) (0.60095656,0.60095656,0.60875606) (0.60118447,0.67272165,0.60133578)
(0.60095656,0.60095656,0.75842222) (0.60095656,0.60095656,0.63962555) (0.60437539,0.60095656,0.76085711) (0.60095656,0.60095656,0.60221941) (0.60095656,0.60095656,0.61003238) (0.61139761,0.60095656,0.60176425)
(0.60095656,0.60095656,0.68897187) (0.60095656,0.60095656,0.60224665) (0.75018489,0.60095656,0.73203383) (0.60095656,0.60095656,0.62967135) (0.60095656,0.60095656,0.63556017) (0.60237341,0.60095656,0.60345636)
(0.60095656,0.60095656,0.78585095) (0.60095656,0.60095656,0.61623642) (0.77251654,0.99999178,0.68449401) (0.60095656,0.60095656,0.87842336) (0.60095656,0.60095656,0.80973088) (0.60295898,0.98314074,0.60810317)
(0.60095656,0.60095656,0.89062517) (0.60095656,0.60095656,0.60399687) (0.60474117,0.60095656,0.68301612) (0.60095656,0.60095656,0.65404099) (0.60095656,0.60095656,0.92043558) (0.61148895,0.60095656,0.66558738)
(0.60095656,0.60095656,0.60227893) (0.60095656,0.60095656,0.68770968) (0.89933455,0.60095656,0.75006709) (0.60095656,0.60095656,0.80657840) (0.60095656,0.60095656,0.96785446) (0.61319604,0.60095656,0.70229587)
(0.60095656,0.60095656,0.60269087) (0.60095656,0.60095656,0.60358541) (0.60483243,0.60095656,0.61565833) (0.60095656,0.60095656,0.62939278) (0.60095656,0.60095656,0.61640594) (0.99957747,0.98198662,0.60096131)
(0.60095656,0.60095656,0.62638078) (0.60095656,0.60095656,0.67769738) (0.60519330,0.60095656,0.70285104) (0.60095656,0.60095656,0.61029035) (0.60095656,0.60095656,0.60645174) (0.99967815,0.98315144,0.64386892)
(0.60095656,0.60095656,0.78420504) (0.60095656,0.60095656,0.66389188) (0.98108249,0.99999814,0.60353935) (0.60095656,0.60095656,0.60358320) (0.60095656,0.60095656,0.65337189) (0.63825212,0.98430881,0.61257989)
(0.60095656,0.60095656,0.86244650) (0.60095656,0.60095656,0.61775575) (0.60494038,0.60095656,0.74770881) (0.60095656,0.60095656,0.97166421) (0.60095656,0.60095656,0.64620714) (0.60575691,0.60095656,0.89175707)
(0.60095656,0.60095656,0.95711253) (0.60095656,0.60095656,0.78978541) (0.60283744,0.60095656,0.73381758) (0.60095656,0.60095656,0.99939861) (0.60095656,0.60095656,0.92678393) (0.61041188,0.60095656,0.99641359)
(0.60095656,0.60095656,0.97677436) (0.60095656,0.60095656,0.78042414) (0.60097406,0.60095656,0.94279532) (0.60095656,0.60095656,0.99868834) (0.60095656,0.60095656,0.93586479) (0.60882478,0.60095656,0.99760585)
(0.60095656,0.60095656,0.93752256) (0.60095656,0.60095656,0.60098311) (0.62450102,0.60095656,0.67644922) (0.60095656,0.60095656,0.85905465) (0.60095656,0.60095656,0.73516705) (0.60321098,0.60095656,0.66627585)
(0.60095656,0.60095656,0.83042643) (0.60095656,0.60095656,0.86248485) (0.99999957,0.99998767,0.62935501) (0.60095656,0.60095656,0.75553517) (0.60095656,0.60095656,0.60888726) (0.80098777,0.97740854,0.66341331)
(0.60095656,0.60095656,0.66879117) (0.60095656,0.60095656,0.96158287) (0.60760990,0.60095656,0.66197356) (0.60095656,0.60095656,0.63926154) (0.60095656,0.60095656,0.60190740) (0.61321634,0.60095656,0.83080138)
(0.60095656,0.60095656,0.89774563) (0.60095656,0.60095656,0.87187932) (0.60762017,0.60095656,0.75132797) (0.60095656,0.60095656,0.92331575) (0.60095656,0.60095656,0.67580952) (0.61323207,0.60095656,0.73618183)
(0.60095656,0.60095656,0.87526774) (0.60095656,0.60095656,0.71432046) (0.60219963,0.60095656,0.60270171) (0.60095656,0.60095656,0.76727583) (0.60095656,0.60095656,0.67129253) (0.60794477,0.60095656,0.67202555)
(0.60095656,0.60095656,0.76002294) (0.60095656,0.60095656,0.70700446) (0.61479420,0.60114434,0.60109942) (0.60095656,0.60095656,0.68282432) (0.60095656,0.60095656,0.82474194) (0.60460237,0.60099457,0.60220503)
(0.60095656,0.60095656,0.69201722) (0.60095656,0.60095656,0.80277263) (0.60299057,0.99999998,0.67281175) (0.60095656,0.60095656,0.60233059) (0.60095656,0.60095656,0.74159302) (0.60741521,0.98721774,0.80640462)
(0.60095656,0.60095656,0.60290318) (0.60095656,0.60095656,0.90590073) (0.74335170,0.99999998,0.66744990) (0.60095656,0.60095656,0.61620137) (0.60095656,0.60095656,0.80969733) (0.60102262,0.98727149,0.88848579)
(0.60095656,0.60095656,0.60212993) (0.60095656,0.60095656,0.86724356) (0.68462627,0.60095656,0.77201990) (0.60095656,0.60095656,0.66916840) (0.60095656,0.60095656,0.70477953) (0.60119871,0.60095656,0.86893007)
(0.60095656,0.60095656,0.78055283) (0.60095656,0.60095656,0.72522967) (0.60851647,0.60095656,0.93735296) (0.60095656,0.60095656,0.89653104) (0.60095656,0.60095656,0.75782023) (0.61066287,0.60095656,0.87045654)
(0.60095656,0.60095656,0.61583753) (0.60095656,0.60095656,0.93991994) (0.60851647,0.60095656,0.99257947) (0.60095656,0.60095656,0.99473779) (0.60095656,0.60095656,0.99986995) (0.61066287,0.60095656,0.99960244)
(0.60095656,0.60095656,0.75818476) (0.60095656,0.60095656,0.83178449) (0.60851647,0.60095656,0.98608467) (0.60095656,0.60095656,0.99999910) (0.60095656,0.60095656,0.99869623) (0.61064325,0.60095656,0.99992955)
(0.60095656,0.60095656,0.95412586) (0.60095656,0.60095656,0.86269153) (0.60900814,0.60095656,0.99519281) (0.60095656,0.60095656,0.99999948) (0.60095656,0.60095656,0.99719981) (0.61067216,0.60095656,0.99998187)
(0.60095656,0.60095656,0.63931856) (0.60095656,0.60095656,0.61334866) (1.00000000,1.00000000,0.63300021) (0.60095656,0.60095656,0.78611541) (0.60095656,0.60095656,0.81901206) (0.99994566,0.98838383,0.73827382)
(0.60095656,0.60095656,0.60630800) (0.60095656,0.60095656,0.62772037) (0.61132308,0.60095656,0.60150606) (0.60095656,0.60095656,0.71525196) (0.60095656,0.60095656,0.97350065) (0.60416119,0.60095656,0.71179674)
(0.60095656,0.60095656,0.92918863) (0.60095656,0.60095656,0.63393149) (0.60095687,0.60095656,0.64995979) (0.60095656,0.60095656,0.65722915) (0.60095656,0.60095656,0.60653195) (0.60677575,0.60095656,0.60677941)
(0.60095656,0.60095656,0.67559622) (0.60095656,0.60095656,0.60096005) (0.60214039,0.60095656,0.75434793) (0.60095656,0.60095656,0.72598801) (0.60095656,0.60095656,0.64780018) (0.60613706,0.60095656,0.63065854)
(0.60095656,0.60095656,0.95600277) (0.60095656,0.60095656,0.62659710) (0.61138041,0.60095656,0.81765242) (0.60095656,0.60095656,0.63780089) (0.60095656,0.60095656,0.86871130) (0.61037626,0.60095656,0.64825351)
(0.60095656,0.60095656,0.77119123) (0.60095656,0.60095656,0.63423443) (0.60208299,1.00000000,0.72482060) (0.60095656,0.60095656,0.97132448) (0.60095656,0.60095656,0.74157542) (0.60616201,0.98923173,0.63800334)
(0.60095656,0.60095656,0.64164483) (0.60095656,0.60095656,0.75265511) (0.61135407,0.60095656,0.89356792) (0.60095656,0.60095656,0.99955665) (0.60095656,0.60095656,0.94513252) (0.60990445,0.60095656,0.99304594)
(0.60095656,0.60095656,0.95082511) (0.60102732,0.60095656,0.88558949) (0.61109391,0.60095656,0.90759996) (0.60095656,0.60095656,0.99995129) (0.60095656,0.60095656,0.99964779) (0.60875992,0.60095656,0.99993294)
(0.60095656,0.60095656,0.76180136) (0.60095656,0.60095656,0.99463158) (0.60574254,0.60095656,0.98039371) (0.60095656,0.60095656,1.00000000) (0.60095656,0.60095656,0.99982777) (0.60884362,0.60095656,0.99999928)
(0.60095656,0.60095656,0.62159094) (0.60095656,0.60095656,0.99840485) (0.60366033,0.78390577,0.99593452) (0.60095656,0.60095656,0.99999999) (0.60095656,0.60095656,0.99981114) (0.60867846,0.64755313,0.99999992)
(0.60095656,0.60095656,0.61450063) (0.60095656,0.60095656,0.91340675) (0.78158670,0.92842093,0.89995958) (0.60095656,0.60095656,0.99996819) (0.60095656,0.60095656,0.77966048) (0.60106607,0.71819461,0.99690842)
(0.60095656,0.60095656,0.91579145) (0.60095656,0.60095656,0.60269119) (0.72242150,0.99999998,0.61251770) (0.60095656,0.60095656,0.61851562) (0.60095656,0.60095656,0.93989173) (0.60104737,0.98727512,0.67782980)
(0.60095656,0.60095656,0.99401840) (0.60095656,0.60095656,0.69302498) (0.60237619,0.60095656,0.79199452) (0.60095656,0.60095656,0.65693175) (0.60095656,0.60095656,0.68089898) (0.60627541,0.60095656,0.68331314)
(0.60095656,0.60095656,0.98830900) (0.60095656,0.60095656,0.86187813) (0.60446656,0.60095656,0.72537204) (0.60095656,0.60095656,0.79103714) (0.60095656,0.60095656,0.69089822) (0.60943301,0.60095656,0.65296663)
(0.60095656,0.60095656,0.98946573) (0.60095656,0.60095656,0.71538043) (0.61416587,0.60095656,0.70256769) (0.60095656,0.60095656,0.86001099) (0.60095656,0.60095656,0.72815899) (0.61082709,0.60095656,0.60095656)
(0.60095656,0.60095656,0.96657158) (0.60095656,0.60095656,0.79161080) (0.61544215,0.60095656,0.85436370) (0.60095656,0.60095656,0.82393868) (0.60095656,0.60095656,0.62184842) (0.61036230,0.60095656,0.61280681)
(0.60095656,0.60095656,0.90887499) (0.60095656,0.60095656,0.65767868) (0.61546794,0.60095656,0.62538579) (0.60095656,0.60095656,0.65415999) (0.60095656,0.60095656,0.69142862) (0.61036527,0.60095656,0.65898250)
(0.60095656,0.60095656,0.60279772) (0.60095656,0.60095656,0.65815102) (0.60254699,0.60095656,0.60774816) (0.99992303,0.60095656,0.82462504) (0.60095656,0.60095656,0.89594344) (0.60434069,0.60095656,0.63765827)
(0.60095656,0.60095656,0.90028953) (0.60095656,0.60095656,0.99896431) (0.60821062,0.60095656,0.95406104) (0.64947643,0.60095656,0.96519038) (0.60095656,0.60095656,0.60496268) (0.60849726,0.60095656,0.99899585)
(0.60095656,0.60095656,0.95926381) (0.60095656,0.60095656,0.98385086) (0.60718500,0.60095656,0.94742582) (0.60095656,0.60095656,0.94859012) (0.60095656,0.60095656,0.85317805) (0.60877649,0.60095656,0.99831730)
(0.60095656,0.60095656,0.99999989) (0.60095656,0.60095656,0.98305491) (0.60342204,0.60095656,0.99741545) (0.75377314,1.00000000,1.00000000) (0.60095656,0.60095656,0.99999490) (0.60711415,0.60095656,1.00000000)
(0.60095656,0.60095656,0.99272823) (0.60095656,0.60095656,0.60454711) (0.60097118,0.60095656,0.72409390) (0.60095656,0.60095656,0.98341948) (0.60095656,0.60095656,0.92428652) (0.60681818,0.60095656,0.94072554)
(0.60095656,0.60095656,0.82548264) (0.60095656,0.60095656,0.61867151) (0.81048789,0.60095656,0.62782445) (0.60095656,0.60095656,0.75644851) (0.60095656,0.60095656,0.60548899) (0.60095714,0.60095656,0.60096117)
(0.60095656,0.60095656,0.77781483) (0.60095656,0.60095656,0.61809722) (0.62072319,0.60095656,0.63927706) (0.60095656,0.60095656,0.82833543) (0.60095656,0.60095656,0.71165517) (0.60982093,0.60095656,0.69590366)
(0.60095656,0.60095656,0.85452873) (0.60095656,0.60095656,0.63333736) (0.62265876,0.60095656,0.79401719) (0.60095656,0.60095656,0.66835422) (0.60095656,0.60095656,0.70025908) (0.60949166,0.60095656,0.64461169)
(0.60095656,0.60095656,0.66162442) (0.60095656,0.60095656,0.74395803) (0.60160863,0.60095656,0.60130550) (0.60095656,0.60095656,0.60788875) (0.60095656,0.60095656,0.63203459) (0.60522528,0.60095656,0.68352993)
(0.60095656,0.60095656,0.60841562) (0.60095656,0.60095656,0.82170594) (0.60112641,0.60095656,0.60168331) (0.60095656,0.60095656,0.65954250) (0.60095656,0.60095656,0.60352250) (0.60548454,0.60095656,0.63976961)
(0.60095656,0.60095656,0.66195247) (0.60095656,0.60095656,0.87308226) (0.60155423,0.60095656,0.84715097) (0.60095656,0.60095656,0.67525091) (0.60095656,0.60095656,0.75109850) (0.60531918,0.60095656,0.66430775)
(0.60095656,0.60095656,0.76752641) (0.60095656,0.60095656,0.71890005) (0.60347600,0.60095656,0.82183106) (0.60095656,0.60095656,0.88750961) (0.60095656,0.60095656,0.97648613) (0.60657756,0.60095656,0.71060759)
(0.60095656,0.60095656,0.96308650) (0.60095656,0.60095656,0.75312447) (0.61163102,0.60095656,0.92918092) (0.60095656,0.60095656,0.99852872) (0.60095656,0.60095656,0.92632860) (0.60777107,0.60095656,0.99392820)
(0.60095656,0.60095656,0.99997014) (0.60095656,0.60095656,0.93096986) (0.60927236,0.60095656,0.94931894) (0.60095656,0.60095656,0.99999798) (0.60095656,0.60095656,0.93380489) (0.60704998,0.60095656,0.99996308)
(0.60095656,0.60095656,0.99949611) (0.60095656,0.60095656,0.90585896) (0.99999889,0.62795638,0.65157242) (0.60095656,0.60095656,0.99996817) (0.60095656,0.60095656,0.86719034) (0.64440320,0.60705004,0.99947849)
(0.60095656,0.60095656,0.70670941) (0.60095656,0.60095656,0.60656577) (0.61086436,0.60095656,0.60695153) (0.60095656,0.60095656,0.64876949) (0.60095656,0.60095656,0.63682536) (0.60436987,0.60095656,0.69436985)
(0.60095656,0.60095656,0.60225129) (0.60095656,0.60095656,0.60598882) (0.97959266,0.60095656,0.60170241) (0.60095656,0.60095656,0.67893312) (0.60095656,0.60095656,0.96970622) (0.60576061,0.60095656,0.72771954)
(0.60095656,0.60095656,0.71721732) (0.60095656,0.60095656,0.69932805) (0.63102928,0.60095656,0.67419029) (0.60095656,0.60095656,0.63236909) (0.60095656,0.60095656,0.78388442) (0.60920046,0.60095656,0.60509212)
(0.60095656,0.60095656,0.90995517) (0.60095656,0.60095656,0.62385233) (0.63273929,0.60095656,0.65147050) (0.60095656,0.60095656,0.83634221) (0.60095656,0.60095656,0.60206295) (0.60900348,0.60095656,0.60213774)
(0.60095656,0.60095656,0.99460691) (0.60095656,0.60095656,0.62630445) (0.99046467,0.60095656,0.99972370) (0.60095656,0.60095656,0.72338944) (0.60095656,0.60095656,0.66429008) (0.60722779,0.60095656,0.63296112)
(0.60095656,0.60095656,0.99977971) (0.60095656,0.60095656,0.91838328) (0.88130121,0.60095656,0.99993736) (0.60095656,0.60095656,0.95961018) (0.60095656,0.60095656,0.91493238) (0.60132682,0.60095656,0.95518415)
(0.60095656,0.60095656,0.99995307) (0.60095656,0.60095656,0.99422205) (0.62322698,0.60134111,0.95077168) (0.60095656,0.60095656,0.99998805) (0.60095656,0.60095656,0.99125759) (0.60701250,0.60101142,0.99999067)
(0.60095656,0.60095656,0.99928350) (0.60095656,0.60095656,0.99951263) (0.62016146,0.60095656,0.99988434) (0.60095656,0.60095656,1.00000000) (0.60095656,0.60095656,0.99192736) (0.60661022,0.60095656,0.99999997)
(0.60095656,0.60095656,0.99998784) (0.60095656,0.60095656,0.99997636) (0.62093476,0.60095656,0.99999723) (0.60095656,0.60095656,0.99999788) (0.60095656,0.60095656,0.99803435) (0.60648038,0.60095656,1.00000000)
(0.60095656,0.60095656,0.72358619) (0.60095656,0.60095656,0.93153492) (0.63536552,0.60095656,0.70424832) (0.60095656,0.60095656,0.60175395) (0.60095656,0.60095656,0.65363097) (0.60699449,0.60095656,0.74817599)
(0.60095656,0.60095656,0.74819288) (0.60095656,0.60095656,0.99621553) (0.63536552,0.60095656,0.99261389) (0.60095656,0.60095656,0.97437084) (0.60095656,0.60095656,0.82396870) (0.60699497,0.60095656,0.99671459)
(0.60095656,0.60095656,0.99476795) (0.99999975,1.00000000,0.99997697) (0.62483070,0.60095656,0.99912582) (1.00000000,1.00000000,0.99986349) (0.60095656,0.60095656,0.99945668) (0.99991774,0.99231557,0.61077565)
(0.60095656,0.60095656,1.00000000) (0.99999948,1.00000000,1.00000000) (0.62673144,0.60095656,0.99590133) (1.00000000,1.00000000,0.67998339) (0.60095656,0.60095656,0.99534396) (0.99987960,0.98847562,0.99838264)
(0.60095656,0.60095656,1.00000000) (0.99999884,1.00000000,1.00000000) (0.63687287,0.60095656,0.99866595) (1.00000000,1.00000000,0.68285916) (1.00000000,0.60095656,0.99877031) (0.99979422,0.99080645,0.99999995)
(0.60095656,0.60095656,1.00000000) (0.99999741,1.00000000,1.00000000) (0.65560808,0.60095656,0.85729298) (1.00000000,0.60095656,0.66007893) (1.00000000,0.60095656,0.99975298) (0.99965531,0.99064644,1.00000000)
(0.60095656,0.60095656,0.99999869) (0.99998360,0.60095656,1.00000000) (0.65826150,0.60095656,0.74166897) (1.00000000,0.60096378,0.91884704) (1.00000000,0.60095656,0.99991247) (0.99897088,0.60095656,1.00000000)
(0.60095656,0.60095656,0.99217058) (0.99979938,0.60095945,1.00000000) (0.64620564,0.60095656,0.91627039) (1.00000000,1.00000000,0.89793297) (0.60095656,0.60095656,0.68637085) (0.99548831,0.60095663,1.00000000)
(0.60095656,0.60095656,0.60716108) (0.97236741,0.60095656,1.00000000) (0.63420084,0.98519022,0.99999358) (0.99289583,1.00000000,0.98300037) (0.60095656,0.60095656,0.98078683) (0.90431125,0.75467121,1.00000000)
(0.60095656,0.60095656,0.97046567) (0.68257993,0.60095656,0.98937367) (0.62027834,0.60095656,1.00000000) (0.60095656,0.60095656,1.00000000) (0.60095656,0.60095656,0.99999960) (0.62947866,0.60095656,0.99598244)
(0.60095656,0.60095656,0.85829747) (0.99614383,0.60095656,0.99998142) (0.63829577,0.60095656,1.00000000) (0.99218722,0.60095656,1.00000000) (0.60095656,0.60095656,1.00000000) (0.96900447,0.60095656,0.97527224)
(0.60095656,0.60095656,0.84543616) (0.99999988,1.00000000,0.99999712) (0.65839354,0.60095656,0.99999999) (0.99995810,1.00000000,1.00000000) (0.60095656,0.60095656,1.00000000) (0.99988994,0.99126477,0.95899460)
(0.60095656,0.60095656,0.90895570) (0.99999996,1.00000000,1.00000000) (0.65543941,0.60095656,0.99999345) (0.99999831,1.00000000,0.98897846) (0.60095656,0.60095656,0.99999999) (0.99994140,0.98229850,0.92318020)
(0.60095656,0.60095656,0.84627453) (0.99999988,0.99998091,1.00000000) (0.64735985,0.60095656,0.97255860) (0.99999999,1.00000000,0.72730011) (0.60095656,0.60095656,0.99990917) (0.99994113,0.63573590,0.99964851)
(0.60095656,0.60095656,0.80288201) (0.99999605,0.65730442,1.00000000) (0.64428233,0.60095656,0.86770070) (0.99999409,1.00000000,0.77952041) (1.00000000,0.60095656,0.99146342) (0.99951027,0.60153088,0.99986828)
(0.60095656,0.60095656,0.76804374) (0.99996187,1.00000000,1.00000000) (0.63154248,0.60095657,0.94806834) (0.99979641,0.60095673,0.83677892) (1.00000000,0.60095656,0.98565679) (0.99811279,0.94481482,0.99967358)
(0.60095656,0.60095656,0.68777113) (0.99994045,1.00000000,1.00000000) (0.62668931,0.60095656,0.87377829) (0.99999043,0.60095656,0.75993479) (0.60095656,0.60095656,0.86446833) (0.99765129,0.99234653,0.99935852)
(0.60095656,0.60095656,0.72245122) (0.99954896,1.00000000,1.00000000) (0.66285782,0.60095656,0.83436600) (0.99847339,0.60095656,0.73668864) (0.60095656,0.60095656,0.89889906) (0.99129888,0.99134556,0.98619902)
(0.60095656,0.60095656,0.62880137) (0.75962413,1.00000000,0.99991710) (0.66285482,0.60095656,0.88757343) (0.60095656,0.60095656,0.90070160) (0.60095656,0.60095656,0.92895372) (0.67222342,0.74278136,0.75873806)
(0.60095656,0.60095656,0.63981044) (0.99989453,1.00000000,0.96064650) (0.66309806,0.60095656,0.76769252) (0.99977888,1.00000000,0.79456845) (0.60095656,0.60095656,0.61111750) (0.99638835,0.99030628,0.77215024)
(0.60095656,0.60095656,0.72000706) (0.99999782,1.00000000,1.00000000) (0.63420423,0.60095656,0.99908233) (1.00000000,1.00000000,0.95987717) (0.60095656,0.60095656,0.92523558) (0.99970201,0.99030628,0.97259138)
(0.60095656,0.60095656,0.62229852) (0.99984139,1.00000000,1.00000000) (0.64760979,0.60095656,0.79487650) (1.00000000,1.00000000,0.90324392) (0.60095656,0.60095656,0.80378662) (0.99595695,0.98413614,0.99999662)
(0.60095656,0.60095656,0.88881022) (0.99992839,1.00000000,1.00000000) (0.63722819,0.60095656,0.96731268) (1.00000000,0.60095656,0.97335073) (0.60095656,0.60095656,0.78000867) (0.99746636,0.78246354,0.99999994)
(0.60095656,0.60095656,0.60729127) (0.99999986,0.60095656,1.00000000) (0.63347981,0.60095701,0.61548482) (1.00000000,1.00000000,0.99028832) (0.60095656,0.60095656,0.75606509) (0.99991985,0.60095668,0.99977489)
(0.60095656,0.60095656,0.74503532) (0.99999732,0.60095656,0.99999999) (0.60098573,0.60095656,0.93520770) (0.99999992,0.60095656,0.99963122) (0.60095656,0.60095656,0.99584284) (0.99955289,0.60095656,0.84970777)
(0.60095656,0.60095656,0.71209729) (0.96928952,0.60095656,0.92461941) (0.61807844,0.60095656,0.68696231) (0.60095656,0.60095656,0.98312685) (0.60095656,0.60095656,0.99458471) (0.88805782,0.60095656,0.61085876)
(0.60095656,0.60095656,0.66425094) (0.60253625,0.60095656,0.95764170) (0.62980506,0.60095656,0.99878370) (0.60095656,0.60095656,0.64129269) (0.60095656,0.60095656,0.62580734) (0.60101540,0.60095656,0.70141415)
(0.60095656,0.60095656,0.74279030) (0.99986169,0.60095656,0.99983237) (0.60153442,0.60095656,0.99876213) (1.00000000,1.00000000,0.76052269) (0.60095656,0.60095656,0.69010402) (0.99600215,0.60095656,0.77764791)
(0.60095656,0.60095656,0.69401028) (0.99999829,0.60095656,0.99450441) (0.66653848,0.60095656,0.96341729) (0.99997807,1.00000000,0.61636171) (0.60095656,0.60095656,0.78531290) (0.99954635,0.60095656,0.75794273)
(0.60095656,0.60095656,0.64359270) (0.99999479,0.60095656,0.99911928) (0.64725445,0.60095656,0.60790217) (0.99997582,1.00000000,0.62808841) (0.60095656,0.60095656,0.94723423) (0.99919325,0.60095656,0.80078959)
(0.60095656,0.60095656,0.69840707) (0.99999689,0.60095656,0.99930007) (0.62753922,0.60095656,0.65069429) (0.99998815,0.60095656,0.78340027) (0.60095656,0.60095656,0.86122715) (0.99942262,0.60095656,0.76811645)
(0.60095656,0.60095656,0.60628152) (0.99998055,1.00000000,0.99614309) (0.62470894,0.60095656,0.66288009) (0.99984921,0.60496561,0.93999967) (0.60095656,0.60095656,0.94626812) (0.99834609,0.99020054,0.64479991)
(0.60095656,0.60095656,0.64333890) (0.99941539,1.00000000,0.98232427) (0.62826381,0.60095656,0.95053153) (0.99944682,0.60114124,0.81537682) (0.60095656,0.60095656,0.98627041) (0.99060690,0.98967356,0.60129989)
(0.60095656,0.60095656,0.60885251) (0.94980579,1.00000000,0.85322480) (0.67897987,0.60095656,0.98795671) (0.60095656,0.60095656,0.74594372) (0.60095656,0.60095656,0.88133901) (0.87478930,0.99020054,0.62378378)
(0.60095656,0.60095656,0.67183925) (0.60095656,0.60095656,0.61017236) (0.65027120,0.60095656,0.99936329) (0.60095656,0.60095656,0.85138786) (0.60095656,0.60095656,0.63947044) (0.60123795,0.60095656,0.60783958)
(0.60095656,0.60095656,0.94508948) (0.99992004,1.00000000,0.90035982) (0.60444755,0.60095656,0.83785165) (0.99082303,0.60095656,0.90731948) (0.60095656,0.60095656,0.71333649) (0.99667783,0.99119953,0.61080507)
(0.60095656,0.60095656,0.94437964) (0.99998429,1.00000000,0.99977671) (0.64231195,0.60095656,0.64406484) (0.97984830,1.00000000,0.97654249) (0.60095656,0.60095656,0.76633011) (0.99839758,0.67353895,0.76373685)
(0.60095656,0.60095656,0.99349078) (0.99999860,1.00000000,0.99999907) (0.67778923,0.60095656,0.73788577) (0.98790291,1.00000000,0.99427967) (0.60095656,0.60095656,0.93575486) (0.99956366,0.99119951,0.79483026)
(0.60095656,0.60095656,0.99770087) (0.99999242,0.60095656,0.99999516) (0.63901052,1.00000000,0.99374171) (0.99639145,1.00000000,0.99004530) (0.60095656,0.60095656,0.95538666) (0.99896670,0.99201047,0.68883906)
(0.60095656,0.60095656,0.93137699) (0.98649316,0.60095656,0.96353216) (0.60100009,0.60095656,0.96380182) (0.60095656,0.60095656,0.95686137) (0.60095656,0.60095656,0.74770960) (0.93283835,0.60095656,0.60098063)
(0.60095656,0.60095656,0.97552139) (0.60095656,0.60095656,0.60981019) (0.67509550,0.60095656,0.96583543) (0.60095656,0.60095656,0.88501547) (0.60095656,0.60095656,0.70133749) (0.60112842,0.60095656,0.67547507)
(0.60095656,0.60095656,0.76622304) (0.60095656,0.60095656,0.64127418) (0.86153398,0.60095656,0.76319923) (0.60095656,0.60095656,0.75879503) (0.60095656,0.60095656,0.71735533) (0.60135901,0.60095656,0.60426129)
(0.60095656,0.60095656,0.60295456) (0.60353967,0.60095656,0.71018980) (0.68627044,0.60095656,0.82983818) (0.60095656,0.60095656,0.83632566) (0.60095656,0.60095656,0.87253202) (0.60177213,0.60095656,0.67528868)
(0.60095656,0.60095656,0.93232619) (0.65069970,0.60095656,0.67370001) (0.60496113,0.60095656,0.80878548) (0.60095656,0.60095656,0.84214481) (0.60095656,0.60095656,0.91933499) (0.61979895,0.60095656,0.77953195)
(0.60095656,0.60095656,0.88918739) (0.75436891,0.60095656,0.82637481) (0.99999988,0.60095656,0.92535171) (0.60095656,0.60095656,0.63847446) (0.60095656,0.60095656,0.94769985) (0.80615740,0.60095656,0.64903576)
(0.60095656,0.60095656,0.60529399) (0.60095656,0.60095656,0.86305698) (0.68651307,0.60095656,0.63416916) (0.60095656,0.60095656,0.63443743) (0.60095656,0.60095656,0.60139606) (0.60574476,0.60095656,0.70726009)
(0.60095656,0.60095656,0.61959271) (0.60095656,0.60095656,0.73625319) (1.00000000,0.99999997,0.64171331) (0.60095656,0.60095656,0.72935312) (0.60095656,0.60095656,0.63669327) (0.67642035,0.99318373,0.66596813)
(0.60095656,0.60095656,0.70692375) (0.60281997,0.60148430,0.75878252) (0.74007381,0.60095656,0.63574699) (0.60095656,0.60095656,0.70330982) (0.60095656,0.60095656,0.60252363) (0.60213502,0.60096170,0.66658076)
(0.60095656,0.60095656,0.70194920) (0.77350734,1.00000000,0.93243945) (0.74611943,0.60095656,0.94393983) (0.60095656,0.60095656,0.82181162) (0.60095656,0.60095656,0.71454788) (0.72151263,0.96050626,0.66820205)
(0.60095656,0.60095656,0.61004432) (0.83873882,1.00000000,0.92878414) (0.69576530,0.60095656,0.94413093) (0.60095656,0.60095656,0.95742152) (0.60095656,0.60095656,0.68435488) (0.73835772,0.99393806,0.61450858)
(0.60095656,0.60095656,0.60101042) (0.60095656,0.60095656,0.75591836) (0.69814852,0.60095656,0.73878187) (0.60095656,0.60095656,0.98371810) (0.60095656,0.60095656,0.69746809) (0.60567997,0.60095656,0.61757370)
(0.60095656,0.60095656,0.60794037) (0.60095656,0.60095656,0.60733703) (0.98979668,1.00000000,0.92788598) (0.60095656,0.60095656,0.60989270) (0.60095656,0.60095656,0.60095688) (0.60630609,0.99377816,0.61062129)
(0.60095656,0.60095656,0.75832458) (0.60095656,0.60095656,0.60469309) (0.84184621,0.60095656,0.60586609) (0.60095656,0.60095656,0.63281445) (0.60095656,0.60095656,0.61496251) (0.60126510,0.60095656,0.64147697)
(0.60095656,0.60095656,0.83582686) (0.60095656,0.60095656,0.63893857) (0.61993801,0.60095656,0.68977073) (0.60095656,0.60095656,0.67224503) (0.60095656,0.60095656,0.61144696) (0.60367965,0.60095656,0.71150897)
(0.60095656,0.60095656,0.87711925) (0.60095656,0.60095656,0.62862372) (0.64939396,0.60095656,0.60769583) (0.60095656,0.60095656,0.86622850) (0.60095656,0.60095656,0.87847573) (0.60427774,0.60095656,0.84975544)
(0.60095656,0.60095656,0.95134838) (0.60095656,0.60095656,0.84519691) (0.69366515,0.60095656,0.64553026) (0.60095656,0.60095656,0.94316775) (0.60095656,0.60095656,0.83790944) (0.60536016,0.60095656,0.96365338)
(0.60095656,0.60095656,0.98794358) (0.60095656,0.60095656,0.67865075) (1.00000000,0.60095656,1.00000000) (0.60095656,0.60095656,0.86246279) (0.60095656,0.60095656,0.94461186) (0.90807599,0.60095656,0.67687568)
(0.60095656,0.60095656,0.60095849) (0.60095656,0.60095656,0.60532683) (0.99999851,0.60095656,0.97545088) (0.60095656,0.60095656,0.74125282) (0.60095656,0.60095656,0.74060440) (0.62744496,0.60095656,0.67750645)
(0.60095656,0.60095656,0.62322712) (0.60095656,0.60095656,0.60224693) (0.78832161,0.60095656,0.60860007) (0.60095656,0.60095656,0.83119818) (0.60095656,0.60095656,0.60220399) (0.60104629,0.60095656,0.61282187)
(0.60095656,0.60095656,0.79229139) (0.60095656,0.60095656,0.60806835) (0.61393869,0.60095656,0.61016016) (0.60095656,0.60095656,0.72072710) (0.60095656,0.60095656,0.72432511) (0.60159960,0.60095656,0.60095660)
(0.60095656,0.60095656,0.82597922) (0.60095656,0.60095656,0.68019307) (0.99999453,0.60098652,0.68901079) (0.60095656,0.60095656,0.72857998) (0.60095656,0.60095656,0.71326556) (0.62449174,0.60096028,0.62447338)
(0.60095656,0.60095656,0.84020380) (0.60095656,0.60095656,0.60440516) (0.99864662,0.60095656,0.63895388) (0.60095656,0.60095656,0.71488140) (0.60095656,0.60095656,0.61116734) (0.61104111,0.60095656,0.60270123)
(0.60095656,0.60095656,0.96640736) (0.60095656,0.60095656,0.83953994) (0.61520360,0.60095656,0.60142050) (0.60095656,0.60095656,0.63033828) (0.60095656,0.60095656,0.64288524) (0.60298880,0.60095656,0.60536231)
(0.60095656,0.60095656,0.62030926) (0.60095656,0.60095656,0.60517919) (0.71278933,0.60095656,0.65553667) (0.60095656,0.60095656,0.64661485) (0.60095656,0.60095656,0.62308489) (0.60531632,0.60095656,0.60198718)
(0.60095656,0.60095656,0.62981953) (0.60095656,0.60095656,0.61059861) (0.71776705,0.60095656,0.93730577) (0.60095656,0.60095656,0.60156887) (0.60095656,0.60095656,0.62396018) (0.60565149,0.60095656,0.65393601)
(0.60095656,0.60095656,0.97483872) (0.60095656,0.60095656,0.77184324) (0.67106958,0.60095656,0.71921800) (0.60095656,0.60095656,0.76064126) (0.60095656,0.60095656,0.90183501) (0.60475722,0.60095656,0.94489607)
(0.60095656,0.60095656,0.96998988) (0.60095656,0.60095656,0.97111951) (0.60162754,1.00000000,0.95136628) (0.60095656,0.60095656,0.94708938) (0.60095656,0.60095656,0.90909830) (0.60239383,0.99463258,0.99676299)
(0.60095656,0.60095656,0.61819265) (0.60095656,0.60095656,0.70430869) (0.96216626,1.00000000,0.60707445) (0.60095656,0.60095656,0.60304719) (0.60095656,0.60095656,0.61813172) (0.60364956,0.99481531,0.70162846)
(0.60095656,0.60095656,0.60972120) (0.60095656,0.60095656,0.60095662) (0.73358498,0.60095656,0.65980784) (0.60095656,0.60095656,0.92582486) (0.60095656,0.60095656,0.65270557) (0.99999805,0.99481562,0.63800017)
(0.60095656,0.60095656,0.65687089) (0.60095656,0.60095656,0.65502944) (0.72961979,0.60095656,0.61620236) (0.60095656,0.60095656,0.85391945) (0.60095656,0.60095656,0.63796149) (0.60631111,0.60095656,0.70211868)
(0.60095656,0.60095656,0.60479547) (0.60095656,0.60095656,0.60157301) (0.98333484,0.60095656,0.70659890) (0.60095656,0.60095656,0.84430321) (0.60095656,0.60095656,0.83161823) (0.60571984,0.60095656,0.66956142)
(0.60095656,0.60095656,0.60330461) (0.60095656,0.60095656,0.60177830) (0.99318698,0.60095656,0.66381035) (0.60095656,0.60095656,0.71513425) (0.60095656,0.60095656,0.71200298) (0.60828090,0.60095656,0.62052023)
(0.60095656,0.60095656,0.60242194) (0.60095656,0.60095656,0.61936285) (0.85645700,0.60095656,0.69162256) (0.60095656,0.60095656,0.82545924) (0.60095656,0.60095656,0.63868239) (0.60167809,0.60095656,0.66051279)
(0.60095656,0.60095656,0.63875885) (0.60095656,0.60095656,0.64422514) (0.67266378,0.60095656,0.80488799) (0.60095656,0.60095656,0.72668199) (0.60095656,0.60095656,0.64271044) (0.60102812,0.60095656,0.64610190)
(0.60095656,0.60095656,0.88806559) (0.60095656,0.60095656,0.70608164) (0.62955362,0.60095656,0.63340960) (0.60095656,0.60095656,0.60364279) (0.60095656,0.60095656,0.64233368) (0.60417710,0.60095656,0.75991198)
(0.60095656,0.60095656,0.60394767) (0.60095656,0.60095656,0.87087156) (0.62726422,0.60095656,0.98362805) (0.60095656,0.60095656,0.66547529) (0.60095656,0.60095656,0.60102872) (0.60432919,0.60095656,0.87033288)
(0.60095656,0.60095656,0.63663393) (0.60095656,0.60095656,0.92848621) (0.64732532,0.60095656,0.99384873) (0.60095656,0.60095656,0.86994408) (0.60095656,0.60095656,0.62694518) (0.60519823,0.60095656,0.95150157)
(0.60095656,0.60095656,0.65975653) (0.60095656,0.60095656,0.93026903) (1.00000000,1.00000000,0.92838939) (0.60095656,0.60095656,0.79575526) (0.60095656,0.60095656,0.80756408) (0.97607403,0.99481682,0.96847556)
(0.60095656,0.60095656,0.85731145) (0.60095656,0.60095656,0.60336458) (0.99953667,0.71647561,0.64911127) (0.60095656,0.60095656,0.67497861) (0.60095656,0.60095656,0.60881572) (0.62555122,0.61611263,0.64563960)
(0.60095656,0.60095656,0.98564410) (0.60095656,0.60095656,0.60574947) (0.98099897,0.60095656,0.65185778) (0.60095656,0.60095656,0.60480844) (0.60095656,0.60095656,0.70146400) (0.61069378,0.60095656,0.67470336)
(0.60095656,0.60095656,0.93825199) (0.60095656,0.60095656,0.60126814) (0.69650866,0.60095656,0.71839187) (0.60095656,0.60095656,0.62661200) (0.60095656,0.60095656,0.83960722) (0.60096621,0.60095656,0.70696311)
(0.60095656,0.60095656,0.83013998) (0.60095656,0.60095656,0.60947788) (0.61098832,0.60095656,0.67638244) (0.60095656,0.60095656,0.67258644) (0.60095656,0.60095656,0.67572589) (0.60164827,0.60095656,0.63626552)
(0.60095656,0.60095656,0.67090649) (0.60095656,0.60095656,0.60099691) (0.72437770,1.00000000,0.81334447) (0.60095656,0.60095656,0.60153171) (0.60095656,0.60095656,0.93008070) (0.60105693,0.99393222,0.66517842)
(0.60095656,0.60095656,0.69495061) (0.60095656,0.60095656,0.77798621) (0.66968342,1.00000000,0.79953638) (0.60095656,0.60095656,0.61976288) (0.60095656,0.60095656,0.90147296) (0.60099013,0.99393222,0.82217623)
(0.60095656,0.60095656,0.72404066) (0.60095656,0.60095656,0.79349486) (0.91415805,0.60095656,0.63959540) (1.00000000,0.60096718,0.94230493) (0.60095656,0.60095656,0.87416414) (0.64315401,0.60095656,0.91296881)
(0.60095656,0.60095656,0.67469153) (0.60095656,0.60095656,0.60097218) (0.60537731,0.60095656,0.73196380) (0.99995155,0.60095656,0.60885796) (0.60095656,0.60095656,0.61088048) (0.60127496,0.60095656,0.60159076)
(0.60095656,0.60095656,0.60125026) (0.60095656,0.60095656,0.74192718) (0.60848306,0.60095656,0.70451671) (0.60095656,0.60095656,0.94799828) (0.60095656,0.60095656,0.92675696) (0.60420094,0.60095656,0.94231888)
(0.60095656,0.60095656,0.78712026) (0.60098320,0.60095656,0.90112016) (0.67838486,0.60095656,0.99748482) (0.60095656,0.60095656,0.99515198) (0.60095656,0.60095656,0.93941560) (0.60740263,0.60095656,0.99816764)
(0.60095656,0.60095656,0.84996848) (0.60095656,0.60095656,0.97923072) (0.62831169,0.60095656,0.95921122) (0.60095656,0.60095656,0.99784488) (0.60095656,0.60095656,0.98574077) (0.60155070,0.60095656,0.99977705)
(0.60095656,0.60095656,0.63069318) (0.60095656,0.60095656,0.67122693) (0.88059696,0.60095656,0.61657929) (0.60095656,0.60095656,0.61603233) (0.60095656,0.60095656,0.62563424) (0.60313114,0.60095656,0.71979621)
(0.60095656,0.60095656,0.68694516) (0.60095656,0.60095656,0.62731848) (0.99974730,0.62941943,0.69920839) (0.60095656,0.60095656,0.62908077) (0.60095656,0.60095656,0.65037280) (0.63649093,0.60546776,0.60458196)
(0.60095656,0.60095656,0.61543227) (0.60095656,0.60095656,0.66342630) (0.60108439,0.60095656,0.69725207) (0.60095656,0.60095656,0.65012847) (0.60095656,0.60095656,0.66637269) (0.60333164,0.60095656,0.65244355)
(0.60095656,0.60095656,0.67319853) (0.60095656,0.60095656,0.64933169) (0.62042869,0.60095656,0.60095970) (0.60095656,0.60095656,0.74254525) (0.60095656,0.60095656,0.66074901) (0.60621000,0.60095656,0.60719975)
(0.60095656,0.60095656,0.60096495) (0.60095656,0.60095656,0.61068003) (0.60107046,0.60095656,0.60101768) (0.60095656,0.60095656,0.74110716) (0.60095656,0.60095656,0.82219164) (0.60358890,0.60095656,0.63031755)
(0.60095656,0.60095656,0.60101743) (0.60095656,0.60095656,0.62613243) (0.61856850,0.60095656,0.71257527) (0.60095656,0.60095656,0.60900843) (0.60095656,0.60095656,0.60176009) (0.60228215,0.60095656,0.61487599)
(0.60095656,0.60095656,0.60850820) (0.60095656,0.60095656,0.61530140) (0.60154889,0.60095656,0.61507994) (0.60095656,0.60095656,0.60492158) (0.60095656,0.60095656,0.60239393) (0.60378796,0.60095656,0.60358041)
(0.60095656,0.60095656,0.62469097) (0.60095656,0.60095656,0.63827293) (0.60391441,0.60095656,0.60554641) (0.60095656,0.60095656,0.67682735) (0.60095656,0.60095656,0.75974682) (0.60513122,0.60095656,0.62360714)
(0.60095656,0.60095656,0.88150098) (0.60095656,0.60095656,0.65790573) (0.66622998,0.60095656,0.69355817) (0.60095656,0.60095656,0.99077721) (0.60095656,0.60095656,0.91254668) (0.60964209,0.60095656,0.96979745)
(0.60095656,0.60095656,0.93824981) (0.60095656,0.60095656,0.64530850) (0.66520651,0.60095656,0.91984652) (0.60095656,0.60095656,0.82510148) (0.60095656,0.60095656,0.92135543) (0.60973528,0.60095656,0.93579412)
(0.60095656,0.60095656,0.88376998) (0.60095656,0.60095656,0.99546803) (0.61743862,0.60095656,0.93525777) (0.60095656,0.60095656,0.90665337) (0.60095656,0.60095656,0.96796892) (0.60292066,0.60095656,0.99881904)
(0.60095656,0.60095656,0.70634263) (0.60095656,0.60095656,0.84828907) (0.99997652,1.00000000,0.87250297) (0.60095656,0.60095656,0.61800437) (0.60095656,0.60095656,0.74715993) (0.63801185,0.98764080,0.87609319)
(0.60095656,0.60095656,0.61797246) (0.60095656,0.60095656,0.64881294) (1.00000000,1.00000000,0.61360616) (0.60095656,0.60095656,0.69395393) (0.60095656,0.60095656,0.69075879) (0.99756714,0.98756091,0.60095700)
(0.60095656,0.60095656,0.61301239) (0.60095656,0.60095656,0.61941170) (0.72904231,0.60095656,0.64425213) (0.60095656,0.60095656,0.63034983) (0.60095656,0.60095656,0.87834659) (0.60117218,0.60095656,0.62157137)
(0.60095656,0.60095656,0.63792290) (0.60095656,0.60095656,0.69591350) (0.61198469,0.60095656,0.60318603) (0.60095656,0.60095656,0.60380957) (0.60095656,0.60095656,0.91881084) (0.60739109,0.60095656,0.65620213)
(0.60095656,0.60095656,0.60561859) (0.60095656,0.60095656,0.68043066) (0.61177723,0.60095656,0.60463590) (0.60095656,0.60095656,0.65283231) (0.60095656,0.60095656,0.69986933) (0.60739506,0.60095656,0.66368111)
(0.60095656,0.60095656,0.60141571) (0.60095656,0.60095656,0.73170001) (0.63457157,0.60095656,0.79010166) (0.60095656,0.60095656,0.70132628) (0.60095656,0.60095656,0.63556013) (0.60224519,0.60095656,0.71182984)
(0.60095656,0.60095656,0.64694409) (0.60095656,0.60095656,0.61452361) (0.61147230,0.60095656,0.72878691) (0.60095656,0.60095656,0.85853548) (0.60095656,0.60095656,0.88237923) (0.60285132,0.60095656,0.78262324)
(0.60095656,0.60095656,0.67877580) (0.60095656,0.60095656,0.66014627) (0.60571065,0.60095656,0.60119970) (0.60095656,0.60095656,0.62299822) (0.60095656,0.60095656,0.78545393) (0.60552535,0.60095656,0.60782737)
(0.60095656,0.60095656,0.96901941) (0.60095656,0.60095656,0.92677573) (0.65020192,0.60095656,0.60645748) (0.60095656,0.60095656,0.72178557) (0.60095656,0.60095656,0.65242549) (0.60911471,0.60095656,0.91805187)
(0.60095656,0.60095656,0.99067900) (0.60095656,0.60095656,0.97971684) (0.69159486,0.60095656,0.88900554) (0.60095656,0.60095656,0.65546193) (0.60095656,0.60095656,0.61238884) (0.61184158,0.60095656,0.98373233)
(0.60095656,0.60095656,0.99363110) (0.60095656,0.60095656,0.96091133) (1.00000000,0.99999996,0.96188203) (0.60095656,0.60095656,0.65022146) (0.60095656,0.60095656,0.60115188) (0.99999762,0.98934594,0.97725408)
(0.60095656,0.60095656,0.67423035) (0.60095656,0.60095656,0.82088875) (0.99999992,0.99999995,0.66741433) (0.60095656,0.60095656,0.61353854) (0.60095656,0.60095656,0.61014861) (0.69392924,0.98915135,0.66363247)
(0.60095656,0.60095656,0.77393682) (0.60095656,0.60095656,0.72279499) (0.86617221,0.60095656,0.60490895) (0.60095656,0.60095656,0.60621955) (0.60095656,0.60095656,0.65392085) (0.60354257,0.60095656,0.66618785)
(0.60095656,0.60095656,0.70297412) (0.60095656,0.60095656,0.84955132) (0.60362186,0.60095656,0.60422998) (0.60095656,0.60095656,0.60538583) (0.60095656,0.60095656,0.61988364) (0.60446726,0.60095656,0.66869270)
(0.60095656,0.60095656,0.65857242) (0.60095656,0.60095656,0.75756118) (0.60262404,0.60095656,0.78135763) (0.60095656,0.60095656,0.61932854) (0.60095656,0.60095656,0.78508303) (0.60278779,0.60095656,0.61376115)
(0.60095656,0.60095656,0.60487867) (0.60095656,0.60095656,0.66110565) (0.61496564,0.60095656,0.61221995) (0.60095656,0.60095656,0.76453459) (0.60095656,0.60095656,0.67161165) (0.60186862,0.60095656,0.68888532)
(0.60095656,0.60095656,0.61377016) (0.60095656,0.60095656,0.60303287) (0.60276933,0.99999992,0.60146123) (0.60095656,0.60095656,0.74539831) (0.60095656,0.60095656,0.87591403) (0.60293052,0.99069860,0.67075691)
(0.60095656,0.60095656,0.62067700) (0.60095656,0.60095656,0.76672381) (0.60185020,0.99999991,0.80264428) (0.60095656,0.60095656,0.65322286) (0.60095656,0.60095656,0.60103990) (0.60450858,0.99169494,0.68149746)
(0.60095656,0.60095656,0.89214612) (0.60095656,0.60095656,0.72738576) (0.64409215,0.60095656,0.60958103) (0.60095656,0.60095656,0.63396216) (0.60095656,0.60095656,0.74791358) (0.61023116,0.60095656,0.60095656)
(0.60095656,0.60095656,0.91647824) (0.60095656,0.60095656,0.67574986) (0.66186484,0.60095656,0.64282424) (0.60095656,0.60095656,0.74171534) (0.60095656,0.60095656,0.76687493) (0.61092513,0.60095656,0.75461266)
(0.60095656,0.60095656,0.99874373) (0.60095656,0.60095656,0.85354822) (0.63026504,0.60095656,0.76129867) (0.60095656,0.60095656,0.93863211) (0.60095656,0.60095656,0.79153978) (0.60700914,0.60095656,0.99019779)
(0.60095656,0.60095656,0.77756221) (0.60095656,0.60095656,0.71912625) (1.00000000,0.99999874,0.60190039) (0.60095656,0.60095656,0.60659700) (0.60095656,0.60095656,0.67314179) (0.98196055,0.99361074,0.73122160)
(0.60095656,0.60095656,0.60121236) (0.60095656,0.60095656,0.60113680) (1.00000000,0.60095656,0.72923680) (0.60095656,0.60095656,0.62500820) (0.60095656,0.60095656,0.67425870) (0.99999772,0.60095656,0.62091110)
(0.60095656,0.60095656,0.62602751) (0.60095656,0.60095656,0.72928485) (0.68417564,0.60095656,0.63271049) (0.60095656,0.60095656,0.60340068) (0.60095656,0.60095656,0.60163386) (0.60149518,0.60095656,0.60997153)
(0.60095656,0.60095656,0.64824661) (0.60095656,0.60095656,0.78913835) (0.60240873,0.60095656,0.72420264) (0.60095656,0.60095656,0.67941788) (0.60095656,0.60095656,0.63440148) (0.60441066,0.60095656,0.66290398)
(0.60095656,0.60095656,0.64132260) (0.60095656,0.60095656,0.74517408) (0.60303796,0.60095656,0.66927903) (0.60095656,0.60095656,0.75179164) (0.60095656,0.60095656,0.78997878) (0.60509018,0.60095656,0.71182549)
(0.60095656,0.60095656,0.74674443) (0.60095656,0.60095656,0.64147512) (0.62089197,0.99999808,0.72819664) (0.60095656,0.60095656,0.62065214) (0.60095656,0.60095656,0.85841176) (0.60925145,0.99383013,0.61784315)
(0.60095656,0.60095656,0.81447612) (0.60095656,0.60095656,0.71699242) (0.61883165,0.99999791,0.68709837) (0.60095656,0.60095656,0.62064217) (0.60095656,0.60095656,0.66838574) (0.60875887,0.99367516,0.60762400)
(0.60095656,0.60095656,0.85244410) (0.60095656,0.60095656,0.73427655) (0.60106198,0.60095656,0.94367144) (0.60095656,0.60095656,0.72533064) (0.60095656,0.60095656,0.70852571) (0.60344319,0.60095656,0.61284625)
(0.60095656,0.60095656,0.95680287) (0.60095656,0.60095656,0.89782745) (0.66686707,0.60095656,0.86105474) (0.60095656,0.60095656,0.84530784) (0.60095656,0.60095656,0.93468683) (0.61894109,0.60095656,0.60171250)
(0.60095656,0.60095656,0.99573583) (0.60095656,0.60095656,0.60215328) (0.65884292,0.60095656,0.98421548) (0.60095656,0.60095656,0.92276594) (0.60095656,0.60095656,0.76487919) (0.61635311,0.60095656,0.96381420)
(0.60095656,0.60095656,0.99967952) (0.60095656,0.60095656,0.72128511) (0.67507921,0.60095656,0.63438780) (0.60095656,0.60095656,0.99435935) (0.60095656,0.60095656,0.83461813) (0.62016819,0.60095656,0.99565525)
(0.60095656,0.60095656,0.99987641) (0.60095656,0.60095656,0.84483759) (0.62971964,0.60095656,0.98133518) (0.60095656,0.60095656,0.93250642) (0.60095656,0.60095656,0.96651557) (0.60127763,0.60095656,0.99865192)
(0.60095656,0.60095656,0.95469699) (0.60095656,0.60095656,0.95492273) (0.72651227,0.60095656,0.60118254) (0.60095656,0.60095656,0.62478968) (0.60095656,0.60095656,0.80164673) (0.61137452,0.60095656,0.60690257)
(0.60095656,0.60095656,0.65057034) (0.60095656,0.60095656,0.95195323) (0.77039644,0.60095656,0.73806465) (0.60095656,0.60095656,0.92651376) (0.60095656,0.60095656,0.70195249) (0.62097243,0.60095656,0.61289367)
(0.60095656,0.60095656,0.71386130) (0.60095656,0.60095656,0.60097653) (0.60331277,0.60095656,0.81193033) (0.60095656,0.60095656,0.84240302) (0.60095656,0.60095656,0.60840058) (0.60127208,0.60095656,0.65476896)
(0.60095656,0.60095656,0.90821075) (0.60095656,0.60095656,0.66635070) (0.60266667,0.60095656,0.60117388) (0.60095656,0.60095656,0.70370814) (0.60095656,0.60095656,0.70397261) (0.60108363,0.60095656,0.60652511)
(0.60095656,0.60095656,0.92284194) (0.60095656,0.60095656,0.69623206) (0.60960073,0.60095656,0.76849861) (0.60095656,0.60095656,0.63920338) (0.60095656,0.60095656,0.74675622) (0.60580427,0.60095656,0.70226848)
(0.60095656,0.60095656,0.87738141) (0.60095656,0.60095656,0.68415174) (0.61891215,0.60095656,0.67977955) (0.60095656,0.60095656,0.65526825) (0.60095656,0.60095656,0.66820142) (0.60945501,0.60095656,0.60818021)
(0.60095656,0.60095656,0.89251273) (0.60095656,0.60095656,0.83000958) (0.64142552,0.60095656,0.61719112) (1.00000000,0.60095656,0.82883092) (0.60095656,0.60095656,0.61477557) (0.64497122,0.60095656,0.62957526)
(0.60095656,0.60095656,0.60358582) (0.99986168,1.00000000,0.60508798) (0.72843053,0.60095656,0.64781276) (1.00000000,0.60095656,0.90806300) (1.00000000,0.60095656,0.99497562) (0.93460643,0.60095656,0.60136078)
(0.60095656,0.60095656,0.60116168) (1.00000000,1.00000000,0.98453434) (0.67381897,0.60095656,0.90705103) (0.60095656,0.60095656,0.91439920) (1.00000000,0.60095656,0.66668363) (0.61266624,0.60095656,0.92749587)
(0.60095656,0.60095656,0.61153103) (0.60095656,0.60095656,0.98364178) (0.66863736,0.60095656,0.99999543) (0.60095656,0.60095656,0.99998693) (0.60095656,0.60095656,0.99996540) (0.62750521,0.60095656,0.99994874)
(0.60095656,0.60095656,0.66253150) (0.60095656,0.60095656,0.99999889) (0.64037887,0.60095656,0.96568280) (0.60095656,0.60095656,0.99978737) (0.60095656,0.60095656,0.99999008) (0.61819352,0.60095656,0.99999378)
(0.60095656,0.60095656,0.60095656) (0.60095656,0.60095656,0.98940697) (1.00000000,0.99997104,0.63916079) (0.60095656,0.60095656,0.99192709) (0.60095656,0.60095656,0.99711245) (0.99970072,0.99606168,0.99349014)
(0.60095656,0.60095656,0.93220194) (0.60095656,0.60095656,0.65027219) (1.00000000,0.99996862,0.92705591) (0.60095656,0.60095656,0.60783324) (0.60095656,0.60095656,0.99121160) (1.00000000,0.99591938,0.61428205)
(0.60095656,0.60095656,0.83134637) (0.60095656,0.60095656,0.70689625) (0.60189160,0.60095656,0.65447194) (0.60095656,0.60095656,0.62621076) (0.60095656,0.60095656,0.64121583) (0.60291980,0.60095656,0.60135717)
(0.60095656,0.60095656,0.71039705) (0.60095656,0.60095656,0.61189094) (0.66209544,0.60095656,0.76757341) (0.60095656,0.60095656,0.62423893) (0.60095656,0.60095656,0.86610455) (0.62477062,0.60095656,0.65403990)
(0.60095656,0.60095656,0.62261562) (0.60095656,0.60095656,0.61423150) (0.66084952,0.60095656,0.61614565) (0.60095656,0.60095656,0.71498357) (0.60095656,0.60095656,0.97097280) (0.62365117,0.60095656,0.67186870)
(0.60095656,0.60095656,0.60124843) (0.60095656,0.60095656,0.60790638) (0.60273049,0.60095656,0.68174614) (0.60095656,0.60095656,0.75949276) (0.60095656,0.60095656,0.91379330) (0.60303533,0.60095656,0.64523250)
(0.60095656,0.60095656,0.62199987) (0.60095656,0.60095656,0.60105884) (0.61772229,0.60095656,0.77846772) (0.60095656,0.60095656,0.61617254) (0.60095656,0.60095656,0.60550762) (0.60834934,0.60095656,0.60720043)
(0.60095656,0.60095656,0.85672188) (0.60095656,0.60095656,0.86424500) (0.68958227,0.60095656,0.88785816) (0.60095656,0.60095656,0.99232193) (0.60095656,0.60095656,0.98982962) (0.63164923,0.60095656,0.99090716)
(0.60095656,0.60095656,0.73729659) (0.60095656,0.60095656,0.99814424) (0.68739002,0.60095656,0.99992392) (0.60095656,0.60095656,0.99990025) (0.60095656,0.60095656,0.99997113) (0.63101855,0.60095656,0.99996388)
(0.60095656,0.60095656,0.75984157) (0.60095656,0.60095656,0.99890988) (0.60455377,0.60170592,0.99674119) (0.60095656,0.60095656,0.99900203) (0.60095656,0.60095656,0.99310080) (0.60329070,0.60132361,0.99964113)
(0.60095656,0.60095656,0.60266975) (0.60095656,0.60095656,0.96325119) (0.60393586,0.60095656,0.69829530) (0.60095656,0.60095656,0.90392796) (0.60095656,0.60095656,0.74484808) (0.60100705,0.60095656,0.92212792)
(0.60095656,0.60095656,0.74963600) (0.60095656,0.60095656,0.64311702) (0.68654177,0.60095656,0.60118396) (0.60095656,0.60095656,0.86135373) (0.60095656,0.60095656,0.60748133) (0.63021266,0.60095656,0.64867557)
(0.60095656,0.60095656,0.72189616) (0.60095656,0.60095656,0.71904534) (0.64907302,0.60095656,0.89320424) (0.60095656,0.60095656,0.60095656) (0.60095656,0.60095656,0.61368855) (0.61786076,0.60095656,0.67288553)
(0.60095656,0.60095656,0.62536247) (0.60095656,0.60095656,0.80003579) (0.62768300,0.60095656,0.75281964) (0.60095656,0.60095656,0.78009793) (0.60095656,0.60095656,0.67251957) (0.61259489,0.60095656,0.65842580)
(0.60095656,0.60095656,0.62135877) (0.60095656,0.60095656,0.75268396) (0.60958996,0.60095656,0.87799926) (0.60095656,0.60095656,0.68552254) (0.60095656,0.60095656,0.60102718) (0.60586560,0.60095656,0.60817318)
(0.60095656,0.60095656,0.63448415) (0.60095656,0.60095656,0.63660587) (0.64650329,0.99993135,0.89431009) (0.60095656,0.60095656,0.91310090) (0.60095656,0.60095656,0.77959489) (0.61937075,0.99711106,0.79706926)
(0.60095656,0.60095656,0.67385169) (0.60095656,0.60095656,0.60113825) (0.67617344,0.99993135,0.64115890) (0.60095656,0.60095656,0.89206012) (0.60095656,0.60095656,0.71157541) (0.62630603,0.99607342,0.68694512)
(0.60095656,0.60095656,0.61977757) (0.60095656,0.60095656,0.60588344) (0.64830273,0.99992621,0.72441109) (1.00000000,0.60095656,0.76757464) (0.60095656,0.60095656,0.74888362) (0.60372669,0.99593214,0.60746242)
(0.60095656,0.60095656,0.68656481) (0.60095656,0.60095656,0.76017981) (0.63974729,0.60095656,0.87039976) (0.60095656,0.60095656,0.70815059) (0.60095656,0.60095656,0.94905474) (0.61361001,0.60095656,0.60098320)
(0.60095656,0.60095656,0.79424793) (0.60095656,0.60095656,0.60970609) (0.60126952,0.60096178,0.79254267) (0.60095656,0.60095656,0.87659187) (0.60095656,0.60095656,0.61547644) (0.60104420,0.60095935,0.61161433)
(0.60095656,0.60095656,0.68835738) (0.60095656,0.60095656,0.72940789) (0.62152031,0.60095656,0.67515270) (0.60095656,0.60095656,0.70551497) (0.60095656,0.60095656,0.62295118) (0.60344331,0.60095656,0.60210782)
(0.60095656,0.60095656,0.70906880) (0.60095656,0.60095656,0.60105558) (0.63231925,0.60126905,0.61420905) (0.60095656,0.60095656,0.87969416) (0.60095656,0.60095656,0.64406303) (0.60520736,0.60112380,0.66064080)
(0.60095656,0.60095656,0.75136786) (0.60095656,0.60095656,0.62414391) (0.62306853,0.60095656,0.71867093) (0.60095656,0.60095656,0.71587403) (0.60095656,0.60095656,0.61245512) (0.60981774,0.60095656,0.60557506)
(0.60095656,0.60095656,0.94144703) (0.60095656,0.60095656,0.63465683) (0.62946239,0.60095656,0.64323503) (0.60095656,0.60095656,0.84280611) (0.60095656,0.60095656,0.60585317) (0.60448250,0.60095656,0.60909358)
(0.60095656,0.60095656,0.97054310) (0.60095656,0.60095656,0.72651039) (0.97335833,0.60095656,0.69372468) (0.60095656,0.60095656,0.63635937) (0.60095656,0.60095656,0.77895274) (0.77239009,0.60095656,0.61352652)
(0.60095656,0.60095656,0.96481664) (0.60095656,0.60095656,0.76555040) (1.00000000,0.62424458,0.83742410) (0.60095656,0.60095656,0.62307165) (0.60095656,0.60095656,0.60095704) (0.99876442,0.61445217,0.61350169)
(0.60095656,0.60095656,0.91055249) (0.60095656,0.60095656,0.60430527) (1.00000000,0.60095656,0.88462910) (1.00000000,0.60095656,0.65022618) (0.60095656,0.60095656,0.61838902) (0.99999845,0.60095656,0.65248005)
(0.60095656,0.60095656,0.95626924) (0.60095656,0.60095656,0.62947649) (0.99839475,0.60095656,0.64390305) (0.60095656,0.60095656,0.73394053) (0.60095656,0.60095656,0.63906738) (0.88801650,0.60095656,0.60338137)
(0.60095656,0.60095656,0.88376572) (1.00000000,0.71873507,0.61882998) (0.88193709,0.60095656,0.62647996) (0.60095656,0.60095656,0.80470521) (1.00000000,0.60095656,0.74227400) (0.97142824,0.60095657,0.60101437)
(0.60095656,0.60095656,0.65253537) (1.00000000,1.00000000,0.82059955) (0.96932635,0.60095656,0.62847840) (0.60095656,0.60095656,0.84144881) (0.60095656,0.60095656,0.63685081) (0.84892841,0.99681761,0.60430933)
(0.60095656,0.60095656,0.97733222) (1.00000000,0.60095656,0.60803147) (0.99634261,0.60095656,0.75554637) (0.60095656,0.60095656,0.93182065) (0.60095656,0.60095656,0.64550518) (0.92080906,0.60095656,0.63946820)
(0.60095656,0.60095656,0.85674925) (1.00000000,0.60095656,0.70215021) (0.64159161,0.60095656,0.91950598) (0.60095656,0.60095656,0.65877752) (0.60095656,0.60095656,0.99915519) (0.82028693,0.60095656,0.65037337)
(0.60095656,0.60095656,0.76472950) (1.00000000,0.60095656,0.60105505) (0.99711833,0.60095656,0.74078163) (0.60095656,0.60095656,0.92338449) (1.00000000,0.60095656,0.98986241) (0.99998594,0.60095656,0.75247651)
(0.60095656,0.60095656,0.83831257) (0.60095656,0.60095656,0.63579589) (0.97996741,0.60096404,0.97764635) (0.60095656,0.60095656,0.77598581) (0.60095656,0.60095656,0.80648592) (0.79349182,0.60096054,0.60103980)
(0.60095656,0.60095656,0.98359947) (1.00000000,0.60095656,0.68112935) (0.99074212,0.60095656,0.95728238) (0.60095656,0.60095656,0.77716283) (0.60095656,0.60095656,0.86619157) (0.99835856,0.60095656,0.90610914)
(0.60095656,0.60095656,0.89183391) (1.00000000,1.00000000,0.81515505) (0.86611457,0.60095656,0.60233069) (1.00000000,0.60095656,0.99674066) (1.00000000,0.60095656,0.99975759) (1.00000000,0.60095656,0.92528553)
(0.60095656,0.60095656,0.76039067) (1.00000000,1.00000000,0.68066293) (0.78209493,0.99993175,0.83968149) (1.00000000,0.60095656,0.96950373) (1.00000000,0.60095656,0.97875196) (0.99999279,0.99606739,0.85116783)
(0.60095656,0.60095656,0.82850062) (0.60095656,0.60095656,0.70072339) (0.80018553,0.60095656,0.62822972) (0.60095656,0.60095656,0.99751292) (0.60095656,0.60095656,0.62510644) (0.65273165,0.60095656,0.90826426)
(0.60095656,0.60095656,0.82356583) (1.00000000,1.00000000,0.89723373) (0.92094772,0.60095656,0.60420214) (1.00000000,0.60095656,0.62050117) (1.00000000,0.60095656,0.63536208) (0.99781211,0.60095656,0.76471261)
(0.60095656,0.60095656,0.73122048) (0.60095656,0.60095656,0.64508378) (0.98562764,0.60095656,0.66787655) (1.00000000,0.60095656,0.79409154) (0.60095656,0.60095656,0.63043843) (0.99400300,0.60095656,0.62029556)
(0.60095656,0.60095656,0.92724190) (0.60095656,0.60095656,0.88452952) (0.76557937,0.60095656,0.70972963) (0.60095656,0.60095656,0.86853328) (0.60095656,0.60095656,0.97935177) (0.64088280,0.60095656,0.73890036)
(0.60095656,0.60095656,0.91486285) (1.00000000,1.00000000,0.98157852) (0.86230508,0.60095656,0.60458854) (1.00000000,0.60096213,0.96455295) (1.00000000,1.00000000,0.99681447) (0.95807282,0.99773825,0.73268908)
(0.60095656,0.60095656,0.95795421) (0.60095656,0.60095656,0.97457690) (0.85997648,0.60098697,0.61430792) (0.60095656,0.60095656,0.99128829) (0.60095656,0.60095656,0.99255787) (0.67862076,0.60096950,0.78614988)
(0.60095656,0.60095656,0.96220789) (0.60095656,0.60095656,0.66769937) (0.73748517,0.60095656,0.88893631) (0.60095656,0.60095656,0.95661125) (0.60095656,0.60095656,0.65436358) (0.63214981,0.60095656,0.80326151)
(0.60095656,0.60095656,0.68418870) (0.60095656,0.60095656,0.99533847) (0.91228143,0.60095656,0.99398123) (0.60095656,0.60095656,0.77036831) (0.60095656,0.60095656,0.63297034) (0.70914907,0.60095656,0.91832581)
(0.60095656,0.60095656,0.61390421) (0.60095656,0.60095656,0.99239593) (0.92623796,0.60095667,0.99819841) (0.60095656,0.60095656,0.93277927) (0.60095656,0.60095656,0.62488418) (0.72596671,0.60095662,0.95222869)
(0.60095656,0.60095656,0.63528808) (0.60095656,0.60095656,0.92612095) (0.73041634,0.60459554,0.98402686) (0.60095656,0.60095656,0.93591238) (0.60095656,0.60095656,0.63190338) (0.62671279,0.60273016,0.88738430)
(0.60095656,0.60095656,0.61253645) (0.60095656,0.60095656,0.95235994) (0.90909724,0.60095656,0.89429410) (0.60095656,0.60095656,0.84388700) (0.60095656,0.60095656,0.84820479) (0.69301988,0.60095656,0.91451365)
(0.60095656,0.60095656,0.60374313) (0.60095656,0.60095656,0.78973928) (0.92958042,0.60095656,0.91877241) (0.60095656,0.60095656,0.80559351) (0.60095656,0.60095656,0.89009036) (0.70636092,0.60095656,0.84262253)
(0.60095656,0.60095656,0.65878752) (0.60095656,0.60095656,0.73636483) (0.75076978,0.60095656,0.88145462) (0.60095656,0.60095656,0.83608688) (0.60095656,0.60095656,0.93606281) (0.63025483,0.60095656,0.86304946)
(0.60095656,0.60095656,0.60095656) (0.60095656,0.60095656,0.79760604) (0.92547082,0.99991021,0.98896924) (0.60095656,0.60095656,0.82391263) (0.60095656,0.60095656,0.82704343) (0.70358525,0.99337899,0.83761213)
(0.60095656,0.60095656,0.67195796) (0.60095656,0.60095656,0.66160393) (0.98860562,0.60095656,0.97444932) (0.60095656,0.60095656,0.99703513) (0.60095656,0.60095656,0.82876928) (0.79059973,0.60095656,0.86348019)
(0.60095656,0.60095656,1.00000000) (0.60095656,0.60095656,1.00000000) (0.75397584,0.60095656,1.00000000) (0.60095656,0.60095656,1.00000000) (0.60095656,0.60095656,1.00000000) (1.00000000,0.99485434,1.00000000)
(0.60095656,0.60095656,1.00000000) (0.60095656,0.60095656,1.00000000) (0.75609600,0.60095656,1.00000000) (0.60095656,0.60095656,1.00000000) (0.60095656,0.60095656,1.00000000) (1.00000000,0.99461972,1.00000000)
(0.60095656,0.60095656,1.00000000) (0.60095656,0.60095656,1.00000000) (0.75907159,0.60095656,1.00000000) (0.60095656,0.60095656,1.00000000) (0.60095656,0.60095656,1.00000000) (1.00000000,0.99437460,1.00000000)
