chh c1 sd mt lt rc2
(0.60095656,0.60095656,1.00000000) (0.60095656,0.60095656,1.00000000) (0.60095656,0.60095656,1.00000000) (0.60095656,0.60095656,1.00000000) (0.60095656,0.60095656,1.00000000) (0.60095656,0.60095656,1.00000000)
(0.60095656,0.60095656,0.99954122) (0.60095656,0.60095656,0.99568172) (0.60095656,0.60095656,0.73654896) (0.60095656,0.60095656,0.67242742) (0.60095656,0.60095656,0.97705612) (0.60095656,0.60095656,0.99954641)
(0.60095656,0.60095656,0.99992621) (0.60095656,0.60095656,0.99991070) (0.60095656,0.60095656,0.61799624) (0.60095656,0.60095656,0.82870462) (0.60095656,0.60095656,0.86656289) (0.60095656,0.60095656,0.99998982)
(0.60095656,0.60095656,0.99999408) (0.60095656,0.60095656,0.92678956) (0.60095656,0.60095656,0.89699920) (0.60095656,0.60095656,0.92177436) (0.60095656,0.60095656,0.93337937) (0.60095656,0.60095656,0.95723450)
(0.60095656,0.60095656,0.99998255) (0.60095656,0.60095656,0.98399453) (0.60095656,0.60095656,0.98038612) (0.60095656,0.60095656,0.82031227) (0.60095656,0.60095656,0.99923621) (0.60095656,0.60095656,0.90478752)
(0.60095656,0.60095656,0.99892475) (0.60095656,0.60095656,0.99355340) (0.60095656,0.60095656,0.80640697) (0.60095656,0.60095656,0.71292385) (0.60095656,0.60095656,0.99914704) (0.60095656,0.60095656,0.92945017)
(0.60095656,0.60095656,0.95938113) (0.60095656,0.60095656,0.99283359) (0.60095656,0.60095656,0.94092322) (0.60095656,0.60095656,0.78383820) (0.60095656,0.60095656,0.64099698) (0.60095656,0.60095656,0.96188961)
(0.60095656,0.60095656,0.94080541) (0.60095656,0.60095656,0.99125912) (0.60095656,0.60095656,0.98830144) (0.60095656,0.60095656,0.75825497) (0.60095656,0.60095656,0.88903988) (0.60095656,0.60095656,0.99177281)
(0.60095656,0.60095656,0.99421523) (0.60095656,0.60095656,0.62770980) (0.60095656,0.60095656,0.93455321) (0.60095656,0.60095656,0.66307600) (0.60095656,0.60095656,0.86126877) (0.60095656,0.60095656,0.90811844)
(0.60095656,0.60095656,0.99884115) (0.60095656,0.60095656,0.60210049) (0.60095656,0.60095656,0.97712908) (0.60095656,0.60095656,0.62879912) (0.60095656,0.60095656,0.65909730) (0.60095656,0.60095656,0.95477382)
(0.60095656,0.60095656,0.99857810) (0.60095656,0.60095656,0.77585633) (0.60095656,0.60095656,0.85064010) (0.60095656,0.60095656,0.66674759) (0.60095656,0.60095656,0.90210677) (0.60095656,0.60095656,0.98848189)
(0.60095656,0.60095656,0.99617746) (0.60095656,0.60095656,0.72590957) (0.60095656,0.60095656,0.76687863) (0.60095656,0.60095656,0.66559124) (0.60095656,0.60095656,0.98899615) (0.60095656,0.60095656,0.88641219)
(0.60095656,0.60095656,0.88418761) (0.60095656,0.60095656,0.60218633) (0.60095656,0.60095656,0.62474185) (0.60095656,0.60095656,0.65581564) (0.60095656,0.60095656,0.67896628) (0.60095656,0.60095656,0.61295261)
(0.60095656,0.60095656,0.95564989) (0.60095656,0.60095656,0.60109285) (0.60095656,0.60095656,0.77807841) (0.60095656,0.60095656,0.91804354) (0.60095656,0.60095656,0.61338199) (0.60095656,0.60095656,0.60257843)
(0.60095656,0.60095656,0.90831376) (0.60095656,0.60095656,0.60352206) (0.60095656,0.60095656,0.94047062) (0.60095656,0.60095656,0.71478893) (0.60095656,0.60095656,0.60799873) (0.60095656,0.60095656,0.60208973)
(0.60095656,0.60095656,0.69570208) (0.60095656,0.60095656,0.86194517) (0.60095656,0.60095656,0.76468823) (0.60095656,0.60095656,0.79091833) (0.60095656,0.60095656,0.67880325) (0.60095656,0.60095656,0.66688985)
(0.60095656,0.60095656,0.73181332) (0.60095656,0.60095656,0.80487695) (0.60095656,0.60095656,0.71932340) (0.60095656,0.60095656,0.60194798) (0.60095656,0.60095656,0.61632535) (0.60095656,0.60095656,0.74706658)
(0.60095656,0.60095656,0.78878225) (0.60095656,0.60095656,0.97133682) (0.60095656,0.60095656,0.81522172) (0.60095656,0.60095656,0.67640093) (0.60095656,0.60095656,0.60285905) (0.60095656,0.60095656,0.98877383)
(0.60095656,0.60095656,0.81012502) (0.60095656,0.60095656,0.94284304) (0.60095656,0.60095656,0.63724680) (0.60095656,0.60095656,0.86055895) (0.60095656,0.60095656,0.82315012) (0.60095656,0.60095656,0.98820089)
(0.60095656,0.60095656,0.79727060) (0.60095656,0.60095656,0.63721525) (0.60095656,0.60095656,0.80543853) (0.60095656,0.60095656,0.60716522) (0.60095656,0.60095656,0.60125339) (0.60095656,0.60095656,0.74565733)
(0.60095656,0.60095656,0.93526734) (0.60095656,0.60095656,0.64672081) (0.60095656,0.60095656,0.86594958) (0.60095656,0.60095656,0.75108370) (0.60095656,0.60095656,0.60280733) (0.60095656,0.60095656,0.60527596)
(0.60095656,0.60095656,0.98396374) (0.60095656,0.60095656,0.88033598) (0.60095656,0.60095656,0.73260552) (0.60095656,0.60095656,0.90947948) (0.60095656,0.60095656,0.78629780) (0.60095656,0.60095656,0.95497266)
(0.60095656,0.60095656,0.99896713) (0.60095656,0.60095656,0.68193079) (0.60095656,0.60095656,0.60227876) (0.60095656,0.60095656,0.60533939) (0.60095656,0.60095656,0.61487307) (0.60095656,0.60095656,0.92770263)
(0.60095656,0.60095656,0.98372062) (0.60095656,0.60095656,0.68438063) (0.60095656,0.60095656,0.66184998) (0.60095656,0.60095656,0.60396584) (0.60095656,0.60095656,0.67264992) (0.60095656,0.60095656,0.80300873)
(0.60095656,0.60095656,0.73963677) (0.60095656,0.60095656,0.99936156) (0.60095656,0.60095656,0.97097646) (0.60095656,0.60095656,0.95457883) (0.60095656,0.60095656,0.69370953) (0.60095656,0.60095656,0.77788141)
(0.60095656,0.60095656,0.75297685) (0.60095656,0.60095656,0.70177593) (0.60095656,0.60095656,0.83895837) (0.60095656,0.60095656,0.69773605) (0.60095656,0.60095656,0.81079852) (0.60095656,0.60095656,0.60095774)
(0.60095656,0.60095656,0.73485583) (0.60095656,0.60095656,0.61979481) (0.60095656,0.60095656,0.82395577) (0.60095656,0.60095656,0.60149436) (0.60095656,0.60095656,0.89143333) (0.60095656,0.60095656,0.64686200)
(0.60095656,0.60095656,0.67345098) (0.60095656,0.60095656,0.63833655) (0.60095656,0.60095656,0.85218597) (0.60095656,0.60095656,0.86058249) (0.60095656,0.60095656,0.98896752) (0.60095656,0.60095656,0.70874991)
(0.60095656,0.60095656,0.61025349) (0.60095656,0.60095656,0.64475088) (0.60095656,0.60095656,0.60339624) (0.60095656,0.60095656,0.60764937) (0.60095656,0.60095656,0.97662246) (0.60095656,0.60095656,0.87854343)
(0.60095656,0.60095656,0.74911218) (0.60095656,0.60095656,0.65912939) (0.60095656,0.60095656,0.61879889) (0.60095656,0.60095656,0.75737238) (0.60095656,0.60095656,0.99254376) (0.60095656,0.60095656,0.61075297)
(0.60095656,0.60095656,0.71188610) (0.60095656,0.60095656,0.65600794) (0.60095656,0.60095656,0.86551826) (0.60095656,0.60095656,0.68026574) (0.60095656,0.60095656,0.70372434) (0.60095656,0.60095656,0.60900958)
(0.60095656,0.60095656,0.60106974) (0.60095656,0.60095656,0.71965755) (0.60095656,0.60095656,0.90435937) (0.60095656,0.60095656,0.61289340) (0.60095656,0.60095656,0.65684234) (0.60095656,0.60095656,0.74192747)
(0.60095656,0.60095656,0.86511950) (0.60095656,0.60095656,0.60219402) (0.60095656,0.60095656,0.70067192) (0.60095656,0.60095656,0.89882218) (0.60095656,0.60095656,0.68531851) (0.60095656,0.60095656,0.66371303)
(0.60095656,0.60095656,0.71485630) (0.60095656,0.60095656,0.60815108) (0.60095656,0.60095656,0.60482564) (0.60095656,0.60095656,0.61035332) (0.60095656,0.60095656,0.62465953) (0.60095656,0.60095656,0.68428263)
(0.60095656,0.60095656,0.60095834) (0.60095656,0.60095656,0.74952187) (0.60095656,0.60095656,0.60122656) (0.60095656,0.60095656,0.90775228) (0.60095656,0.60095656,0.62990167) (0.60095656,0.60095656,0.76648766)
(0.60095656,0.60095656,0.84256869) (0.60095656,0.60095656,0.60491989) (0.60095656,0.60095656,0.83981477) (0.60095656,0.60095656,0.91900128) (0.60095656,0.60095656,0.68627845) (0.60095656,0.60095656,0.63800881)
(0.60095656,0.60095656,0.82958179) (0.60095656,0.60095656,0.93125553) (0.60095656,0.60095656,0.64855417) (0.60095656,0.60095656,0.66214276) (0.60095656,0.60095656,0.96504090) (0.60095656,0.60095656,0.66171146)
(0.60095656,0.60095656,0.67177060) (0.60095656,0.60095656,0.91665135) (0.60095656,0.60095656,0.74334006) (0.60095656,0.60095656,0.72514341) (0.60095656,0.60095656,0.74477197) (0.60095656,0.60095656,0.83038035)
(0.60095656,0.60095656,0.65027491) (0.60095656,0.60095656,0.96863879) (0.60095656,0.60095656,0.74168150) (0.60095656,0.60095656,0.60354091) (0.60095656,0.60095656,0.61743874) (0.60095656,0.60095656,0.82364081)
(0.60095656,0.60095656,0.63232044) (0.60095656,0.60095656,0.61277684) (0.60095656,0.60095656,0.60780451) (0.60095656,0.60095656,0.86409044) (0.60095656,0.60095656,0.77749957) (0.60095656,0.60095656,0.78393902)
(0.60095656,0.60095656,0.63322799) (0.60095656,0.60095656,0.94756862) (0.60095656,0.60095656,0.70915955) (0.60095656,0.60095656,0.67523991) (0.60095656,0.60095656,0.97973514) (0.60095656,0.60095656,0.60217464)
(0.60095656,0.60095656,0.67936042) (0.60095656,0.60095656,0.97841267) (0.60095656,0.60095656,0.83694861) (0.60095656,0.60095656,0.94353552) (0.60095656,0.60095656,0.99435243) (0.60095656,0.60095656,0.85815589)
(0.60095656,0.60095656,0.73422924) (0.60095656,0.60095656,0.92579514) (0.60095656,0.60095656,0.97066342) (0.60095656,0.60095656,0.60828694) (0.60095656,0.60095656,0.63354753) (0.60095656,0.60095656,0.73455512)
(0.60095656,0.60095656,0.72669378) (0.60095656,0.60095656,0.90943339) (0.60095656,0.60095656,0.98915303) (0.60095656,0.60095656,0.68299911) (0.60095656,0.60095656,0.89505655) (0.60095656,0.60095656,0.71869280)
(0.60095656,0.60095656,0.84575025) (0.60095656,0.60095656,0.60273807) (0.60095656,0.60095656,0.99726531) (0.60095656,0.60095656,0.94768493) (0.60095656,0.60095656,0.74721316) (0.60095656,0.60095656,0.92048038)
(0.60095656,0.60095656,0.80685959) (0.60095656,0.60095656,0.99433314) (0.60095656,0.60095656,0.65201998) (0.60095656,0.60095656,0.64824713) (0.60095656,0.60095656,0.65962556) (0.60095656,0.60095656,0.67480902)
(0.60095656,0.60095656,0.92903787) (0.60095656,0.60095656,0.99646743) (0.60095656,0.60095656,0.99703611) (0.60095656,0.60095656,0.80522309) (0.60095656,0.60095656,0.60342744) (0.60095656,0.60095656,0.70251810)
(0.60095656,0.60095656,0.94803434) (0.60095656,0.60095656,0.79999165) (0.60095656,0.60095656,0.77500705) (0.60095656,0.60095656,0.65589177) (0.60095656,0.60095656,0.61768707) (0.60095656,0.60095656,0.77130646)
(0.60095656,0.60095656,0.81502858) (0.60095656,0.60095656,0.99967945) (0.60095656,0.60095656,0.89587146) (0.60095656,0.60095656,0.98753369) (0.60095656,0.60095656,0.77066836) (0.60095656,0.60095656,0.99846024)
(0.60095656,0.60095656,0.77940724) (0.60095656,0.60095656,0.95031305) (0.60095656,0.60095656,0.84625491) (0.60095656,0.60095656,0.94010175) (0.60095656,0.60095656,0.83379678) (0.60095656,0.60095656,0.87125852)
(0.60095656,0.60095656,0.60559470) (0.60095656,0.60095656,0.93567106) (0.60095656,0.60095656,0.61321845) (0.60095656,0.60095656,0.94835316) (0.60095656,0.60095656,0.89852798) (0.60095656,0.60095656,0.91238979)
(0.60095656,0.60095656,0.67656616) (0.60095656,0.60095656,0.80772931) (0.60095656,0.60095656,0.66916630) (0.60095656,0.60095656,0.99925771) (0.60095656,0.60095656,0.91429848) (0.60095656,0.60095656,0.90211463)
(0.60095656,0.60095656,0.68534177) (0.60095656,0.60095656,0.62553468) (0.60095656,0.60095656,0.60114541) (0.60095656,0.60095656,0.99986443) (0.60095656,0.60095656,0.80995685) (0.60095656,0.60095656,0.92085876)
(0.60095656,0.60095656,0.77629640) (0.60095656,0.60095656,0.76129272) (0.60095656,0.60095656,0.63293245) (0.60095656,0.60095656,0.99972389) (0.60095656,0.60095656,0.73553466) (0.60095656,0.60095656,0.99592345)
(0.60095656,0.60095656,0.70010105) (0.60095656,0.60095656,0.86352104) (0.60095656,0.60095656,0.80181787) (0.60095656,0.60095656,0.98236471) (0.60095656,0.60095656,0.80365240) (0.60095656,0.60095656,0.61849990)
(0.60095656,0.60095656,0.60135963) (0.60095656,0.60095656,0.89213081) (0.60095656,0.60095656,0.74751514) (0.60095656,0.60095656,0.99796193) (0.60095656,0.60095656,0.69100287) (0.60095656,0.60095656,0.64790821)
(0.60095656,0.60095656,0.64062681) (0.60095656,0.60095656,0.84252483) (0.60095656,0.60095656,0.79207281) (0.60095656,0.60095656,0.91727535) (0.60095656,0.60095656,0.97575866) (0.60095656,0.60095656,0.73163038)
(0.60095656,0.60095656,0.70734785) (0.60095656,0.60095656,0.61156897) (0.60095656,0.60095656,0.79135778) (0.60095656,0.60095656,0.99660486) (0.60095656,0.60095656,0.95051578) (0.60095656,0.60095656,0.87958000)
(0.60095656,0.60095656,0.60096297) (0.60095656,0.60095656,0.62670572) (0.60095656,0.60095656,0.60163127) (0.60095656,0.60095656,0.98591673) (0.60095656,0.60095656,0.83273625) (0.60095656,0.60095656,0.83613551)
(0.60095656,0.60095656,0.76407885) (0.60095656,0.60095656,0.69538619) (0.60095656,0.60095656,0.85974113) (0.60095656,0.60095656,0.98221076) (0.60095656,0.60095656,0.89725143) (0.60095656,0.60095656,0.60163303)
(0.60095656,0.60095656,0.66544966) (0.60095656,0.60095656,0.70895680) (0.60095656,0.60095656,0.99057129) (0.60095656,0.60095656,0.61510333) (0.60095656,0.60095656,0.65408835) (0.60095656,0.60095656,0.64363384)
(0.60095656,0.60095656,0.93879043) (0.60095656,0.60095656,0.87077974) (0.60095656,0.60095656,0.97939105) (0.60095656,0.60095656,0.81182075) (0.60095656,0.60095656,0.72026705) (0.60095656,0.60095656,0.88243609)
(0.60095656,0.60095656,0.60255467) (0.60095656,0.60095656,0.98744518) (0.60095656,0.60095656,0.70588930) (0.60095656,0.60095656,0.96101940) (0.60095656,0.60095656,0.71870638) (0.60095656,0.60095656,0.64090002)
(0.60095656,0.60095656,0.70353063) (0.60095656,0.60095656,0.60118247) (0.60095656,0.60095656,0.79220991) (0.60095656,0.60095656,0.92342312) (0.60095656,0.60095656,0.99615955) (0.60095656,0.60095656,0.73608224)
(0.60095656,0.60095656,0.62707767) (0.60095656,0.60095656,0.91858746) (0.60095656,0.60095656,0.91879165) (0.60095656,0.60095656,0.99748228) (0.60095656,0.60095656,0.66827399) (0.60095656,0.60095656,0.74182869)
(0.60095656,0.60095656,0.67968140) (0.60095656,0.60095656,0.99125292) (0.60095656,0.60095656,0.89990087) (0.60095656,0.60095656,0.99566900) (0.60095656,0.60095656,0.81133856) (0.60095656,0.60095656,0.73535972)
(0.60095656,0.60095656,0.86400356) (0.60095656,0.60095656,0.70449211) (0.60095656,0.60095656,0.95027046) (0.60095656,0.60095656,0.60189242) (0.60095656,0.60095656,0.91257279) (0.60095656,0.60095656,0.61126344)
(0.60095656,0.60095656,0.64497956) (0.60095656,0.60095656,0.68307749) (0.60095656,0.60095656,0.97341214) (0.60095656,0.60095656,0.61953930) (0.60095656,0.60095656,0.66025905) (0.60095656,0.60095656,0.61650845)
(0.60095656,0.60095656,0.89459567) (0.60095656,0.60095656,0.84806076) (0.60095656,0.60095656,0.97664856) (0.60095656,0.60095656,0.61535023) (0.60095656,0.60095656,0.98263351) (0.60095656,0.60095656,0.60103159)
(0.60095656,0.60095656,0.80853402) (0.60095656,0.60095656,0.99987188) (0.60095656,0.60095656,0.71384855) (0.60095656,0.60095656,0.99742698) (0.60095656,0.60095656,0.99602519) (0.60095656,0.60095656,0.65362736)
(0.60095656,0.60095656,0.71414700) (0.60095656,0.60095656,0.99993055) (0.60095656,0.60095656,0.92748224) (0.60095656,0.60095656,0.62662982) (0.60095656,0.60095656,0.99738867) (1.00000000,1.00000000,0.76718550)
(0.60095656,0.60095656,0.64105319) (0.60095656,0.60095656,0.93470587) (0.60095656,0.60095656,0.67512142) (0.60095656,0.60095656,0.94176442) (0.60095656,0.60095656,0.65978241) (1.00000000,1.00000000,0.60720428)
(0.60095656,0.60095656,0.73278509) (0.60095656,0.60095656,0.69458776) (0.60095656,0.60095656,0.82806243) (0.60095656,0.60095656,0.90366519) (0.60095656,0.60095656,0.97012077) (0.60095656,0.60095656,0.64369036)
(0.60095656,0.60095656,0.61776305) (0.60095656,0.60095656,0.66665880) (0.60095656,0.60095656,0.95411528) (0.60095656,0.60095656,0.73576343) (0.60095656,0.60095656,0.99712301) (0.60095656,0.60095656,0.72091280)
(0.60095656,0.60095656,0.92210619) (0.60095656,0.60095656,0.60194988) (0.60095656,0.60095656,0.64750533) (0.60095656,0.60095656,0.67817366) (0.60095656,0.60095656,0.86092960) (0.60095656,0.60095656,0.96006650)
(0.60095656,0.60095656,0.69126336) (0.60095656,0.60095656,0.61299922) (0.60095656,0.60095656,0.81005786) (0.60095656,0.60095656,0.82745626) (0.60095656,0.60095656,0.96451635) (0.60095656,0.60095656,0.85967432)
(0.60095656,0.60095656,0.62877453) (0.60095656,0.60095656,0.60204119) (0.60095656,0.60095656,0.63244127) (0.60095656,0.60095656,0.61158751) (0.60095656,0.60095656,0.82911624) (0.60095656,0.60095656,0.65404582)
(0.60095656,0.60095656,0.65162879) (0.60095656,0.60095656,0.94579839) (0.60095656,0.60095656,0.71167811) (0.60095656,0.60095656,0.60157971) (0.60095656,0.60095656,0.99402966) (0.60095656,0.60095656,0.71678862)
(0.60095656,0.60095656,0.61765275) (0.60095656,0.60095656,0.70787834) (0.60095656,0.60095656,0.86611795) (0.60095656,0.60095656,0.68955470) (0.60095656,0.60095656,0.60447318) (0.60095656,0.60095656,0.83082626)
(0.60095656,0.60095656,0.60127023) (0.60095656,0.60095656,0.95507985) (0.60095656,0.60095656,0.79219609) (0.60095656,0.60095656,0.79939725) (0.60095656,0.60095656,0.64597025) (0.60095656,0.60095656,0.70863124)
(0.60095656,0.60095656,0.62806669) (0.60095656,0.60095656,0.99741667) (0.60095656,0.60095656,0.60099613) (0.60095656,0.60095656,0.81470270) (0.60095656,0.60095656,0.93434039) (0.60095656,0.60095656,0.94729435)
(0.60095656,0.60095656,0.60766332) (0.60095656,0.60095656,0.90694512) (0.60095656,0.60095656,0.70609146) (0.60095656,0.60095656,0.99999473) (0.60095656,0.60095656,0.61501705) (0.60095656,0.60095656,0.92984715)
(0.60095656,0.60095656,0.95744639) (0.60095656,0.60095656,0.66934761) (0.60095656,0.60095656,0.67259649) (0.60095656,0.60095656,0.99024540) (0.60095656,0.60095656,0.97861641) (1.00000000,1.00000000,0.96497431)
(0.60095656,0.60095656,0.94155540) (0.60095656,0.60095656,0.71616596) (0.60095656,0.60095656,0.64559808) (0.60095656,0.60095656,0.65523355) (0.60095656,0.60095656,0.87124668) (0.60095656,0.60095656,0.95533535)
(0.60095656,0.60095656,0.90672407) (0.60095656,0.60095656,0.60133455) (0.60095656,0.60095656,0.61192962) (0.60095656,0.60095656,0.78538599) (0.60095656,0.60095656,0.68147690) (0.60095656,0.60095656,0.60662328)
(0.60095656,0.60095656,0.60475713) (0.60095656,0.60095656,0.76168376) (0.60095656,0.60095656,0.63782845) (0.60095656,0.60095656,0.85752826) (0.60095656,0.60095656,0.68328098) (0.60095656,0.60095656,0.62099909)
(0.60095656,0.60095656,0.61099396) (0.60095656,0.60095656,0.75326611) (0.60095656,0.60095656,0.80823834) (0.60095656,0.60095656,0.78801482) (0.60095656,0.60095656,0.65744860) (0.60095656,0.60095656,0.60251806)
(0.60095656,0.60095656,0.65086405) (0.60095656,0.60095656,0.86029106) (0.60095656,0.60095656,0.62863457) (0.60095656,0.60095656,0.80684159) (0.60095656,0.60095656,0.60775045) (0.60095656,0.60095656,0.73961997)
(0.60095656,0.60095656,0.62606419) (0.60095656,0.60095656,0.78329712) (0.60095656,0.60095656,0.62135858) (0.60095656,0.60095656,0.60204565) (0.60095656,0.60095656,0.62062830) (0.60095656,0.60095656,0.63238029)
(0.60095656,0.60095656,0.64925093) (0.60095656,0.60095656,0.67449999) (0.60095656,0.60095656,0.78998342) (0.60095656,0.60095656,0.73721249) (0.60095656,0.60095656,0.69044781) (1.00000000,1.00000000,0.77327859)
(0.60095656,0.60095656,0.61341270) (0.60095656,0.60095656,0.60394209) (0.60095656,0.60095656,0.64051637) (0.60095656,0.60095656,0.65299621) (0.60095656,0.60095656,0.61115983) (1.00000000,1.00000000,0.70433219)
(0.60095656,0.60095656,0.79382981) (0.60095656,0.60095656,0.83873150) (0.60095656,0.60095656,0.65255677) (0.60095656,0.60095656,0.95057921) (0.60095656,0.60095656,0.60665880) (0.60095656,0.60095656,0.65060239)
(0.60095656,0.60095656,0.91596074) (0.60095656,0.60095656,0.63230786) (0.60095656,0.60095656,0.62551907) (0.60095656,0.60095656,0.78646752) (0.60095656,0.60095656,0.60143875) (0.60095656,0.60095656,0.78852056)
(0.60095656,0.60095656,0.74485523) (0.60095656,0.60095656,0.60992598) (0.60095656,0.60095656,0.70161813) (0.60095656,0.60095656,0.69673716) (0.60095656,0.60095656,0.66009457) (0.60095656,0.60095656,0.61500732)
(0.60095656,0.60095656,0.66113042) (0.60095656,0.60095656,0.60724241) (0.60095656,0.60095656,0.62894713) (0.60095656,0.60095656,0.87669109) (0.60095656,0.60095656,0.60126658) (0.60095656,0.60095656,0.91665652)
(0.60095656,0.60095656,0.94722620) (0.60095656,0.60095656,0.60250393) (0.60095656,0.60095656,0.86481766) (0.60095656,0.60095656,0.77482636) (0.60095656,0.60095656,0.62128231) (0.60095656,0.60095656,0.71945721)
(0.60095656,0.60095656,0.62355467) (0.60095656,0.60095656,0.60729209) (0.60095656,0.60095656,0.66993452) (0.60095656,0.60095656,0.63156497) (0.60095656,0.60095656,0.62690281) (0.60095656,0.60095656,0.67103632)
(0.60095656,0.60095656,0.60368028) (0.60095656,0.60095656,0.62777868) (0.60095656,0.60095656,0.66178371) (0.60095656,0.60095656,0.78520613) (0.60095656,0.60095656,0.96039936) (0.60095656,0.60095656,0.69776591)
(0.60095656,0.60095656,0.70298131) (0.60095656,0.60095656,0.60095795) (0.60095656,0.60095656,0.93600661) (0.60095656,0.60095656,0.60828632) (0.60095656,0.60095656,0.67013776) (0.60095656,0.60095656,0.65757670)
(0.60095656,0.60095656,0.86064829) (0.60095656,0.60095656,0.65779438) (0.60095656,0.60095656,0.76244543) (0.60095656,0.60095656,0.62260492) (0.60095656,0.60095656,0.83614065) (0.60095656,0.60095656,0.76301380)
(0.60095656,0.60095656,0.79427430) (0.60095656,0.60095656,0.69600117) (0.60095656,0.60095656,0.73082759) (0.60095656,0.60095656,0.75088615) (0.60095656,0.60095656,0.75667782) (0.60095656,0.60095656,0.83546053)
(0.60095656,0.60095656,0.89422691) (0.60095656,0.60095656,0.73796348) (0.60095656,0.60095656,0.80850849) (0.60095656,0.60095656,0.97892479) (0.60095656,0.60095656,0.68137036) (0.60095656,0.60095656,0.88011325)
(0.60095656,0.60095656,0.60966249) (0.60095656,0.60095656,0.60309138) (0.60095656,0.60095656,0.85094985) (0.60095656,0.60095656,0.69931663) (0.60095656,0.60095656,0.85159644) (0.60095656,0.60095656,0.77873621)
(0.60095656,0.60095656,0.74334246) (0.60095656,0.60095656,0.66132494) (0.60095656,0.60095656,0.71211496) (0.60095656,0.60095656,0.75451390) (0.60095656,0.60095656,0.63118518) (0.60095656,0.60095656,0.61589672)
(0.60095656,0.60095656,0.87375969) (0.60095656,0.60095656,0.86948659) (0.60095656,0.60095656,0.72596715) (0.60095656,0.60095656,0.60102137) (0.60095656,0.60095656,0.88999638) (0.60095656,0.60095656,0.86208382)
(0.60095656,0.60095656,0.72631523) (0.60095656,0.60095656,0.60112998) (0.60095656,0.60095656,0.69874077) (0.60095656,0.60095656,0.91980655) (0.60095656,0.60095656,0.64575967) (0.60095656,0.60095656,0.63479234)
(0.60095656,0.60095656,0.83173143) (0.60095656,0.60095656,0.62817942) (0.60095656,0.60095656,0.94596569) (0.60095656,0.60095656,0.71122064) (0.60095656,0.60095656,0.86500620) (0.60095656,0.60095656,0.83361899)
(0.60095656,0.60095656,0.78531390) (0.60095656,0.60095656,0.72086664) (0.60095656,0.60095656,0.99632390) (0.60095656,0.60095656,0.61029754) (0.60095656,0.60095656,0.60632878) (0.60095656,0.60095656,0.60099113)
(0.60095656,0.60095656,0.67704928) (0.60095656,0.60095656,0.63538864) (0.60095656,0.60095656,0.61586105) (0.60095656,0.60095656,0.92876374) (0.60095656,0.60095656,0.60201225) (0.60095656,0.60095656,0.85983992)
(0.60095656,0.60095656,0.81579442) (0.60095656,0.60095656,0.71132176) (0.60095656,0.60095656,0.68404085) (0.60095656,0.60095656,0.96221917) (0.60095656,0.60095656,0.73736679) (1.00000000,1.00000000,0.68915512)
(0.60095656,0.60095656,0.77199563) (0.60095656,0.60095656,0.93691919) (0.60095656,0.60095656,0.71754221) (0.60095656,0.60095656,0.75818016) (0.60095656,0.60095656,0.87864656) (1.00000000,1.00000000,0.66333269)
(0.60095656,0.60095656,0.81957050) (0.60095656,0.60095656,0.83237445) (0.60095656,0.60095656,0.84745926) (0.60095656,0.60095656,0.63273731) (0.60095656,0.60095656,0.72938971) (0.60095656,0.60095656,0.64516559)
(0.60095656,0.60095656,0.89551337) (0.60095656,0.60095656,0.99143563) (0.60095656,0.60095656,0.63788047) (0.60095656,0.60095656,0.97843823) (0.60095656,0.60095656,0.97465256) (0.60095656,0.60095656,0.60097023)
(0.60095656,0.60095656,0.78486049) (0.60095656,0.60095656,0.84392866) (0.60095656,0.60095656,0.95418093) (0.60095656,0.60095656,0.98879755) (0.60095656,0.60095656,0.60095900) (0.60095656,0.60095656,0.61010160)
(0.60095656,0.60095656,0.60096416) (0.60095656,0.60095656,0.60203959) (0.60095656,0.60095656,0.93745005) (0.60095656,0.60095656,0.74914209) (0.60095656,0.60095656,0.96569009) (0.60095656,0.60095656,0.75260480)
(0.60095656,0.60095656,0.68712230) (0.60095656,0.60095656,0.63870449) (0.60095656,0.60095656,0.60266131) (0.60095656,0.60095656,0.70904368) (0.60095656,0.60095656,0.70117528) (0.60095656,0.60095656,0.67038073)
(0.60095656,0.60095656,0.90769993) (0.60095656,0.60095656,0.68805813) (0.60095656,0.60095656,0.60397277) (0.60095656,0.60095656,0.60311404) (0.60095656,0.60095656,0.94203805) (0.60095656,0.60095656,0.60197316)
(0.60095656,0.60095656,0.63044771) (0.60095656,0.60095656,0.91688413) (0.60095656,0.60095656,0.95309555) (0.60095656,0.60095656,0.62086470) (0.60095656,0.60095656,0.66740068) (0.60095656,0.60095656,0.89681110)
(0.60095656,0.60095656,0.67855233) (0.60095656,0.60095656,0.61445690) (0.60095656,0.60095656,0.99898992) (0.60095656,0.60095656,0.67119532) (0.60095656,0.60095656,0.60225033) (0.60095656,0.60095656,0.60706335)
(0.60095656,0.60095656,0.67682993) (0.60095656,0.60095656,0.91008222) (0.60095656,0.60095656,0.96515137) (0.60095656,0.60095656,0.60447707) (0.60095656,0.60095656,0.60117245) (0.60095656,0.60095656,0.85129719)
(0.60095656,0.60095656,0.73298554) (0.60095656,0.60095656,0.67137914) (0.60095656,0.60095656,0.60328904) (0.60095656,0.60095656,0.81504970) (0.60095656,0.60095656,0.60824586) (0.60095656,0.60095656,0.75304499)
(0.60095656,0.60095656,0.70998979) (0.60095656,0.60095656,0.60908026) (0.60095656,0.60095656,0.64139925) (0.60095656,0.60095656,0.80702891) (0.60095656,0.60095656,0.66150056) (0.60095656,0.60095656,0.64645625)
(0.60095656,0.60095656,0.63339678) (0.60095656,0.60095656,0.84398849) (0.60095656,0.60095656,0.62299196) (0.60095656,0.60095656,0.60932414) (0.60095656,0.60095656,0.97898807) (0.60095656,0.60095656,0.61083880)
(0.60095656,0.60095656,0.60202726) (0.60095656,0.60095656,0.68761561) (0.60095656,0.60095656,0.74984622) (0.60095656,0.60095656,0.75301904) (0.60095656,0.60095656,0.86554009) (0.60095656,0.60095656,0.63843378)
(0.60095656,0.60095656,0.62446605) (0.60095656,0.60095656,0.61386843) (0.60095656,0.60095656,0.83461983) (0.60095656,0.60095656,0.60202458) (0.60095656,0.60095656,0.75842845) (0.60095656,0.60095656,0.67346174)
(0.60095656,0.60095656,0.78312504) (0.60095656,0.60095656,0.85694631) (0.60095656,0.60095656,0.66711007) (0.60095656,0.60095656,0.61249588) (0.60095656,0.60095656,0.93947458) (0.60095656,0.60095656,0.99889268)
(0.60095656,0.60095656,0.77363222) (0.60095656,0.60095656,0.90692501) (0.60095656,0.60095656,0.99038406) (0.60095656,0.60095656,0.61986943) (0.60095656,0.60095656,0.99770412) (0.60095656,0.60095656,0.93651724)
(0.60095656,0.60095656,0.71884982) (0.60095656,0.60095656,0.75566971) (0.60095656,0.60095656,0.88246862) (0.60095656,0.60095656,0.65212530) (0.60095656,0.60095656,0.78788377) (0.60095656,0.60095656,0.62744282)
(0.60095656,0.60095656,0.88876118) (0.60095656,0.60095656,0.71806683) (0.60095656,0.60095656,0.85610610) (0.60095656,0.60095656,0.67837295) (0.60095656,0.60095656,0.61238575) (0.60095656,0.60095656,0.88148285)
(0.60095656,0.60095656,0.98190148) (0.60095656,0.60095656,0.60095697) (0.60095656,0.60095656,0.60279299) (0.60095656,0.60095656,0.63713393) (0.60095656,0.60095656,0.82406723) (1.00000000,1.00000000,0.98465170)
(0.60095656,0.60095656,0.97998355) (0.60095656,0.60095656,0.80474108) (0.60095656,0.60095656,0.63000318) (0.60095656,0.60095656,0.84066514) (0.60095656,0.60095656,0.80363032) (0.60095656,0.60095656,0.82381199)
(0.60095656,0.60095656,0.91502747) (0.60095656,0.60095656,0.66028595) (0.60095656,0.60095656,0.60147074) (0.60095656,0.60095656,0.65017865) (0.60095656,0.60095656,0.95600550) (0.60095656,0.60095656,0.92073775)
(0.60095656,0.60095656,0.97157503) (0.60095656,0.60095656,0.72320494) (0.60095656,0.60095656,0.70214044) (0.60095656,0.60095656,0.96903305) (0.60095656,0.60095656,0.75446375) (0.60095656,0.60095656,0.64852892)
(0.60095656,0.60095656,0.95995867) (0.60095656,0.60095656,0.96580444) (0.60095656,0.60095656,0.64853000) (0.60095656,0.60095656,0.60895107) (0.60095656,0.60095656,0.71317052) (0.60095656,0.60095656,0.60576444)
(0.60095656,0.60095656,0.92501680) (0.60095656,0.60095656,0.76368507) (0.60095656,0.60095656,0.60587475) (0.60095656,0.60095656,0.63827498) (0.60095656,0.60095656,0.76355468) (0.60095656,0.60095656,0.61287579)
(0.60095656,0.60095656,0.95855120) (0.60095656,0.60095656,0.60884925) (0.60095656,0.60095656,0.87545397) (0.60095656,0.60095656,0.77249339) (0.60095656,0.60095656,0.95422988) (0.60095656,0.60095656,0.82702152)
(0.60095656,0.60095656,0.81913445) (0.60095656,0.60095656,0.89825952) (0.60095656,0.60095656,0.64720289) (0.60095656,0.60095656,0.62024850) (0.60095656,0.60095656,0.61443049) (0.60095656,0.60095656,0.70018887)
(0.60095656,0.60095656,0.67791589) (0.60095656,0.60095656,0.65074900) (0.60095656,0.60095656,0.76981245) (0.60095656,0.60095656,0.66079727) (0.60095656,0.60095656,0.72539997) (0.60095656,0.60095656,0.70947133)
(0.60095656,0.60095656,0.63001967) (0.60095656,0.60095656,0.60158309) (0.60095656,0.60095656,0.64942445) (0.60095656,0.60095656,0.97106622) (0.60095656,0.60095656,0.60496740) (0.60095656,0.60095656,0.84485739)
(0.60095656,0.60095656,0.65364169) (0.60095656,0.60095656,0.60308484) (0.60095656,0.60095656,0.72028595) (0.60095656,0.60095656,0.85121609) (0.60095656,0.60095656,0.86406978) (0.60095656,0.60095656,0.77687895)
(0.60095656,0.60095656,0.69346502) (0.60095656,0.60095656,0.62556957) (0.60095656,0.60095656,0.60096453) (0.60095656,0.60095656,0.69431196) (0.60095656,0.60095656,0.60095667) (0.60095656,0.60095656,0.64291989)
(0.60095656,0.60095656,0.81031542) (0.60095656,0.60095656,0.61636568) (0.60095656,0.60095656,0.60100336) (0.60095656,0.60095656,0.60396866) (0.60095656,0.60095656,0.67216547) (0.60095656,0.60095656,0.75664695)
(0.60095656,0.60095656,0.60240723) (0.60095656,0.60095656,0.67738792) (0.60095656,0.60095656,0.60856140) (0.60095656,0.60095656,0.74668098) (0.60095656,0.60095656,0.95628688) (0.60095656,0.60095656,0.60194190)
(0.60095656,0.60095656,0.63394085) (0.60095656,0.60095656,0.89348128) (0.60095656,0.60095656,0.90110841) (0.60095656,0.60095656,0.67756785) (0.60095656,0.60095656,0.83279889) (0.60095656,0.60095656,0.94327167)
(0.60095656,0.60095656,0.79959470) (0.60095656,0.60095656,0.60951642) (0.60095656,0.60095656,0.99795721) (0.60095656,0.60095656,0.60644683) (0.60095656,0.60095656,0.67564699) (0.60095656,0.60095656,0.60893628)
(0.60095656,0.60095656,0.88727157) (0.60095656,0.60095656,0.61167678) (0.60095656,0.60095656,0.80556312) (0.60095656,0.60095656,0.79884908) (0.60095656,0.60095656,0.77682194) (0.60095656,0.60095656,0.78791055)
(0.60095656,0.60095656,0.99436112) (0.60095656,0.60095656,0.83618870) (0.60095656,0.60095656,0.65761558) (0.60095656,0.60095656,0.69447427) (0.60095656,0.60095656,0.61927298) (0.60095656,0.60095656,0.63140979)
(0.60095656,0.60095656,0.93795780) (0.60095656,0.60095656,0.60121977) (0.60095656,0.60095656,0.81393809) (0.60095656,0.60095656,0.95778990) (0.60095656,0.60095656,0.68292011) (0.60095656,0.60095656,0.61590216)
(0.60095656,0.60095656,0.78739706) (0.60095656,0.60095656,0.71839733) (0.60095656,0.60095656,0.64512786) (0.60095656,0.60095656,0.98889018) (0.60095656,0.60095656,0.64307864) (0.60095656,0.60095656,0.63964552)
(0.60095656,0.60095656,0.94987412) (0.60095656,0.60095656,0.61607923) (0.60095656,0.60095656,0.62308388) (0.60095656,0.60095656,0.62329841) (0.60095656,0.60095656,0.60209437) (0.60095656,0.60095656,0.73066462)
(0.60095656,0.60095656,0.90786432) (0.60095656,0.60095656,0.75894762) (0.60095656,0.60095656,0.99928678) (0.60095656,0.60095656,0.62785591) (0.60095656,0.60095656,0.82196154) (0.60095656,0.60095656,0.60254911)
(0.60095656,0.60095656,0.86126344) (0.60095656,0.60095656,0.60277806) (0.60095656,0.60095656,0.94061701) (0.60095656,0.60095656,0.60330906) (0.60095656,0.60095656,0.97538433) (0.60095656,0.60095656,0.75683389)
(0.60095656,0.60095656,0.80985235) (0.60095656,0.60095656,0.79261909) (0.60095656,0.60095656,0.88470174) (0.60095656,0.60095656,0.85522782) (0.60095656,0.60095656,0.83380616) (0.60095656,0.60095656,0.64214719)
(0.60095656,0.60095656,0.75355347) (0.60095656,0.60095656,0.99981945) (0.60095656,0.60095656,0.83698842) (0.60095656,0.60095656,0.61185452) (0.60095656,0.60095656,0.95045322) (0.60095656,0.60095656,0.85647699)
(0.60095656,0.60095656,0.77824021) (0.60095656,0.60095656,0.72287714) (0.60095656,0.60095656,0.77126586) (0.60095656,0.60095656,0.96783354) (0.60095656,0.60095656,0.99864910) (0.60095656,0.60095656,0.61649786)
(0.60095656,0.60095656,0.77112960) (0.60095656,0.60095656,0.99748770) (0.60095656,0.60095656,0.63002945) (0.60095656,0.60095656,0.92997100) (0.60095656,0.60095656,0.88237661) (0.60095656,0.60095656,0.64179473)
(0.60095656,0.60095656,0.78498360) (0.60095656,0.60095656,0.81810909) (0.60095656,0.60095656,0.99566944) (0.60095656,0.60095656,0.65228403) (0.60095656,0.60095656,0.79523827) (0.60095656,0.60095656,0.74966154)
(0.60095656,0.60095656,0.67160211) (0.60095656,0.60095656,0.64052824) (0.60095656,0.60095656,0.96893166) (0.60095656,0.60095656,0.65793442) (0.60095656,0.60095656,0.76220985) (0.60095656,0.60095656,0.60121192)
(0.60095656,0.60095656,0.60389012) (0.60095656,0.60095656,0.76736356) (0.60095656,0.60095656,0.85725827) (0.60095656,0.60095656,0.77206238) (0.60095656,0.60095656,0.81704700) (0.60095656,0.60095656,0.60499656)
(0.60095656,0.60095656,0.92129244) (0.60095656,0.60095656,0.69186524) (0.60095656,0.60095656,0.87871654) (0.60095656,0.60095656,0.86763501) (0.60095656,0.60095656,0.72734987) (0.60095656,0.60095656,0.73079042)
(0.60095656,0.60095656,0.72947822) (0.60095656,0.60095656,0.84935435) (0.60095656,0.60095656,0.81843845) (0.60095656,0.60095656,0.97346082) (0.60095656,0.60095656,0.66738948) (0.60095656,0.60095656,0.60968190)
(0.60095656,0.60095656,0.74030652) (0.60095656,0.60095656,0.69249042) (0.60095656,0.60095656,0.68924836) (0.60095656,0.60095656,0.60095794) (0.60095656,0.60095656,0.63028334) (0.60095656,0.60095656,0.60183748)
(0.60095656,0.60095656,0.70298489) (0.60095656,0.60095656,0.63204950) (0.60095656,0.60095656,0.78019830) (0.60095656,0.60095656,0.91902284) (0.60095656,0.60095656,0.86722505) (0.60095656,0.60095656,0.79746651)
(0.60095656,0.60095656,0.63744237) (0.60095656,0.60095656,0.63034717) (0.60095656,0.60095656,0.95160888) (0.60095656,0.60095656,0.99054295) (0.60095656,0.60095656,0.93072213) (0.60095656,0.60095656,0.78322311)
(0.60095656,0.60095656,0.74507403) (0.60095656,0.60095656,0.98918504) (0.60095656,0.60095656,0.83764864) (0.60095656,0.60095656,0.66376124) (0.60095656,0.60095656,0.68058084) (0.60095656,0.60095656,0.97936550)
(0.60095656,0.60095656,0.94057059) (0.60095656,0.60095656,0.66639893) (0.60095656,0.60095656,0.81011435) (0.60095656,0.60095656,0.99466713) (0.60095656,0.60095656,0.61301793) (0.60095656,0.60095656,0.92941494)
(0.60095656,0.60095656,0.98779411) (0.60095656,0.60095656,0.79605922) (0.60095656,0.60095656,0.95236057) (0.60095656,0.60095656,0.98936588) (0.60095656,0.60095656,0.75556944) (0.60095656,0.60095656,0.97671079)
(0.60095656,0.60095656,0.99201261) (0.60095656,0.60095656,0.88003632) (0.60095656,0.60095656,0.69285424) (0.60095656,0.60095656,0.99990321) (0.60095656,0.60095656,0.84419036) (0.60095656,0.60095656,0.62844687)
(0.60095656,0.60095656,0.99174564) (0.60095656,0.60095656,0.71771131) (0.60095656,0.60095656,0.95193858) (0.60095656,0.60095656,0.61332315) (0.60095656,0.60095656,0.99938373) (0.60095656,0.60095656,0.83332488)
(0.60095656,0.60095656,0.99678351) (0.60095656,0.60095656,0.97858827) (0.60095656,0.60095656,0.88517053) (0.60095656,0.60095656,0.66259354) (0.60095656,0.60095656,0.90444497) (0.60095656,0.60095656,0.72704378)
(0.60095656,0.60095656,0.89599414) (0.60095656,0.60095656,0.93351677) (0.60095656,0.60095656,0.61970333) (0.60095656,0.60095656,0.85596146) (0.60095656,0.60095656,0.63795480) (0.60095656,0.60095656,0.90781956)
(0.60095656,0.60095656,0.94336375) (0.60095656,0.60095656,0.60953094) (0.60095656,0.60095656,0.61054246) (0.60095656,0.60095656,0.65526122) (0.60095656,0.60095656,0.60222293) (0.60095656,0.60095656,0.88629900)
(0.60095656,0.60095656,0.83345642) (0.60095656,0.60095656,0.94826895) (0.60095656,0.60095656,0.73626358) (0.60095656,0.60095656,0.93362109) (0.60095656,0.60095656,0.87035982) (0.60095656,0.60095656,0.99536892)
(0.60095656,0.60095656,0.90695737) (0.60095656,0.60095656,0.91006817) (0.60095656,0.60095656,0.68847973) (0.60095656,0.60095656,0.65672291) (0.60095656,0.60095656,0.62326510) (0.60095656,0.60095656,0.66440018)
(0.60095656,0.60095656,0.71202212) (0.60095656,0.60095656,0.93369717) (0.60095656,0.60095656,0.78737766) (0.60095656,0.60095656,0.62757727) (0.60095656,0.60095656,0.86559457) (0.60095656,0.60095656,0.85960957)
(0.60095656,0.60095656,0.76530923) (0.60095656,0.60095656,0.87635296) (0.60095656,0.60095656,0.73828689) (0.60095656,0.60095656,0.69132824) (0.60095656,0.60095656,0.96008925) (0.60095656,0.60095656,0.99150962)
(0.60095656,0.60095656,0.69233224) (0.60095656,0.60095656,0.62809972) (0.60095656,0.60095656,0.70184330) (0.60095656,0.60095656,0.96970971) (0.60095656,0.60095656,0.76466902) (0.60095656,0.60095656,0.97237930)
(0.60095656,0.60095656,0.60131838) (0.60095656,0.60095656,0.77510141) (0.60095656,0.60095656,0.96211956) (0.60095656,0.60095656,0.84033675) (0.60095656,0.60095656,0.71784760) (0.60095656,0.60095656,0.93461638)
(0.60095656,0.60095656,0.60508695) (0.60095656,0.60095656,0.94285602) (0.60095656,0.60095656,0.99976579) (0.60095656,0.60095656,0.79333262) (0.60095656,0.60095656,0.98881097) (0.60095656,0.60095656,0.86511348)
(0.60095656,0.60095656,0.71140346) (0.60095656,0.60095656,0.87522292) (0.60095656,0.60095656,0.97955317) (0.60095656,0.60095656,0.60752287) (0.60095656,0.60095656,0.99917288) (0.60095656,0.60095656,0.96493294)
(0.60095656,0.60095656,0.81388592) (0.60095656,0.60095656,0.69673779) (0.60095656,0.60095656,0.82114328) (0.60095656,0.60095656,0.64247943) (0.60095656,0.60095656,0.96937628) (0.60095656,0.60095656,0.78641362)
(0.60095656,0.60095656,0.98916197) (0.60095656,0.60095656,0.73991544) (0.60095656,0.60095656,0.91655173) (0.60095656,0.60095656,0.62977597) (0.60095656,0.60095656,0.99381819) (0.60095656,0.60095656,0.60511305)
(0.60095656,0.60095656,0.97494623) (0.60095656,0.60095656,0.89429187) (0.60095656,0.60095656,0.83714680) (0.60095656,0.60095656,0.99858352) (0.60095656,0.60095656,0.71501986) (0.60095656,0.60095656,0.96557165)
(0.60095656,0.60095656,0.98112690) (0.60095656,0.60095656,0.99954775) (0.60095656,0.60095656,0.99840083) (0.60095656,0.60095656,0.94908909) (0.60095656,0.60095656,0.92353057) (0.60095656,0.60095656,0.71808859)
(0.60095656,0.60095656,0.80912164) (0.60095656,0.60095656,0.99813707) (0.60095656,0.60095656,0.89074716) (0.60095656,0.60095656,0.90047632) (0.60095656,0.60095656,0.98004643) (0.60095656,0.60095656,0.86115480)
(0.60095656,0.60095656,0.98994949) (0.60095656,0.60095656,0.97118168) (0.60095656,0.60095656,0.90652814) (0.60095656,0.60095656,0.94323896) (0.60095656,0.60095656,0.63684618) (1.00000000,1.00000000,0.65975249)
(0.60095656,0.60095656,0.77763863) (0.60095656,0.60095656,0.61335241) (0.60095656,0.60095656,0.90913359) (0.60095656,0.60095656,0.86445204) (0.60095656,0.60095656,0.80366134) (0.60095656,0.60095656,0.72255630)
(0.60095656,0.60095656,0.97414165) (0.60095656,0.60095656,0.66419670) (0.60095656,0.60095656,0.99882147) (0.60095656,0.60095656,0.99999968) (0.60095656,0.60095656,0.60422261) (0.60095656,0.60095656,0.63444838)
(0.60095656,0.60095656,0.66336160) (0.60095656,0.60095656,0.91132273) (0.60095656,0.60095656,0.90740858) (0.60095656,0.60095656,0.81060406) (0.60095656,0.60095656,0.63076547) (0.60095656,0.60095656,0.95307533)
(0.60095656,0.60095656,0.82130028) (0.60095656,0.60095656,0.95651327) (0.60095656,0.60095656,0.88059986) (0.60095656,0.60095656,0.76914835) (0.60095656,0.60095656,0.78953483) (0.60095656,0.60095656,0.96502696)
(0.60095656,0.60095656,0.92422142) (0.60095656,0.60095656,0.94257133) (0.60095656,0.60095656,0.70628527) (0.60095656,0.60095656,0.96143818) (0.60095656,0.60095656,0.74166421) (0.60095656,0.60095656,0.77178272)
(0.60095656,0.60095656,0.92736958) (0.60095656,0.60095656,0.60395114) (0.60095656,0.60095656,0.62596924) (0.60095656,0.60095656,0.80079403) (0.60095656,0.60095656,0.65961790) (0.60095656,0.60095656,0.61733453)
(0.60095656,0.60095656,0.75331835) (0.60095656,0.60095656,0.77352088) (0.60095656,0.60095656,0.67370286) (0.60095656,0.60095656,0.69572456) (0.60095656,0.60095656,0.61725646) (0.60095656,0.60095656,0.60168891)
(0.60095656,0.60095656,0.77712008) (0.60095656,0.60095656,0.60095666) (0.60095656,0.60095656,0.68748610) (0.60095656,0.60095656,0.60527195) (0.60095656,0.60095656,0.60664807) (0.60095656,0.60095656,0.77369344)
(0.60095656,0.60095656,0.62086465) (0.60095656,0.60095656,0.69742044) (0.60095656,0.60095656,0.96209566) (0.60095656,0.60095656,0.68918977) (0.60095656,0.60095656,0.87792582) (0.60095656,0.60095656,0.96659867)
(0.60095656,0.60095656,0.71256822) (0.60095656,0.60095656,0.74975876) (0.60095656,0.60095656,0.84212000) (0.60095656,0.60095656,0.75642115) (0.60095656,0.60095656,0.96539162) (0.60095656,0.60095656,0.68186252)
(0.60095656,0.60095656,0.81209182) (0.60095656,0.60095656,0.73153196) (0.60095656,0.60095656,0.68018834) (0.60095656,0.60095656,0.93812885) (0.60095656,0.60095656,0.96031643) (0.60095656,0.60095656,0.60432111)
(0.60095656,0.60095656,0.89000839) (0.60095656,0.60095656,0.85208239) (0.60095656,0.60095656,0.60227235) (0.60095656,0.60095656,0.84098437) (0.60095656,0.60095656,0.93686906) (0.60095656,0.60095656,0.62555214)
(0.60095656,0.60095656,0.97836082) (0.60095656,0.60095656,0.97308043) (0.60095656,0.60095656,0.60116718) (0.60095656,0.60095656,0.73833802) (0.60095656,0.60095656,0.60133996) (0.60095656,0.60095656,0.64215895)
(0.60095656,0.60095656,0.79616142) (0.60095656,0.60095656,0.94283845) (0.60095656,0.60095656,0.83830451) (0.60095656,0.60095656,0.91014257) (0.60095656,0.60095656,0.63621732) (0.60095656,0.60095656,0.64294567)
(0.60095656,0.60095656,0.79153467) (0.60095656,0.60095656,0.96617757) (0.60095656,0.60095656,0.97441880) (0.60095656,0.60095656,0.94162792) (0.60095656,0.60095656,0.63524527) (0.60095656,0.60095656,0.61942501)
(0.60095656,0.60095656,0.71183082) (0.60095656,0.60095656,0.94160524) (0.60095656,0.60095656,0.62106662) (0.60095656,0.60095656,0.62612164) (0.60095656,0.60095656,0.78533062) (0.60095656,0.60095656,0.95200718)
(0.60095656,0.60095656,0.74058434) (0.60095656,0.60095656,0.97570657) (0.60095656,0.60095656,0.92512227) (0.60095656,0.60095656,0.75782831) (0.60095656,0.60095656,0.94101667) (0.60095656,0.60095656,0.90668012)
(0.60095656,0.60095656,0.65995964) (0.60095656,0.60095656,0.71834466) (0.60095656,0.60095656,0.71906135) (0.60095656,0.60095656,0.82729401) (0.60095656,0.60095656,0.97433382) (0.60095656,0.60095656,0.71642158)
(0.60095656,0.60095656,0.66273238) (0.60095656,0.60095656,0.94230702) (0.60095656,0.60095656,0.75824613) (0.60095656,0.60095656,0.76022943) (0.60095656,0.60095656,0.99872110) (0.60095656,0.60095656,0.81204355)
(0.60095656,0.60095656,0.66400753) (0.60095656,0.60095656,0.96700010) (0.60095656,0.60095656,0.82101905) (0.60095656,0.60095656,0.60095709) (0.60095656,0.60095656,0.90963019) (0.60095656,0.60095656,0.69784425)
(0.60095656,0.60095656,0.76999747) (0.60095656,0.60095656,0.98337464) (0.60095656,0.60095656,0.69222567) (0.60095656,0.60095656,0.67995087) (0.60095656,0.60095656,0.62770726) (0.60095656,0.60095656,0.72004547)
(0.60095656,0.60095656,0.66328020) (0.60095656,0.60095656,0.64798004) (0.60095656,0.60095656,0.85375289) (0.60095656,0.60095656,0.60182904) (0.60095656,0.60095656,0.76575949) (0.60095656,0.60095656,0.63968621)
(0.60095656,0.60095656,0.80019787) (0.60095656,0.60095656,0.66343491) (0.60095656,0.60095656,0.73007298) (0.60095656,0.60095656,0.73991921) (0.60095656,0.60095656,0.84630930) (0.60095656,0.60095656,0.89601753)
(0.60095656,0.60095656,0.96364003) (0.60095656,0.60095656,0.65526779) (0.60095656,0.60095656,0.76246386) (0.60095656,0.60095656,0.70903523) (0.60095656,0.60095656,0.94548857) (0.60095656,0.60095656,0.74120849)
(0.60095656,0.60095656,0.79805004) (0.60095656,0.60095656,0.62335611) (0.60095656,0.60095656,0.61081351) (0.60095656,0.60095656,0.64380780) (0.60095656,0.60095656,0.96407341) (0.60095656,0.60095656,0.79104293)
(0.60095656,0.60095656,0.88966243) (0.60095656,0.60095656,0.69937999) (0.60095656,0.60095656,0.60155326) (0.60095656,0.60095656,0.85492444) (0.60095656,0.60095656,0.60095683) (0.60095656,0.60095656,0.62341474)
(0.60095656,0.60095656,0.60605111) (0.60095656,0.60095656,0.90706575) (0.60095656,0.60095656,0.65778025) (0.60095656,0.60095656,0.71626041) (0.60095656,0.60095656,0.77798296) (0.60095656,0.60095656,0.94933794)
(0.60095656,0.60095656,0.93032161) (0.60095656,0.60095656,0.85759890) (0.60095656,0.60095656,0.65039324) (0.60095656,0.60095656,0.79637990) (0.60095656,0.60095656,0.65058007) (0.60095656,0.60095656,0.67428872)
(0.60095656,0.60095656,0.97604386) (0.60095656,0.60095656,0.60236916) (0.60095656,0.60095656,0.60123034) (0.60095656,0.60095656,0.98812057) (0.60095656,0.60095656,0.98592536) (0.60095656,0.60095656,0.81776047)
(0.60095656,0.60095656,0.91565253) (0.60095656,0.60095656,0.85037697) (0.60095656,0.60095656,0.82644201) (0.60095656,0.60095656,0.68333711) (0.60095656,0.60095656,0.86919889) (0.60095656,0.60095656,0.88294247)
(0.60095656,0.60095656,0.75537922) (0.60095656,0.60095656,0.99994754) (0.60095656,0.60095656,0.75961438) (0.60095656,0.60095656,0.91578437) (0.60095656,0.60095656,0.79112765) (0.60095656,0.60095656,0.88474671)
(0.60095656,0.60095656,0.75763136) (0.60095656,0.60095656,0.98124420) (0.60095656,0.60095656,0.85541201) (0.60095656,0.60095656,0.94792600) (0.60095656,0.60095656,0.60131508) (0.60095656,0.60095656,0.66050197)
(0.60095656,0.60095656,0.63544028) (0.60095656,0.60095656,0.88781782) (0.60095656,0.60095656,0.67118128) (0.60095656,0.60095656,0.99516419) (0.60095656,0.60095656,0.70628148) (0.60095656,0.60095656,0.61849839)
(0.60095656,0.60095656,0.60158216) (0.60095656,0.60095656,0.95019437) (0.60095656,0.60095656,0.78127462) (0.60095656,0.60095656,0.96525838) (0.60095656,0.60095656,0.62398838) (0.60095656,0.60095656,0.64646737)
(0.60095656,0.60095656,0.61116813) (0.60095656,0.60095656,0.99822627) (0.60095656,0.60095656,0.87862499) (0.60095656,0.60095656,0.99921253) (0.60095656,0.60095656,0.72672979) (0.60095656,0.60095656,0.87848078)
(0.60095656,0.60095656,0.64122570) (0.60095656,0.60095656,0.99320521) (0.60095656,0.60095656,0.64438224) (0.60095656,0.60095656,0.71990932) (0.60095656,0.60095656,0.60147499) (0.60095656,0.60095656,0.93221474)
(0.60095656,0.60095656,0.64259903) (0.60095656,0.60095656,0.99362340) (0.60095656,0.60095656,0.60098919) (0.60095656,0.60095656,0.60270213) (0.60095656,0.60095656,0.60549879) (0.60095656,0.60095656,0.99879358)
(0.60095656,0.60095656,0.85900065) (0.60095656,0.60095656,0.64945462) (0.60095656,0.60095656,0.69734072) (0.60095656,0.60095656,0.79306723) (0.60095656,0.60095656,0.92115249) (1.00000000,1.00000000,0.60433582)
(0.60095656,0.60095656,0.87321028) (0.60095656,0.60095656,0.60327123) (0.60095656,0.60095656,0.65522885) (0.60095656,0.60095656,0.84865489) (0.60095656,0.60095656,0.61146079) (0.60095656,0.60095656,0.60097297)
(0.60095656,0.60095656,0.85906491) (0.60095656,0.60095656,0.61242418) (0.60095656,0.60095656,0.73107163) (0.60095656,0.60095656,0.76233163) (0.60095656,0.60095656,0.60223541) (0.60095656,0.60095656,0.67291969)
(0.60095656,0.60095656,0.90363447) (0.60095656,0.60095656,0.66989710) (0.60095656,0.60095656,0.67252797) (0.60095656,0.60095656,0.91504448) (0.60095656,0.60095656,0.65069731) (0.60095656,0.60095656,0.63225669)
(0.60095656,0.60095656,0.85542361) (0.60095656,0.60095656,0.63645379) (0.60095656,0.60095656,0.62238192) (0.60095656,0.60095656,0.62859527) (0.60095656,0.60095656,0.60937096) (0.60095656,0.60095656,0.80694665)
(0.60095656,0.60095656,0.64388473) (0.60095656,0.60095656,0.78620181) (0.60095656,0.60095656,0.98512579) (0.60095656,0.60095656,0.65198780) (0.60095656,0.60095656,0.60142981) (0.60095656,0.60095656,0.69603365)
(0.60095656,0.60095656,0.60494792) (0.60095656,0.60095656,0.81889635) (0.60095656,0.60095656,0.91409558) (0.60095656,0.60095656,0.71568457) (0.60095656,0.60095656,0.95542714) (0.60095656,0.60095656,0.76783846)
(0.60095656,0.60095656,0.60873912) (0.60095656,0.60095656,0.84293235) (0.60095656,0.60095656,0.66022210) (0.60095656,0.60095656,0.87325857) (0.60095656,0.60095656,0.87658877) (0.60095656,0.60095656,0.94726363)
(0.60095656,0.60095656,0.62566101) (0.60095656,0.60095656,0.60107753) (0.60095656,0.60095656,0.66802886) (0.60095656,0.60095656,0.94627806) (0.60095656,0.60095656,0.60515806) (0.60095656,0.60095656,0.96684256)
(0.60095656,0.60095656,0.89256230) (0.60095656,0.60095656,0.63442693) (0.60095656,0.60095656,0.75368192) (0.60095656,0.60095656,0.71300453) (0.60095656,0.60095656,0.72624118) (0.60095656,0.60095656,0.65319399)
(0.60095656,0.60095656,0.71141752) (0.60095656,0.60095656,0.62308197) (0.60095656,0.60095656,0.95489058) (0.60095656,0.60095656,0.63063373) (0.60095656,0.60095656,0.92321805) (0.60095656,0.60095656,0.64868392)
(0.60095656,0.60095656,0.82744189) (0.60095656,0.60095656,0.69292180) (0.60095656,0.60095656,0.91344935) (0.60095656,0.60095656,0.99460969) (0.60095656,0.60095656,0.62593898) (0.60095656,0.60095656,0.68528967)
(0.60095656,0.60095656,0.62630794) (0.60095656,0.60095656,0.63021159) (0.60095656,0.60095656,0.90093350) (0.60095656,0.60095656,0.60235402) (0.60095656,0.60095656,0.99993140) (0.60095656,0.60095656,0.95426592)
(0.60095656,0.60095656,0.71468037) (0.60095656,0.60095656,0.70262881) (0.60095656,0.60095656,0.95648774) (0.60095656,0.60095656,0.66574019) (0.60095656,0.60095656,0.70245819) (0.60095656,0.60095656,0.61338392)
(0.60095656,0.60095656,0.60095750) (0.60095656,0.60095656,0.96483492) (0.60095656,0.60095656,0.94973015) (0.60095656,0.60095656,0.98898135) (0.60095656,0.60095656,0.86629365) (0.60095656,0.60095656,0.60116751)
(0.60095656,0.60095656,0.74405944) (0.60095656,0.60095656,0.83710447) (0.60095656,0.60095656,0.96258601) (0.60095656,0.60095656,0.60104243) (0.60095656,0.60095656,0.99717498) (0.60095656,0.60095656,0.74007325)
(0.60095656,0.60095656,0.81890158) (0.60095656,0.60095656,0.90057624) (0.60095656,0.60095656,0.91514332) (0.60095656,0.60095656,0.80643002) (0.60095656,0.60095656,0.99051025) (0.60095656,0.60095656,0.89291602)
(0.60095656,0.60095656,0.65898535) (0.60095656,0.60095656,0.99840072) (0.60095656,0.60095656,0.61887914) (0.60095656,0.60095656,0.87861902) (0.60095656,0.60095656,0.99955679) (0.60095656,0.60095656,0.64419691)
(0.60095656,0.60095656,0.61264314) (0.60095656,0.60095656,0.97410919) (0.60095656,0.60095656,0.71945263) (0.60095656,0.60095656,0.61964136) (0.60095656,0.60095656,0.70264485) (0.60095656,0.60095656,0.90735921)
(0.60095656,0.60095656,0.66429150) (0.60095656,0.60095656,0.99097468) (0.60095656,0.60095656,0.83682948) (0.60095656,0.60095656,0.80789189) (0.60095656,0.60095656,0.63208555) (0.60095656,0.60095656,0.93344277)
(0.60095656,0.60095656,0.78241129) (0.60095656,0.60095656,0.98414598) (0.60095656,0.60095656,0.83967831) (0.60095656,0.60095656,0.85637319) (0.60095656,0.60095656,0.82276809) (0.60095656,0.60095656,0.70095182)
(0.60095656,0.60095656,0.84239886) (0.60095656,0.60095656,0.77402640) (0.60095656,0.60095656,0.65522499) (0.60095656,0.60095656,0.63947996) (0.60095656,0.60095656,0.91849148) (0.60095656,0.60095656,0.68866380)
(0.60095656,0.60095656,0.83576626) (0.60095656,0.60095656,0.88049046) (0.60095656,0.60095656,0.61685914) (0.60095656,0.60095656,0.61887318) (0.60095656,0.60095656,0.71223592) (0.60095656,0.60095656,0.67720587)
(0.60095656,0.60095656,0.60100333) (0.60095656,0.60095656,0.72493506) (0.60095656,0.60095656,0.74682786) (0.60095656,0.60095656,0.97951565) (0.60095656,0.60095656,0.61084188) (0.60095656,0.60095656,0.64647418)
(0.60095656,0.60095656,0.89599735) (0.60095656,0.60095656,0.64286472) (0.60095656,0.60095656,0.87789152) (0.60095656,0.60095656,0.77220182) (0.60095656,0.60095656,0.60142499) (0.60095656,0.60095656,0.85160575)
(0.60095656,0.60095656,0.81261913) (0.60095656,0.60095656,0.62071508) (0.60095656,0.60095656,0.68230689) (0.60095656,0.60095656,0.98148696) (0.60095656,0.60095656,0.66054675) (0.60095656,0.60095656,0.85126213)
(0.60095656,0.60095656,0.73217707) (0.60095656,0.60095656,0.84557020) (0.60095656,0.60095656,0.60613079) (0.60095656,0.60095656,0.62906339) (0.60095656,0.60095656,0.67524563) (0.60095656,0.60095656,0.62527810)
(0.60095656,0.60095656,0.60848087) (0.60095656,0.60095656,0.82657085) (0.60095656,0.60095656,0.63393192) (0.60095656,0.60095656,0.90768059) (0.60095656,0.60095656,0.60203251) (0.60095656,0.60095656,0.61244513)
(0.60095656,0.60095656,0.61178060) (0.60095656,0.60095656,0.86641933) (0.60095656,0.60095656,0.64523067) (0.60095656,0.60095656,0.76494455) (0.60095656,0.60095656,0.99451079) (0.60095656,0.60095656,0.72147551)
(0.60095656,0.60095656,0.62518334) (0.60095656,0.60095656,0.78531777) (0.60095656,0.60095656,0.66897098) (0.60095656,0.60095656,0.77927270) (0.60095656,0.60095656,0.97697992) (0.60095656,0.60095656,0.71084558)
(0.60095656,0.60095656,0.60937969) (0.60095656,0.60095656,0.60937087) (0.60095656,0.60095656,0.60115591) (0.60095656,0.60095656,0.65354175) (0.60095656,0.60095656,0.60362901) (0.60095656,0.60095656,0.60242261)
(0.60095656,0.60095656,0.92441954) (0.60095656,0.60095656,0.77023226) (0.60095656,0.60095656,0.67768668) (0.60095656,0.60095656,0.63788602) (0.60095656,0.60095656,0.85422726) (0.60095656,0.60095656,0.60095656)
(0.60095656,0.60095656,0.72094499) (0.60095656,0.60095656,0.97486393) (0.60095656,0.60095656,0.98138191) (0.60095656,0.60095656,0.99658716) (0.60095656,0.60095656,0.60986084) (0.60095656,0.60095656,0.63920253)
(0.60095656,0.60095656,0.74311908) (0.60095656,0.60095656,0.82931173) (0.60095656,0.60095656,0.67803608) (0.60095656,0.60095656,0.69343174) (0.60095656,0.60095656,0.60687039) (0.60095656,0.60095656,0.61547713)
(0.60095656,0.60095656,0.63979504) (0.60095656,0.60095656,0.91219265) (0.60095656,0.60095656,0.65003264) (0.60095656,0.60095656,0.98543850) (0.60095656,0.60095656,0.60504353) (0.60095656,0.60095656,0.61005679)
(0.60095656,0.60095656,0.77147480) (0.60095656,0.60095656,0.81348994) (0.60095656,0.60095656,0.62804042) (0.60095656,0.60095656,0.97598360) (0.60095656,0.60095656,0.65711053) (0.60095656,0.60095656,0.64459369)
(0.60095656,0.60095656,0.81231459) (0.60095656,0.60095656,0.75473016) (0.60095656,0.60095656,0.60384434) (0.60095656,0.60095656,0.61409728) (0.60095656,0.60095656,0.60920566) (0.60095656,0.60095656,0.99327873)
(0.60095656,0.60095656,0.75087486) (0.60095656,0.60095656,0.60279318) (0.60095656,0.60095656,0.99458652) (0.60095656,0.60095656,0.60143867) (0.60095656,0.60095656,0.82241678) (0.60095656,0.60095656,0.99683193)
(0.60095656,0.60095656,0.60807997) (0.60095656,0.60095656,0.74920797) (0.60095656,0.60095656,0.91520085) (0.60095656,0.60095656,0.73954766) (0.60095656,0.60095656,0.62727824) (0.60095656,0.60095656,0.97140560)
(0.60095656,0.60095656,0.85870051) (0.60095656,0.60095656,0.60777938) (0.60095656,0.60095656,0.98878732) (0.60095656,0.60095656,0.75708507) (0.60095656,0.60095656,0.83971409) (0.60095656,0.60095656,0.98557732)
(0.60095656,0.60095656,0.60095656) (0.60095656,0.60095656,0.66451621) (0.60095656,0.60095656,0.95184295) (0.60095656,0.60095656,0.80948143) (0.60095656,0.60095656,0.91129825) (0.60095656,0.60095656,0.89892319)
(0.60095656,0.60095656,0.74140486) (0.60095656,0.60095656,0.80733957) (0.60095656,0.60095656,0.87210013) (0.60095656,0.60095656,0.79030120) (0.60095656,0.60095656,0.77160356) (0.60095656,0.60095656,0.66535971)
(0.60095656,0.60095656,0.80292599) (0.60095656,0.60095656,0.61049447) (0.60095656,0.60095656,0.60171534) (0.60095656,0.60095656,0.91891437) (0.60095656,0.60095656,0.69376036) (0.60095656,0.60095656,0.64977866)
(0.60095656,0.60095656,0.86358413) (0.60095656,0.60095656,0.61153838) (0.60095656,0.60095656,0.61971138) (0.60095656,0.60095656,0.60738264) (0.60095656,0.60095656,0.98575414) (0.60095656,0.60095656,0.61444829)
(0.60095656,0.60095656,0.84096189) (0.60095656,0.60095656,0.69828293) (0.60095656,0.60095656,0.64111986) (0.60095656,0.60095656,0.74308472) (0.60095656,0.60095656,0.99502199) (0.60095656,0.60095656,0.84189283)
(0.60095656,0.60095656,0.83812441) (0.60095656,0.60095656,0.69644443) (0.60095656,0.60095656,0.60521811) (0.60095656,0.60095656,0.60584312) (0.60095656,0.60095656,0.83320571) (0.60095656,0.60095656,0.90462752)
(0.60095656,0.60095656,0.61798721) (0.60095656,0.60095656,0.80004764) (0.60095656,0.60095656,0.82350043) (0.60095656,0.60095656,0.65790457) (0.60095656,0.60095656,0.64061311) (0.60095656,0.60095656,0.84515791)
(0.60095656,0.60095656,0.64600458) (0.60095656,0.60095656,0.87836754) (0.60095656,0.60095656,0.75885796) (0.60095656,0.60095656,0.78970418) (0.60095656,0.60095656,0.61221275) (0.60095656,0.60095656,0.77060038)
(0.60095656,0.60095656,0.78301602) (0.60095656,0.60095656,0.66211055) (0.60095656,0.60095656,0.61256700) (0.60095656,0.60095656,0.99318318) (0.60095656,0.60095656,0.65765368) (0.60095656,0.60095656,0.62740331)
(0.60095656,0.60095656,0.68816526) (0.60095656,0.60095656,0.78491563) (0.60095656,0.60095656,0.95656172) (0.60095656,0.60095656,0.84671306) (0.60095656,0.60095656,0.60912323) (0.60095656,0.60095656,0.90854929)
(0.60095656,0.60095656,0.66430599) (0.60095656,0.60095656,0.60306855) (0.60095656,0.60095656,0.74394080) (0.60095656,0.60095656,0.60095983) (0.60095656,0.60095656,0.83435188) (0.60095656,0.60095656,0.60507376)
(0.60095656,0.60095656,0.74678540) (0.60095656,0.60095656,0.63993210) (0.60095656,0.60095656,0.89362814) (0.60095656,0.60095656,0.76534327) (0.60095656,0.60095656,0.71405953) (0.60095656,0.60095656,0.60095656)
(0.60095656,0.60095656,0.79245693) (0.60095656,0.60095656,0.77634783) (0.60095656,0.60095656,0.99745018) (0.60095656,0.60095656,0.98210244) (0.60095656,0.60095656,0.97621740) (0.60095656,0.60095656,0.86342661)
(0.60095656,0.60095656,0.70617778) (0.60095656,0.60095656,0.73377539) (0.60095656,0.60095656,0.91439830) (0.60095656,0.60095656,0.76466363) (0.60095656,0.60095656,0.88575455) (0.98863227,0.98863227,0.99362801)
(0.60095656,0.60095656,0.63950805) (0.60095656,0.60095656,0.64630452) (0.60095656,0.60095656,0.60297121) (0.60095656,0.60095656,0.60696198) (0.60095656,0.60095656,0.87096604) (0.60095656,0.60095656,0.75415460)
(0.60095656,0.60095656,0.77978127) (0.60095656,0.60095656,0.86910096) (0.60095656,0.60095656,0.68529395) (0.60095656,0.60095656,0.65812903) (0.60095656,0.60095656,0.86908906) (0.60095656,0.60095656,0.70729901)
(0.60095656,0.60095656,0.85096306) (0.60095656,0.60095656,0.93349486) (0.60095656,0.60095656,0.60851491) (0.60095656,0.60095656,0.88445296) (0.60095656,0.60095656,0.60160595) (0.60095656,0.60095656,0.69913002)
(0.60095656,0.60095656,0.78195153) (0.60095656,0.60095656,0.82935534) (0.60095656,0.60095656,0.80797757) (0.60095656,0.60095656,0.81099220) (0.60095656,0.60095656,0.75932085) (0.60095656,0.60095656,0.61003499)
(0.60095656,0.60095656,0.82928379) (0.60095656,0.60095656,0.62589878) (0.60095656,0.60095656,0.92580543) (0.60095656,0.60095656,0.60680919) (0.60095656,0.60095656,0.60471760) (0.60095656,0.60095656,0.66889777)
(0.60095656,0.60095656,0.84498506) (0.60095656,0.60095656,0.60739560) (0.60095656,0.60095656,0.61171549) (0.60095656,0.60095656,0.93995747) (0.60095656,0.60095656,0.79986976) (0.60095656,0.60095656,0.78822101)
(0.60095656,0.60095656,0.88535865) (0.60095656,0.60095656,0.68574729) (0.60095656,0.60095656,0.60453477) (0.60095656,0.60095656,0.79701914) (0.60095656,0.60095656,0.68556946) (0.60095656,0.60095656,0.60314555)
(0.60095656,0.60095656,0.93986329) (0.60095656,0.60095656,0.66669575) (0.60095656,0.60095656,0.69610546) (0.60095656,0.60095656,0.94700422) (0.60095656,0.60095656,0.67440832) (0.60095656,0.60095656,0.84101818)
(0.60095656,0.60095656,0.94430864) (0.60095656,0.60095656,0.68796223) (0.60095656,0.60095656,0.83594019) (0.60095656,0.60095656,0.60457377) (0.60095656,0.60095656,0.70275771) (0.60095656,0.60095656,0.86990355)
(0.60095656,0.60095656,0.93476344) (0.60095656,0.60095656,0.93607133) (0.60095656,0.60095656,0.65656440) (0.60095656,0.60095656,0.83608061) (0.60095656,0.60095656,0.81963636) (0.60095656,0.60095656,0.60132495)
(0.60095656,0.60095656,0.98571411) (0.60095656,0.60095656,0.60264597) (0.60095656,0.60095656,0.61103398) (0.60095656,0.60095656,0.87311100) (0.60095656,0.60095656,0.88332430) (0.60095656,0.60095656,0.76932567)
(0.60095656,0.60095656,0.65731918) (0.60095656,0.60095656,0.73460633) (0.60095656,0.60095656,0.96358675) (0.60095656,0.60095656,0.60447633) (0.60095656,0.60095656,0.73203351) (0.60095656,0.60095656,0.63426502)
(0.60095656,0.60095656,0.75515123) (0.60095656,0.60095656,0.89933834) (0.60095656,0.60095656,0.60095662) (0.60095656,0.60095656,0.63092480) (0.60095656,0.60095656,0.68882038) (0.60095656,0.60095656,0.61595931)
(0.60095656,0.60095656,0.86606865) (0.60095656,0.60095656,0.60133588) (0.60095656,0.60095656,0.80486963) (0.60095656,0.60095656,0.91278782) (0.60095656,0.60095656,0.83699155) (0.60095656,0.60095656,0.69073372)
(0.60095656,0.60095656,0.74639199) (0.60095656,0.60095656,0.60360594) (0.60095656,0.60095656,0.89648718) (0.60095656,0.60095656,0.62343235) (0.60095656,0.60095656,0.93541191) (0.60095656,0.60095656,0.77031298)
(0.60095656,0.60095656,0.77980584) (0.60095656,0.60095656,0.65283053) (0.60095656,0.60095656,0.76095756) (0.60095656,0.60095656,0.88397168) (0.60095656,0.60095656,0.73908212) (0.60095656,0.60095656,0.60313131)
(0.60095656,0.60095656,0.93593926) (0.60095656,0.60095656,0.97116823) (0.60095656,0.60095656,0.99773637) (0.60095656,0.60095656,0.93695961) (0.60095656,0.60095656,0.94765518) (0.98449305,0.98449305,0.79157104)
(0.60095656,0.60095656,0.74887223) (0.60095656,0.60095656,0.68087598) (0.60095656,0.60095656,0.88546363) (0.60095656,0.60095656,0.60495592) (0.60095656,0.60095656,0.60686270) (0.60095656,0.60095656,0.62684726)
(0.60095656,0.60095656,0.60564358) (0.60095656,0.60095656,0.86611842) (0.60095656,0.60095656,0.62898905) (0.60095656,0.60095656,0.96572000) (0.60095656,0.60095656,0.92920009) (0.60095656,0.60095656,0.89125827)
(0.60095656,0.60095656,0.67017980) (0.60095656,0.60095656,0.91956786) (0.60095656,0.60095656,0.91450751) (0.60095656,0.60095656,0.83407733) (0.60095656,0.60095656,0.60120584) (0.60095656,0.60095656,0.97593067)
(0.60095656,0.60095656,0.65107256) (0.60095656,0.60095656,0.60104679) (0.60095656,0.60095656,0.98931442) (0.60095656,0.60095656,0.91136046) (0.60095656,0.60095656,0.92905911) (0.60095656,0.60095656,0.61786047)
(0.60095656,0.60095656,0.89452360) (0.60095656,0.60095656,0.67899238) (0.60095656,0.60095656,0.93074758) (0.60095656,0.60095656,0.61870845) (0.60095656,0.60095656,0.97614568) (0.60095656,0.60095656,0.67644402)
(0.60095656,0.60095656,0.96212677) (0.60095656,0.60095656,0.90002989) (0.60095656,0.60095656,0.95581517) (0.60095656,0.60095656,0.79020847) (0.60095656,0.60095656,0.82180899) (0.60095656,0.60095656,0.60216123)
(0.60095656,0.60095656,0.86628455) (0.60095656,0.60095656,0.92791430) (0.60095656,0.60095656,0.78024948) (0.60095656,0.60095656,0.94236522) (0.60095656,0.60095656,0.60463273) (0.60095656,0.60095656,0.91293743)
(0.60095656,0.60095656,0.69926224) (0.60095656,0.60095656,0.64247057) (0.60095656,0.60095656,0.62060061) (0.60095656,0.60095656,0.61576047) (0.60095656,0.60095656,0.97666695) (0.60095656,0.60095656,0.72013222)
(0.60095656,0.60095656,0.60291811) (0.60095656,0.60095656,0.63719356) (0.60095656,0.60095656,0.65623662) (0.60095656,0.60095656,0.73810422) (0.60095656,0.60095656,0.86032716) (0.60095656,0.60095656,0.61480902)
(0.60095656,0.60095656,0.65006037) (0.60095656,0.60095656,0.63616146) (0.60095656,0.60095656,0.62496154) (0.60095656,0.60095656,0.92647237) (0.60095656,0.60095656,0.61391343) (0.60095656,0.60095656,0.79103247)
(0.60095656,0.60095656,0.73019261) (0.60095656,0.60095656,0.61025350) (0.60095656,0.60095656,0.64762451) (0.60095656,0.60095656,0.82900606) (0.60095656,0.60095656,0.63816032) (0.97952155,0.97952155,0.87275104)
(0.60095656,0.60095656,0.71657931) (0.60095656,0.60095656,0.67322224) (0.60095656,0.60095656,0.67962058) (0.60095656,0.60095656,0.85368873) (0.60095656,0.60095656,0.85114618) (0.97768203,0.97768203,0.99592617)
(0.60095656,0.60095656,0.79522024) (0.60095656,0.60095656,0.96312206) (0.60095656,0.60095656,0.82336071) (0.60095656,0.60095656,0.70423080) (0.60095656,0.60095656,0.92065642) (0.97768203,0.97768203,0.77704201)
(0.60095656,0.60095656,0.61577148) (0.60095656,0.60095656,0.63473032) (0.60095656,0.60095656,0.76399887) (0.60095656,0.60095656,0.65555716) (0.60095656,0.60095656,0.73722104) (0.97726919,0.97726919,0.71595360)
(0.60095656,0.60095656,0.86713823) (0.60095656,0.60095656,0.66737864) (0.60095656,0.60095656,0.60716733) (0.60095656,0.60095656,0.62170742) (0.60095656,0.60095656,0.85915919) (0.97684961,0.97684961,0.62710414)
(0.60095656,0.60095656,0.85850218) (0.60095656,0.60095656,0.60144629) (0.60095656,0.60095656,0.87353778) (0.60095656,0.60095656,0.87860237) (0.60095656,0.60095656,0.95732308) (0.97642326,0.97642326,0.98084858)
(0.60095656,0.60095656,0.88452352) (0.60095656,0.60095656,0.60245967) (0.60095656,0.60095656,0.71879011) (0.60095656,0.60095656,0.61289986) (0.60095656,0.60095656,0.60336184) (0.97599006,0.97599006,0.93808663)
(0.60095656,0.60095656,0.79725623) (0.60095656,0.60095656,0.92142233) (0.60095656,0.60095656,0.60632567) (0.60095656,0.60095656,0.64709594) (0.60095656,0.60095656,0.73148677) (0.97554997,0.97554997,0.99395806)
(0.60095656,0.60095656,0.89768201) (0.60095656,0.60095656,0.60354792) (0.60095656,0.60095656,0.99999997) (0.60095656,0.60095656,0.96049545) (0.60095656,0.60095656,0.60106117) (0.60095656,0.60095656,0.99999924)
(0.60095656,0.60095656,0.78921680) (0.60095656,0.60095656,0.96958986) (0.60095656,0.60095656,0.99991815) (0.60095656,0.60095656,0.74227136) (0.60095656,0.60095656,0.99583364) (0.97464895,0.97464895,0.96851477)
(0.60095656,0.60095656,0.96343287) (0.60095656,0.60095656,0.60126251) (0.60095656,0.60095656,0.99352623) (0.60095656,0.60095656,0.94932264) (0.60095656,0.60095656,0.92916533) (0.60095656,0.60095656,0.75025339)
(0.60095656,0.60095656,0.91161640) (0.60095656,0.60095656,0.74090850) (0.60095656,0.60095656,0.99526758) (0.60095656,0.60095656,0.83655019) (0.60095656,0.60095656,0.81607871) (0.97227308,0.97227308,0.96022351)
(0.60095656,0.60095656,0.62418080) (0.60095656,0.60095656,0.90517702) (0.60095656,0.60095656,0.91479197) (0.60095656,0.60095656,0.66260748) (0.60095656,0.60095656,0.69550184) (0.97227308,0.97227308,0.89347590)
(0.60095656,0.60095656,0.67750815) (0.60095656,0.60095656,0.69392428) (0.60095656,0.60095656,0.92515449) (0.60095656,0.60095656,0.87074129) (0.60095656,0.60095656,0.68191076) (0.97179583,0.97179583,0.78317697)
(0.60095656,0.60095656,0.67078843) (0.60095656,0.60095656,0.64304535) (0.60095656,0.60095656,0.98791322) (0.60095656,0.60095656,0.60149631) (0.60095656,0.60095656,0.78753184) (0.97131199,0.97131199,0.62431121)
(0.60095656,0.60095656,0.72487343) (0.60095656,0.60095656,0.62014389) (0.60095656,0.60095656,0.99474282) (0.60095656,0.60095656,0.63815170) (0.60095656,0.60095656,0.74772938) (0.97082158,0.97082158,0.62377183)
(0.60095656,0.60095656,0.72085607) (0.60095656,0.60095656,0.61394547) (0.60095656,0.60095656,0.99924451) (0.60095656,0.60095656,0.72587404) (0.60095656,0.60095656,0.84123486) (0.97032462,0.97032462,0.82503037)
(0.60095656,0.60095656,0.74215617) (0.60095656,0.60095656,0.60118625) (0.60095656,0.60095656,0.99393572) (0.60095656,0.60095656,0.81105608) (0.60095656,0.60095656,0.80349846) (0.96982113,0.96982113,0.63478935)
(0.60095656,0.60095656,0.87557990) (0.60095656,0.60095656,0.93742935) (0.60095656,0.60095656,0.90178924) (0.60095656,0.60095656,0.60735421) (0.60095656,0.60095656,0.83657417) (0.96931115,0.96931115,0.72802094)
(0.60095656,0.60095656,0.70904129) (0.60095656,0.60095656,0.61548953) (0.60095656,0.60095656,0.94183050) (0.60095656,0.60095656,0.60278208) (0.60095656,0.60095656,0.60110395) (0.96879473,0.96879473,0.62013631)
(0.60095656,0.60095656,0.66697503) (0.60095656,0.60095656,0.75569612) (0.60095656,0.60095656,0.82259463) (0.60095656,0.60095656,0.99912236) (0.60095656,0.60095656,0.67856798) (0.97024450,0.97024450,0.88576686)
(0.60095656,0.60095656,0.60401319) (0.60095656,0.60095656,0.83473727) (0.60095656,0.60095656,0.88763593) (0.60095656,0.60095656,0.76742971) (0.60095656,0.60095656,0.86733285) (0.60095656,0.60095656,0.60991053)
(0.60095656,0.60095656,0.72596864) (0.60095656,0.60095656,0.96779043) (0.60095656,0.60095656,0.66511892) (0.60095656,0.60095656,0.68966729) (0.60095656,0.60095656,0.93425964) (0.96827192,0.96827192,0.68494140)
(0.60095656,0.60095656,0.83484826) (0.60095656,0.60095656,0.71291247) (0.60095656,0.60095656,0.63032682) (0.60095656,0.60095656,0.67957672) (0.60095656,0.60095656,0.60117507) (0.96774280,0.96774280,0.91061515)
(0.60095656,0.60095656,0.90769127) (0.60095656,0.60095656,0.64985015) (0.60095656,0.60095656,0.63048141) (0.60095656,0.60095656,0.83493387) (0.60095656,0.60095656,0.62511772) (0.96720744,0.96720744,0.85054320)
(0.60095656,0.60095656,0.97064209) (0.60095656,0.60095656,0.99427378) (0.60095656,0.60095656,0.60646825) (0.60095656,0.60095656,0.64559419) (0.60095656,0.60095656,0.80460412) (0.96666597,0.96666597,0.71811963)
(0.60095656,0.60095656,0.93759122) (0.60095656,0.60095656,0.99063046) (0.60095656,0.60095656,0.93185511) (0.60095656,0.60095656,0.93277268) (0.60095656,0.60095656,0.68241686) (0.96611848,0.96611848,0.80615817)
(0.60095656,0.60095656,0.94459613) (0.60095656,0.60095656,0.99381619) (0.60095656,0.60095656,0.60495776) (0.60095656,0.60095656,0.97278625) (0.60095656,0.60095656,0.60491121) (0.96556511,0.96556511,0.90959256)
(0.60095656,0.60095656,0.97431003) (0.60095656,0.60095656,0.87806661) (0.60095656,0.60095656,0.66485973) (0.60095656,0.60095656,0.88080034) (0.60095656,0.60095656,0.73635321) (0.96500602,0.96500602,0.95610284)
(0.60095656,0.60095656,0.97367172) (0.60095656,0.60095656,0.99736324) (0.60095656,0.60095656,0.60442036) (0.60095656,0.60095656,0.76249367) (0.60095656,0.60095656,0.68767691) (0.96444138,0.96444138,0.72357251)
(0.60095656,0.60095656,0.97658639) (0.60095656,0.60095656,0.99377847) (0.60095656,0.60095656,0.60159627) (0.60095656,0.60095656,0.60414563) (0.60095656,0.60095656,0.67712869) (0.96387139,0.96387139,0.77145735)
(0.60095656,0.60095656,0.94375111) (0.60095656,0.60095656,0.94909355) (0.60095656,0.60095656,0.61444738) (0.60095656,0.60095656,0.63923168) (0.60095656,0.60095656,0.67571590) (0.96197936,0.96197936,0.86929165)
(0.60095656,0.60095656,0.98826905) (0.60095656,0.60095656,0.63620089) (0.60095656,0.60095656,0.63644597) (0.60095656,0.60095656,0.67287168) (0.60095656,0.60095656,0.99877595) (0.96197936,0.96197936,0.87630398)
(0.60095656,0.60095656,0.97726893) (0.60095656,0.60095656,0.61528427) (0.60095656,0.60095656,0.60393121) (0.60095656,0.60095656,0.69347953) (0.60095656,0.60095656,0.98432998) (0.96141131,0.96141131,0.98404916)
(0.60095656,0.60095656,0.93214902) (0.60095656,0.60095656,0.68239383) (0.60095656,0.60095656,0.64011586) (0.60095656,0.60095656,0.67746432) (0.60095656,0.60095656,0.81229485) (0.96083967,0.96083967,0.88510919)
(0.60095656,0.60095656,0.95852898) (0.60095656,0.60095656,0.96534043) (0.60095656,0.60095656,0.92902462) (0.60095656,0.60095656,0.99858561) (0.60095656,0.60095656,0.94638167) (0.96026479,0.96026479,0.97916081)
(0.60095656,0.60095656,0.98840271) (0.60095656,0.60095656,0.98773974) (0.60095656,0.60095656,0.92417326) (0.60095656,0.60095656,0.71031037) (0.60095656,0.60095656,0.96954379) (0.95968706,0.95968706,0.74086172)
(0.60095656,0.60095656,0.98300014) (0.60095656,0.60095656,0.68048698) (0.60095656,0.60095656,0.80020713) (0.60095656,0.60095656,0.61378735) (0.60095656,0.60095656,0.99277843) (0.95910688,0.95910688,0.85385492)
(0.60095656,0.60095656,0.91736421) (0.60095656,0.60095656,0.89477215) (0.60095656,0.60095656,0.60103296) (0.60095656,0.60095656,0.72986083) (0.60095656,0.60095656,0.76708558) (0.95852474,0.95852474,0.75876261)
(0.60095656,0.60095656,1.00000000) (0.60095656,0.60095656,1.00000000) (0.60095656,0.60095656,1.00000000) (0.60095656,0.60095656,1.00000000) (0.60095656,0.60095656,1.00000000) (0.60095656,0.60095656,1.00000000)
(0.60095656,0.60095656,1.00000000) (0.60095656,0.60095656,1.00000000) (0.60095656,0.60095656,1.00000000) (0.60095656,0.60095656,1.00000000) (0.60095656,0.60095656,1.00000000) (0.60095656,0.60095656,1.00000000)
