chh c1 sd mt lt rc2
(0.60095656,0.60095656,1.00000000) (0.60095656,0.60095656,1.00000000) (0.60095656,0.60095656,1.00000000) (0.60095656,0.60095656,1.00000000) (0.60095656,0.60095656,1.00000000) (0.60095656,0.60095656,1.00000000)
(0.60095656,0.60095656,0.97991658) (0.60095656,0.60095656,0.99984230) (0.60095656,0.60095656,0.94944192) (0.60095656,0.60095656,0.61157494) (0.60095656,0.60095656,0.99486720) (0.60095656,0.60095656,0.96911936)
(0.60095656,0.60095656,0.99915147) (0.60095656,0.60095656,0.99755885) (0.60095656,0.60095656,0.79464182) (0.60095656,0.60095656,0.67078643) (0.60095656,0.60095656,0.97651244) (0.60095656,0.60095656,0.99167531)
(0.60095656,0.60095656,0.99223780) (0.60095656,0.60095656,0.61472827) (0.60095656,0.60095656,0.66747190) (0.60095656,0.60095656,0.65197332) (0.60095656,0.60095656,0.61349953) (0.60095656,0.60095656,0.89228981)
(0.60095656,0.60095656,0.99840007) (0.60095656,0.60095656,0.77350410) (0.60095656,0.60095656,0.61351902) (0.60095656,0.60095656,0.85251181) (0.60095656,0.60095656,0.86518541) (0.60095656,0.60095656,0.88760588)
(0.60095656,0.60095656,0.99982638) (0.60095656,0.60095656,0.86494594) (0.60095656,0.60095656,0.97649710) (0.60095656,0.60095656,0.96688491) (0.60095656,0.60095656,0.90478064) (0.60095656,0.60095656,0.82356762)
(0.60095656,0.60095656,0.98062588) (0.60095656,0.60095656,0.62397983) (0.60095656,0.60095656,0.80126705) (0.60095656,0.60095656,0.73314327) (0.60095656,0.60095656,0.93546757) (0.60095656,0.60095656,0.60157138)
(0.60095656,0.60095656,0.99977149) (0.60095656,0.60095656,0.93563691) (0.60095656,0.60095656,0.64511323) (0.60095656,0.60095656,0.65495418) (0.60095656,0.60095656,0.99689745) (0.60095656,0.60095656,0.60632008)
(0.60095656,0.60095656,0.99786750) (0.60095656,0.60095656,0.81298218) (0.60095656,0.60095656,0.73316153) (0.60095656,0.60095656,0.60322876) (0.60095656,0.60095656,0.99999534) (0.60095656,0.60095656,0.65789121)
(0.60095656,0.60095656,0.99809866) (0.60095656,0.60095656,0.84541902) (0.60095656,0.60095656,0.66829727) (0.60095656,0.60095656,0.60524439) (0.60095656,0.60095656,1.00000000) (0.60095656,0.60095656,0.70308289)
(0.60095656,0.60095656,0.99611594) (0.60095656,0.60095656,0.60503871) (0.60095656,0.60095656,0.72552531) (0.60095656,0.60095656,0.99120744) (0.60095656,0.60095656,0.99999432) (0.60095656,0.60095656,0.74475371)
(0.60095656,0.60095656,0.84160564) (0.60095656,0.60095656,0.64424386) (0.60095656,0.60095656,0.88345386) (0.60095656,0.60095656,0.94670555) (0.60095656,0.60095656,0.95943133) (0.60095656,0.60095656,0.73355365)
(0.60095656,0.60095656,0.61585265) (0.60095656,0.60095656,0.89455197) (0.60095656,0.60095656,0.94777606) (0.60095656,0.60095656,0.99927005) (0.60095656,0.60095656,0.60545661) (0.60095656,0.60095656,0.86409589)
(0.60095656,0.60095656,0.64808790) (0.60095656,0.60095656,0.72765364) (0.60095656,0.60095656,0.69179531) (0.60095656,0.60095656,0.95826217) (0.60095656,0.60095656,0.60400788) (0.60095656,0.60095656,0.68833691)
(0.60095656,0.60095656,0.68625835) (0.60095656,0.60095656,0.73577747) (0.60095656,0.60095656,0.61144812) (0.60095656,0.60095656,0.97857981) (0.60095656,0.60095656,0.87265943) (0.60095656,0.60095656,0.67966080)
(0.60095656,0.60095656,0.61844751) (0.60095656,0.60095656,0.63405749) (0.60095656,0.60095656,0.70464350) (0.60095656,0.60095656,0.79195581) (0.60095656,0.60095656,0.95805560) (0.60095656,0.60095656,0.60273296)
(0.60095656,0.60095656,0.65745084) (0.60095656,0.60095656,0.61031132) (0.60095656,0.60095656,0.84888240) (0.60095656,0.60095656,0.68095326) (0.60095656,0.60095656,0.84370863) (0.60095656,0.60095656,0.60434736)
(0.60095656,0.60095656,0.84543881) (0.60095656,0.60095656,0.66299827) (0.60095656,0.60095656,0.78792959) (0.60095656,0.60095656,0.60547950) (0.60095656,0.60095656,0.60818520) (0.60095656,0.60095656,0.62622820)
(0.60095656,0.60095656,0.86483166) (0.60095656,0.60095656,0.95299806) (0.60095656,0.60095656,0.72528659) (0.60095656,0.60095656,0.68382015) (0.60095656,0.60095656,0.97266567) (0.60095656,0.60095656,0.71059274)
(0.60095656,0.60095656,0.72270448) (0.60095656,0.60095656,0.95777013) (0.60095656,0.60095656,0.82072639) (0.60095656,0.60095656,0.62965870) (0.60095656,0.60095656,0.70696575) (0.60095656,0.60095656,0.77594166)
(0.60095656,0.60095656,0.60114807) (0.60095656,0.60095656,0.85161891) (0.60095656,0.60095656,0.63747373) (0.60095656,0.60095656,0.63523606) (0.60095656,0.60095656,0.98670190) (0.60095656,0.60095656,0.66575325)
(0.60095656,0.60095656,0.79398766) (0.60095656,0.60095656,0.79159903) (0.60095656,0.60095656,0.82567780) (0.60095656,0.60095656,0.98250914) (0.60095656,0.60095656,0.88018690) (0.60095656,0.60095656,0.71120537)
(0.60095656,0.60095656,0.98146961) (0.60095656,0.60095656,0.62705094) (0.60095656,0.60095656,0.97747999) (0.60095656,0.60095656,0.92726886) (0.60095656,0.60095656,0.60511778) (0.60095656,0.60095656,0.64261867)
(0.60095656,0.60095656,0.99722054) (0.60095656,0.60095656,0.73464041) (0.60095656,0.60095656,0.99345998) (0.60095656,0.60095656,0.62170750) (0.60095656,0.60095656,0.85192876) (0.60095656,0.60095656,0.91827287)
(0.60095656,0.60095656,0.94978390) (0.60095656,0.60095656,0.70691460) (0.60095656,0.60095656,0.98761036) (0.60095656,0.60095656,0.87457288) (0.60095656,0.60095656,0.60328978) (0.60095656,0.60095656,0.68113568)
(0.60095656,0.60095656,0.99202670) (0.60095656,0.60095656,0.78918652) (0.60095656,0.60095656,0.77269314) (0.60095656,0.60095656,0.62508670) (0.60095656,0.60095656,0.96611943) (0.60095656,0.60095656,0.94018595)
(0.60095656,0.60095656,0.99900844) (0.60095656,0.60095656,0.77034680) (0.60095656,0.60095656,0.97987663) (0.60095656,0.60095656,0.82185613) (0.60095656,0.60095656,0.67787876) (0.60095656,0.60095656,0.94350163)
(0.60095656,0.60095656,0.96460099) (0.60095656,0.60095656,0.75742809) (0.60095656,0.60095656,0.93870350) (0.60095656,0.60095656,0.60865735) (0.60095656,0.60095656,0.99932311) (0.60095656,0.60095656,0.64658865)
(0.60095656,0.60095656,0.99915592) (0.60095656,0.60095656,0.60184627) (0.60095656,0.60095656,0.97844261) (0.60095656,0.60095656,0.87372509) (0.60095656,0.60095656,0.99996333) (0.60095656,0.60095656,0.61435428)
(0.60095656,0.60095656,0.87543251) (0.60095656,0.60095656,0.99379994) (0.60095656,0.60095656,0.77850327) (0.60095656,0.60095656,0.90079885) (0.60095656,0.60095656,0.99564807) (0.60095656,0.60095656,0.71344467)
(0.60095656,0.60095656,0.67495502) (0.60095656,0.60095656,0.64096294) (0.60095656,0.60095656,0.97782340) (0.60095656,0.60095656,0.66392943) (0.60095656,0.60095656,0.85243532) (0.60095656,0.60095656,0.61506129)
(0.60095656,0.60095656,0.60172211) (0.60095656,0.60095656,0.67071683) (0.60095656,0.60095656,0.96801474) (0.60095656,0.60095656,0.90927042) (0.60095656,0.60095656,0.99512860) (1.00000000,1.00000000,0.69392006)
(0.60095656,0.60095656,0.79840529) (0.60095656,0.60095656,0.62473956) (0.60095656,0.60095656,0.99913355) (0.60095656,0.60095656,0.90660420) (0.60095656,0.60095656,0.62394233) (0.60095656,0.60095656,0.91323479)
(0.60095656,0.60095656,0.62201029) (0.60095656,0.60095656,0.60109593) (0.60095656,0.60095656,0.91350996) (0.60095656,0.60095656,0.80242086) (0.60095656,0.60095656,0.60095656) (1.00000000,1.00000000,0.62840078)
(0.60095656,0.60095656,0.61847462) (0.60095656,0.60095656,0.78416376) (0.60095656,0.60095656,0.69944275) (0.60095656,0.60095656,0.60361908) (0.60095656,0.60095656,0.62634319) (0.60095656,0.60095656,0.63854492)
(0.60095656,0.60095656,0.67395541) (0.60095656,0.60095656,0.79359419) (0.60095656,0.60095656,0.97100185) (0.60095656,0.60095656,0.60097141) (0.60095656,0.60095656,0.62165457) (0.60095656,0.60095656,0.71459887)
(0.60095656,0.60095656,0.72576493) (0.60095656,0.60095656,0.98724708) (0.60095656,0.60095656,0.99998089) (0.60095656,0.60095656,0.78164272) (0.60095656,0.60095656,0.79599344) (0.60095656,0.60095656,0.63496278)
(0.60095656,0.60095656,0.89941037) (0.60095656,0.60095656,0.81353304) (0.60095656,0.60095656,0.85268596) (0.60095656,0.60095656,0.60470550) (0.60095656,0.60095656,0.70128262) (0.60095656,0.60095656,0.88715226)
(0.60095656,0.60095656,0.62590066) (0.60095656,0.60095656,0.99896300) (0.60095656,0.60095656,0.86702074) (0.60095656,0.60095656,0.78609946) (0.60095656,0.60095656,0.87091187) (0.60095656,0.60095656,0.97870815)
(0.60095656,0.60095656,0.60274101) (0.60095656,0.60095656,0.93322398) (0.60095656,0.60095656,0.68960143) (0.60095656,0.60095656,0.60095656) (0.60095656,0.60095656,0.83566772) (0.60095656,0.60095656,0.93652172)
(0.60095656,0.60095656,0.61222070) (0.60095656,0.60095656,0.71399243) (0.60095656,0.60095656,0.82638580) (0.60095656,0.60095656,0.77071492) (0.60095656,0.60095656,0.85635419) (0.60095656,0.60095656,0.98703551)
(0.60095656,0.60095656,0.60942242) (0.60095656,0.60095656,0.67624463) (0.60095656,0.60095656,0.60214946) (0.60095656,0.60095656,0.73703428) (0.60095656,0.60095656,0.93986139) (0.60095656,0.60095656,0.97508051)
(0.60095656,0.60095656,0.72033746) (0.60095656,0.60095656,0.90726219) (0.60095656,0.60095656,0.78738561) (0.60095656,0.60095656,0.88504803) (0.60095656,0.60095656,0.75464365) (0.60095656,0.60095656,0.82105471)
(0.60095656,0.60095656,0.70691601) (0.60095656,0.60095656,0.99938938) (0.60095656,0.60095656,0.66845166) (0.60095656,0.60095656,0.76084150) (0.60095656,0.60095656,0.93911321) (0.60095656,0.60095656,0.92943505)
(0.60095656,0.60095656,0.73039654) (0.60095656,0.60095656,0.81849667) (0.60095656,0.60095656,0.91688165) (0.60095656,0.60095656,0.65408355) (0.60095656,0.60095656,0.93747084) (0.60095656,0.60095656,0.92750661)
(0.60095656,0.60095656,0.82341664) (0.60095656,0.60095656,0.97879339) (0.60095656,0.60095656,0.60768931) (0.60095656,0.60095656,0.61519574) (0.60095656,0.60095656,0.73889123) (0.60095656,0.60095656,0.79390484)
(0.60095656,0.60095656,0.99057674) (0.60095656,0.60095656,0.97379851) (0.60095656,0.60095656,0.73417508) (0.60095656,0.60095656,0.60782970) (0.60095656,0.60095656,0.81526080) (0.60095656,0.60095656,0.70312054)
(0.60095656,0.60095656,0.96893071) (0.60095656,0.60095656,0.98536892) (0.60095656,0.60095656,0.96340248) (0.60095656,0.60095656,0.98876044) (0.60095656,0.60095656,0.79611173) (0.60095656,0.60095656,0.94947581)
(0.60095656,0.60095656,0.83461569) (0.60095656,0.60095656,0.90481905) (0.60095656,0.60095656,0.63104422) (0.60095656,0.60095656,0.70207277) (0.60095656,0.60095656,0.84807132) (0.60095656,0.60095656,0.99754586)
(0.60095656,0.60095656,0.62300296) (0.60095656,0.60095656,0.66218821) (0.60095656,0.60095656,0.78096797) (0.60095656,0.60095656,0.64313979) (0.60095656,0.60095656,0.72612611) (0.60095656,0.60095656,0.60117384)
(0.60095656,0.60095656,0.60837641) (0.60095656,0.60095656,0.60101259) (0.60095656,0.60095656,0.93057800) (0.60095656,0.60095656,0.60880436) (0.60095656,0.60095656,0.60246250) (0.60095656,0.60095656,0.60137377)
(0.60095656,0.60095656,0.60148203) (0.60095656,0.60095656,0.63395011) (0.60095656,0.60095656,0.95065326) (0.60095656,0.60095656,0.61856642) (0.60095656,0.60095656,0.92432831) (0.60095656,0.60095656,0.64434247)
(0.60095656,0.60095656,0.60236878) (0.60095656,0.60095656,0.81855517) (0.60095656,0.60095656,0.66416983) (0.60095656,0.60095656,0.71542077) (0.60095656,0.60095656,0.65220545) (0.60095656,0.60095656,0.75962122)
(0.60095656,0.60095656,0.68020569) (0.60095656,0.60095656,0.60645233) (0.60095656,0.60095656,0.61001843) (0.60095656,0.60095656,0.78217409) (0.60095656,0.60095656,0.63915434) (0.60095656,0.60095656,0.66221832)
(0.60095656,0.60095656,0.75732787) (0.60095656,0.60095656,0.64062298) (0.60095656,0.60095656,0.74572971) (0.60095656,0.60095656,0.89868038) (0.60095656,0.60095656,0.94140866) (0.60095656,0.60095656,0.74151719)
(0.60095656,0.60095656,0.60177679) (0.60095656,0.60095656,0.60218840) (0.60095656,0.60095656,0.62157703) (0.60095656,0.60095656,0.86583653) (0.60095656,0.60095656,0.68999859) (0.60095656,0.60095656,0.83792683)
(0.60095656,0.60095656,0.78702179) (0.60095656,0.60095656,0.95274179) (0.60095656,0.60095656,0.67028056) (0.60095656,0.60095656,0.67442368) (0.60095656,0.60095656,0.60219464) (0.60095656,0.60095656,0.84772473)
(0.60095656,0.60095656,0.61762556) (0.60095656,0.60095656,0.63668585) (0.60095656,0.60095656,0.66214207) (0.60095656,0.60095656,0.61339624) (0.60095656,0.60095656,0.65921739) (0.60095656,0.60095656,0.60481461)
(0.60095656,0.60095656,0.69487228) (0.60095656,0.60095656,0.95740066) (0.60095656,0.60095656,0.71413915) (0.60095656,0.60095656,0.86102006) (0.60095656,0.60095656,0.99940638) (0.60095656,0.60095656,0.99465437)
(0.60095656,0.60095656,0.92004848) (0.60095656,0.60095656,0.60946488) (0.60095656,0.60095656,0.66155061) (0.60095656,0.60095656,0.81247247) (0.60095656,0.60095656,0.90171609) (0.60095656,0.60095656,0.93524752)
(0.60095656,0.60095656,0.69611871) (0.60095656,0.60095656,0.71924613) (0.60095656,0.60095656,0.76224581) (0.60095656,0.60095656,0.79711169) (0.60095656,0.60095656,0.60095739) (0.60095656,0.60095656,0.61058077)
(0.60095656,0.60095656,0.65751633) (0.60095656,0.60095656,0.60150179) (0.60095656,0.60095656,0.61530356) (0.60095656,0.60095656,0.87042353) (0.60095656,0.60095656,0.60268602) (0.60095656,0.60095656,0.70844074)
(0.60095656,0.60095656,0.79859324) (0.60095656,0.60095656,0.68982039) (0.60095656,0.60095656,0.88599330) (0.60095656,0.60095656,0.63256377) (0.60095656,0.60095656,0.62393681) (1.00000000,1.00000000,0.60100776)
(0.60095656,0.60095656,0.61010870) (0.60095656,0.60095656,0.85897132) (0.60095656,0.60095656,0.93996021) (0.60095656,0.60095656,0.60765609) (0.60095656,0.60095656,0.75920398) (1.00000000,1.00000000,0.81056967)
(0.60095656,0.60095656,0.67484472) (0.60095656,0.60095656,0.80507252) (0.60095656,0.60095656,0.83052704) (0.60095656,0.60095656,0.95358627) (0.60095656,0.60095656,0.88203929) (0.60095656,0.60095656,0.65145077)
(0.60095656,0.60095656,0.84190542) (0.60095656,0.60095656,0.60937697) (0.60095656,0.60095656,0.65016133) (0.60095656,0.60095656,0.74037861) (0.60095656,0.60095656,0.67393663) (0.60095656,0.60095656,0.66371282)
(0.60095656,0.60095656,0.70790923) (0.60095656,0.60095656,0.88010827) (0.60095656,0.60095656,0.60370084) (0.60095656,0.60095656,0.91966738) (0.60095656,0.60095656,0.60473365) (0.60095656,0.60095656,0.60096451)
(0.60095656,0.60095656,0.74999605) (0.60095656,0.60095656,0.95458025) (0.60095656,0.60095656,0.76173915) (0.60095656,0.60095656,0.82222811) (0.60095656,0.60095656,0.74029768) (0.60095656,0.60095656,0.69537643)
(0.60095656,0.60095656,0.92634559) (0.60095656,0.60095656,0.79332221) (0.60095656,0.60095656,0.75339258) (0.60095656,0.60095656,0.60314717) (0.60095656,0.60095656,0.68340490) (0.60095656,0.60095656,0.89292510)
(0.60095656,0.60095656,0.94680675) (0.60095656,0.60095656,0.78967378) (0.60095656,0.60095656,0.96348379) (0.60095656,0.60095656,0.62933062) (0.60095656,0.60095656,0.62361169) (0.60095656,0.60095656,0.98277473)
(0.60095656,0.60095656,0.92234348) (0.60095656,0.60095656,0.97821960) (0.60095656,0.60095656,0.64227685) (0.60095656,0.60095656,0.64347388) (0.60095656,0.60095656,0.85531135) (0.60095656,0.60095656,0.99064192)
(0.60095656,0.60095656,0.90065094) (0.60095656,0.60095656,0.64931817) (0.60095656,0.60095656,0.60883035) (0.60095656,0.60095656,0.64979142) (0.60095656,0.60095656,0.60132314) (0.60095656,0.60095656,0.89565889)
(0.60095656,0.60095656,0.62335622) (0.60095656,0.60095656,0.80287717) (0.60095656,0.60095656,0.60516878) (0.60095656,0.60095656,0.80251716) (0.60095656,0.60095656,0.63894556) (0.60095656,0.60095656,0.70749179)
(0.60095656,0.60095656,0.68797276) (0.60095656,0.60095656,0.80309131) (0.60095656,0.60095656,0.86494038) (0.60095656,0.60095656,0.66594399) (0.60095656,0.60095656,0.63493176) (0.60095656,0.60095656,0.87489300)
(0.60095656,0.60095656,0.60347278) (0.60095656,0.60095656,0.86402416) (0.60095656,0.60095656,0.60675428) (0.60095656,0.60095656,0.84504878) (0.60095656,0.60095656,0.60178745) (0.60095656,0.60095656,0.96051466)
(0.60095656,0.60095656,0.95305804) (0.60095656,0.60095656,0.61154226) (0.60095656,0.60095656,0.85384398) (0.60095656,0.60095656,0.98753622) (0.60095656,0.60095656,0.95136444) (0.60095656,0.60095656,0.61442675)
(0.60095656,0.60095656,0.61992166) (0.60095656,0.60095656,0.97192447) (0.60095656,0.60095656,0.94210140) (0.60095656,0.60095656,0.79454753) (0.60095656,0.60095656,0.60110470) (1.00000000,1.00000000,0.83597931)
(0.60095656,0.60095656,0.64826020) (0.60095656,0.60095656,0.74499251) (0.60095656,0.60095656,0.99992156) (0.60095656,0.60095656,0.65580715) (0.60095656,0.60095656,0.60123262) (0.60095656,0.60095656,0.94435597)
(0.60095656,0.60095656,0.63032909) (0.60095656,0.60095656,0.77643164) (0.60095656,0.60095656,0.69875657) (0.60095656,0.60095656,0.61634524) (0.60095656,0.60095656,0.86026949) (0.60095656,0.60095656,0.78172539)
(0.60095656,0.60095656,0.61671131) (0.60095656,0.60095656,0.85058591) (0.60095656,0.60095656,0.97010487) (0.60095656,0.60095656,0.78777539) (0.60095656,0.60095656,0.60159944) (0.60095656,0.60095656,0.66426848)
(0.60095656,0.60095656,0.65088143) (0.60095656,0.60095656,0.62892290) (0.60095656,0.60095656,0.99667735) (0.60095656,0.60095656,0.61970831) (0.60095656,0.60095656,0.82585791) (0.60095656,0.60095656,0.82462854)
(0.60095656,0.60095656,0.75433001) (0.60095656,0.60095656,0.73726639) (0.60095656,0.60095656,0.99986952) (0.60095656,0.60095656,0.62991418) (0.60095656,0.60095656,0.61094603) (0.60095656,0.60095656,0.82368419)
(0.60095656,0.60095656,0.60118950) (0.60095656,0.60095656,0.60152950) (0.60095656,0.60095656,0.77499412) (0.60095656,0.60095656,0.60321809) (0.60095656,0.60095656,0.99765031) (0.60095656,0.60095656,0.94658985)
(0.60095656,0.60095656,0.62984815) (0.60095656,0.60095656,0.81856657) (0.60095656,0.60095656,0.60318547) (0.60095656,0.60095656,0.62973583) (0.60095656,0.60095656,0.64187115) (0.60095656,0.60095656,0.67651209)
(0.60095656,0.60095656,0.70796831) (0.60095656,0.60095656,0.67119805) (0.60095656,0.60095656,0.92497020) (0.60095656,0.60095656,0.71109270) (0.60095656,0.60095656,0.63043760) (0.60095656,0.60095656,0.67935005)
(0.60095656,0.60095656,0.62077702) (0.60095656,0.60095656,0.76647270) (0.60095656,0.60095656,0.64167973) (0.60095656,0.60095656,0.74769539) (0.60095656,0.60095656,0.80212930) (0.60095656,0.60095656,0.62887885)
(0.60095656,0.60095656,0.63512421) (0.60095656,0.60095656,0.80485011) (0.60095656,0.60095656,0.60481017) (0.60095656,0.60095656,0.61297864) (0.60095656,0.60095656,0.67834563) (0.60095656,0.60095656,0.61577768)
(0.60095656,0.60095656,0.63221083) (0.60095656,0.60095656,0.84484276) (0.60095656,0.60095656,0.70270578) (0.60095656,0.60095656,0.62950164) (0.60095656,0.60095656,0.98215659) (0.60095656,0.60095656,0.70105017)
(0.60095656,0.60095656,0.65449619) (0.60095656,0.60095656,0.76823085) (0.60095656,0.60095656,0.61358035) (0.60095656,0.60095656,0.67462669) (0.60095656,0.60095656,0.60125811) (0.60095656,0.60095656,0.71135537)
(0.60095656,0.60095656,0.65377495) (0.60095656,0.60095656,0.68310277) (0.60095656,0.60095656,0.60180981) (0.60095656,0.60095656,0.71771869) (0.60095656,0.60095656,0.94243752) (0.60095656,0.60095656,0.62193422)
(0.60095656,0.60095656,0.65137043) (0.60095656,0.60095656,0.63850684) (0.60095656,0.60095656,0.72243835) (0.60095656,0.60095656,0.60526499) (0.60095656,0.60095656,0.93436078) (0.60095656,0.60095656,0.86791720)
(0.60095656,0.60095656,0.62452972) (0.60095656,0.60095656,0.76689652) (0.60095656,0.60095656,0.65064407) (0.60095656,0.60095656,0.72458154) (0.60095656,0.60095656,0.99639776) (0.60095656,0.60095656,0.68921125)
(0.60095656,0.60095656,0.64520753) (0.60095656,0.60095656,0.86791444) (0.60095656,0.60095656,0.60095720) (0.60095656,0.60095656,0.85463744) (0.60095656,0.60095656,0.69659691) (0.60095656,0.60095656,0.85285245)
(0.60095656,0.60095656,0.61394171) (0.60095656,0.60095656,0.60954983) (1.00000000,1.00000000,0.79062409) (0.60095656,0.60095656,0.92737409) (0.60095656,0.60095656,0.60095656) (0.99217462,1.00000000,0.85958777)
(0.60095656,0.60095656,0.71181653) (0.60095656,0.60095656,0.64236291) (0.60095656,0.60095656,0.67544129) (0.60095656,0.60095656,0.90544661) (0.60095656,0.60095656,0.64927382) (0.60095656,0.60095656,0.87089852)
(0.60095656,0.60095656,0.61421766) (0.60095656,0.60095656,0.82972374) (0.60095656,0.60095656,0.74728764) (0.60095656,0.60095656,0.74717355) (0.60095656,0.60095656,0.91467530) (0.60095656,0.60095656,0.99085447)
(0.60095656,0.60095656,0.90692818) (0.60095656,0.60095656,0.74011375) (0.60095656,0.60095656,0.83902997) (0.60095656,0.60095656,0.93557832) (0.60095656,0.60095656,0.61760308) (0.60095656,0.60095656,0.94009269)
(0.60095656,0.60095656,0.87591047) (0.60095656,0.60095656,0.92686812) (0.60095656,0.60095656,0.75342755) (0.60095656,0.60095656,0.97491853) (0.60095656,0.60095656,0.72203990) (0.60095656,0.60095656,0.81754992)
(0.60095656,0.60095656,0.93525418) (0.60095656,0.60095656,0.94570308) (0.60095656,0.60095656,0.85537741) (0.60095656,0.60095656,0.98768640) (0.60095656,0.60095656,0.77000646) (0.99999995,0.99999751,0.89593929)
(0.60095656,0.60095656,0.90051862) (0.60095656,0.60095656,0.92146903) (0.60095656,0.60095656,0.75539762) (0.60095656,0.60095656,0.69649387) (0.60095656,0.60095656,0.79263557) (0.60095656,0.60095656,0.60549319)
(0.60095656,0.60095656,0.63318815) (0.60095656,0.60095656,0.61044387) (0.60095656,0.60095656,0.69730726) (0.60095656,0.60095656,0.87209725) (0.60095656,0.60095656,0.71213440) (0.60095656,0.60095656,0.74815031)
(0.60095656,0.60095656,0.62900946) (0.60095656,0.60095656,0.60658764) (0.60095656,0.60095656,0.83162784) (0.60095656,0.60095656,0.89582036) (0.60095656,0.60095656,0.80987801) (0.60095656,0.60095656,0.96049732)
(0.60095656,0.60095656,0.94857568) (0.60095656,0.60095656,0.77329295) (0.60095656,0.60095656,0.72921568) (0.60095656,0.60095656,0.68641173) (0.60095656,0.60095656,0.63442990) (0.60095656,0.60095656,0.82815162)
(0.60095656,0.60095656,0.97832364) (0.60095656,0.60095656,0.84267204) (0.60095656,0.60095656,0.76314404) (0.60095656,0.60095656,0.61149137) (0.60095656,0.60095656,0.60992779) (0.60095656,0.60095656,0.83628735)
(0.60095656,0.60095656,0.96149238) (0.60095656,0.60095656,0.96713839) (0.60095656,0.60095656,0.66189115) (0.60095656,0.60095656,0.93109273) (0.60095656,0.60095656,0.75536556) (0.60095656,0.60095656,0.71425209)
(0.60095656,0.60095656,0.86418276) (0.60095656,0.60095656,0.90666140) (0.60095656,0.60095656,0.61191482) (0.60095656,0.60095656,0.66031298) (0.60095656,0.60095656,0.65216007) (0.60095656,0.60095656,0.71520930)
(0.60095656,0.60095656,0.99578168) (0.60095656,0.60095656,0.76886045) (0.60095656,0.60095656,0.70165000) (0.60095656,0.60095656,0.65363555) (0.60095656,0.60095656,0.78300151) (0.60095656,0.60095656,0.68713993)
(0.60095656,0.60095656,0.99799741) (0.60095656,0.60095656,0.69424197) (0.60095656,0.60095656,0.69626211) (0.60095656,0.60095656,0.90404568) (0.60095656,0.60095656,0.60204124) (0.60095656,0.60095656,0.99962151)
(0.60095656,0.60095656,0.61497637) (0.60095656,0.60095656,0.71507480) (0.60095656,0.60095656,0.88126753) (0.60095656,0.60095656,0.68295876) (0.60095656,0.60095656,0.60181477) (0.99998305,0.99992544,0.82944836)
(0.60095656,0.60095656,0.64160491) (0.60095656,0.60095656,0.79503416) (0.60095656,0.60095656,0.60566961) (0.60095656,0.60095656,0.66549341) (0.60095656,0.60095656,0.82427216) (0.60095656,0.60095656,0.62348918)
(0.60095656,0.60095656,0.60440797) (0.60095656,0.60095656,0.60189345) (0.60095656,0.60095656,0.92526496) (0.60095656,0.60095656,0.80794378) (0.60095656,0.60095656,0.86299572) (0.60095656,0.60095656,0.92819108)
(0.60095656,0.60095656,0.61572588) (0.60095656,0.60095656,0.62045824) (0.60095656,0.60095656,0.62308588) (0.60095656,0.60095656,0.60892063) (0.60095656,0.60095656,0.99722026) (0.60095656,0.60095656,0.73694957)
(0.60095656,0.60095656,0.89177181) (0.60095656,0.60095656,0.67681059) (0.60095656,0.60095656,0.62325658) (0.60095656,0.60095656,0.67453804) (0.60095656,0.60095656,0.94326382) (0.60095656,0.60095656,0.92757838)
(0.60095656,0.60095656,0.94600026) (0.60095656,0.60095656,0.76744658) (0.60095656,0.60095656,0.96440189) (0.60095656,0.60095656,0.61071290) (0.60095656,0.60095656,0.75407617) (0.60095656,0.60095656,0.99043060)
(0.60095656,0.60095656,0.93943826) (0.60095656,0.60095656,0.98950563) (0.60095656,0.60095656,0.60981633) (0.60095656,0.60095656,0.96870970) (0.60095656,0.60095656,0.68688124) (0.60095656,0.60095656,0.93607360)
(0.60095656,0.60095656,0.69198082) (0.60095656,0.60095656,0.99891295) (0.60095656,0.60095656,0.68252246) (0.60095656,0.60095656,0.64008080) (0.60095656,0.60095656,0.69187319) (0.60095656,0.60095656,0.98397445)
(0.60095656,0.60095656,0.72810374) (0.60095656,0.60095656,0.84192133) (0.60095656,0.60095656,0.83320031) (0.60095656,0.60095656,0.60115364) (0.60095656,0.60095656,0.64596920) (0.60095656,0.60095656,0.60443416)
(0.60095656,0.60095656,0.62815144) (0.60095656,0.60095656,0.86315632) (0.60095656,0.60095656,0.99592333) (0.60095656,0.60095656,0.61387114) (0.60095656,0.60095656,0.60095866) (0.60095656,0.60095656,0.62015424)
(0.60095656,0.60095656,0.60963538) (0.60095656,0.60095656,0.99614936) (0.60095656,0.60095656,0.62073258) (0.60095656,0.60095656,0.89716548) (0.60095656,0.60095656,0.95007443) (0.60095656,0.60095656,0.60980907)
(0.60095656,0.60095656,0.61258545) (0.60095656,0.60095656,0.97322558) (0.60095656,0.60095656,0.65790379) (0.60095656,0.60095656,0.87309501) (0.60095656,0.60095656,0.61402749) (0.60095656,0.60095656,0.62231995)
(0.60095656,0.60095656,0.95588784) (0.60095656,0.60095656,0.96989168) (0.60095656,0.60095656,0.97991563) (0.60095656,0.60095656,0.80208852) (0.60095656,0.60095656,0.92534754) (0.60095656,0.60095656,0.69801096)
(0.60095656,0.60095656,0.93891855) (0.60095656,0.60095656,0.99854663) (0.60095656,0.60095656,0.99442290) (0.60095656,0.60095656,0.74622772) (0.60095656,0.60095656,0.83351957) (0.60095656,0.60095656,0.90471744)
(0.60095656,0.60095656,0.67976057) (0.60095656,0.60095656,0.82842348) (0.60095656,0.60095656,0.60728765) (0.60095656,0.60095656,0.60325296) (0.60095656,0.60095656,0.60222700) (0.60095656,0.60095656,0.61143450)
(0.60095656,0.60095656,0.97599902) (0.60095656,0.60095656,0.98038056) (0.60095656,0.60095656,0.65993818) (0.60095656,0.60095656,0.67503236) (0.60095656,0.60095656,0.69029863) (0.60095656,0.60095656,0.60096930)
(0.60095656,0.60095656,0.99488888) (0.60095656,0.60095656,0.80898659) (0.60095656,0.60095656,0.61075917) (0.60095656,0.60095656,0.98317373) (0.60095656,0.60095656,0.64182946) (0.60095656,0.60095656,0.69025206)
(0.60095656,0.60095656,0.80999853) (0.60095656,0.60095656,0.75056645) (0.60095656,0.60095656,0.90842160) (0.60095656,0.60095656,0.77919525) (0.60095656,0.60095656,0.85688382) (0.60095656,0.60095656,0.66889096)
(0.60095656,0.60095656,0.68671172) (0.60095656,0.60095656,0.60555921) (0.60095656,0.60095656,0.65129024) (0.60095656,0.60095656,0.97637864) (0.60095656,0.60095656,0.99792878) (0.60095656,0.60095656,0.96960459)
(0.60095656,0.60095656,0.64627377) (0.60095656,0.60095656,0.84465293) (0.60095656,0.60095656,0.60163329) (0.60095656,0.60095656,0.81253703) (0.60095656,0.60095656,0.89008355) (0.60095656,0.60095656,0.94347571)
(0.60095656,0.60095656,0.93496912) (0.60095656,0.60095656,0.94497784) (1.00000000,0.60095656,0.99947176) (0.60095656,0.60095656,0.74215432) (0.60095656,0.60095656,0.90195431) (0.82535646,0.99941324,0.96268461)
(0.60095656,0.60095656,0.64478544) (0.60095656,0.60095656,0.74988704) (0.60095656,0.60095656,0.62886597) (0.60095656,0.60095656,0.67456210) (0.60095656,0.60095656,0.73110749) (0.60095656,0.60095656,0.60686044)
(0.60095656,0.60095656,0.66044997) (0.60095656,0.60095656,0.76158373) (0.60095656,0.60095656,0.71420487) (0.60095656,0.60095656,0.67985751) (0.60095656,0.60095656,0.99203829) (0.60095656,0.60095656,0.65832269)
(0.60095656,0.60095656,0.70579157) (0.60095656,0.60095656,0.63348749) (0.60095656,0.60095656,0.99545706) (0.60095656,0.60095656,0.81376383) (0.60095656,0.60095656,0.64653005) (0.60095656,0.60095656,0.97227008)
(0.60095656,0.60095656,0.60535500) (0.60095656,0.60095656,0.96881457) (0.60095656,0.60095656,0.98467709) (0.60095656,0.60095656,0.60322949) (0.60095656,0.60095656,0.71370432) (0.60095656,0.60095656,0.85685628)
(0.60095656,0.60095656,0.75305302) (0.60095656,0.60095656,0.63905877) (0.60095656,0.60095656,0.97214756) (0.60095656,0.60095656,0.62675070) (0.60095656,0.60095656,0.84836266) (0.99984700,0.99956255,0.72242611)
(0.60095656,0.60095656,0.80556837) (0.60095656,0.60095656,0.71605315) (0.60095656,0.60095656,0.98473689) (0.60095656,0.60095656,0.60095661) (0.60095656,0.60095656,0.78760033) (0.60095656,0.60095656,0.64236243)
(0.60095656,0.60095656,0.70224605) (0.60095656,0.60095656,0.66227768) (0.60095656,0.60095656,0.99655649) (0.60095656,0.60095656,0.70422297) (0.60095656,0.60095656,0.92094473) (0.60095656,0.60095656,0.66375014)
(0.60095656,0.60095656,0.60673270) (0.60095656,0.60095656,0.60422315) (0.60095656,0.60095656,0.77609707) (0.60095656,0.60095656,0.60952130) (0.60095656,0.60095656,0.64142764) (0.60095656,0.60095656,0.60923121)
(0.60095656,0.60095656,0.84133304) (0.60095656,0.60095656,0.77098582) (0.60095656,0.60095656,0.71319107) (0.60095656,0.60095656,0.99509809) (0.60095656,0.60095656,0.87928069) (0.60095656,0.60095656,0.60653394)
(0.60095656,0.60095656,0.65900457) (0.60095656,0.60095656,0.71921468) (0.60095656,0.60095656,0.70489359) (0.60095656,0.60095656,0.94481888) (0.60095656,0.60095656,0.82381111) (0.60095656,0.60095656,0.60244747)
(0.60095656,0.60095656,0.80032846) (0.60095656,0.60095656,0.66535016) (0.60095656,0.60095656,0.60277213) (0.60095656,0.60095656,0.89926803) (0.60095656,0.60095656,0.71500476) (0.60095656,0.60095656,0.67342005)
(0.60095656,0.60095656,0.65101497) (0.60095656,0.60095656,0.70249870) (0.60095656,0.60095656,0.69193507) (0.60095656,0.60095656,0.71348551) (0.60095656,0.60095656,0.61367956) (0.60095656,0.60095656,0.60199376)
(0.60095656,0.60095656,0.61990116) (0.60095656,0.60095656,0.79050664) (0.60095656,0.60095656,0.61471022) (0.60095656,0.60095656,0.60255095) (0.60095656,0.60095656,0.64561013) (0.60095656,0.60095656,0.65131917)
(0.60095656,0.60095656,0.66049543) (0.60095656,0.60095656,0.63416017) (0.60095656,0.60095656,0.88587255) (0.60095656,0.60095656,0.63833130) (0.60095656,0.60095656,0.60131813) (0.60095656,0.60095656,0.80234322)
(0.60095656,0.60095656,0.78275017) (0.60095656,0.60095656,0.64977975) (0.60095656,0.60095656,0.60114255) (0.60095656,0.60095656,0.70639756) (0.60095656,0.60095656,0.62508719) (0.60095656,0.60095656,0.73469457)
(0.60095656,0.60095656,0.88808388) (0.60095656,0.60095656,0.62608719) (0.60095656,0.60095656,0.99779496) (0.60095656,0.60095656,0.96584452) (0.60095656,0.60095656,0.78254021) (0.60095656,0.60095656,0.91819801)
(0.60095656,0.60095656,0.77294811) (0.60095656,0.60095656,0.63606136) (0.60095656,0.60095656,0.79718755) (0.60095656,0.60095656,0.94028581) (0.60095656,0.60095656,0.66251441) (0.60095656,0.60095656,0.69892041)
(0.60095656,0.60095656,0.64698056) (0.60095656,0.60095656,0.74557325) (0.60095656,0.60095656,0.98046795) (0.60095656,0.60095656,0.65347194) (0.60095656,0.60095656,0.61231375) (0.99973839,0.99930398,0.90687882)
(0.60095656,0.60095656,0.63657617) (0.60095656,0.60095656,0.63851608) (0.60095656,0.60095656,0.63136240) (0.60095656,0.60095656,0.66342766) (0.60095656,0.60095656,0.60353274) (0.99952211,0.99890744,0.64420429)
(0.60095656,0.60095656,0.83737762) (0.60095656,0.60095656,0.62479735) (0.60095656,0.60095656,0.80254934) (0.60095656,0.60095656,0.83481300) (0.60095656,0.60095656,0.65698799) (0.99952211,0.99890744,0.60095775)
(0.60095656,0.60095656,0.85846612) (0.60095656,0.60095656,0.71523629) (0.60095656,0.60095656,0.96860348) (0.60095656,0.60095656,0.71437586) (0.60095656,0.60095656,0.60576905) (0.99950048,0.99886421,0.69649392)
(0.60095656,0.60095656,0.60148205) (0.60095656,0.60095656,0.84446473) (0.60095656,0.60095656,0.60914763) (0.60095656,0.60095656,0.60909122) (0.60095656,0.60095656,0.62259741) (0.60095656,0.60095656,0.76450829)
(0.60095656,0.60095656,0.61170409) (0.60095656,0.60095656,0.64406751) (0.60095656,0.60095656,0.70303863) (0.60095656,0.60095656,0.61287567) (0.60095656,0.60095656,0.93475296) (0.60095656,0.60095656,0.80924591)
(0.60095656,0.60095656,0.89233027) (0.60095656,0.60095656,0.99638104) (0.60095656,0.60095656,0.74442659) (0.60095656,0.60095656,0.76239517) (0.60095656,0.60095656,0.93681888) (0.60095656,0.60095656,0.71686521)
(0.60095656,0.60095656,0.93931795) (0.60095656,0.60095656,0.88289448) (0.60095656,0.60095656,0.62156457) (0.60095656,0.60095656,0.68659160) (0.60095656,0.60095656,0.97826567) (0.60095656,0.60095656,0.77478991)
(0.60095656,0.60095656,0.99231891) (0.60095656,0.60095656,0.80500495) (0.60095656,0.60095656,0.60160174) (0.60095656,0.60095656,0.98107027) (0.60095656,0.60095656,0.99719686) (0.99937676,0.99862120,0.61142979)
(0.60095656,0.60095656,0.99836755) (0.60095656,0.60095656,0.82992863) (0.60095656,0.60095656,0.97958167) (0.60095656,0.60095656,0.99340078) (0.60095656,0.60095656,0.76656300) (0.99934857,0.99856671,0.60331709)
(0.60095656,0.60095656,0.60848631) (0.60095656,0.60095656,0.91594731) (0.60095656,0.60095656,0.93922780) (0.60095656,0.60095656,0.60469753) (0.60095656,0.60095656,0.86650066) (0.60095656,0.60095656,0.77382003)
(0.60095656,0.60095656,0.95856917) (0.60095656,0.60095656,0.97526845) (0.60095656,0.60095656,0.97860371) (0.60095656,0.60095656,0.80766949) (0.60095656,0.60095656,0.81875862) (0.60095656,0.60095656,0.95117742)
(0.60095656,0.60095656,0.66468172) (0.60095656,0.60095656,0.62354197) (0.60095656,0.60095656,0.86380689) (0.60095656,0.60095656,0.85292926) (0.60095656,0.60095656,0.72790460) (0.60095656,0.60095656,0.86133388)
(0.60095656,0.60095656,0.95736860) (0.60095656,0.60095656,0.75907055) (0.60095656,0.60095656,0.61181661) (0.60095656,0.60095656,0.68237132) (0.60095656,0.60095656,0.71347297) (0.60095656,0.60095656,0.60162726)
(0.60095656,0.60095656,0.65223095) (0.60095656,0.60095656,0.92177658) (0.60095656,0.60095656,0.64556710) (0.60095656,0.60095656,0.73529613) (0.60095656,0.60095656,0.95312713) (0.60095656,0.60095656,0.60436658)
(0.60095656,0.60095656,0.61592671) (0.60095656,0.60095656,0.92657974) (0.60095656,0.60095656,0.68966798) (0.60095656,0.60095656,0.88985177) (0.60095656,0.60095656,0.66332478) (0.99876647,0.99761894,0.63487836)
(0.60095656,0.60095656,0.92458313) (0.60095656,0.60095656,0.99214343) (0.60095656,0.60095656,0.61866398) (0.60095656,0.60095656,0.88464364) (0.60095656,0.60095656,0.99635044) (0.60095656,0.60095656,0.74116754)
(0.60095656,0.60095656,0.99882035) (0.60095656,0.60095656,0.93255056) (0.60095656,0.60095656,0.60229254) (0.60095656,0.60095656,0.61160841) (0.60095656,0.60095656,0.80860623) (0.60095656,0.60095656,0.61805861)
(0.60095656,0.60095656,0.99703144) (0.60095656,0.60095656,0.67261572) (0.60095656,0.60095656,0.63103085) (0.60095656,0.60095656,0.97743353) (0.60095656,0.60095656,0.83572166) (0.60095656,0.60095656,0.99932450)
(0.60095656,0.60095656,0.99288998) (0.60095656,0.60095656,0.61410143) (0.60095656,0.60095656,0.77281918) (0.60095656,0.60095656,0.69434315) (0.60095656,0.60095656,0.90373524) (0.60095656,0.60095656,0.90034871)
(0.60095656,0.60095656,0.78317578) (0.60095656,0.60095656,0.60219709) (0.60095656,0.60095656,0.60095765) (0.60095656,0.60095656,0.61211640) (0.60095656,0.60095656,0.61548362) (0.60095656,0.60095656,0.68290186)
(0.60095656,0.60095656,0.63199003) (0.60095656,0.60095656,0.60757657) (0.60095656,0.60095656,0.60306395) (0.60095656,0.60095656,0.60295221) (0.60095656,0.60095656,0.60802275) (0.99903052,0.99796937,0.60403935)
(0.60095656,0.60095656,0.65000537) (0.60095656,0.60095656,0.91570504) (0.60095656,0.60095656,0.97496121) (0.60095656,0.60095656,0.96871353) (0.60095656,0.60095656,0.99989319) (0.99903052,0.99796937,0.78124254)
(0.60095656,0.60095656,0.95360923) (0.60095656,0.60095656,0.60096274) (0.60095656,0.60095656,0.60114851) (0.60095656,0.60095656,0.84561167) (0.60095656,0.60095656,0.96089289) (0.60095656,0.60095656,0.88781473)
(0.60095656,0.60095656,0.82327491) (0.60095656,0.60095656,0.60952624) (0.60095656,0.60095656,0.65670380) (0.60095656,0.60095656,0.85755410) (0.60095656,0.60095656,0.90594416) (0.60095656,0.60095656,0.82375696)
(0.60095656,0.60095656,0.70576745) (0.60095656,0.60095656,0.61542914) (0.60095656,0.60095656,0.91486114) (0.60095656,0.60095656,0.71197224) (0.60095656,0.60095656,0.79857336) (0.60095656,0.60095656,0.64613026)
(0.60095656,0.60095656,0.75673890) (0.60095656,0.60095656,0.77700939) (0.60095656,0.60095656,0.98195370) (0.60095656,0.60095656,0.68304511) (0.60095656,0.60095656,0.76774980) (0.60095656,0.60095656,0.72643176)
(0.60095656,0.60095656,0.88249850) (0.60095656,0.60095656,0.71400706) (0.60095656,0.60095656,0.60161536) (0.60095656,0.60095656,0.80261732) (0.60095656,0.60095656,0.80511307) (0.60095656,0.60095656,0.73561358)
(0.60095656,0.60095656,0.81410188) (0.60095656,0.60095656,0.85908585) (0.60095656,0.60095656,0.85982262) (0.60095656,0.60095656,0.97352788) (0.60095656,0.60095656,0.97768349) (0.60095656,0.60095656,0.73799738)
(0.60095656,0.60095656,0.92394453) (0.60095656,0.60095656,0.79093878) (0.60095656,0.60095656,0.68557713) (0.60095656,0.60095656,0.70975124) (0.60095656,0.60095656,0.92127727) (0.60095656,0.60095656,0.70718252)
(0.60095656,0.60095656,0.93289519) (0.60095656,0.60095656,0.62565662) (0.60095656,0.60095656,0.67489497) (0.60095656,0.60095656,0.87216494) (0.60095656,0.60095656,0.60096936) (0.60095656,0.60095656,0.62371103)
(0.60095656,0.60095656,0.72368539) (0.60095656,0.60095656,0.60123439) (0.60095656,0.60095656,0.70327732) (0.60095656,0.60095656,0.60162086) (0.60095656,0.60095656,0.60199266) (0.60095656,0.60095656,0.61098940)
(0.60095656,0.60095656,0.75955439) (0.60095656,0.60095656,0.84380067) (0.60095656,0.60095656,0.91342177) (0.60095656,0.60095656,0.78563270) (0.60095656,0.60095656,0.82612968) (0.60095656,0.60095656,0.97593228)
(0.60095656,0.60095656,0.92795782) (0.60095656,0.60095656,0.72946796) (0.60095656,0.60095656,0.64497028) (0.60095656,0.60095656,0.88550852) (0.60095656,0.60095656,0.60115499) (0.60095656,0.60095656,0.86760550)
(0.60095656,0.60095656,0.97430875) (0.60095656,0.60095656,0.91810252) (0.60095656,0.60095656,0.63968682) (0.60095656,0.60095656,0.60494202) (0.60095656,0.60095656,0.86022034) (0.99849378,0.99701266,0.67440908)
(0.60095656,0.60095656,0.89195487) (0.60095656,0.60095656,0.98435730) (0.60095656,0.60095656,0.89677688) (0.60095656,0.60095656,0.69451520) (0.60095656,0.60095656,0.99939101) (0.99842606,0.99689530,0.68888859)
(0.60095656,0.60095656,0.90315084) (0.60095656,0.60095656,0.73256571) (0.60095656,0.60095656,0.60367993) (0.60095656,0.60095656,0.62123973) (0.60095656,0.60095656,0.99924417) (0.99835532,0.99677339,0.90056711)
(0.60095656,0.60095656,0.72610204) (0.60095656,0.60095656,0.61393193) (0.60095656,0.60095656,0.89770274) (0.60095656,0.60095656,0.68966747) (0.60095656,0.60095656,0.95924180) (0.60095656,0.60095656,0.97839389)
(0.60095656,0.60095656,0.73367532) (0.60095656,0.60095656,0.84185228) (0.60095656,0.60095656,0.97597018) (0.60095656,0.60095656,0.99545993) (0.60095656,0.60095656,0.86937614) (0.60095656,0.60095656,0.99999472)
(0.60095656,0.60095656,0.77660692) (0.60095656,0.60095656,0.92040570) (0.60095656,0.60095656,0.81870505) (0.60095656,0.60095656,0.91050403) (0.60095656,0.60095656,0.90882311) (0.60095656,0.60095656,0.99205697)
(0.60095656,0.60095656,0.84774793) (0.60095656,0.60095656,0.60894891) (0.60095656,0.60095656,0.83459440) (0.60095656,0.60095656,0.89792605) (0.60095656,0.60095656,0.86900026) (0.60095656,0.60095656,0.95611088)
(0.60095656,0.60095656,0.80021622) (0.60095656,0.60095656,0.75125905) (0.60095656,0.60095656,0.88056354) (0.60095656,0.60095656,0.65664456) (0.60095656,0.60095656,0.60095839) (0.99712439,0.99496362,0.68282259)
(0.60095656,0.60095656,0.93739426) (0.60095656,0.60095656,0.60717927) (0.60095656,0.60095656,0.97688555) (0.60095656,0.60095656,0.67429699) (0.60095656,0.60095656,0.61230495) (0.99712439,0.99496362,0.73396247)
(0.60095656,0.60095656,0.94780201) (0.60095656,0.60095656,0.85908743) (0.60095656,0.60095656,0.93793657) (0.60095656,0.60095656,0.79847741) (0.60095656,0.60095656,0.60657018) (0.60095656,0.60095656,0.99228358)
(0.60095656,0.60095656,0.96307798) (0.60095656,0.60095656,0.94922527) (0.60095656,0.60095656,0.61662984) (0.60095656,0.60095656,0.68001914) (0.60095656,0.60095656,0.65430430) (0.60095656,0.60095656,0.99720107)
(0.60095656,0.60095656,0.60214447) (0.60095656,0.60095656,0.69060431) (1.00000000,1.00000000,0.66717721) (0.60095656,0.60095656,0.63772808) (0.60095656,0.60095656,0.92070741) (0.60095656,0.60095656,0.64613389)
(0.60095656,0.60095656,0.90097245) (0.60095656,0.60095656,0.71444739) (1.00000000,1.00000000,0.73127222) (0.60095656,0.60095656,0.63845442) (0.60095656,0.60095656,0.70470079) (0.60095656,0.60095656,0.87966471)
(0.60095656,0.60095656,0.75048766) (0.60095656,0.60095656,0.99754867) (0.60095656,0.60095656,0.94808561) (0.60095656,0.60095656,0.64085804) (0.60095656,0.60095656,0.90483266) (0.60095656,0.60095656,0.99090271)
(0.60095656,0.60095656,0.78008428) (0.60095656,0.60095656,0.93246208) (0.60095656,0.60095656,0.65233983) (0.60095656,0.60095656,0.69899769) (0.60095656,0.60095656,0.97724598) (0.60095656,0.60095656,0.66809493)
(0.60095656,0.60095656,0.71740432) (0.60095656,0.60095656,0.99085957) (0.60095656,0.60095656,0.84359181) (0.60095656,0.60095656,0.98261400) (0.60095656,0.60095656,0.60599532) (0.99623301,0.99497371,0.62878706)
(0.60095656,0.60095656,0.65023095) (0.60095656,0.60095656,0.98502274) (0.60095656,0.60095656,0.84905170) (0.60095656,0.60095656,0.65203628) (0.60095656,0.60095656,0.75317688) (0.99607766,0.99477846,0.83886113)
(0.60095656,0.60095656,0.74944436) (0.60095656,0.60095656,0.92956521) (0.60095656,0.60095656,0.64233764) (0.60095656,0.60095656,0.73791781) (0.60095656,0.60095656,0.73543128) (0.99469516,0.99319315,0.60137612)
(0.60095656,0.60095656,0.88783457) (0.60095656,0.60095656,0.99420013) (1.00000000,1.00000000,0.82583299) (0.60095656,0.60095656,0.69515538) (0.60095656,0.60095656,0.60519384) (0.60095656,0.60095656,0.62172934)
(0.60095656,0.60095656,0.89263053) (0.60095656,0.60095656,0.99979112) (0.60095656,0.60095656,0.75366361) (0.60095656,0.60095656,0.79326622) (0.60095656,0.60095656,0.70731807) (0.60095656,0.60095656,0.78605124)
(0.60095656,0.60095656,0.94813022) (0.60095656,0.60095656,0.99998947) (0.60095656,0.60095656,0.90613534) (0.60095656,0.60095656,0.74294940) (0.60095656,0.60095656,0.73649595) (0.99574780,0.99436529,0.98921658)
(0.60095656,0.60095656,0.94801038) (0.60095656,0.60095656,0.88449318) (0.60095656,0.60095656,0.98738482) (0.60095656,0.60095656,0.89134825) (0.60095656,0.60095656,0.75872182) (0.99557279,0.99414682,0.77464777)
(0.60095656,0.60095656,0.88880503) (0.60095656,0.60095656,0.78633847) (0.60095656,0.60095656,0.93508066) (0.60095656,0.60095656,0.93738638) (0.60095656,0.60095656,0.94808193) (0.60095656,0.60095656,0.93186211)
(0.60095656,0.60095656,0.60177798) (0.60095656,0.60095656,0.99968630) (0.60095656,0.60095656,0.72632931) (0.60095656,0.60095656,0.82675551) (0.60095656,0.60095656,0.89613103) (0.99520130,0.99368463,0.89428002)
(0.60095656,0.60095656,0.60135532) (0.60095656,0.60095656,0.94340556) (1.00000000,1.00000000,0.68968323) (0.60095656,0.60095656,0.63841279) (0.60095656,0.60095656,0.75541859) (0.86652029,0.60095818,0.84145240)
(0.60095656,0.60095656,0.61499776) (0.60095656,0.60095656,0.86856166) (1.00000000,1.00000000,0.60110509) (0.60095656,0.60095656,0.74892058) (0.60095656,0.60095656,0.61309162) (0.60095656,0.60095656,0.69366530)
(0.60095656,0.60095656,0.61032158) (0.60095656,0.60095656,0.60095656) (0.60095656,0.60095656,0.60515507) (0.60095656,0.60095656,0.60906768) (0.60095656,0.60095656,0.62582219) (0.60095656,0.60095656,0.60959458)
(0.60095656,0.60095656,0.63097363) (0.60095656,0.60095656,0.60227380) (0.60095656,0.60095656,0.68420335) (0.60095656,0.60095656,0.93020230) (0.60095656,0.60095656,0.65932326) (0.60095656,0.60095656,0.79274518)
(0.60095656,0.60095656,0.62999167) (0.60095656,0.60095656,0.60139204) (0.60095656,0.60095656,0.82830505) (0.60095656,0.60095656,0.62353497) (0.60095656,0.60095656,0.68375975) (0.60095656,0.60095656,0.66840299)
(0.60095656,0.60095656,0.64585974) (0.60095656,0.60095656,0.70463817) (0.60095656,0.60095656,0.60348455) (0.60095656,0.60095656,0.85835459) (0.60095656,0.60095656,0.93439322) (0.60095656,0.60095656,0.61517310)
(0.60095656,0.60095656,0.69248392) (0.60095656,0.60095656,0.70726083) (1.00000000,1.00000000,0.60695075) (0.60095656,0.60095656,0.82032078) (0.60095656,0.60095656,0.60189352) (0.97870196,0.98328488,0.92250097)
(0.60095656,0.60095656,0.68725393) (0.60095656,0.60095656,0.81347361) (0.60095656,0.60095656,0.98864403) (0.60095656,0.60095656,0.82916885) (0.60095656,0.60095656,0.61771128) (0.99389395,0.99207292,0.82156369)
(0.60095656,0.60095656,0.60188116) (0.60095656,0.60095656,0.60954676) (0.60095656,0.60095656,0.70457807) (0.60095656,0.60095656,0.60627527) (0.60095656,0.60095656,0.84797042) (0.60095656,0.60095656,0.70320716)
(0.60095656,0.60095656,0.64158283) (0.60095656,0.60095656,0.60197317) (0.60095656,0.60095656,0.96062865) (0.60095656,0.60095656,0.98743685) (0.60095656,0.60095656,0.83804152) (0.60095656,0.60095656,0.99325055)
(0.60095656,0.60095656,1.00000000) (0.60095656,0.60095656,1.00000000) (0.60095656,0.60095656,1.00000000) (0.60095656,0.60095656,1.00000000) (0.60095656,0.60095656,1.00000000) (0.60095656,0.60095656,1.00000000)
(0.60095656,0.60095656,1.00000000) (0.60095656,0.60095656,1.00000000) (0.60095656,0.60095656,1.00000000) (0.60095656,0.60095656,1.00000000) (0.60095656,0.60095656,1.00000000) (0.60095656,0.60095656,1.00000000)
(0.60095656,0.60095656,1.00000000) (0.60095656,0.60095656,1.00000000) (0.60095656,0.60095656,1.00000000) (0.60095656,0.60095656,1.00000000) (0.60095656,0.60095656,1.00000000) (0.60095656,0.60095656,1.00000000)
