chh c1 sd mt lt rc2
(0.60095656,0.60095656,1.00000000) (0.60095656,0.60095656,1.00000000) (1.00000000,0.93874874,1.00000000) (0.94264525,0.60095656,1.00000000) (0.94619116,0.60095656,1.00000000) (0.60095656,0.60095656,1.00000000)
(0.60095656,0.60095656,0.76095460) (0.60095656,0.60095656,0.86187879) (1.00000000,0.93307840,0.95876804) (0.94863168,0.60095656,0.98437307) (0.94928042,0.60095656,0.99987716) (0.60095656,0.60095656,0.94457828)
(0.60095656,0.60095656,0.89231643) (0.60095656,0.60095656,0.99999409) (0.99869273,0.61375931,1.00000000) (0.94970128,0.60095656,0.98044128) (0.95137747,0.60095656,0.92089900) (0.60095656,0.60095656,0.99735600)
(0.60095656,0.60095656,0.82071313) (0.60095656,0.60095656,0.99999153) (0.99777514,0.61616458,1.00000000) (0.94672350,0.60095656,0.98984516) (0.94656696,0.60095656,0.70943786) (0.67450902,1.00000000,0.84779786)
(0.99999726,1.00000000,0.84986484) (0.60095656,0.60095656,0.99999703) (0.68470538,0.62428047,0.99999999) (0.94053591,0.60095656,0.99521744) (0.94265051,0.60095656,0.60192530) (1.00000000,0.60095656,0.99970703)
(1.00000000,1.00000000,0.99999999) (0.60095656,0.60095656,0.99548802) (0.94685392,0.63389818,0.99999996) (0.94233014,0.60095656,0.99516156) (0.93894061,0.60095656,0.86266465) (1.00000000,1.00000000,1.00000000)
(1.00000000,1.00000000,1.00000000) (0.99616422,0.60095656,0.99877889) (0.99315991,0.63424690,0.99999987) (0.94079691,0.60095656,0.99447854) (0.93512231,0.60095656,0.68012760) (1.00000000,1.00000000,1.00000000)
(1.00000000,1.00000000,0.93862561) (1.00000000,1.00000000,0.99999705) (0.95406739,0.90175758,1.00000000) (0.93931476,0.60095656,0.99473898) (0.93148300,0.60095656,0.93736217) (1.00000000,1.00000000,0.99999989)
(0.60095656,0.60095656,0.75923879) (0.60095656,0.60095656,0.99999164) (0.61372801,0.89474974,1.00000000) (0.93528254,0.99092380,0.99422762) (0.92785927,0.60095656,0.69736048) (1.00000000,0.63057992,0.93169289)
(0.60095656,0.60095656,0.82421768) (0.60095656,0.60095656,0.63660360) (0.99399620,0.64948795,0.99914135) (0.93731097,0.60095656,0.98971923) (0.92439507,0.60095656,0.85780200) (0.60095656,0.60095656,0.95415813)
(0.60095656,0.60095656,0.96590713) (0.60095656,0.60095656,0.99121933) (0.99422598,0.68422893,0.95184835) (0.93902343,0.60095656,0.99925593) (0.92357314,0.60095656,0.99996680) (0.60095656,0.60095656,0.99985715)
(0.60095656,0.60095656,0.98513060) (0.60095656,0.60095656,0.99450114) (0.89032263,0.72407369,0.76806340) (0.77788062,0.60095656,0.85916444) (0.92193502,0.60095656,0.69037147) (0.60095656,0.60095656,0.99999909)
(0.60095656,0.60095656,0.67718989) (0.60095656,0.60095656,0.60176525) (0.69751214,0.81178167,0.95345114) (0.63447700,0.98571789,0.68346728) (0.61283182,0.60095656,0.66086916) (0.60095656,0.60095656,0.92359467)
(0.60095656,0.60095656,0.95460879) (0.60095656,0.60095656,0.67983823) (0.64286564,0.80948033,0.86163676) (0.60747112,0.98407986,0.60152915) (0.75999129,0.60095656,0.60294264) (0.60095656,0.60095656,0.96412663)
(0.60095656,0.60095656,0.93846659) (0.60095656,0.60095656,0.66746793) (0.60636176,0.72606136,0.72806033) (0.60177098,0.60095656,0.61413794) (0.60411007,0.60095656,0.81103916) (0.60095656,0.60095656,0.80800244)
(0.60095656,0.60095656,0.80192274) (0.60095656,0.60095656,0.87419394) (0.60112620,0.80524400,0.70530983) (0.61573976,0.98305236,0.66008092) (0.60112314,0.60095656,0.96754502) (0.60095656,0.60095656,0.92503408)
(0.60095656,0.60095656,0.69075211) (0.60095656,0.60095656,0.81970045) (0.60167651,0.68295097,0.61389892) (0.62060901,0.60096151,0.64291532) (0.72903220,0.60095656,0.90395864) (0.60095656,0.60095656,0.64472959)
(0.60095656,0.60095656,0.75472592) (0.60095656,0.60095656,0.69624108) (0.60584651,0.72400907,0.65788886) (0.60096713,0.60095656,0.65447928) (0.73470660,0.60095656,0.98503975) (0.60095656,0.60095656,0.80054527)
(0.60095656,0.60095656,0.60179733) (0.60095656,0.60095656,0.62369565) (0.60680372,0.68409266,0.64704332) (0.60144786,0.60095656,0.61983138) (0.71908798,0.60095656,0.87497445) (0.60095656,0.60095656,0.63241614)
(0.60095656,0.60095656,0.60699771) (0.60095656,0.60095656,0.68776546) (0.60199448,0.64937202,0.64530866) (0.60305942,0.60095656,0.64726852) (0.71906564,0.60095656,0.90861847) (0.60095656,0.60095656,0.68198166)
(0.60095656,0.60095656,0.70188027) (0.60095656,0.60095656,0.61300014) (0.60418839,0.89443470,0.66503233) (0.60139363,0.60095656,0.64022945) (0.60096557,0.99999856,0.62750475) (0.60095656,0.60095656,0.60171455)
(0.60095656,0.60095656,0.61477013) (0.60095656,0.60095656,0.75064257) (0.60159454,0.90203175,0.66406606) (0.60528779,0.60095656,0.64732381) (0.60095656,0.99999997,0.75242677) (0.60095656,0.60095656,0.69011521)
(0.60095656,0.60095656,0.60863051) (0.60095656,0.60095656,0.75692464) (0.60196775,0.90248083,0.66086157) (0.60554947,0.60095656,0.62534075) (0.60104645,0.99999998,0.61544774) (0.60095656,0.60095656,0.63634499)
(0.60095656,0.60095656,0.60097219) (0.60095656,0.60095656,0.63603713) (0.60360091,0.63369075,0.68649821) (0.60341282,0.60095656,0.61460150) (0.60112465,0.60095656,0.79427803) (0.60095656,0.60095656,0.85876288)
(0.60095656,0.60095656,0.61504821) (0.60095656,0.60095656,0.61422458) (0.60403182,0.60885625,0.65163721) (0.60283476,0.60762959,0.61941994) (0.73364610,0.60095656,0.76761339) (0.60095656,0.60095656,0.60350681)
(0.60095656,0.60095656,0.60153729) (0.60095656,0.60095656,0.60125304) (0.60315079,0.63409860,0.67172050) (0.60531238,0.60095656,0.61105332) (0.72984495,0.60095656,0.75109226) (0.60095656,0.60095656,0.76722153)
(0.60095656,0.60095656,0.60507651) (0.60095656,0.60095656,0.71078437) (0.60957693,0.90427783,0.64035016) (0.60096171,0.60095656,0.61359034) (0.72342100,0.99999999,0.63780644) (0.60095656,0.60095656,0.67552797)
(0.60095656,0.60095656,0.64502336) (0.60095656,0.60095656,0.76936301) (0.61060924,0.63418586,0.63526747) (0.60103954,0.60095656,0.61081442) (0.60102317,0.60098291,0.69286917) (0.60095656,0.60095656,0.76610755)
(0.60095656,0.60095656,0.63381550) (0.60095656,0.60095656,0.60951525) (0.60813377,0.89572640,0.62234820) (0.60167734,0.60095656,0.60394513) (0.60096939,0.99999940,0.60095853) (0.60095656,0.60095656,0.63783364)
(0.60095656,0.60095656,0.63208158) (0.60095656,0.60095656,0.65583567) (0.60882597,0.88757527,0.63760964) (0.60136656,0.98586509,0.60756465) (0.60097353,0.60095656,0.62402491) (0.60095656,0.60095656,0.60097615)
(0.60095656,0.60095656,0.61683334) (0.60095656,0.60095656,0.73317571) (0.61435880,0.68475669,0.63279411) (0.60096573,0.60095656,0.60406340) (0.73105614,0.60095656,0.62758457) (0.60095656,0.60095656,0.62058763)
(0.60095656,0.60095656,0.60096086) (0.60095656,0.60095656,0.73428890) (0.61682950,0.72478619,0.62573689) (0.60251478,0.60095656,0.60217327) (0.74580682,0.60095656,0.81256309) (0.60095656,0.60095656,0.61251863)
(0.60095656,0.60095656,0.62464608) (0.60095656,0.60095656,0.64115724) (0.61733199,0.81275769,0.62789926) (0.60451327,0.60095656,0.60441280) (0.74188612,0.99999999,0.60295699) (0.60095656,0.60095656,0.66342665)
(0.60095656,0.60095656,0.60972390) (0.60095656,0.60095656,0.60128684) (0.61486252,0.81042982,0.62690207) (0.60340052,0.60095656,0.60276789) (0.60137183,0.99999999,0.60996328) (0.60095656,0.60095656,0.60866047)
(0.60095656,0.60095656,0.68189089) (0.60095656,0.60095656,0.60215761) (0.61366486,0.79287913,0.62108406) (0.60357652,0.60095656,0.60310121) (0.60119956,0.60121970,0.67692976) (0.60095656,0.60095656,0.62917051)
(0.60095656,0.60095656,0.61372498) (0.60095656,0.60095656,0.60953408) (0.61284734,0.81015917,0.61963928) (0.60441270,0.98030119,0.60505482) (0.74029819,0.60095656,0.70888838) (0.60095656,0.60095656,0.60329822)
(0.60095656,0.60095656,0.64534869) (0.60095656,0.60095656,0.61341489) (0.60595244,0.81221746,0.63143428) (0.60110457,0.60095656,0.60914751) (0.71901254,1.00000000,0.68698972) (0.60095656,0.60095656,0.67545126)
(0.60095656,0.60095656,0.60149549) (0.60095656,0.60095656,0.60122677) (0.61012593,0.72420037,0.65391059) (0.60157835,0.60095656,0.61155159) (0.60189935,0.60095656,0.60551477) (0.60095656,0.60095656,0.60677604)
(0.60095656,0.60095656,0.60120984) (0.60095656,0.60095656,0.61276581) (0.61675531,0.72641268,0.63122804) (0.60641100,0.60095656,0.60328242) (0.74359314,0.60095656,0.60125510) (0.60095656,0.60095656,0.61478309)
(0.60095656,0.60095656,0.64017486) (0.60095656,0.60095656,0.65949904) (0.61319020,0.66284234,0.64819259) (0.60396986,0.90295642,0.60134899) (0.73951954,0.60095656,0.70332421) (0.60095656,0.60095656,0.66161682)
(0.60095656,0.60095656,0.62311220) (0.60095656,0.60095656,0.61895641) (0.61940247,0.78835599,0.62983551) (0.60816914,0.60112133,0.60120828) (0.74969272,0.60097717,0.60153901) (0.60095656,0.60095656,0.61263018)
(0.60095656,0.60095656,0.74524464) (0.60095656,0.60095656,0.60225887) (0.61581779,0.85693192,0.65870740) (0.60687807,0.60095656,0.60154151) (0.73169862,0.60095656,0.63759655) (0.60095656,0.60095656,0.81924394)
(0.60095656,0.60095656,0.65947883) (0.60095656,0.60095656,0.61844861) (0.61356448,0.67696775,0.65351721) (0.60408478,0.97554512,0.60172370) (0.74325070,0.60095657,0.68714372) (0.60095656,0.60095656,0.60099548)
(0.60095656,0.60095656,0.75520628) (0.60095656,0.60095656,0.67448715) (0.62209340,0.66290113,0.67577217) (0.60901076,0.75298759,0.60187292) (0.76644546,0.60097339,0.60455187) (0.60095656,0.60095656,0.73270013)
(0.60095656,0.60095656,0.67101396) (0.60095656,0.60095656,0.60095665) (0.61621359,0.79038819,0.64957439) (0.60499296,0.64076953,0.60097825) (0.77304066,0.60095656,0.75520039) (0.60095656,0.60095656,0.61515982)
(0.60095656,0.60095656,0.72553737) (0.60095656,0.60095656,0.60967355) (0.61349317,0.89552127,0.66764583) (0.60354757,0.60095656,0.60131630) (0.78375427,0.60095656,0.62715503) (0.60095656,0.60095656,0.74744970)
(0.60095656,0.60095656,0.66626632) (0.60095656,0.60095656,0.60348616) (0.61498178,0.85934051,0.66393233) (0.60461530,0.61877662,0.60132726) (0.78655619,0.60095656,0.62887197) (0.60095656,0.60095656,0.60145291)
(0.60095656,0.60095656,0.65063271) (0.60095656,0.60095656,0.65131929) (0.61212589,0.92170837,0.69539775) (0.60322775,0.60095656,0.60205570) (0.78120565,0.60095656,0.60864170) (0.60095656,0.60095656,0.65403319)
(0.60095656,0.60095656,0.68615009) (0.60095656,0.60095656,0.72512027) (0.62033002,0.92709623,0.74574149) (0.60709028,0.60095656,0.60479713) (0.73529133,0.60095656,0.91214204) (0.60095656,0.60095656,0.60343030)
(0.60095656,0.60095656,0.66779396) (0.60095656,0.60095656,0.81680642) (0.62640747,0.61018248,0.84499774) (0.60983974,0.60095656,0.60936445) (0.69684738,1.00000000,0.80094334) (0.60095656,0.60095656,0.94535999)
(0.60095656,0.60095656,0.66255903) (0.60095656,0.60095656,0.87524716) (0.62116514,0.60454373,0.88586230) (0.60607138,0.60095656,0.60744472) (0.67596591,1.00000000,0.93044949) (0.60095656,0.60095656,0.89313622)
(0.60095656,0.60095656,0.68280909) (0.60095656,0.60095656,0.86241188) (0.62292161,0.95129996,0.92961779) (0.60732314,0.60095656,0.60103945) (0.60212485,0.60095656,0.92342409) (0.60095656,0.60095656,0.82071892)
(0.60095656,0.60095656,0.63821069) (0.60095656,0.60095656,0.61775382) (0.61225651,0.95224913,0.75102102) (0.60243047,0.60095656,0.60384730) (0.89720724,0.60095656,0.92522855) (0.60095656,0.60095656,0.61340167)
(0.60095656,0.60095656,0.60901751) (0.60095656,0.60095656,0.86763047) (0.68851664,0.95319417,0.60728601) (0.74157756,0.60095656,0.89627480) (0.83383551,0.60095656,0.99994354) (0.60095656,0.60095656,0.92782410)
(0.60095656,0.60095656,0.64585128) (0.60095656,0.60095656,0.68845152) (0.67242580,0.95204380,0.98606553) (0.64386058,0.60095656,0.98802467) (0.82307126,0.60095656,0.99998797) (0.60095656,0.60095656,0.64410587)
(0.60095656,0.60095656,0.90708335) (0.60095656,0.60095656,0.99682380) (0.67141466,0.95298705,0.99999986) (0.64230423,0.60095656,0.97424923) (0.81212397,0.60095656,0.95493783) (0.60095656,0.60095656,0.99839014)
(1.00000000,1.00000000,0.99754294) (0.60095656,0.60095656,0.99997289) (0.63866358,0.95459224,0.99999988) (0.64078702,0.60095656,0.98692595) (0.74606924,0.60095656,0.78957854) (0.60095656,0.60095656,0.76754884)
(1.00000000,1.00000000,1.00000000) (0.60095656,0.60095656,0.67085953) (0.60838543,0.94769364,0.99869650) (0.63943665,0.60095656,0.98828712) (0.60298952,0.60095656,0.71064766) (0.99999372,1.00000000,1.00000000)
(1.00000000,1.00000000,1.00000000) (0.60095656,0.60095656,0.99999988) (0.60267085,0.94669750,0.93079000) (0.63818907,0.60095656,0.98153626) (0.60114810,0.60095656,0.98924007) (1.00000000,1.00000000,1.00000000)
(1.00000000,1.00000000,1.00000000) (0.60095656,0.60095656,1.00000000) (0.60148014,0.95052845,0.67901426) (0.63710857,0.60095656,0.96297325) (0.61259781,0.60095656,0.99999960) (1.00000000,0.60095917,0.97769818)
(1.00000000,1.00000000,1.00000000) (0.60095656,0.60095656,1.00000000) (0.60486739,0.60228353,0.60458038) (0.63733213,0.60095656,0.97600485) (0.60463845,0.60095656,1.00000000) (1.00000000,1.00000000,0.91037937)
(1.00000000,1.00000000,1.00000000) (0.60095656,0.60095656,1.00000000) (0.61028071,0.60150382,0.64356870) (0.63874441,0.60095656,0.97874028) (0.60374583,0.60095656,1.00000000) (1.00000000,1.00000000,0.96488009)
(1.00000000,1.00000000,1.00000000) (0.60095656,0.60095656,1.00000000) (0.61491371,0.95147072,0.91837702) (0.63825639,0.60095656,0.98381423) (0.60985750,0.60095656,0.99999999) (1.00000000,1.00000000,0.65650643)
(1.00000000,1.00000000,1.00000000) (0.60095656,0.60095656,0.99999533) (0.60540498,0.60739213,0.99950045) (0.63781956,0.60095656,0.99043859) (0.60095656,0.60095656,0.98513257) (1.00000000,1.00000000,0.60708663)
(1.00000000,1.00000000,1.00000000) (0.60095656,0.60095656,0.77496197) (0.60704225,0.60134394,1.00000000) (0.63760134,0.60095656,0.99576270) (0.77290806,0.60095656,0.93232492) (1.00000000,1.00000000,0.63191977)
(0.60095656,0.60095656,0.97886405) (0.60095656,0.60095656,0.98318701) (0.66502775,0.95018135,1.00000000) (0.63742313,0.60095656,0.99546150) (0.76699323,0.60095656,0.94968935) (0.60095656,0.60095656,0.99891911)
(0.60095656,0.60095656,0.60121920) (0.60095656,0.60095656,0.99768850) (0.66414515,0.94107208,0.95512883) (0.63659103,0.60095656,0.99661352) (0.76251113,0.60095656,1.00000000) (0.60095656,0.60095656,0.67910540)
(0.60095656,0.60095656,0.81429713) (0.60095656,0.60095656,0.99741143) (0.63977045,0.95001640,0.94567457) (0.61868255,0.60095656,0.65327533) (0.60095656,0.60095656,0.99964788) (0.60095656,0.60095656,0.82156622)
(0.60095656,0.60095656,0.67921073) (0.60095656,0.60095656,0.99987940) (0.64453223,0.60134267,0.93030155) (0.62169943,0.96266356,0.63559336) (0.61013578,0.60095656,0.99994882) (0.60095656,0.60095656,0.66973431)
(0.60095656,0.60095656,0.89325723) (0.60095656,0.60095656,0.96696831) (0.60576573,0.60150028,0.79001468) (0.60095656,0.96295540,0.61454885) (0.61239641,0.60095656,0.96862223) (0.60095656,0.60095656,0.63331878)
(0.60095656,0.60095656,0.90900138) (0.60095656,0.60095656,0.60620117) (0.60822531,0.95069650,0.67332054) (0.60126769,0.60095656,0.61000735) (0.60564512,0.60095656,0.83357216) (0.60095656,0.60095656,0.80714322)
(0.60095656,0.60095656,0.83353603) (0.60095656,0.60095656,0.90161090) (0.60117977,0.63509092,0.62383782) (0.60313073,0.90484492,0.65692187) (0.89788808,0.60095656,0.67686653) (0.60095656,0.60095656,0.90051093)
(0.60095656,0.60095656,0.72177287) (0.60095656,0.60095656,0.83764348) (0.60095784,0.93403875,0.61544833) (0.60418689,0.60586881,0.65492564) (0.92631896,0.60095656,0.60132304) (0.60095656,0.60095656,0.95363517)
(0.60095656,0.60095656,0.60781012) (0.60095656,0.60095656,0.85910007) (0.60095716,0.95201506,0.60167685) (0.60339551,0.60095656,0.68379854) (0.94704120,0.60095656,0.79324075) (0.60095656,0.60095656,0.81661810)
(0.60095656,0.60095656,0.87913103) (0.60095656,0.60095656,0.71689441) (0.60116212,0.95356976,0.62254319) (0.60492020,0.60095660,0.66113829) (0.95441991,0.60095656,0.65098694) (0.60095656,0.60095656,0.93845575)
(0.60095656,0.60095656,0.85902204) (0.60095656,0.60095656,0.91770693) (0.60124080,0.81308380,0.61351122) (0.60507075,0.72956508,0.70131530) (0.96078465,0.60095656,0.81781757) (0.60095656,0.60095656,0.75616622)
(0.60095656,0.60095656,0.89226054) (0.60095656,0.60095656,0.80042945) (0.60099150,0.95554589,0.60837503) (0.60364011,0.60095656,0.69214517) (0.77619388,0.60095656,0.63070593) (0.60095656,0.60095656,0.92472662)
(0.60095656,0.60095656,0.62951588) (0.60095656,0.60095656,0.92310794) (0.60113839,0.60096206,0.60107215) (0.60408749,0.60095656,0.68110966) (0.77982461,1.00000000,0.79073034) (0.60095656,0.60095656,0.64533871)
(0.60095656,0.60095656,0.98985053) (0.60095656,0.60095656,0.78043191) (0.60126240,0.60104025,0.61602006) (0.60441060,0.60095656,0.66918438) (0.78501937,1.00000000,0.72644459) (0.60095656,0.60095656,0.63676730)
(0.60095656,0.60095656,0.60095656) (0.60095656,0.60095656,0.92129323) (0.60097152,0.60121042,0.60156700) (0.60276752,0.96075775,0.66978199) (0.96027694,0.60095656,0.70375912) (0.60095656,0.60095656,0.61023921)
(0.60095656,0.60095656,0.72133929) (0.60095656,0.60095656,0.70300651) (0.60097635,0.94816310,0.60110535) (0.60230462,0.60107637,0.63951042) (0.99630136,0.60095656,0.60229190) (0.60095656,0.60095656,0.73359020)
(0.60095656,0.60095656,0.60548514) (0.60095656,0.60095656,0.83616391) (0.60103906,0.60149966,0.60520717) (0.60219817,0.96174484,0.64714310) (0.99963950,0.60095656,0.72283867) (0.60095656,0.60095656,0.60411098)
(0.60095656,0.60095656,0.60694036) (0.60095656,0.60095656,0.79825272) (0.60119994,0.60449904,0.61890537) (0.60195356,0.96200943,0.64951390) (0.99098649,0.60110370,0.64594239) (0.60095656,0.60095656,0.78644363)
(0.60095656,0.60095656,0.68270370) (0.60095656,0.60095656,0.96223860) (0.60150981,0.61005053,0.61439070) (0.60147681,0.96216076,0.67058145) (0.99944893,0.86661705,0.60200002) (0.60095656,0.60095656,0.68258614)
(0.60095656,0.60095656,0.65152785) (0.60095656,0.60095656,0.67033576) (0.60172347,0.60449437,0.62014961) (0.60145581,0.96166618,0.63883329) (0.99999095,0.60095656,0.70528758) (0.60095656,0.60095656,0.80011428)
(0.60095656,0.60095656,0.63844602) (0.60095656,0.60095656,0.60741785) (0.60098246,0.60897126,0.61560755) (0.60344023,0.96140738,0.65570988) (0.99999572,0.60095656,0.60324425) (0.60095656,0.60095656,0.82548188)
(0.60095656,0.60095656,0.73199486) (0.60095656,0.60095656,0.61429505) (0.60095884,0.91120054,0.60110898) (0.60444763,0.61187433,0.65092491) (0.99498105,0.60095656,0.60522784) (0.60095656,0.60095656,0.93768751)
(0.60095656,0.60095656,0.65780933) (0.60095656,0.60095656,0.66286715) (0.60103651,0.94552494,0.60725178) (0.60624593,0.60132789,0.65979637) (0.93507041,0.60095656,0.60404881) (0.60095656,0.60095656,0.87705754)
(0.60095656,0.60095656,0.67213731) (0.60095656,0.60095656,0.67970125) (0.60096666,0.89407732,0.60240637) (0.60544471,0.63619677,0.65750566) (0.94476412,0.60095663,0.63113108) (0.60095656,0.60095656,0.94130485)
(0.60095656,0.60095656,0.60095656) (0.60095656,0.60095656,0.62512824) (0.60117786,0.60149992,0.61865753) (0.60773924,0.60095656,0.66373480) (0.60101792,1.00000000,0.62072380) (0.60095656,0.60095656,0.89174666)
(0.60095656,0.60095656,0.67206374) (0.60095656,0.60095656,0.60709392) (0.60097168,0.60134145,0.61301124) (0.60585110,0.95999689,0.64491355) (0.73625238,0.60095656,0.64489939) (0.60095656,0.60095656,0.91220211)
(0.60095656,0.60095656,0.60145679) (0.60095656,0.60095656,0.61480605) (0.60118317,0.60121102,0.62133034) (0.60388312,0.95913558,0.64552162) (0.60135537,1.00000000,0.60793068) (0.60095656,0.60095656,0.80832189)
(0.60095656,0.60095656,0.60433865) (0.60095656,0.60095656,0.62545818) (0.60163298,0.60104033,0.63649321) (0.60256646,0.60095656,0.61423931) (0.71314701,1.00000000,0.67193474) (0.60095656,0.60095656,0.77962942)
(0.60095656,0.60095656,0.60104416) (0.60095656,0.60095656,0.60671755) (0.60140574,0.60121066,0.65345794) (0.60267873,0.60095656,0.62748395) (0.90592424,1.00000000,0.60266273) (0.60095656,0.60095656,0.63725976)
(0.60095656,0.60095656,0.63406856) (0.60095656,0.60095656,0.66546779) (0.60290129,0.60134127,0.63595718) (0.60124487,0.60095656,0.61868374) (0.70349156,1.00000000,0.60285330) (0.60095656,0.60095656,0.82086096)
(0.60095656,0.60095656,0.72720012) (0.60095656,0.60095656,0.61793734) (0.60292673,0.60150021,0.64572275) (0.60111346,0.96037005,0.62050310) (0.70041856,0.60095656,0.61896327) (0.60095656,0.60095656,0.60333923)
(0.60095656,0.60095656,0.60464171) (0.60095656,0.60095656,0.60387470) (0.60287681,0.94153055,0.65337857) (0.60106046,0.60095656,0.61558036) (0.90199984,0.60095656,0.68324669) (0.60095656,0.60095656,0.70114267)
(0.60095656,0.60095656,0.69124320) (0.60095656,0.60095656,0.60236171) (0.60443142,0.93229280,0.70454979) (0.60096166,0.60095656,0.62433351) (0.60235266,0.60095656,0.60544695) (0.60095656,0.60095656,0.60100440)
(0.60095656,0.60095656,0.63424413) (0.60095656,0.60095656,0.64481367) (0.60400623,0.93117246,0.70738664) (0.60097652,0.60095656,0.61754291) (0.71249921,0.60095670,0.70262949) (0.60095656,0.60095656,0.74102880)
(0.60095656,0.60095656,0.61601834) (0.60095656,0.60095656,0.60785530) (0.60560309,0.84517328,0.71173121) (0.60140658,0.65192738,0.62815098) (0.71867427,0.60173063,0.60873628) (0.60095656,0.60095656,0.60226642)
(0.60095656,0.60095656,0.62185688) (0.60095656,0.60095656,0.62334751) (0.60620680,0.60413859,0.69378525) (0.60160160,0.95981797,0.63022495) (0.72978615,0.60095656,0.67838704) (0.60095656,0.60095656,0.65915778)
(0.60095656,0.60095656,0.69030601) (0.60095656,0.60095656,0.64166260) (0.60722747,0.60413859,0.68837026) (0.60200525,0.95911077,0.63406585) (0.73533680,0.60095656,0.60126041) (0.60095656,0.60095656,0.60639371)
(0.60095656,0.60095656,0.84025664) (0.60095656,0.60095656,0.99555060) (0.97841321,0.60413859,0.67954806) (0.64020015,0.60095657,0.82874121) (0.74360962,0.60095656,0.81923940) (0.60095656,0.60095656,0.99764510)
(0.60095656,0.60095656,0.70338232) (0.60095656,0.60095656,0.99516339) (0.97747794,0.60134066,0.63947381) (0.64162835,0.60095658,0.84089143) (0.74360962,0.60095656,0.93368081) (0.60095656,0.60095656,0.98670016)
(0.60095656,0.60095656,0.76352640) (0.60095656,0.60095656,0.99805812) (0.97649974,0.60104005,0.67559116) (0.97641997,0.95779331,0.80906503) (0.74360962,0.60095656,0.71360105) (0.60095656,0.60095656,0.99374043)
(0.60095656,0.60095656,0.61299296) (0.60095656,0.60095656,0.99764318) (0.97536226,0.60095793,0.65690132) (0.97641997,0.95779331,0.82400833) (0.74360962,0.60095656,0.92065389) (0.60095656,0.60095656,0.97584762)
(0.60095656,0.60095656,0.80460201) (0.60095656,0.60095656,0.98025480) (0.97443035,0.60095656,0.65929649) (0.97641997,0.95779331,0.79053096) (0.74360962,0.60095656,0.66201057) (0.60095656,0.60095656,0.99806460)
(0.60095656,0.60095656,0.62824174) (0.60095656,0.60095656,0.96896281) (0.97346225,0.60095656,0.61453102) (0.97641997,0.95779331,0.72512718) (0.74360962,0.60095656,0.66812265) (0.60095656,0.60095656,0.96960282)
(0.60095656,0.60095656,0.96638067) (0.60095656,0.60095656,0.83062957) (0.95913038,0.60095656,0.66003637) (0.96470734,0.95779331,0.64970092) (0.74360962,0.60095656,0.60108704) (0.60095656,0.60095656,0.90022101)
(0.60095656,0.60095656,0.88200722) (0.60095656,0.60095656,0.66291438) (0.86069984,0.60095656,0.60095865) (0.87856709,0.95843432,0.64952273) (0.74360962,0.60095656,0.76466690) (0.60095656,0.60095656,0.65215019)
(0.60095656,0.60095656,0.80536168) (0.60095656,0.60095656,0.60442467) (0.66496991,0.60095656,0.61235170) (0.68720698,0.95843432,0.65106918) (0.74360962,0.60095656,0.62544618) (0.60095656,0.60095656,0.92204324)
(0.60095656,0.60095656,0.85956673) (0.60095656,0.60095656,0.60182079) (0.62094711,0.60095656,0.61206367) (0.60927750,0.95843432,0.65631497) (0.74360962,0.60095656,0.66623989) (0.60095656,0.60095656,0.84639301)
(0.60095656,0.60095656,0.96080039) (0.60095656,0.60095656,0.68103077) (0.61117023,0.60095656,0.61807941) (0.62398220,0.95843432,0.60108338) (0.74360962,0.60095656,0.74093916) (0.60095656,0.60095656,0.76465780)
(0.60095656,0.60095656,0.99161330) (0.60095656,0.60095656,0.87156690) (0.73110276,0.95744666,0.67141432) (0.76543174,0.60095656,0.62486580) (0.73994564,0.60095656,0.80592177) (0.60095656,0.60095656,0.60294313)
(0.60095656,0.60095656,0.66880796) (0.60095656,0.60095656,0.98122593) (0.84749903,0.95744666,0.82192222) (0.88317514,0.60095656,0.70152485) (0.73930922,0.60095656,0.88668658) (0.60095656,0.60095656,0.60214427)
(0.60095656,0.60095656,0.86226829) (0.60095656,0.60095656,0.98052043) (0.93029801,0.95796994,0.92177170) (0.95402666,0.60095656,0.72619100) (0.73512034,0.60095656,0.84206032) (0.60095656,0.60095656,0.80802380)
(0.60095656,0.60095656,0.66086312) (0.60095656,0.60095656,0.64288863) (0.73244112,0.61808435,0.84291408) (0.78595989,0.92795757,0.60157761) (0.72804530,0.60095656,0.84117326) (0.60095656,0.60095656,0.66541556)
(0.60095656,0.60095656,0.67973204) (0.60095656,0.60095656,0.80670254) (0.81644384,0.95848462,0.62634757) (0.85977619,0.60095656,0.84319476) (1.00000000,0.60095656,0.93027272) (0.60095656,0.60095656,0.72440711)
(0.60095656,0.60095656,0.99563600) (0.60095656,0.60095656,0.99999869) (0.63729076,0.95907325,0.86429406) (0.60953142,0.60095656,0.99903262) (0.71636073,0.60095656,1.00000000) (0.60095656,0.60095656,0.99464090)
(0.60095656,0.60095656,0.80580331) (0.60095656,0.60095656,0.70436631) (0.65330607,0.95658283,1.00000000) (0.61732764,0.60095656,0.99729342) (0.61779146,1.00000000,0.95748038) (0.60095656,0.60095656,0.87538536)
(0.79358992,1.00000000,0.79570916) (0.60095656,0.60095656,0.99333787) (0.65870453,0.96034647,1.00000000) (0.62225670,0.60095656,0.99914433) (0.62896086,0.60095656,0.80621822) (0.83741131,0.60095656,0.98092494)
(1.00000000,0.60095656,1.00000000) (0.60095656,0.60095656,0.60274763) (0.60811199,0.96034628,1.00000000) (0.62769356,0.60095656,0.99880879) (0.73523254,0.60095656,0.73807678) (1.00000000,1.00000000,1.00000000)
(1.00000000,1.00000000,1.00000000) (0.60095656,0.60095656,0.70437395) (0.60175172,0.94814829,1.00000000) (0.63010949,0.60095667,0.99916125) (0.68849975,0.60095656,0.65901105) (1.00000000,1.00000000,1.00000000)
(1.00000000,1.00000000,1.00000000) (0.60095656,0.60095656,0.61874812) (0.60110205,0.93101998,1.00000000) (0.63109932,0.60095657,0.99856837) (0.80194551,0.60095656,0.67779902) (1.00000000,1.00000000,0.99999988)
(1.00000000,1.00000000,1.00000000) (0.60095656,0.60095656,0.60097119) (0.60135027,0.68398565,1.00000000) (0.63103083,0.60095658,0.99891292) (0.77564519,0.60095656,0.88857725) (1.00000000,1.00000000,0.92121225)
(1.00000000,1.00000000,1.00000000) (0.60095656,0.60095656,0.60472720) (0.60519631,0.60095656,1.00000000) (0.62997463,0.95642612,0.99898746) (0.71564683,0.60095656,0.63956995) (1.00000000,1.00000000,0.99999942)
(0.60095656,0.60095656,0.96041113) (0.60095656,0.60095656,0.92959128) (0.65839200,0.60095656,1.00000000) (0.62352152,0.60095658,0.99940173) (0.82502187,0.60095656,0.91547810) (1.00000000,1.00000000,0.89681707)
(0.60095656,0.60095656,0.99212495) (0.60095656,0.60095656,0.99996893) (0.70808802,0.60095656,0.96606947) (0.61645344,0.60095658,0.99710185) (0.92883427,1.00000000,0.99999981) (0.60095656,0.60095656,0.99951037)
(0.60095656,0.60095656,0.95974293) (0.60095656,0.60095656,0.99998384) (0.60095695,0.60095656,0.74619035) (0.64007415,0.95587632,0.99994287) (1.00000000,0.60095656,0.99999999) (0.60095656,0.60095656,0.99323423)
(0.60095656,0.60095656,0.96042713) (0.60095656,0.60095656,0.98976851) (0.60309887,0.60095656,0.97786015) (0.62959536,0.95534741,0.87395356) (0.99999956,0.60095656,0.99561250) (0.60095656,0.60095656,0.90400455)
(0.60095656,0.60095656,0.73705465) (0.60095656,0.60095656,0.92696116) (0.71448241,0.60095656,0.99846138) (0.84057024,0.95534741,0.63493269) (0.60095656,0.60095656,0.99908627) (0.60095656,0.60095656,0.64816451)
(0.60095656,0.60095656,0.80419177) (0.60095656,0.60095656,0.92961245) (0.68473649,0.60095656,0.93736575) (0.85426694,0.95534777,0.68764185) (0.60095656,0.60095656,0.94507971) (0.60095656,0.60095656,0.60173658)
(0.60095656,0.60095656,0.62306431) (0.60095656,0.60095656,0.76932511) (0.72532736,0.60095656,0.66481419) (0.91540779,0.95534777,0.62759047) (0.60095656,0.60095656,0.88271036) (0.60095656,0.60095656,0.78793152)
(0.60095656,0.60095656,0.61274939) (0.60095656,0.60095656,0.62601206) (0.74576646,0.60095656,0.68847512) (0.92706910,0.95534777,0.60098048) (0.60095656,0.60095656,0.65705440) (0.60095656,0.60095656,0.70653851)
(0.60095656,0.60095656,0.63092643) (0.60095656,0.60095656,0.76465392) (0.74406008,0.96226330,0.62254993) (0.92600180,0.60095670,0.61494630) (0.60095656,0.60095656,0.68868533) (0.60095656,0.60095656,0.73366039)
(0.60095656,0.60095656,0.60096035) (0.60095656,0.60095656,0.72303591) (0.76253723,0.96224794,0.62668745) (0.93530433,0.60095670,0.60569393) (0.60095656,0.60095656,0.62286598) (0.60095656,0.60095656,0.71203453)
(0.60095656,0.60095656,0.60517176) (0.60095656,0.60095656,0.71714109) (0.75356338,0.96150900,0.61123372) (0.93043347,0.60095664,0.62099038) (0.60095656,0.60095656,0.81984201) (0.60095656,0.60095656,0.78714511)
(0.60095656,0.60095656,0.66432000) (0.60095656,0.60095656,0.62843652) (0.75559481,0.60095656,0.60122698) (0.93105440,0.95534796,0.61818166) (0.60095656,0.60095656,0.69110897) (0.60095656,0.60095656,0.60123578)
(0.60095656,0.60095656,0.61040205) (0.60095656,0.60095656,0.70411937) (0.73448172,0.60095656,0.61480868) (0.91906132,0.95534796,0.61145760) (0.60095656,0.60095656,0.77689617) (0.60095656,0.60095656,0.76668886)
(0.60095656,0.60095656,0.60206872) (0.60095656,0.60095656,0.66857509) (0.75686669,0.60095656,0.60432482) (0.93064201,0.95534796,0.60786076) (0.60095656,0.60095656,0.62319957) (0.60095656,0.60095656,0.62841025)
(0.60095656,0.60095656,0.60345285) (0.60095656,0.60095656,0.60731401) (0.77361906,0.60095656,0.62967820) (0.93819603,0.95467118,0.60832986) (0.60095656,0.60095656,0.66537667) (0.60095656,0.60095656,0.74507617)
(0.60095656,0.60095656,0.62387381) (0.60095656,0.60095656,0.60293073) (0.77254666,0.60095656,0.60104911) (0.93699709,0.95465858,0.60478467) (0.60095656,0.60095656,0.61613632) (0.60095656,0.60095656,0.63517115)
(0.60095656,0.60095656,0.61547343) (0.60095656,0.60095656,0.64806893) (0.77022060,0.60095656,0.60321015) (0.93515285,0.95417287,0.60422907) (0.60095656,0.60095656,0.60377702) (0.60095656,0.60095656,0.60661044)
(0.60095656,0.60095656,0.60844824) (0.60095656,0.60095656,0.60097362) (0.77154544,0.60095656,0.60346484) (0.93530542,0.95465848,0.60195945) (0.60095656,0.60095656,0.65775672) (0.60095656,0.60095656,0.66297322)
(0.60095656,0.60095656,0.60129764) (0.60095656,0.60095656,0.62542267) (0.78191340,0.60095656,0.61739136) (0.93997516,0.95423095,0.60112989) (0.60095656,0.60095656,0.66703808) (0.60095656,0.60095656,0.60479434)
(0.60095656,0.60095656,0.64437538) (0.60095656,0.60095656,0.60225616) (0.77505165,0.60095656,0.60179487) (0.93667998,0.95391053,0.60095863) (0.60095656,0.60095656,0.64508233) (0.60095656,0.60095656,0.62274698)
(0.60095656,0.60095656,0.60850800) (0.60095656,0.60095656,0.62370716) (0.76543639,0.60095656,0.61027474) (0.93622305,0.95391053,0.60114975) (0.60095656,0.60095656,0.62103504) (0.60095656,0.60095656,0.60881516)
(0.60095656,0.60095656,0.65319316) (0.60095656,0.60095656,0.60639086) (0.73679351,0.60095656,0.60096064) (0.93523891,0.95367412,0.60159645) (0.60095656,0.60095656,0.66411931) (0.60095656,0.60095656,0.61845690)
(0.60095656,0.60095656,0.65224020) (0.60095656,0.60095656,0.61991893) (0.69797961,0.60095656,0.60124624) (0.93442432,0.95317813,0.60099428) (0.60095656,0.60095656,0.70841718) (0.60095656,0.60095656,0.60101498)
(0.60095656,0.60095656,0.64213804) (0.60095656,0.60095656,0.60098522) (0.68678665,0.60095656,0.60127382) (0.93698468,0.95271433,0.60103656) (0.60095656,0.60095656,0.66645851) (0.60095656,0.60095656,0.61598640)
(0.60095656,0.60095656,0.66856193) (0.60095656,0.60095656,0.63433866) (0.68869589,0.60095656,0.60109834) (0.93867169,0.95270268,0.60121557) (0.60095656,0.60095656,0.67785687) (0.60095656,0.60095656,0.69389073)
(0.60095656,0.60095656,0.62295106) (0.60095656,0.60095656,0.60662974) (0.68741246,0.60095656,0.60108580) (0.93927233,0.95228990,0.60095969) (0.60095656,0.60095656,0.65754158) (0.60095656,0.60095656,0.66880371)
(0.60095656,0.60095656,0.65125662) (0.60095656,0.60095656,0.60486582) (0.67313687,0.60095656,0.60150502) (0.93433404,0.95148759,0.60103066) (0.60095656,0.60095656,0.66800694) (0.60095656,0.60095656,0.61713847)
(0.60095656,0.60095656,0.64369294) (0.60095656,0.60095656,0.61141090) (0.67470226,0.96189587,0.60237525) (0.93571583,0.60096147,0.60113034) (0.60095656,0.60095656,0.67435689) (0.60095656,0.60095656,0.60243724)
(0.60095656,0.60095656,0.62249935) (0.60095656,0.60095656,0.62526189) (0.67166776,0.60095656,0.60303964) (0.93439162,0.95148759,0.60151594) (0.60095656,0.60095656,0.67692303) (0.60095656,0.60095656,0.60352521)
(0.60095656,0.60095656,0.60662257) (0.60095656,0.60095656,0.61158193) (0.67408805,0.60095656,0.60097250) (0.93580685,0.95148757,0.60097423) (0.60095656,0.60095656,0.66340415) (0.60095656,0.60095656,0.62572975)
(0.60095656,0.60095656,0.60800837) (0.60095656,0.60095656,0.60156273) (0.65269599,0.96270752,0.60206765) (0.93063815,0.60098022,0.60235274) (0.60095656,0.60095656,0.62304117) (0.60095656,0.60095656,0.66050242)
(0.60095656,0.60095656,0.60792892) (0.60095656,0.60095656,0.60101820) (0.63596762,0.96354841,0.60123781) (0.92674488,0.60102136,0.60391561) (0.60095656,0.60095656,0.60842031) (0.60095656,0.60095656,0.69395151)
(0.60095656,0.60095656,0.72639545) (0.60095656,0.60095656,0.60151214) (0.62635863,0.96434646,0.60112475) (0.90603627,0.60116267,0.60677080) (0.60095656,0.60095656,0.66165947) (0.60095656,0.60095656,0.71990948)
(0.60095656,0.60095656,0.62565423) (0.60095656,0.60095656,0.60095668) (0.63276899,0.96426802,0.60589503) (0.89123744,0.60116267,0.60673622) (0.60095656,0.60095656,0.60096834) (0.60095656,0.60095656,0.63371211)
(0.60095656,0.60095656,0.62856351) (0.60095656,0.60095656,0.60709739) (0.62192692,0.60095656,0.60847081) (0.87723731,0.94771820,0.60505466) (0.60095656,0.60095656,0.60276133) (0.60095656,0.60095656,0.60205371)
(0.60095656,0.60095656,0.61524206) (0.60095656,0.60095656,0.60207261) (0.61116993,0.60095656,0.60310577) (0.86589782,0.94102413,0.60265058) (0.60095656,0.60095656,0.60114348) (0.60095656,0.60095656,0.62176934)
(0.60095656,0.60095656,0.64770417) (0.60095656,0.60095656,0.61548249) (0.60824930,0.60095656,0.60550868) (0.85970793,0.93434550,0.60213791) (0.60095656,0.60095656,0.60109622) (0.60095656,0.60095656,0.62099900)
(0.60095656,0.60095656,0.67029071) (0.60095656,0.60095656,0.60695540) (0.60694438,0.96512373,0.60151747) (0.84955629,0.60618606,0.60797835) (0.60095656,0.60095656,0.60305571) (0.60095656,0.60095656,0.63528369)
(0.60095656,0.60095656,0.81107221) (0.60095656,0.60095656,0.64758402) (0.60684224,0.96498018,0.60217097) (0.81051168,0.60885732,0.61664768) (0.60095656,0.60095656,0.63453826) (0.60095656,0.60095656,0.60627963)
(0.60095656,0.60095656,0.79633398) (0.60095656,0.60095656,0.62570234) (0.60637104,0.96498046,0.60181495) (0.77585990,0.61110169,0.62573554) (0.60095656,0.60095656,0.60104890) (0.60095656,0.60095656,0.63681724)
(0.60095656,0.60095656,0.74673686) (0.60095656,0.60095656,0.60214566) (0.60552110,0.60095656,0.60804992) (0.76382490,0.92271420,0.62083382) (0.60095656,0.60095656,0.60726287) (0.60095656,0.60095656,0.60818217)
(0.60095656,0.60095656,0.72156891) (0.60095656,0.60095656,0.60682609) (0.60653503,0.60095656,0.60224996) (0.73794109,0.92271420,0.61945008) (0.60095656,0.60095656,0.60097202) (0.60095656,0.60095656,0.63587233)
(0.60095656,0.60095656,0.66695004) (0.60095656,0.60095656,0.60160123) (0.60445457,0.96686976,0.62541173) (0.69644748,0.61110169,0.61211206) (0.60095656,0.60095656,0.62681569) (0.60095656,0.60095656,0.67333910)
(0.60095656,0.60095656,0.61585857) (0.60095656,0.60095656,0.60181151) (0.60420514,0.60095656,0.61584430) (0.68299291,0.92271433,0.60425303) (0.60095656,0.60095656,0.65806459) (0.60095656,0.60095656,0.64852076)
(0.60095656,0.60095656,0.67415970) (0.60095656,0.60095656,0.61201684) (0.60394447,0.60095656,0.62633279) (0.67875102,0.92323229,0.61025951) (0.60095656,0.60095656,0.76117096) (0.60095656,0.60095656,0.69304827)
(0.60095656,0.60095656,0.80610927) (0.60095656,0.60095656,0.60201498) (0.60337930,0.95088777,0.60570658) (0.67108656,0.60145907,0.62288057) (0.60095656,0.60095656,0.62495679) (0.60095656,0.60095656,0.74019048)
(0.60095656,0.60095656,0.67202694) (0.60095656,0.60095656,0.65908419) (0.60871218,0.60095656,0.60666235) (0.68381706,0.92651259,0.62964432) (0.60095656,0.60095656,0.66070799) (0.60095656,0.60095656,0.81252041)
(0.60095656,0.60095656,0.87345168) (0.60095656,0.60095656,0.80214711) (0.60349941,0.60095656,0.69388110) (0.66648875,0.92242690,0.71951077) (0.60095656,0.60095656,0.60250001) (0.60095656,0.60095656,0.91760453)
(0.60095656,0.60095656,0.92132372) (0.60095656,0.60095656,0.88964647) (0.60284430,0.60095656,0.73347460) (0.66175135,0.90933904,0.76066519) (0.60095656,0.60095656,0.60123264) (0.60095656,0.60095656,0.94587059)
(0.60095656,0.60095656,0.94751567) (0.60095656,0.60095656,0.84794812) (0.60096476,0.60095656,0.78823902) (0.64647147,0.90933831,0.70767506) (0.60095656,0.60095656,0.62511375) (0.60095656,0.60095656,0.83786179)
(0.60095656,0.60095656,0.69819186) (0.60095656,0.60095656,0.60282243) (0.90249696,0.96686173,0.70142621) (0.74020547,0.61106639,0.60391188) (0.60095656,0.60095656,0.62031145) (0.60095656,0.60095656,0.64425854)
(0.60095656,0.60095656,0.98470105) (0.60095656,0.60095656,0.99313731) (0.97091608,0.96686173,0.73904594) (0.86905478,0.61106639,0.99171706) (0.78016316,0.60095656,0.99689994) (0.60095656,0.60095656,0.99837805)
(0.60095656,0.60095656,0.88731157) (0.60095656,0.60095656,0.90052093) (0.98868787,0.96695898,0.93177285) (0.92644228,0.62073330,0.99494092) (0.65303728,0.60095656,0.99315540) (0.60095656,0.60095656,0.95270787)
(0.60095656,0.60095656,0.67952027) (0.60095656,0.60095656,0.61263305) (0.99054672,0.95440026,0.99999999) (0.93485805,0.61999586,0.99675488) (0.62936511,0.60095656,0.91235319) (0.60095656,0.60095656,0.60877010)
(1.00000000,1.00000000,1.00000000) (0.60095656,0.60095656,0.61518606) (0.98464332,0.96725557,0.99999640) (0.94934331,0.63993849,0.99830718) (0.68544179,1.00000000,0.69252800) (1.00000000,0.60095656,1.00000000)
(1.00000000,1.00000000,1.00000000) (0.60095656,0.60095656,0.98009299) (0.98006977,0.96618328,0.90210566) (0.95903784,0.64829073,0.99694185) (0.65476442,0.60095669,0.82853320) (1.00000000,1.00000000,1.00000000)
(1.00000000,1.00000000,1.00000000) (0.60095656,0.60095656,1.00000000) (0.97430561,0.96721631,0.97537857) (0.96242043,0.63992838,0.99058533) (0.63917598,0.60095656,0.99994300) (1.00000000,0.60095656,1.00000000)
(1.00000000,1.00000000,1.00000000) (0.60095656,0.60095656,1.00000000) (0.96376710,0.60095656,0.99586231) (0.96455688,0.91021045,0.98513671) (0.61374830,0.60095656,0.99999993) (1.00000000,0.60095656,0.99979739)
(1.00000000,1.00000000,1.00000000) (0.60095656,0.60095656,1.00000000) (0.96271099,0.60993275,0.94054514) (0.96552063,0.89296336,0.98511106) (0.62582829,1.00000000,0.99999995) (1.00000000,0.60095656,0.90779022)
(1.00000000,1.00000000,1.00000000) (0.60095656,0.60095656,1.00000000) (0.95924890,0.60095656,0.63738001) (0.96568984,0.92398433,0.99085987) (0.62824780,0.60095656,0.99964550) (1.00000000,0.60095656,0.71584882)
(1.00000000,1.00000000,1.00000000) (0.60095656,0.60095656,0.98417054) (0.98330677,0.60095656,0.99999981) (0.96484706,0.60887860,0.99581930) (0.65025779,0.60095656,0.86634303) (1.00000000,1.00000000,0.97796221)
(0.60095656,0.60095656,0.73135604) (0.60095656,0.60095656,0.65975443) (0.99371292,0.60095656,1.00000000) (0.96015245,0.93090960,0.99806930) (0.65307417,0.60095656,0.70546517) (0.60095656,0.60095656,0.88527042)
(0.60095656,0.60095656,0.89359422) (0.60095656,0.60095656,0.98593075) (0.98898748,0.96611678,0.62148548) (0.94570716,0.60716827,0.99473186) (0.79465283,0.60095656,0.99994056) (0.60095656,0.60095656,0.99550235)
(0.60095656,0.60095656,0.94165608) (0.60095656,0.60095656,0.97953423) (0.81732163,0.60095656,0.93912505) (0.74299508,0.93281756,0.91522593) (1.00000000,0.60095656,0.98015762) (0.60095656,0.60095656,0.99580326)
(0.60095656,0.60095656,0.66840079) (0.60095656,0.60095656,0.85751881) (0.74781611,0.60095656,0.99969037) (0.67518618,0.93281756,0.60155493) (0.60095656,0.60095656,0.93649151) (0.60095656,0.60095656,0.88410216)
(0.60095656,0.60095656,0.62238846) (0.60095656,0.60095656,0.76350710) (0.64461410,0.60095656,0.95366387) (0.61519568,0.93283919,0.60559817) (0.60095656,0.60095656,0.89087817) (0.60095656,0.60095656,0.71119009)
(0.60095656,0.60095656,0.60920340) (0.60095656,0.60095656,0.76477193) (0.63341741,0.96553763,0.73979283) (0.61013422,0.60590339,0.71629930) (0.60095656,0.60095656,0.60265892) (0.60095656,0.60095656,0.60869472)
(0.60095656,0.60095656,0.81820278) (0.60095656,0.60095656,0.97345489) (0.92157206,0.96555789,0.68012680) (0.82984237,0.60715776,0.96150587) (0.60095656,0.60095656,0.91544865) (0.60095656,0.60095656,0.83550076)
(0.60095656,0.60095656,0.87695715) (0.60095656,0.60095656,0.97075808) (0.67621081,0.94185577,0.60234252) (0.63167118,0.60110334,0.93719887) (0.60095656,0.60095656,0.91595626) (0.60095656,0.60095656,0.84951002)
(0.60095656,0.60095656,0.69024865) (0.60095656,0.60095656,0.87131407) (0.60584299,0.96465448,0.62421839) (0.60101341,0.60919991,0.79938019) (0.60095656,0.60095656,0.85888739) (0.60095656,0.60095656,0.68157840)
(0.60095656,0.60095656,0.61319452) (0.60095656,0.60095656,0.76481640) (0.60131001,0.96377961,0.63423923) (0.60479166,0.60715776,0.64549853) (0.60095656,0.60095656,0.60203114) (0.60095656,0.60095656,0.62252185)
(0.60095656,0.60095656,0.61686503) (0.60095656,0.60095656,0.70564806) (0.60154552,0.96381719,0.60135239) (0.60175356,0.60715940,0.63168488) (0.60095656,0.60095656,0.61635469) (0.60095656,0.60095656,0.60415079)
(0.60095656,0.60095656,0.60095846) (0.60095656,0.60095656,0.72604447) (0.60200224,0.60095656,0.60174542) (0.60143347,0.93022575,0.63421293) (0.60095656,0.60095656,0.63304258) (0.60095656,0.60095656,0.61563806)
(0.60095656,0.60095656,0.60104778) (0.60095656,0.60095656,0.64922593) (0.60097471,0.60095656,0.60155857) (0.60350023,0.93022543,0.61807643) (0.60095656,0.60095656,0.61698119) (0.60095656,0.60095656,0.61103411)
(0.60095656,0.60095656,0.61657473) (0.60095656,0.60095656,0.61190980) (0.60265632,0.60095656,0.60541604) (0.60624087,0.93213149,0.61778118) (0.84686714,0.60095656,0.60098605) (0.60095656,0.60095656,0.62468404)
(0.60095656,0.60095656,0.62099096) (0.60095656,0.60095656,0.60835385) (0.60130436,0.60095656,0.60847393) (0.60475039,0.94164965,0.60567041) (0.60095656,0.60095656,0.60153750) (0.60095656,0.60095656,0.60874497)
(0.60095656,0.60095656,0.61093328) (0.60095656,0.60095656,0.60134440) (0.60197133,0.60095656,0.62321506) (0.60612258,0.94233402,0.60298185) (0.60095656,0.60095656,0.63179749) (0.60095656,0.60095656,0.60958524)
(0.60095656,0.60095656,0.63710866) (0.60095656,0.60095656,0.81218514) (0.61272670,0.60095656,0.60579863) (0.96681330,0.60591910,0.80987682) (0.60095656,0.60095656,0.83379481) (0.60095656,0.60095656,0.72351750)
(0.60095656,0.60095656,0.61042096) (0.60095656,0.60095656,0.87926949) (0.61265874,0.60095656,0.60171784) (0.96707151,0.60715826,0.80564788) (0.60095656,0.60095656,0.77975787) (0.60095656,0.60095656,0.64118618)
(0.60095656,0.60095656,0.61333658) (0.60095656,0.60095656,0.93017612) (0.61265874,0.60095656,0.60411617) (0.96598194,0.60591910,0.82327169) (0.60095656,0.60095656,0.67584205) (0.60095656,0.60095656,0.65173139)
(0.60095656,0.60095656,0.60206180) (0.60095656,0.60095656,0.84601498) (0.61265874,0.60095656,0.60490459) (0.96480603,0.60226625,0.83079724) (0.60095656,0.60095656,0.79386265) (0.60095656,0.60095656,0.69825984)
(0.60095656,0.60095656,0.60278358) (0.60095656,0.60095656,0.75865749) (0.61265874,0.60095656,0.60854302) (0.96275473,0.60101826,0.81397977) (0.60095656,0.60095656,0.76351087) (0.60095656,0.60095656,0.78648791)
(0.60095656,0.60095656,0.62793471) (0.60095656,0.60095656,0.75227685) (0.61277851,0.60095656,0.60437284) (0.96103922,0.60098884,0.81443753) (0.60095656,0.60095656,0.78318693) (0.60095656,0.60095656,0.74812738)
(0.60095656,0.60095656,0.60830647) (0.60095656,0.60095656,0.80384019) (0.61279696,0.60095656,0.60200189) (0.95950129,0.60098023,0.80362095) (0.60095656,0.60095656,0.77451419) (0.60095656,0.60095656,0.68874212)
(0.60095656,0.60095656,0.63190756) (0.60095656,0.60095656,0.79909137) (0.61266360,0.60095656,0.60356811) (0.96042369,0.60097294,0.79603599) (0.60095656,0.60095656,0.75637040) (0.60095656,0.60095656,0.71078008)
(0.60095656,0.60095656,0.62068121) (0.60095656,0.60095656,0.82768551) (0.61254657,0.60095656,0.60497036) (0.96099841,0.60096301,0.81750585) (0.60095656,0.60095656,0.77384623) (0.60095656,0.60095656,0.74329668)
(0.60095656,0.60095656,0.62826090) (0.60095656,0.60095656,0.80925085) (0.61265319,0.60095656,0.60195680) (0.96228755,0.60095762,0.82213584) (0.60095656,0.60095656,0.78290508) (0.60095656,0.60095656,0.74923875)
(0.60095656,0.60095656,0.62775236) (0.60095656,0.60095656,0.80376158) (0.61267271,0.60095656,0.60165325) (0.96237483,0.60095706,0.81988780) (0.60095656,0.60095656,0.73601928) (0.60095656,0.60095656,0.74388748)
(0.60095656,0.60095656,0.61234567) (0.60095656,0.60095656,0.78088365) (0.61257335,0.60095656,0.60110039) (0.96216527,0.60095762,0.78926371) (0.60095656,0.60095656,0.67555783) (0.60095656,0.60095656,0.75240927)
(0.60095656,0.60095656,0.63493203) (0.60095656,0.60095656,0.76809587) (0.61208188,0.60095656,0.60184236) (0.96184215,0.60096303,0.78817816) (0.60095656,0.60095656,0.74224313) (0.60095656,0.60095656,0.72327385)
(0.60095656,0.60095656,0.62110631) (0.60095656,0.60095656,0.74041917) (0.61161945,0.60095656,0.60318382) (0.96142877,0.60097299,0.76270324) (0.60095656,0.60095656,0.80112281) (0.60095656,0.60095656,0.66997460)
(0.60095656,0.60095656,0.64237976) (0.60095656,0.60095656,0.74636144) (0.61114994,0.60095656,0.60106132) (0.96111647,0.60096300,0.77062287) (0.60095656,0.60095656,0.75925746) (0.60095656,0.60095656,0.66085062)
(0.60095656,0.60095656,0.60225687) (0.60095656,0.60095656,0.76315307) (0.61089939,0.60095656,0.62107351) (0.96015817,0.60097293,0.76790297) (0.60095656,0.60095656,0.83380179) (0.60095656,0.60095656,0.73064413)
(0.60095656,0.60095656,0.62314752) (0.60095656,0.60095656,0.76697928) (0.61094920,0.60095656,0.62869510) (0.61693886,0.95059013,0.76839088) (0.60095656,0.60095656,0.82178902) (0.60095656,0.60095656,0.70188872)
(0.60095656,0.60095656,0.69962957) (0.60095656,0.60095656,0.74322893) (0.61100371,0.60095656,0.64262926) (0.61667369,0.95028545,0.76690353) (0.60095656,0.60095656,0.74647743) (0.60095656,0.60095656,0.74929991)
(0.60095656,0.60095656,0.67289454) (0.60095656,0.60095656,0.76086567) (0.61095491,0.60095656,0.64645688) (0.61609861,0.94967442,0.75374162) (0.60095656,0.60095656,0.62886851) (0.60095656,0.60095656,0.79372555)
(0.60095656,0.60095656,0.66987040) (0.60095656,0.60095656,0.77167989) (0.61083768,0.60095656,0.64256061) (0.61554315,0.94906492,0.75470355) (0.60095656,0.60095656,0.66638507) (0.60095656,0.60095656,0.74303362)
(0.60095656,0.60095656,0.68343930) (0.60095656,0.60095656,0.78426746) (0.61078483,0.60095656,0.67030112) (0.61475701,0.94260817,0.76235423) (0.60095656,0.60095656,0.73106635) (0.60095656,0.60095656,0.74327460)
(0.60095656,0.60095656,0.72394030) (0.60095656,0.60095656,0.74663826) (0.61072340,0.60095656,0.65856629) (0.61399139,0.93557932,0.76385828) (0.60095656,0.60095656,0.81014563) (0.60095656,0.60095656,0.70761794)
(0.60095656,0.60095656,0.68982828) (0.60095656,0.60095656,0.75782642) (0.61048292,0.60095656,0.65225903) (0.96643508,0.60593251,0.75728495) (0.60095656,0.60095656,0.73550890) (0.60095656,0.60095656,0.72722018)
(0.60095656,0.60095656,0.63236210) (0.60095656,0.60095656,0.75134553) (0.61025266,0.60095656,0.62965243) (0.96726844,0.60484241,0.73725480) (0.60095656,0.60095656,0.67243127) (0.60095656,0.60095656,0.71641624)
(0.60095656,0.60095656,0.61605406) (0.60095656,0.60095656,0.70832946) (0.60103253,0.60095656,0.60382607) (0.60205995,0.93306961,0.68282249) (0.60095656,0.60095656,0.60099454) (0.60095656,0.60095656,0.64555021)
(0.60095656,0.60095656,0.60446662) (0.60095656,0.60095656,0.62991331) (0.60176683,0.60095656,0.60169769) (0.60466932,0.93068378,0.62270994) (0.60095656,0.60095656,0.60207294) (0.60095656,0.60095656,0.60153938)
(0.60095656,0.60095656,0.60947828) (0.60095656,0.60095656,0.60186554) (0.60355665,0.60095656,0.62351943) (0.60677473,0.93325254,0.60382679) (0.60095656,0.60095656,0.65004856) (0.60095656,0.60095656,0.60124336)
(0.60095656,0.60095656,0.62127548) (0.60095656,0.60095656,0.63299419) (0.60591867,0.96320160,0.67922095) (0.60117040,0.60482693,0.72840106) (0.60095656,0.60095656,0.60352968) (0.60095656,0.60095656,0.68761119)
(0.60095656,0.60095656,0.63328615) (0.60095656,0.60095656,0.60459146) (0.68880773,0.96294061,0.60228783) (0.64514304,0.60227286,0.60438070) (0.99980212,0.60095656,0.86514055) (0.60095656,0.60095656,0.60098958)
(0.60095656,0.60095656,0.96609288) (0.60095656,0.60095656,0.92409816) (0.99302342,0.96265091,0.78211146) (0.95027237,0.60105773,0.96980858) (0.86892636,0.60095656,0.99999273) (0.60095656,0.60095656,0.94071615)
(0.60095656,0.60095656,0.71359590) (0.60095656,0.60095656,0.60102574) (0.99470371,0.60095656,0.99999273) (0.95681863,0.95016649,0.95519459) (0.72443177,0.60095656,0.97804831) (0.60095656,0.60095656,0.67871122)
(1.00000000,1.00000000,0.99999979) (0.60095656,0.60095656,0.72395646) (0.99016319,0.96181730,0.99799168) (0.96060857,0.60098816,0.96913930) (0.64175358,1.00000000,0.99288723) (0.60095656,0.60095656,0.99520422)
(1.00000000,1.00000000,1.00000000) (0.60095656,0.60095656,0.99815176) (0.98875266,0.96247255,0.73009948) (0.96224262,0.60101875,0.94093204) (0.62430996,0.60144802,0.99964064) (1.00000000,0.87474577,0.99999984)
(1.00000000,1.00000000,1.00000000) (0.60095656,0.60095656,1.00000000) (0.98519976,0.96244903,0.99996741) (0.96262540,0.60105794,0.87714952) (0.60934040,0.60095656,1.00000000) (1.00000000,1.00000000,0.89470436)
(1.00000000,1.00000000,1.00000000) (0.60095656,0.60095656,0.99999997) (0.98111162,0.96346152,0.99999908) (0.96279584,0.60227399,0.88415086) (0.60095656,0.60095656,1.00000000) (1.00000000,0.60095656,0.99999845)
(1.00000000,1.00000000,1.00000000) (0.60095656,0.60095656,0.99999993) (0.96366430,0.96346152,0.99999969) (0.96221898,0.60105794,0.89515483) (0.60095656,0.60095656,0.99999831) (0.60095656,0.60095656,0.99999989)
(1.00000000,0.85611715,1.00000000) (0.60095656,0.60095656,0.99999985) (0.94711257,0.60109498,0.99999996) (0.96222049,0.94782152,0.89647802) (0.60095656,0.60095656,0.99989583) (0.60095656,0.60095656,0.99999984)
(1.00000000,0.60179376,0.99999848) (0.60095656,0.60095656,0.99999774) (0.94016893,0.96175483,0.99999934) (0.96165283,0.60095656,0.92981431) (0.60095656,0.60095656,0.99929782) (0.60095656,0.60095656,0.99999987)
(1.00000000,1.00000000,1.00000000) (0.60095656,0.60095656,0.99999988) (0.93154006,0.60095656,0.99993549) (0.96130398,0.95159548,0.91445440) (0.60785319,1.00000000,0.99999838) (0.60095656,0.60095656,1.00000000)
(1.00000000,1.00000000,1.00000000) (0.60095656,0.60095656,0.99998942) (0.97422946,0.75864983,0.97963654) (0.95971521,0.60097308,0.93653768) (0.62530067,1.00000000,0.99996940) (0.60095656,0.60095656,0.99999618)
(1.00000000,1.00000000,1.00000000) (0.60095656,0.60095656,0.96093920) (0.98910584,0.60095656,0.99944356) (0.95807476,0.60096309,0.96118441) (0.63530820,0.60095656,0.99757469) (1.00000000,0.60095656,0.74112862)
(0.60095656,0.60095656,0.62381242) (0.60095656,0.60095656,0.64260243) (0.99211507,0.96166508,0.99991045) (0.95208362,0.60095763,0.97631703) (0.69790028,0.60095656,0.84203639) (0.60095656,0.60095656,0.76259969)
(0.60095656,0.60095656,0.79770563) (0.60095656,0.60095656,0.72639074) (0.64118489,0.96136819,0.92790945) (0.63456103,0.60095704,0.95814898) (1.00000000,0.60095656,0.99112969) (0.60095656,0.60095656,0.77359339)
(0.60095656,0.60095656,0.91243046) (0.60095656,0.60095656,0.94826661) (0.60268017,0.96107368,0.94957289) (0.60096790,0.60095668,0.86968021) (0.60095656,0.60095656,0.99282471) (0.60095656,0.60095656,0.91361718)
(0.60095656,0.60095656,0.82476487) (0.60095656,0.60095656,0.87649177) (0.71525844,0.60095656,0.81580584) (0.65645332,0.95428331,0.80922500) (0.60095656,0.60095656,0.97648429) (0.60095656,0.60095656,0.78333965)
(0.60095656,0.60095656,0.61647586) (0.60095656,0.60095656,0.60095656) (0.65190422,0.60095656,0.70445263) (0.61936226,0.95492543,0.60139248) (0.60095656,0.60095656,0.75601359) (0.60095656,0.60095656,0.64942070)
(0.60095656,0.60095656,0.60948398) (0.60095656,0.60095656,0.67587501) (0.60143972,0.95903590,0.60656163) (0.60379146,0.60097229,0.65449549) (0.98310020,0.60095656,0.62709437) (0.60095656,0.60095656,0.60641000)
(0.60095656,0.60095656,0.60493295) (0.60095656,0.60095656,0.64019392) (0.60606514,0.60105834,0.65406254) (0.61053666,0.95373618,0.64300110) (0.98592819,0.60095656,0.72601890) (0.60095656,0.60095656,0.63275248)
(0.60095656,0.60095656,0.60208959) (0.60095656,0.60095656,0.68315011) (0.60495828,0.60095661,0.69536330) (0.61034615,0.95627189,0.64864091) (0.98253326,0.60095656,0.73654571) (0.60095656,0.60095656,0.62565250)
(0.60095656,0.60095656,0.60586058) (0.60095656,0.60095656,0.61038616) (0.60453936,0.95902045,0.79142075) (0.61031145,0.60095657,0.60192719) (0.99533674,0.60095656,0.73724286) (0.60095656,0.60095656,0.60441507)
(0.60095656,0.60095656,0.60533569) (0.60095656,0.60095656,0.61917114) (0.60283389,0.95874814,0.78735411) (0.60856672,0.60095657,0.60186636) (0.99010126,0.60095699,0.65226053) (0.60095656,0.60095656,0.60898860)
(0.60095656,0.60095656,0.61618403) (0.60095656,0.60095656,0.61138039) (0.60377530,0.95934402,0.75533346) (0.61037885,0.60095657,0.60946084) (0.98727149,1.00000000,0.74131268) (0.60095656,0.60095656,0.61378577)
(0.60095656,0.60095656,0.62886341) (0.60095656,0.60095656,0.63152289) (0.60295254,0.60095666,0.79254182) (0.61644577,0.95761836,0.62331978) (0.99980285,0.60095656,0.71222137) (0.60095656,0.60095656,0.67147516)
(0.60095656,0.60095656,0.61034814) (0.60095656,0.60095656,0.66148154) (0.60182075,0.60095656,0.83616678) (0.62261762,0.95828296,0.61661604) (0.99999850,0.60095656,0.65734097) (0.60095656,0.60095656,0.68752239)
(0.60095656,0.60095656,0.60108815) (0.60095656,0.60095656,0.64249674) (0.60116087,0.60098512,0.82078236) (0.62097425,0.95631978,0.61900297) (0.99999999,0.60095656,0.68917151) (0.60095656,0.60095656,0.69933394)
(0.60095656,0.60095656,0.60113219) (0.60095656,0.60095656,0.61602706) (0.60097187,0.95968185,0.78236212) (0.62708970,0.60095657,0.60778881) (0.98050094,0.60095656,0.64466979) (0.60095656,0.60095656,0.67761827)
(0.60095656,0.60095656,0.62087430) (0.60095656,0.60095656,0.62082028) (0.60112236,0.96033159,0.82290151) (0.63201552,0.60095658,0.61429162) (0.80821135,0.60095656,0.70088147) (0.60095656,0.60095656,0.65646364)
(0.60095656,0.60095656,0.60896199) (0.60095656,0.60095656,0.63894231) (0.60136486,0.60095656,0.82119888) (0.63457756,0.95683780,0.61095703) (0.81091473,0.60095656,0.68118203) (0.60095656,0.60095656,0.64685084)
(0.60095656,0.60095656,0.60096634) (0.60095656,0.60095656,0.64848806) (0.60165960,0.60095656,0.84575400) (0.64124255,0.95740522,0.60793530) (0.98312188,1.00000000,0.63246636) (0.60095656,0.60095656,0.64156238)
(0.60095656,0.60095656,0.60101479) (0.60095656,0.60095656,0.65484908) (0.60169393,0.60095656,0.77237293) (0.64944887,0.95800251,0.61760628) (0.98072844,1.00000000,0.60844270) (0.60095656,0.60095656,0.64221840)
(0.60095656,0.60095656,0.60324686) (0.60095656,0.60095656,0.62042612) (0.60109305,0.60095656,0.80624058) (0.64423130,0.95863931,0.61052787) (0.99942193,0.60095656,0.65931306) (0.60095656,0.60095656,0.66286343)
(0.60095656,0.60095656,0.60308697) (0.60095656,0.60095656,0.60333071) (0.60128227,0.60095656,0.80936109) (0.65069264,0.95833087,0.60688403) (0.98084666,0.60095656,0.72898087) (0.60095656,0.60095656,0.63811611)
(0.60095656,0.60095656,0.60248183) (0.60095656,0.60095656,0.61738608) (0.60151313,0.96151473,0.80676087) (0.65593790,0.60095658,0.60646378) (0.98533371,0.60095656,0.70484573) (0.60095656,0.60095656,0.60945881)
(0.60095656,0.60095656,0.60420210) (0.60095656,0.60095656,0.61450429) (0.60205402,0.60095656,0.82218298) (0.66271474,0.60095658,0.60265996) (0.98443080,1.00000000,0.66129617) (0.60095656,0.60095656,0.60910936)
(0.60095656,0.60095656,0.60115319) (0.60095656,0.60095656,0.63265487) (0.60198520,0.60095656,0.80816604) (0.66982644,0.60095658,0.60281233) (0.98487015,1.00000000,0.65400031) (0.60095656,0.60095656,0.60204580)
(0.60095656,0.60095656,0.60355799) (0.60095656,0.60095656,0.62164284) (0.60196074,0.60095656,0.76647775) (0.67718627,0.95866447,0.60199110) (0.98615076,1.00000000,0.61931672) (0.60095656,0.60095656,0.60336881)
(0.60095656,0.60095656,0.60130531) (0.60095656,0.60095656,0.62150875) (0.60195548,0.60095656,0.80443717) (0.68873253,0.91165236,0.60288197) (0.98591369,1.00000000,0.61668528) (0.60095656,0.60095656,0.63514314)
(0.60095656,0.60095656,0.60097823) (0.60095656,0.60095656,0.61318648) (0.60256555,0.88691147,0.78918220) (0.70436723,0.60095657,0.60101643) (0.98567406,1.00000000,0.60169208) (0.60095656,0.60095656,0.63117220)
(0.60095656,0.60095656,0.60791804) (0.60095656,0.60095656,0.60996579) (0.60192052,0.96129204,0.79520486) (0.72477489,0.60095657,0.60102099) (0.98669493,1.00000000,0.60105490) (0.60095656,0.60095656,0.61308358)
(0.60095656,0.60095656,0.61204706) (0.60095656,0.60095656,0.60217097) (0.60254210,0.60095656,0.76018762) (0.75386716,0.95919032,0.60097153) (0.98646541,0.60095656,0.60105453) (0.60095656,0.60095656,0.61098382)
(0.60095656,0.60095656,0.62749239) (0.60095656,0.60095656,0.62497869) (0.60163576,0.89333786,0.81460716) (0.75468222,0.65358604,0.60176211) (0.98427018,0.60095656,0.62235952) (0.60095656,0.60095656,0.60104644)
(0.60095656,0.60095656,0.60095780) (0.60095656,0.60095656,0.64389625) (0.60234795,0.96098557,0.79975712) (0.76664263,0.60095656,0.60109382) (0.98331984,0.60095656,0.60506958) (0.60095656,0.60095656,0.60095656)
(0.60095656,0.60095656,0.60136044) (0.60095656,0.60095656,0.63503784) (0.60219347,0.96065424,0.81859207) (0.80703167,0.60095656,0.60095790) (0.98762743,0.60095656,0.60989222) (0.60095656,0.60095656,0.60097658)
(0.60095656,0.60095656,0.61159869) (0.60095656,0.60095656,0.60324532) (0.60297984,0.96032654,0.77772462) (0.85019273,0.60095656,0.60159720) (0.98418681,0.60095656,0.68193584) (0.60095656,0.60095656,0.60104679)
(0.60095656,0.60095656,0.64405578) (0.60095656,0.60095656,0.60484272) (0.60108860,0.60556471,0.84473273) (0.79689308,0.94659359,0.60184855) (0.97728462,1.00000000,0.66673143) (0.60095656,0.60095656,0.60818566)
(0.60095656,0.60095656,0.63986968) (0.60095656,0.60095656,0.60638107) (0.60095656,0.65021325,0.79542827) (0.75039208,0.89704799,0.60333894) (0.97862699,0.60095656,0.71124890) (0.60095656,0.60095656,0.60241050)
(0.60095656,0.60095656,0.63471056) (0.60095656,0.60095656,0.60820141) (0.60113667,0.82158340,0.81485719) (0.74901026,0.73276746,0.60244317) (0.98202859,0.60095656,0.63064905) (0.60095656,0.60095656,0.60696132)
(0.60095656,0.60095656,0.62139605) (0.60095656,0.60095656,0.60142347) (0.60181833,0.60095656,0.81454560) (0.74890414,0.96025994,0.60475330) (0.98233932,0.60095656,0.73871766) (0.60095656,0.60095656,0.61472461)
(0.60095656,0.60095656,0.60581131) (0.60095656,0.60095656,0.60395630) (0.60109154,0.96365969,0.81355284) (0.71686969,0.60095656,0.60810176) (0.98105194,0.60095656,0.72155067) (0.60095656,0.60095656,0.63455646)
(0.60095656,0.60095656,0.60778063) (0.60095656,0.60095656,0.60603250) (0.60114953,0.96454758,0.79945455) (0.68365816,0.60095656,0.60774107) (0.97809286,0.60095656,0.65037246) (0.60095656,0.60095656,0.63840911)
(0.60095656,0.60095656,0.62705154) (0.60095656,0.60095656,0.61588585) (0.60096641,0.96554766,0.81935344) (0.67736986,0.60095657,0.60650912) (0.97122704,1.00000000,0.62721005) (0.60095656,0.60095656,0.61998599)
(0.60095656,0.60095656,0.61192700) (0.60095656,0.60095656,0.73213180) (0.60513120,0.60095656,0.83360997) (0.64412086,0.95994743,0.79132938) (0.99860665,0.60095656,0.71669143) (0.60095656,0.60095656,0.67686010)
(0.60095656,0.60095656,0.86996739) (0.60095656,0.60095656,0.94464040) (0.79946746,0.60095656,0.60573766) (0.62521230,0.60095656,0.95668366) (0.97906865,1.00000000,0.96290162) (0.60095656,0.60095656,0.94530804)
(0.60095656,0.60095656,0.67528279) (0.60095656,0.60095656,0.77878994) (0.98215388,0.94654408,0.99994288) (0.84951969,0.60784059,0.97338066) (0.65071879,0.60095656,0.63469843) (0.60095656,0.60095656,0.73326267)
(1.00000000,1.00000000,0.65699089) (0.60095656,0.60095656,0.90009013) (0.98208624,0.60095656,0.99523590) (0.86016104,0.60095656,0.96896445) (0.60095656,0.60095656,0.62147541) (0.60095656,0.60095656,0.81806076)
(0.99999999,0.60095656,0.89098964) (0.60095656,0.60095656,0.84777931) (0.98663361,0.96273881,0.99397991) (0.87086276,0.60095656,0.97115349) (0.60095656,0.60095656,0.78782549) (0.60095656,0.60095656,0.90815631)
(1.00000000,1.00000000,1.00000000) (0.60095656,0.60095656,0.87362838) (0.98376013,0.60095656,0.84561216) (0.87589755,0.60095656,0.97553544) (0.60095656,0.60095656,0.77370210) (0.60095656,0.60095656,0.86946887)
(1.00000000,1.00000000,0.99999999) (0.60095656,0.60095656,0.97821437) (0.98813574,0.60099684,0.81361824) (0.87605896,0.96053257,0.96880598) (0.60095656,0.60095656,0.62974512) (0.60095656,0.60095656,0.98568695)
(0.60095656,0.60095656,0.99973963) (0.60095656,0.60095656,0.97886721) (0.98428459,0.60095656,0.74407289) (0.86370538,0.96269899,0.96535721) (0.60095656,0.60095656,0.79291624) (0.60095656,0.60095656,0.98554412)
(0.60095656,0.60095656,0.99866756) (0.60095656,0.60095656,0.99388779) (0.98475174,0.60095656,0.91573077) (0.85729105,0.96374362,0.96341247) (0.60095656,0.60095656,0.88450770) (0.60095656,0.60095656,0.99215179)
(0.60095656,0.60095656,0.99167801) (0.60095656,0.60095656,0.98467743) (0.98600435,0.60095656,0.67611361) (0.86126978,0.96329942,0.96372505) (0.60095656,0.60095656,0.76840597) (0.60095656,0.60095656,0.97759246)
(0.60095656,0.60095656,0.98228282) (0.60095656,0.60095656,0.99175360) (0.98806644,0.96451052,0.74489386) (0.86985906,0.60095656,0.96245685) (0.60095656,0.60095656,0.67734675) (0.60095656,0.60095656,0.98449292)
(0.60095656,0.60095656,0.99372902) (0.60095656,0.60095656,0.99501738) (0.98804841,0.96496702,0.97595080) (0.87912257,0.60095656,0.95691228) (0.60095656,0.60095656,0.92239202) (0.60095656,0.60095656,0.99657253)
(0.60095656,0.60095656,0.99446023) (0.60095656,0.60095656,0.99172360) (0.98727382,0.96425200,0.96264634) (0.86863532,0.60106878,0.95057885) (0.60095656,0.60095656,0.90443784) (0.60095656,0.60095656,0.99464254)
(0.60095656,0.60095656,0.98537210) (0.60095656,0.60095656,0.99526552) (0.98521250,0.96612283,0.97338279) (0.86262218,0.60095656,0.94885648) (0.60095656,0.60095656,0.88797817) (0.60095656,0.60095656,0.99201305)
(0.60095656,0.60095656,0.94244223) (0.60095656,0.60095656,0.99488926) (0.98465231,0.96781416,0.96273584) (0.85408171,0.60095656,0.94093987) (0.60095656,0.60095656,0.75860464) (0.60095656,0.60095656,0.99417291)
(0.60095656,0.60095656,0.92344159) (0.60095656,0.60095656,0.99629051) (0.98436681,0.96716291,0.96496061) (0.84678130,0.60095772,0.93997088) (0.60095656,0.60095656,0.76095375) (0.60095656,0.60095656,0.99302163)
(0.60095656,0.60095656,0.91315622) (0.60095656,0.60095656,0.98879907) (0.98401328,0.96687731,0.95968272) (0.83913252,0.60095656,0.93366220) (0.60095656,0.60095656,0.82220938) (0.60095656,0.60095656,0.99672750)
(0.60095656,0.60095656,0.98222557) (0.60095656,0.60095656,0.98211254) (0.98364185,0.90934907,0.95819306) (0.80427908,0.64682837,0.93102072) (0.60095656,0.60095656,0.68142272) (0.60095656,0.60095656,0.99745026)
(0.60095656,0.60095656,0.94607109) (0.60095656,0.60095656,0.99420757) (0.98339804,0.60095656,0.96876100) (0.76815949,0.96454471,0.94010252) (0.60095656,0.60095656,0.87764843) (0.60095656,0.60095656,0.99178429)
(0.60095656,0.60095656,0.93665014) (0.60095656,0.60095656,0.99214588) (0.98299578,0.60095656,0.97068410) (0.66019590,0.96580123,0.93921530) (0.60095656,0.60095656,0.70801619) (0.60095656,0.60095656,0.99847042)
(0.60095656,0.60095656,1.00000000) (0.60095656,0.60095656,1.00000000) (0.60413397,0.60095656,1.00000000) (0.81777414,0.60095656,1.00000000) (0.60095656,0.60095656,1.00000000) (0.60095656,0.60095656,1.00000000)
(0.60095656,0.60095656,1.00000000) (0.60095656,0.60095656,1.00000000) (0.60428970,0.60095656,1.00000000) (0.85190370,0.60095656,1.00000000) (0.60095656,0.60095656,1.00000000) (0.60095656,0.60095656,1.00000000)
(0.60095656,0.60095656,1.00000000) (0.60095656,0.60095656,1.00000000) (0.60444820,0.60095656,1.00000000) (0.88268737,0.60095656,1.00000000) (0.60095656,0.60095656,1.00000000) (0.60095656,0.60095656,1.00000000)
