chh c1 sd mt lt rc2
(0.60095656,0.60095656,1.00000000) (0.60095656,0.60095656,1.00000000) (0.99994119,0.98407105,1.00000000) (0.60095656,0.60095656,1.00000000) (0.98872085,0.60095656,1.00000000) (0.60095656,0.60095656,1.00000000)
(0.60095656,0.60095656,0.99368650) (0.60095656,0.60095656,0.99921048) (0.99997794,0.98408289,1.00000000) (0.60095656,0.60095656,0.99709501) (0.98883989,0.60095656,0.74096444) (0.60095656,0.60095656,0.99733540)
(0.60095656,0.60095656,0.89877683) (0.60095656,0.60095656,0.99909408) (0.99920093,0.60095656,1.00000000) (0.60095656,0.60095656,0.98332101) (0.98920170,0.60095656,0.85290841) (0.60095656,0.60095656,0.86544435)
(0.60095656,0.60095656,0.98433426) (0.60095656,0.60095656,0.99990493) (0.99925964,0.60095656,1.00000000) (0.60095656,0.60095656,0.99999705) (0.98954487,0.60095656,0.98197695) (0.60095656,0.60095656,0.99999960)
(1.00000000,0.60095656,0.99999858) (0.60095656,0.60095656,0.97637088) (0.99719365,0.60095656,0.99808943) (0.60095656,0.60095656,0.99987062) (0.98988843,0.60095656,0.98297170) (0.60095656,0.60095656,0.73152184)
(1.00000000,1.00000000,0.96374463) (0.60095656,0.60095656,0.99030249) (0.99136161,0.61245612,0.99994787) (0.60095656,0.60095656,0.99997338) (0.99019664,0.60095656,0.99773460) (0.60095656,0.60095656,0.99638807)
(1.00000000,1.00000000,0.99999953) (0.60095656,0.60095656,0.99947050) (0.99095485,0.98000544,0.99999580) (0.60095656,0.60095656,0.99999118) (0.99060681,0.60095656,0.94885874) (0.60095656,0.60095656,0.98363206)
(1.00000000,0.60095656,1.00000000) (0.60095656,0.60095656,0.99991364) (0.99837502,0.60095656,1.00000000) (0.60095656,0.60095656,0.99999422) (0.99100531,0.60095656,0.95174045) (0.60095656,0.60095656,0.99656855)
(0.60095656,0.60095656,0.95884667) (0.60095656,0.60095656,0.99817491) (0.99950488,0.60095656,0.99999650) (0.60095656,0.60095656,0.99790003) (0.99129827,0.60095656,0.95968486) (0.60095656,0.60095656,0.87168410)
(0.60095656,0.60095656,0.83211001) (0.60095656,0.60095656,0.94284920) (0.99953993,0.60095656,0.85439362) (0.60095656,0.60095656,0.99191568) (0.99160760,0.60095656,0.96085235) (0.60095656,0.60095656,0.72475614)
(0.60095656,0.60095656,0.87713558) (0.60095656,0.60095656,0.95735761) (0.99954390,0.60095656,0.67641754) (0.60095656,0.60095656,0.98871220) (0.99158882,0.60095656,0.98442075) (0.60095656,0.60095656,0.65639425)
(0.60095656,0.60095656,0.61743369) (0.60095656,0.60095656,0.60107724) (0.63561902,0.60095656,0.70450109) (0.60095656,0.60095656,0.66020515) (0.61511888,0.60095656,0.69059782) (0.60095656,0.60095656,0.66329599)
(0.60095656,0.60095656,0.66013053) (0.60095656,0.60095656,0.72015283) (0.70912070,0.60095656,0.77627043) (0.60095656,0.60095656,0.72769571) (0.64924916,0.60095656,0.78467434) (0.60095656,0.60095656,0.86228988)
(0.60095656,0.60095656,0.63044775) (0.60095656,0.60095656,0.62942523) (0.64545268,0.60328718,0.65203384) (0.60095656,0.60095656,0.67690018) (0.61688827,0.60395646,0.60170063) (0.60095656,0.60095656,0.60703329)
(0.60095656,0.60095656,0.61503309) (0.60095656,0.60095656,0.67218675) (0.60675964,0.60095656,0.68247875) (0.60095656,0.60095656,0.84809442) (0.60544769,0.60095656,0.70559105) (0.60095656,0.60095656,0.77242426)
(0.60095656,0.60095656,0.87258660) (0.60095656,0.60095656,0.60096190) (0.60621874,0.60095656,0.61470639) (0.60095656,0.60095656,0.78681887) (0.60177301,0.60095656,0.65133480) (0.60095656,0.60095656,0.68178885)
(0.60095656,0.60095656,0.60652618) (0.60095656,0.60095656,0.66414115) (0.60482048,0.60095656,0.76570270) (0.60095656,0.60095656,0.78612196) (0.60420434,0.60095656,0.71270271) (0.60095656,0.60095656,0.70623012)
(0.60095656,0.60095656,0.70834430) (0.60095656,0.60095656,0.60148115) (0.60103151,0.60095656,0.66148717) (0.60095656,0.60095656,0.71580470) (0.60151274,0.60095656,0.68104059) (0.60095656,0.60095656,0.60106875)
(0.60095656,0.60095656,0.90583846) (0.60095656,0.60095656,0.60788817) (0.61365150,0.60095656,0.66166015) (0.60095656,0.60095656,0.71461735) (0.60874408,0.60095656,0.84599145) (0.60095656,0.60095656,0.67993200)
(0.60095656,0.60095656,0.60315687) (0.60095656,0.60095656,0.64706481) (0.60240835,0.96363234,0.60833359) (0.60095656,0.60095656,0.62028089) (0.60317621,0.98810366,0.66423404) (0.60095656,0.60095656,0.60106688)
(0.60095656,0.60095656,0.83207980) (0.60095656,0.60095656,0.60377252) (0.61255394,0.60095657,0.67229873) (0.60095656,0.60095656,0.69907156) (0.60990472,0.60095656,0.72628216) (0.60095656,0.60095656,0.61801779)
(0.60095656,0.60095656,0.60096935) (0.60095656,0.60095656,0.60269035) (0.60737127,0.60095661,0.60209627) (0.60095656,0.60095656,0.74457695) (0.60708957,0.60095656,0.62416333) (0.60095656,0.60095656,0.75847426)
(0.60095656,0.60095656,0.60132845) (0.60095656,0.60095656,0.62801735) (0.60484204,0.60095664,0.60302398) (0.60095656,0.60095656,0.91555517) (0.60601702,0.60095656,0.61253637) (0.60095656,0.60095656,0.60097045)
(0.60095656,0.60095656,0.78276442) (0.60095656,0.60095656,0.60678318) (0.60815664,0.60095668,0.60483773) (0.60095656,0.60095656,0.79001049) (0.60981591,0.60095656,0.62653736) (0.60095656,0.60095656,0.68676837)
(0.60095656,0.60095656,0.68617078) (0.60095656,0.60095656,0.60097164) (0.61067755,0.60095668,0.61333817) (0.60095656,0.60095656,0.82532262) (0.61296195,0.60095656,0.71710598) (0.60095656,0.60095656,0.60117195)
(0.60095656,0.60095656,0.80463527) (0.60095656,0.60095656,0.77198855) (0.60336321,0.60095668,0.61701900) (0.60095656,0.60095656,0.65203865) (0.60588167,0.60095656,0.60925462) (0.60095656,0.60095656,0.72761742)
(0.60095656,0.60095656,0.60118782) (0.60095656,0.60095656,0.65389329) (0.60391666,0.60095713,0.60115829) (0.60095656,0.60095656,0.72847152) (0.60699081,0.60095656,0.60141796) (0.60095656,0.60095656,0.63367713)
(0.60095656,0.60095656,0.70780474) (0.60095656,0.60095656,0.71067723) (0.60245834,0.95759463,0.60294237) (0.60095656,0.60095656,0.65160770) (0.60527195,0.99151671,0.61823026) (0.60095656,0.60095656,0.78288974)
(0.60095656,0.60095656,0.69643052) (0.60095656,0.60095656,0.60222136) (0.60298778,0.86312771,0.60982416) (0.60095656,0.60095656,0.60108382) (0.60631890,0.93871666,0.62822067) (0.60095656,0.60095656,0.60529396)
(0.60095656,0.60095656,0.78478510) (0.60095656,0.60095656,0.61757701) (0.60125627,0.60097248,0.60553624) (0.60095656,0.60095656,0.75236091) (0.60320642,0.60095656,0.62146222) (0.60095656,0.60095656,0.63424899)
(0.60095656,0.60095656,0.65250374) (0.60095656,0.60095656,0.63062449) (0.60353262,0.60098181,0.60101153) (0.60095656,0.60095656,0.70193481) (0.60755935,0.60095656,0.61988390) (0.60095656,0.60095656,0.61240226)
(0.60095656,0.60095656,0.63322556) (0.60095656,0.60095656,0.65339636) (0.60159073,0.60099301,0.60165506) (0.60095656,0.60095656,0.76771124) (0.60418809,0.60095656,0.60098663) (0.60095656,0.60095656,0.62840706)
(0.60095656,0.60095656,0.60419602) (0.60095656,0.60095656,0.60163879) (0.60355493,0.60099328,0.60907358) (0.60095656,0.60095656,0.60146603) (0.60796501,0.60095656,0.65018232) (0.60095656,0.60095656,0.60227547)
(0.60095656,0.60095656,0.60710541) (0.60095656,0.60095656,0.61480885) (0.60126626,0.80497118,0.60292058) (0.60095656,0.60095656,0.63160430) (0.60354270,0.90168360,0.67281686) (0.60095656,0.60095656,0.60159062)
(0.60095656,0.60095656,0.66124798) (0.60095656,0.60095656,0.65899289) (0.60132103,0.94969706,0.61123646) (0.60095656,0.60095656,0.81972995) (0.60383290,0.99217095,0.77814186) (0.60095656,0.60095656,0.65096244)
(0.60095656,0.60095656,0.61829821) (0.60095656,0.60095656,0.61924466) (0.60170964,0.60151868,0.60700691) (0.60095656,0.60095656,0.70156812) (0.60510109,0.60095656,0.62109687) (0.60095656,0.60095656,0.61186486)
(0.60095656,0.60095656,0.60188596) (0.60095656,0.60095656,0.60374481) (0.60103937,0.60193441,0.60582588) (0.60095656,0.60095656,0.60226551) (0.60304311,0.60095656,0.73207566) (0.60095656,0.60095656,0.61440284)
(0.60095656,0.60095656,0.67282021) (0.60095656,0.60095656,0.66343983) (0.60097434,0.60246243,0.60096832) (0.60095656,0.60095656,0.79944567) (0.60196445,0.60095656,0.60219033) (0.60095656,0.60095656,0.62862313)
(0.60095656,0.60095656,0.60331970) (0.60095656,0.60095656,0.61570033) (0.60097878,0.93887811,0.60302920) (0.60095656,0.60095656,0.66372330) (0.60181278,0.98729584,0.62688721) (0.60095656,0.60095656,0.60263038)
(0.60095656,0.60095656,0.60148399) (0.60095656,0.60095656,0.61013041) (0.60099970,0.94440957,0.60711147) (0.60095656,0.60095656,0.60110455) (0.60269033,0.98924237,0.61146858) (0.60095656,0.60095656,0.65515925)
(0.60095656,0.60095656,0.62416544) (0.60095656,0.60095656,0.63275179) (0.60099476,0.94373619,0.60553016) (0.60095656,0.60095656,0.63392290) (0.60260319,0.98762992,0.61164059) (0.60095656,0.60095656,0.60828427)
(0.60095656,0.60095656,0.72571368) (0.60095656,0.60095656,0.60318029) (0.60121951,0.60254738,0.60133009) (0.60095656,0.60095656,0.60716482) (0.60118116,0.60098149,0.64882893) (0.60095656,0.60095656,0.63117867)
(0.60095656,0.60095656,0.81944709) (0.60095656,0.60095656,0.60144217) (0.60098229,0.60307464,0.60105908) (0.60095656,0.60095656,0.61520342) (0.60170104,0.60095656,0.60351592) (0.60095656,0.60095656,0.60254806)
(0.60095656,0.60095656,0.79696840) (0.60095656,0.60095656,0.61325768) (0.60129986,0.60287149,0.60096115) (0.60095656,0.60095656,0.60096776) (0.60110810,0.60095656,0.61460110) (0.60095656,0.60095656,0.64327807)
(0.60095656,0.60095656,0.67547415) (0.60095656,0.60095656,0.61056711) (0.60097191,0.94353810,0.60394508) (0.60095656,0.60095656,0.75461557) (0.60200670,0.98779308,0.71491441) (0.60095656,0.60095656,0.60403882)
(0.60095656,0.60095656,0.90733877) (0.60095656,0.60095656,0.60140188) (0.60161488,0.94373928,0.60154720) (0.60095656,0.60095656,0.69043990) (0.60109734,0.98770380,0.60707781) (0.60095656,0.60095656,0.60284159)
(0.60095656,0.60095656,0.70262573) (0.60095656,0.60095656,0.60122906) (0.60103198,0.60306151,0.60290416) (0.60095656,0.60095656,0.60211640) (0.60311611,0.60095673,0.65650307) (0.60095656,0.60095656,0.64959321)
(0.60095656,0.60095656,0.71887282) (0.60095656,0.60095656,0.61292079) (0.60154554,0.60330419,0.60102683) (0.60095656,0.60095656,0.69913683) (0.60098437,0.60095656,0.61442564) (0.60095656,0.60095656,0.63000029)
(0.60095656,0.60095656,0.72564152) (0.60095656,0.60095656,0.60795976) (0.60102141,0.93659128,0.60180584) (0.60095656,0.60095656,0.68602118) (0.60151594,0.98389039,0.75733000) (0.60095656,0.60095656,0.60759951)
(0.60095656,0.60095656,0.67609917) (0.60095656,0.60095656,0.60107190) (0.60127754,0.93078335,0.60113634) (0.60095656,0.60095656,0.60153346) (0.60109870,0.98264111,0.63278798) (0.60095656,0.60095656,0.60095656)
(0.60095656,0.60095656,0.62801076) (0.60095656,0.60095656,0.60163691) (0.60097354,0.93053850,0.60524811) (0.60095656,0.60095656,0.61378565) (0.60237516,0.98108972,0.72593076) (0.60095656,0.60095656,0.63573763)
(0.60095656,0.60095656,0.60212785) (0.60095656,0.60095656,0.60106514) (0.60169812,0.60896719,0.60199929) (0.60095656,0.60095656,0.60525473) (0.60095656,0.60095656,0.60967075) (0.60095656,0.60095656,0.60547173)
(0.60095656,0.60095656,0.65088284) (0.60095656,0.60095656,0.60480105) (0.60121644,0.63259867,0.60211717) (0.60095656,0.60095656,0.60144793) (0.60367465,0.60095656,0.72104747) (0.60095656,0.60095656,0.61748049)
(0.60095656,0.60095656,0.62803818) (0.60095656,0.60095656,0.60325533) (0.60099043,0.66898287,0.60191779) (0.60095656,0.60095656,0.60143042) (0.60163365,0.60095656,0.66973728) (0.60095656,0.60095656,0.60117967)
(0.60095656,0.60095656,0.60096247) (0.60095656,0.60095656,0.60171652) (0.60096380,0.71152813,0.60377097) (0.60095656,0.60095656,0.60098562) (0.60232555,0.60095656,0.77761088) (0.60095656,0.60095656,0.72065708)
(0.60095656,0.60095656,0.60865490) (0.60095656,0.60095656,0.62466411) (0.60105813,0.75788673,0.60271074) (0.60095656,0.60095656,0.60095656) (0.60314816,0.60095656,0.67113084) (0.60095656,0.60095656,0.67768123)
(0.60095656,0.60095656,0.60870251) (0.60095656,0.60095656,0.60103215) (0.60297130,0.78142423,0.60711980) (0.60095656,0.60095656,0.60723697) (0.60911494,0.60095656,0.78971376) (0.60095656,0.60095656,0.65485456)
(0.60095656,0.60095656,0.60688419) (0.60095656,0.60095656,0.68262689) (0.64283031,0.80454988,0.60105617) (0.60095656,0.60095656,0.61768517) (0.65283197,0.60095656,0.61201088) (0.60095656,0.60095656,0.60109986)
(0.60095656,0.60095656,0.85879852) (0.60095656,0.60095656,0.90226924) (0.91341408,0.81448400,0.60593624) (0.60095656,0.60095656,0.87524775) (0.96333092,0.60095656,0.98307920) (0.60095656,0.60095656,0.66316693)
(0.60095656,0.60095656,0.61145932) (0.60095656,0.60095656,0.71555660) (0.90499998,0.77813855,0.62266782) (0.60095656,0.60095656,0.63036922) (0.95921178,0.61053436,0.77833293) (0.60095656,0.60095656,0.60097477)
(0.60095656,0.60095656,0.99923487) (0.60095656,0.60095656,0.99997153) (0.91120160,0.84108526,0.99971703) (0.60095656,0.60095656,0.94952245) (0.95710956,0.60095656,0.70216850) (0.60095656,0.60095656,0.94193301)
(0.60095656,0.60095656,0.97142241) (0.60095656,0.60095656,0.97578540) (0.91125090,0.85730575,0.74164467) (0.60095656,0.60095656,0.73528486) (0.95711826,0.60095656,0.84213518) (0.60095656,0.60095656,0.77571252)
(0.60095656,0.60095656,0.68393886) (0.60095656,0.60095656,0.99946527) (0.90935757,0.87602659,0.91975764) (0.60095656,0.60095656,0.98327639) (0.95016586,0.60095656,0.86785118) (0.60095656,0.60095656,0.97335717)
(1.00000000,0.60095656,0.99999997) (0.60095656,0.60095656,0.98642008) (0.86624574,0.89327695,0.71487993) (0.60095656,0.60095656,0.86734047) (0.94344866,0.60095656,0.98084031) (0.60095656,0.60095656,0.73710449)
(1.00000000,1.00000000,0.61444773) (0.60095656,0.60095656,0.97170096) (0.79491571,0.90028293,0.60783818) (0.60095656,0.60095656,0.81798650) (0.93674698,0.60095656,0.96829568) (0.60095656,0.60095656,0.80053909)
(1.00000000,1.00000000,0.94467144) (0.60095656,0.60095656,0.99713723) (0.80089218,0.92238554,0.66482191) (0.60095656,0.60095656,0.88440601) (0.93032679,0.60095656,0.97703840) (0.60095656,0.60095656,0.95277643)
(1.00000000,0.60095656,0.99171682) (0.60095656,0.60095656,0.99906876) (0.83574757,0.93235743,0.83293202) (0.60095656,0.60095656,0.96085131) (0.92448486,0.60095656,0.97757736) (0.60095656,0.60095656,0.94101322)
(1.00000000,0.60095656,0.81673848) (0.60095656,0.60095656,0.99648220) (0.87818894,0.94109822,0.66628697) (0.60095656,0.60095656,0.94587172) (0.91895758,0.60095656,0.99359043) (0.60095656,0.60095656,0.92005428)
(0.60095656,0.60095656,0.83113879) (0.60095656,0.60095656,0.98904852) (0.89950792,0.94503825,0.65574874) (0.60095656,0.60095656,0.87675536) (0.91337814,0.60095656,0.98187539) (0.60095656,0.60095656,0.91615512)
(0.60095656,0.60095656,0.82519687) (0.60095656,0.60095656,0.91671123) (0.89569907,0.94871016,0.60112534) (0.60095656,0.60095656,0.68961206) (0.90557436,0.60095669,0.96936364) (0.60095656,0.60095656,0.86900810)
(0.60095656,0.60095656,0.83216615) (0.60095656,0.60095656,0.90917476) (0.77565114,0.76697662,0.60098241) (0.60095656,0.60095656,0.60717865) (0.77658558,0.77157062,0.92995408) (0.60095656,0.60095656,0.78759829)
(0.60095656,0.60095656,0.82079617) (0.60095656,0.60095656,0.63895437) (0.63404507,0.95172195,0.60252006) (0.60095656,0.60095656,0.75720845) (0.62927784,0.60095656,0.92759246) (0.60095656,0.60095656,0.95595306)
(0.60095656,0.60095656,0.66311401) (0.60095656,0.60095656,0.69161679) (0.61023688,0.95261050,0.60481437) (0.60095656,0.60095656,0.71974671) (0.60677153,0.60095656,0.69261362) (0.60095656,0.60095656,0.93075788)
(0.60095656,0.60095656,0.70048594) (0.60095656,0.60095656,0.71437898) (0.60923858,0.61354242,0.60153887) (0.60095656,0.60095656,0.82547104) (0.60578429,0.93426175,0.75112169) (0.60095656,0.60095656,0.97598997)
(0.60095656,0.60095656,0.69574745) (0.60095656,0.60095656,0.69315141) (0.60108141,0.60095684,0.60112999) (0.60095656,0.60095656,0.66765140) (0.60218118,0.96103837,0.60099822) (0.60095656,0.60095656,0.84802474)
(0.60095656,0.60095656,0.90029991) (0.60095656,0.60095656,0.64397202) (0.60095856,0.95371659,0.60105834) (0.60095656,0.60095656,0.70096107) (0.60156383,0.60095661,0.75226497) (0.60095656,0.60095656,0.96360163)
(0.60095656,0.60095656,0.72309400) (0.60095656,0.60095656,0.60125456) (0.60099996,0.95392317,0.60111438) (0.60095656,0.60095656,0.60177350) (0.60116695,0.60095656,0.66320070) (0.60095656,0.60095656,0.87878294)
(0.60095656,0.60095656,0.76626566) (0.60095656,0.60095656,0.60097733) (0.60262642,0.95408903,0.60100644) (0.60095656,0.60095656,0.60095656) (0.60141341,0.60095656,0.73158165) (0.60095656,0.60095656,0.93679121)
(0.60095656,0.60095656,0.62221359) (0.60095656,0.60095656,0.60782482) (0.60096059,0.60095660,0.60121555) (0.60095656,0.60095656,0.62122459) (0.60123447,0.95878584,0.60781543) (0.60095656,0.60095656,0.84092077)
(0.60095656,0.60095656,0.79254366) (0.60095656,0.60095656,0.65850883) (0.60223923,0.63846874,0.60107998) (0.60095656,0.60095656,0.76344951) (0.60122684,0.90136589,0.68038360) (0.60095656,0.60095656,0.94066594)
(0.60095656,0.60095656,0.81366593) (0.60095656,0.60095656,0.67923534) (0.60115999,0.95448428,0.60103020) (0.60095656,0.60095656,0.80392082) (0.60097385,0.60095656,0.64398128) (0.60095656,0.60095656,0.91185807)
(0.60095656,0.60095656,0.87884469) (0.60095656,0.60095656,0.60807622) (0.60474945,0.60095656,0.60097706) (0.60095656,0.60095656,0.88202193) (0.60268147,0.95757342,0.79903790) (0.60095656,0.60095656,0.94600530)
(0.60095656,0.60095656,0.80787351) (0.60095656,0.60095656,0.60134351) (0.60122568,0.86496424,0.60096439) (0.60095656,0.60095656,0.67080730) (0.60095916,0.67179396,0.66168175) (0.60095656,0.60095656,0.84079218)
(0.60095656,0.60095656,0.78464447) (0.60095656,0.60095656,0.60490046) (0.60190780,0.95535278,0.60095660) (0.60095656,0.60095656,0.60096351) (0.60110771,0.60095656,0.65366312) (0.60095656,0.60095656,0.85439654)
(0.60095656,0.60095656,0.62071238) (0.60095656,0.60095656,0.60096535) (0.60113906,0.60095656,0.60096599) (0.60095656,0.60095656,0.65116364) (0.60097258,0.95627488,0.63643801) (0.60095656,0.60095656,0.61294844)
(0.60095656,0.60095656,0.96054834) (0.60095656,0.60095656,0.82462736) (0.60219400,0.60095656,0.60285627) (0.60095656,0.60095656,0.92943164) (0.60122366,0.95588180,0.60126319) (0.60095656,0.60095656,0.74171633)
(0.60095656,0.60095656,0.77768200) (0.60095656,0.60095656,0.60223572) (0.60236863,0.95592572,0.60127139) (0.60095656,0.60095656,0.91102030) (0.60129095,0.60095656,0.60200966) (0.60095656,0.60095656,0.62950182)
(0.60095656,0.60095656,0.97483925) (0.60095656,0.60095656,0.60978019) (0.60889762,0.95612376,0.60106641) (0.60095656,0.60095656,0.87525623) (0.60528168,0.60095656,0.62898708) (0.60095656,0.60095656,0.71834217)
(0.60095656,0.60095656,0.65883965) (0.60095656,0.60095656,0.71758251) (0.60386539,0.60095656,0.60105792) (0.60095656,0.60095656,0.60674537) (0.60203246,0.95479277,0.61098485) (0.60095656,0.60095656,0.60224758)
(0.60095656,0.60095656,0.85621958) (0.60095656,0.60095656,0.64155433) (0.60373156,0.94549355,0.60240992) (0.60095656,0.60095656,0.73897972) (0.60193818,0.60330709,0.60166465) (0.60095656,0.60095656,0.63770661)
(0.60095656,0.60095656,0.79183179) (0.60095656,0.60095656,0.60256338) (0.60194467,0.60095656,0.60095656) (0.60095656,0.60095656,0.74111716) (0.60107307,0.95398355,0.61626661) (0.60095656,0.60095656,0.60969641)
(0.60095656,0.60095656,0.89886607) (0.60095656,0.60095656,0.62109754) (0.60635680,0.60095656,0.60097797) (0.60095656,0.60095656,0.69536218) (0.60324037,0.95397082,0.60095716) (0.60095656,0.60095656,0.74667422)
(0.60095656,0.60095656,0.62556519) (0.60095656,0.60095656,0.60780617) (0.60397052,0.95738065,0.60160157) (0.60095656,0.60095656,0.95885349) (0.60192221,0.60095667,0.63009542) (0.60095656,0.60095656,0.60396709)
(0.60095656,0.60095656,0.60379202) (0.60095656,0.60095656,0.60801337) (0.60648661,0.95759972,0.60313009) (0.60095656,0.60095656,0.66715342) (0.60333834,0.60095668,0.60694148) (0.60095656,0.60095656,0.67098448)
(0.60095656,0.60095656,0.66585164) (0.60095656,0.60095656,0.78137756) (0.60225878,0.60095656,0.60136798) (0.60095656,0.60095656,0.60657305) (0.60113815,0.95278558,0.68085812) (0.60095656,0.60095656,0.60744681)
(0.60095656,0.60095656,0.70856349) (0.60095656,0.60095656,0.66637131) (0.60443109,0.95679849,0.60162423) (0.60095656,0.60095656,0.60125411) (0.60204661,0.60096099,0.62460116) (0.60095656,0.60095656,0.62879886)
(0.60095656,0.60095656,0.61919523) (0.60095656,0.60095656,0.71047063) (0.60173315,0.95826940,0.60113623) (0.60095656,0.60095656,0.61167206) (0.60098677,0.60098084,0.62567536) (0.60095656,0.60095656,0.62792812)
(0.60095656,0.60095656,0.66313776) (0.60095656,0.60095656,0.75470752) (0.60251962,0.95849630,0.60150166) (0.60095656,0.60095656,0.73643846) (0.60121288,0.60099180,0.60709329) (0.60095656,0.60095656,0.66272914)
(0.60095656,0.60095656,0.61674499) (0.60095656,0.60095656,0.67738394) (0.60163559,0.95027795,0.60200045) (0.60095656,0.60095656,0.64822854) (0.60097667,0.60202026,0.61108235) (0.60095656,0.60095656,0.69973312)
(0.60095656,0.60095656,0.62201851) (0.60095656,0.60095656,0.77775221) (0.60095668,0.60095656,0.60108380) (0.60095656,0.60095656,0.60585276) (0.60126864,0.95087564,0.61675316) (0.60095656,0.60095656,0.60816305)
(0.60095656,0.60095656,0.61065656) (0.60095656,0.60095656,0.73523735) (0.60098515,0.95773876,0.60105383) (0.60095656,0.60095656,0.64887459) (0.60151405,0.60122337,0.63341798) (0.60095656,0.60095656,0.60120089)
(0.60095656,0.60095656,0.62465474) (0.60095656,0.60095656,0.69923213) (0.60142310,0.95895483,0.60101392) (0.60095656,0.60095656,0.76941171) (0.60095656,0.60263547,0.60415124) (0.60095656,0.60095656,0.61707086)
(0.60095656,0.60095656,0.66591389) (0.60095656,0.60095656,0.68947343) (0.60126502,0.95895483,0.60146319) (0.60095656,0.60095656,0.69636582) (0.60096863,0.60304794,0.61010781) (0.60095656,0.60095656,0.62348860)
(0.60095656,0.60095656,0.67188949) (0.60095656,0.60095656,0.66893756) (0.60131848,0.60357216,0.60189386) (0.60095656,0.60095656,0.66531806) (0.60096853,0.91969624,0.64437130) (0.60095656,0.60095656,0.60770107)
(0.60095656,0.60095656,0.64091912) (0.60095656,0.60095656,0.83348308) (0.60099130,0.60095656,0.60168661) (0.60095656,0.60095656,0.62762664) (0.60118157,0.89766493,0.63008278) (0.60095656,0.60095656,0.61602039)
(0.60095656,0.60095656,0.65823340) (0.60095656,0.60095656,0.76623803) (0.60137486,0.60095656,0.60190047) (0.60095656,0.60095656,0.68536872) (0.60096235,0.89766493,0.63241551) (0.60095656,0.60095656,0.60424431)
(0.60095656,0.60095656,0.67353492) (0.60095656,0.60095656,0.73124981) (0.60145561,0.60095686,0.60120550) (0.60095656,0.60095656,0.67351693) (0.60095715,0.89761799,0.62069369) (0.60095656,0.60095656,0.60123908)
(0.60095656,0.60095656,0.64664226) (0.60095656,0.60095656,0.72946638) (0.60234998,0.60095656,0.60276020) (0.60095656,0.60095656,0.66352077) (0.60110776,0.89781617,0.63128022) (0.60095656,0.60095656,0.61103018)
(0.60095656,0.60095656,0.61669783) (0.60095656,0.60095656,0.66481721) (0.60178731,0.60095656,0.60150233) (0.60095656,0.60095656,0.71640547) (0.60098003,0.81759668,0.70734311) (0.60095656,0.60095656,0.60098329)
(0.60095656,0.60095656,0.98894664) (0.60095656,0.60095656,0.99102756) (0.93043495,0.60095656,0.93095299) (0.60095656,0.60095656,0.94311176) (0.84575327,0.71036374,0.83132553) (0.60095656,0.60095656,0.95323586)
(0.60095656,0.60095656,0.98330563) (0.60095656,0.60095656,0.99045529) (0.93050660,0.60095656,0.91800492) (0.60095656,0.60095656,0.93102585) (0.84634517,0.71036374,0.83856286) (0.60095656,0.60095656,0.94941515)
(0.60095656,0.60095656,0.94151868) (0.60095656,0.60095656,0.96623651) (0.93050660,0.60095656,0.92237349) (0.60095656,0.60095656,0.95866509) (0.84681363,0.77989491,0.78735035) (0.60095656,0.60095656,0.97392695)
(0.60095656,0.60095656,0.94629668) (0.60095656,0.60095656,0.97718641) (0.92881397,0.60095656,0.93263683) (0.60095656,0.60095656,0.99165798) (0.84584772,0.81291538,0.76827179) (0.60095656,0.60095656,0.93768665)
(0.60095656,0.60095656,0.98303804) (0.60095656,0.60095656,0.98054198) (0.92818567,0.60095656,0.91495107) (0.60095656,0.60095656,0.98617309) (0.84464740,0.83952666,0.89415607) (0.60095656,0.60095656,0.96810352)
(0.60095656,0.60095656,0.98646768) (0.60095656,0.60095656,0.98863681) (0.92752508,0.60095656,0.92533736) (0.60095656,0.60095656,0.97431433) (0.84312382,0.86757694,0.89263860) (0.60095656,0.60095656,0.96816148)
(0.60095656,0.60095656,0.94052264) (0.60095656,0.60095656,0.98952949) (0.92648048,0.60095656,0.91909306) (0.60095656,0.60095656,0.90089855) (0.84117050,0.88549935,0.88916693) (0.60095656,0.60095656,0.97557375)
(0.60095656,0.60095656,0.66677472) (0.60095656,0.60095656,0.99490365) (0.92574730,0.60095656,0.93192009) (0.60095656,0.60095656,0.95784971) (0.83909417,0.88549933,0.87714433) (0.60095656,0.60095656,0.98221132)
(0.60095656,0.60095656,0.75206980) (0.60095656,0.60095656,0.98834692) (0.92488786,0.60095656,0.91555384) (0.60095656,0.60095656,0.96531018) (0.83720594,0.90725927,0.83014414) (0.60095656,0.60095656,0.94693086)
(0.60095656,0.60095656,0.66642802) (0.60095656,0.60095656,0.98123678) (0.92370761,0.60095656,0.87411350) (0.60095656,0.60095656,0.98807707) (0.83516259,0.90725927,0.85542295) (0.60095656,0.60095656,0.95602871)
(0.60095656,0.60095656,0.82205489) (0.60095656,0.60095656,0.96955437) (0.92315546,0.60095656,0.80871784) (0.60095656,0.60095656,0.93072839) (0.83332525,0.93104068,0.86653215) (0.60095656,0.60095656,0.96740865)
(0.60095656,0.60095656,0.80675740) (0.60095656,0.60095656,0.99261702) (0.92209584,0.60095656,0.73154401) (0.60095656,0.60095656,0.87657094) (0.83155277,0.93104068,0.89269174) (0.60095656,0.60095656,0.93257740)
(0.60095656,0.60095656,0.73217815) (0.60095656,0.60095656,0.98611962) (0.92159898,0.60095656,0.66059395) (0.60095656,0.60095656,0.91998811) (0.82981663,0.94387848,0.85192299) (0.60095656,0.60095656,0.92390504)
(0.60095656,0.60095656,0.64374631) (0.60095656,0.60095656,0.99288690) (0.92100259,0.60095656,0.61413028) (0.60095656,0.60095656,0.89714794) (0.82813375,0.94913473,0.84458895) (0.60095656,0.60095656,0.89473623)
(0.60095656,0.60095656,0.70561142) (0.60095656,0.60095656,0.96784689) (0.92010125,0.60095656,0.60273949) (0.60095656,0.60095656,0.90917692) (0.82650137,0.95112135,0.84160194) (0.60095656,0.60095656,0.92595453)
(0.60095656,0.60095656,0.86127797) (0.60095656,0.60095656,0.91643730) (0.91970153,0.60095656,0.60095712) (0.60095656,0.60095656,0.95033693) (0.82490772,0.95218644,0.88913148) (0.60095656,0.60095656,0.95214754)
(0.60095656,0.60095656,0.87738426) (0.60095656,0.60095656,0.91588912) (0.91930441,0.60095656,0.60412348) (0.60095656,0.60095656,0.97773906) (0.82335345,0.95286214,0.82516656) (0.60095656,0.60095656,0.90662795)
(0.60095656,0.60095656,0.84691829) (0.60095656,0.60095656,0.95872569) (0.91773349,0.60095656,0.60116004) (0.60095656,0.60095656,0.93107971) (0.82185641,0.95322726,0.84861852) (0.60095656,0.60095656,0.85516091)
(0.60095656,0.60095656,0.88803957) (0.60095656,0.60095656,0.93314382) (0.73003961,0.60095656,0.60205860) (0.60095656,0.60095656,0.82853020) (0.82039902,0.95363831,0.83118806) (0.60095656,0.60095656,0.90800799)
(0.60095656,0.60095656,0.84709964) (0.60095656,0.60095656,0.91913400) (0.60095656,0.60095656,0.60096218) (0.60095656,0.60095656,0.89369961) (0.81898862,0.95363831,0.86408018) (0.60095656,0.60095656,0.91675313)
(0.60095656,0.60095656,0.62515024) (0.60095656,0.60095656,0.94134060) (0.60095656,0.60095656,0.60132443) (0.60095656,0.60095656,0.95667652) (0.81761539,0.95324766,0.90792465) (0.60095656,0.60095656,0.95116642)
(0.60095656,0.60095656,0.73369237) (0.60095656,0.60095656,0.90364256) (0.60095656,0.60095656,0.60111533) (0.60095656,0.60095656,0.98129948) (0.81629522,0.95372766,0.91665855) (0.60095656,0.60095656,0.94230116)
(0.60095656,0.60095656,0.84361252) (0.60095656,0.60095656,0.93753969) (0.60095656,0.60095656,0.60146792) (0.60095656,0.60095656,0.90751085) (0.81499668,0.95420238,0.88314403) (0.60095656,0.60095656,0.88114774)
(0.60095656,0.60095656,0.95338676) (0.60095656,0.60095656,0.95120923) (0.60095656,0.60095656,0.60142876) (0.60095656,0.60095656,0.92203326) (0.81374864,0.95470734,0.83958729) (0.60095656,0.60095656,0.69899918)
(0.60095656,0.60095656,0.95732180) (0.60095656,0.60095656,0.93352638) (0.60095656,0.60095656,0.60365614) (0.60095656,0.60095656,0.80078981) (0.86682978,0.60095656,0.83044733) (0.60095656,0.60095656,0.79702718)
(0.60095656,0.60095656,0.98783915) (0.60095656,0.60095656,0.81167953) (0.60095656,0.60095656,0.60182448) (0.60095656,0.60095656,0.90377700) (0.81135115,0.95482872,0.79874866) (0.60095656,0.60095656,0.76122524)
(0.60095656,0.60095656,0.62117113) (0.60095656,0.60095656,0.84705016) (0.60095656,0.60095656,0.62464617) (0.60095656,0.60095656,0.64128357) (0.86443945,0.60095656,0.99785770) (0.60095656,0.60095656,0.66944720)
(0.60095656,0.60095656,0.60687680) (0.60095656,0.60095656,0.69443230) (0.60095656,0.60095656,0.61479745) (0.60095656,0.60095656,0.60218765) (0.86328546,0.60095656,0.97581931) (0.60095656,0.60095656,0.63060130)
(0.60095656,0.60095656,0.99795947) (0.60095656,0.60095656,0.99998678) (0.92960373,0.60095656,0.99885591) (0.60095656,0.60095656,0.99259076) (0.60097347,0.60095656,0.64785030) (0.60095656,0.60095656,0.99110611)
(0.60095656,0.60095656,0.99666840) (0.60095656,0.60095656,0.99861949) (0.99609364,0.98441987,0.96705879) (0.60095656,0.60095656,0.97648699) (0.74184156,0.95666690,0.86517085) (0.60095656,0.60095656,0.95952485)
(1.00000000,0.99999989,0.99470035) (0.60095656,0.60095656,0.99972089) (0.99701313,0.60095656,0.85509040) (0.60095656,0.60095656,0.96921815) (0.76255148,0.60095683,0.92744360) (0.60095656,0.60095656,0.91871007)
(1.00000000,0.60095656,0.89574969) (0.60095656,0.60095656,0.93151989) (0.98636118,0.60095656,0.60144301) (0.60095656,0.60095656,0.78164932) (0.73465053,0.60095656,0.98592519) (0.60095656,0.60095656,0.72396670)
(1.00000000,1.00000000,1.00000000) (0.60095656,0.60095656,0.69545897) (0.97644709,0.60095656,0.87221823) (0.60095656,0.60095656,0.72758389) (0.71421905,0.65130652,0.99976475) (0.60095656,0.60095656,0.77286404)
(1.00000000,0.60095656,1.00000000) (0.60095656,0.60095656,0.74685071) (0.98332780,0.98559572,0.80791560) (0.60095656,0.60095656,0.61797008) (0.72350261,0.95729503,0.99966082) (0.60095656,0.60095656,0.71832254)
(1.00000000,1.00000000,0.99760346) (0.60095656,0.60095656,0.99788799) (0.99182678,0.98342494,0.79279692) (0.60095656,0.60095656,0.98767891) (0.74794695,0.95801114,0.95310010) (0.60095656,0.60095656,0.93301500)
(1.00000000,0.60095656,0.79073510) (0.60095656,0.60095656,0.99975398) (0.99662916,0.75872951,0.93376501) (0.60095656,0.60095656,0.91595114) (0.75388611,0.71202733,0.86657606) (0.60095656,0.60095656,0.89573101)
(0.60095656,0.60095656,0.99997524) (0.60095656,0.60095656,0.99999948) (0.93698736,0.60095656,0.99921247) (0.60095656,0.60095656,0.99332138) (0.60138504,0.60095656,0.77282749) (0.60095656,0.60095656,0.99529605)
(0.60095656,0.60095656,0.60505767) (0.60095656,0.60095656,0.68124145) (0.60095656,0.60095656,0.61512674) (0.60095656,0.60095656,0.60390998) (0.85134577,0.60095656,0.95629721) (0.60095656,0.60095656,0.64643137)
(0.60095656,0.60095656,0.62113310) (0.60095656,0.60095656,0.61264798) (0.60095656,0.60095656,0.61534032) (0.60095656,0.60095656,0.64752976) (0.85006973,0.60095656,0.83827216) (0.60095656,0.60095656,0.60124397)
(0.60095656,0.60095656,0.60143345) (0.60095656,0.60095656,0.69244625) (0.60095656,0.60095656,0.61425738) (0.60095656,0.60095656,0.65941611) (0.84871879,0.60095656,0.92798126) (0.60095656,0.60095656,0.62903192)
(0.60095656,0.60095656,0.88284970) (0.60095656,0.60095656,0.88652105) (0.60095656,0.60095656,0.60147729) (0.60095656,0.60095656,0.83327094) (0.84693892,0.60095656,0.93236031) (0.60095656,0.60095656,0.80773301)
(0.60095656,0.60095656,0.60110862) (0.60095656,0.60095656,0.64772723) (0.60095656,0.60095656,0.61315906) (0.60095656,0.60095656,0.61862213) (0.84524250,0.60095656,0.64190612) (0.60095656,0.60095656,0.62912300)
(0.60095656,0.60095656,0.82101937) (0.60095656,0.60095656,0.65453362) (0.60095656,0.60095656,0.61000256) (0.60095656,0.60095656,0.66739590) (0.84414044,0.60095656,0.61813218) (0.60095656,0.60095656,0.60096116)
(0.60095656,0.60095656,0.60192755) (0.60095656,0.60095656,0.61238512) (0.60095656,0.60095656,0.61622134) (0.60095656,0.60095656,0.62469483) (0.84227975,0.60095656,0.80202975) (0.60095656,0.60095656,0.60098436)
(0.60095656,0.60095656,0.64950170) (0.60095656,0.60095656,0.60384620) (0.60095656,0.60095656,0.61272742) (0.60095656,0.60095656,0.60121008) (0.83755926,0.60095656,0.71364125) (0.60095656,0.60095656,0.61032478)
(0.60095656,0.60095656,0.62430151) (0.60095656,0.60095656,0.61386615) (0.60095656,0.60095656,0.61711257) (0.60095656,0.60095656,0.68449592) (0.67955291,0.60095656,0.68954288) (0.60095656,0.60095656,0.67245719)
(0.60095656,0.60095656,0.75492721) (0.60095656,0.60095656,0.60398571) (0.60095656,0.60095656,0.61595208) (0.60095656,0.60095656,0.68613647) (0.60095656,0.60095656,0.67751994) (0.60095656,0.60095656,0.60326465)
(0.60095656,0.60095656,0.67285091) (0.60095656,0.60095656,0.69980299) (0.60095656,0.60095656,0.60310319) (0.60095656,0.60095656,0.64522057) (0.60095656,0.60095656,0.63119032) (0.60095656,0.60095656,0.60344515)
(0.60095656,0.60095656,0.70660707) (0.60095656,0.60095656,0.62001516) (0.60095656,0.60095656,0.60365776) (0.60095656,0.60095656,0.62603443) (0.60095656,0.60095656,0.73755412) (0.60095656,0.60095656,0.61366327)
(0.60095656,0.60095656,0.63103001) (0.60095656,0.60095656,0.60859312) (0.60095656,0.60095656,0.60458967) (0.60095656,0.60095656,0.61568509) (0.60095656,0.60095656,0.77346121) (0.60095656,0.60095656,0.60595266)
(0.60095656,0.60095656,0.63160905) (0.60095656,0.60095656,0.60240636) (0.60095656,0.60095656,0.60252788) (0.60095656,0.60095656,0.61367599) (0.60095656,0.60095656,0.70872977) (0.60095656,0.60095656,0.60425462)
(0.60095656,0.60095656,0.60814945) (0.60095656,0.60095656,0.62839906) (0.60095656,0.60095656,0.60132413) (0.60095656,0.60095656,0.67269081) (0.60095656,0.60095656,0.72632433) (0.60095656,0.60095656,0.60120925)
(0.60095656,0.60095656,0.60104611) (0.60095656,0.60095656,0.60367626) (0.60095656,0.60095656,0.60105294) (0.60095656,0.60095656,0.60095687) (0.60095656,0.60095656,0.72065733) (0.60095656,0.60095656,0.60377636)
(0.60095656,0.60095656,0.60389115) (0.60095656,0.60095656,0.72323232) (0.60095656,0.60095656,0.60455744) (0.60095656,0.60095656,0.83727243) (0.60095656,0.60095656,0.76026177) (0.60095656,0.60095656,0.62658400)
(0.60095656,0.60095656,0.62870237) (0.60095656,0.60095656,0.60407507) (0.60095656,0.60095656,0.60268386) (0.60095656,0.60095656,0.73831923) (0.60095656,0.60095656,0.86617027) (0.60095656,0.60095656,0.62083542)
(0.60095656,0.60095656,0.62746288) (0.60095656,0.60095656,0.61195711) (0.60095656,0.60095656,0.60147603) (0.60095656,0.60095656,0.60106696) (0.60095656,0.60095656,0.72469346) (0.60095656,0.60095656,0.60272088)
(0.60095656,0.60095656,0.74521250) (0.60095656,0.60095656,0.73623595) (0.60095656,0.60095656,0.60302898) (0.60095656,0.60095656,0.61526311) (0.60095656,0.60095656,0.71006304) (0.60095656,0.60095656,0.63497217)
(0.60095656,0.60095656,0.61595002) (0.60095656,0.60095656,0.62283567) (0.60095656,0.60095656,0.60095656) (0.60095656,0.60095656,0.62678250) (0.60095656,0.60095656,0.70243952) (0.60095656,0.60095656,0.60442503)
(0.60095656,0.60095656,0.63873442) (0.60095656,0.60095656,0.60129505) (0.60095656,0.60095656,0.60466611) (0.60095656,0.60095656,0.75112917) (0.60095656,0.60095656,0.81229830) (0.60095656,0.60095656,0.61672476)
(0.60095656,0.60095656,0.61465123) (0.60095656,0.60095656,0.64146478) (0.60095656,0.60095656,0.62256984) (0.60095656,0.60095656,0.66684852) (0.60095656,0.60095656,0.85190415) (0.60095656,0.60095656,0.64098170)
(0.60095656,0.60095656,0.67512379) (0.60095656,0.60095656,0.60101667) (0.60095656,0.60095656,0.61613644) (0.60095656,0.60095656,0.64682281) (0.60095656,0.60095656,0.80656814) (0.60095656,0.60095656,0.60129440)
(0.60095656,0.60095656,0.60095813) (0.60095656,0.60095656,0.66985494) (0.60095656,0.60095656,0.60230375) (0.60095656,0.60095656,0.62407713) (0.60095656,0.60095656,0.75435970) (0.60095656,0.60095656,0.63192543)
(0.60095656,0.60095656,0.61578354) (0.60095656,0.60095656,0.76678845) (0.60095656,0.60095656,0.60388948) (0.60095656,0.60095656,0.60703879) (0.60095656,0.60095656,0.77968117) (0.60095656,0.60095656,0.63723348)
(0.60095656,0.60095656,0.61204791) (0.60095656,0.60095656,0.62643803) (0.60095656,0.60095656,0.61178508) (0.60095656,0.60095656,0.65723543) (0.60095656,0.60095656,0.79831318) (0.60095656,0.60095656,0.60095876)
(0.60095656,0.60095656,0.60582128) (0.60095656,0.60095656,0.67112981) (0.60095656,0.60095656,0.60757739) (0.60095656,0.60095656,0.71389269) (0.60095656,0.60095656,0.74987869) (0.60095656,0.60095656,0.61580655)
(0.60095656,0.60095656,0.62133920) (0.60095656,0.60095656,0.61102771) (0.60095656,0.60095656,0.60679166) (0.60095656,0.60095656,0.60860405) (0.60095656,0.60095656,0.73263543) (0.60095656,0.60095656,0.60203518)
(0.60095656,0.60095656,0.62751593) (0.60095656,0.60095656,0.64841973) (0.60095656,0.60095656,0.60406443) (0.60095656,0.60095656,0.61808262) (0.60095656,0.60095656,0.71564639) (0.60095656,0.60095656,0.60588762)
(0.60095656,0.60095656,0.62515469) (0.60095656,0.60095656,0.61155720) (0.60095656,0.60095656,0.60217916) (0.60095656,0.60095656,0.64757222) (0.60095656,0.60095656,0.67528728) (0.60095656,0.60095656,0.63077742)
(0.60095656,0.60095656,0.67501653) (0.60095656,0.60095656,0.64052606) (0.60095656,0.60095656,0.60098787) (0.60095656,0.60095656,0.62521715) (0.60095656,0.60095656,0.64381035) (0.60095656,0.60095656,0.63580991)
(0.60095656,0.60095656,0.62173761) (0.60095656,0.60095656,0.61565149) (0.60095656,0.60095656,0.60315527) (0.60095656,0.60095656,0.66814813) (0.60095656,0.60095656,0.68317026) (0.60095656,0.60095656,0.60485941)
(0.60095656,0.60095656,0.60117203) (0.60095656,0.60095656,0.60101254) (0.60095656,0.60095656,0.60121953) (0.60095656,0.60095656,0.63376128) (0.60095656,0.60095656,0.67930319) (0.60095656,0.60095656,0.60126493)
(0.60095656,0.60095656,0.60541041) (0.60095656,0.60095656,0.61674071) (0.60095656,0.60095656,0.60265206) (0.60095656,0.60095656,0.62125398) (0.60095656,0.60095656,0.64874248) (0.60095656,0.60095656,0.60116564)
(0.60095656,0.60095656,0.75454020) (0.60095656,0.60095656,0.60148659) (0.60095656,0.60095656,0.60322122) (0.60095656,0.60095656,0.68656654) (0.60095656,0.60095656,0.63272184) (0.60095656,0.60095656,0.62968001)
(0.60095656,0.60095656,0.72928272) (0.60095656,0.60095656,0.61628151) (0.60095656,0.60095656,0.60260374) (0.60095656,0.60095656,0.78319900) (0.60095656,0.60095656,0.65845667) (0.60095656,0.60095656,0.60377033)
(0.60095656,0.60095656,0.60112900) (0.60095656,0.60095656,0.65785537) (0.60095656,0.60095656,0.60274903) (0.60095656,0.60095656,0.90289789) (0.60095656,0.60095656,0.69583645) (0.60095656,0.60095656,0.61370415)
(0.60095656,0.60095656,0.65258054) (0.60095656,0.60095656,0.60866198) (0.60095656,0.60095656,0.60436101) (0.60095656,0.60095656,0.78376616) (0.60095656,0.60095656,0.65717633) (0.60095656,0.60095656,0.60502379)
(0.60095656,0.60095656,0.76001782) (0.60095656,0.60095656,0.60634617) (0.60095656,0.60095656,0.60640020) (0.60095656,0.60095656,0.60870971) (0.60095656,0.60095656,0.63711702) (0.60095656,0.60095656,0.61291607)
(0.60095656,0.60095656,0.63195703) (0.60095656,0.60095656,0.62411155) (0.60095656,0.60095656,0.60258411) (0.60095656,0.60095656,0.62860979) (0.60095656,0.60095656,0.60713537) (0.60095656,0.60095656,0.60570796)
(0.60095656,0.60095656,0.60173916) (0.60095656,0.60095656,0.60098090) (0.60095656,0.60095656,0.60273568) (0.60095656,0.60095656,0.70335353) (0.60095656,0.60095656,0.69262374) (0.60095656,0.60095656,0.61274553)
(0.60095656,0.60095656,0.66744226) (0.60095656,0.60095656,0.60096530) (0.60095656,0.60095656,0.61305572) (0.60095656,0.60095656,0.74198139) (0.60095656,0.60095656,0.77218900) (0.60095656,0.60095656,0.69819353)
(0.60095656,0.60095656,0.73572063) (0.60095656,0.60095656,0.63478308) (0.60095656,0.60095656,0.60712547) (0.60095656,0.60095656,0.83029144) (0.60095656,0.60095656,0.76880285) (0.60095656,0.60095656,0.62302928)
(0.60095656,0.60095656,0.69787351) (0.60095656,0.60095656,0.60242044) (0.60095656,0.60095656,0.60741580) (0.60095656,0.60095656,0.79545226) (0.60095656,0.60095656,0.73053917) (0.60095656,0.60095656,0.64335200)
(0.60095656,0.60095656,0.72237435) (0.60095656,0.60095656,0.60916433) (0.60095656,0.60095656,0.60164641) (0.60095656,0.60095656,0.70900421) (0.60095656,0.60095656,0.66698907) (0.60095656,0.60095656,0.61476522)
(0.60095656,0.60095656,0.76073448) (0.60095656,0.60095656,0.60365617) (0.60095656,0.60095656,0.61508156) (0.60095656,0.60095656,0.60534663) (0.60095656,0.60095656,0.70849140) (0.60095656,0.60095656,0.73314714)
(0.60095656,0.60095656,0.79016277) (0.60095656,0.60095656,0.61486771) (0.60095656,0.60095656,0.61695240) (0.60095656,0.60095656,0.60150756) (0.60095656,0.60095656,0.76308323) (0.60095656,0.60095656,0.62745779)
(0.60095656,0.60095656,0.61191814) (0.60095656,0.60095656,0.61114205) (0.60095656,0.60095656,0.60245678) (0.60095656,0.60095656,0.60100780) (0.60095656,0.60095656,0.65834169) (0.60095656,0.60095656,0.63911900)
(0.60095656,0.60095656,0.85208405) (0.60095656,0.60095656,0.63542384) (0.60095656,0.60095656,0.60300278) (0.60095656,0.60095656,0.62572554) (0.60095656,0.60095656,0.60198666) (0.60095656,0.60095656,0.61071900)
(0.60095656,0.60095656,0.90821526) (0.60095656,0.60095656,0.61557348) (0.60095656,0.60095656,0.60718335) (0.60095656,0.60095656,0.77077155) (0.60095656,0.60095656,0.67427320) (0.60095656,0.60095656,0.68336969)
(0.60095656,0.60095656,0.97427271) (0.60095656,0.60095656,0.76481789) (0.60095656,0.60095656,0.60570185) (0.60095656,0.60095656,0.78648802) (0.60095656,0.60095656,0.89956836) (0.60095656,0.60095656,0.76544744)
(0.60095656,0.60095656,0.97695997) (0.60095656,0.60095656,0.89421089) (0.60095656,0.60095656,0.61604431) (0.60095656,0.60095656,0.65936549) (0.60095656,0.60095656,0.95338893) (0.60095656,0.60095656,0.82465310)
(0.60095656,0.60095656,0.61223245) (0.60095656,0.60095656,0.65056748) (0.60095656,0.60095656,0.60383090) (0.60095656,0.60095656,0.60263732) (0.60095656,0.60095656,0.60390655) (0.60095656,0.60095656,0.60340184)
(0.60095656,0.60095656,0.64965967) (0.60095656,0.60095656,0.66685940) (0.60095656,0.60095656,0.66133533) (0.60095656,0.60095656,0.68597707) (0.60095656,0.60095656,0.69257730) (0.60095656,0.60095656,0.62822841)
(0.60095656,0.60095656,0.66215005) (0.60095656,0.60095656,0.94390321) (0.60095656,0.60095656,0.78391567) (0.60095656,0.60095656,0.74393268) (0.60095656,0.60095656,0.99011511) (0.60095656,0.60095656,0.87559045)
(0.60095656,0.60095656,0.60509369) (0.60095656,0.60095656,0.70454167) (0.60095656,0.60095656,0.74832616) (0.60095656,0.60095656,0.60174071) (0.60095656,0.60095656,0.80378480) (0.60095656,0.60095656,0.64098123)
(0.60095656,0.60095656,0.99999998) (0.60095656,0.60095656,1.00000000) (0.99901174,0.60095656,1.00000000) (0.60095656,0.60095656,0.99997566) (0.88481340,0.60095656,0.60098043) (0.60095656,0.60095656,0.99999999)
(0.60095656,0.60095656,1.00000000) (0.60095656,0.60095656,1.00000000) (0.99999990,1.00000000,1.00000000) (0.60095656,0.60095656,1.00000000) (0.98010179,0.99459421,0.62217311) (0.60095656,0.60095656,1.00000000)
(0.60095656,0.60095656,0.85141374) (0.60095656,0.60095656,0.99999804) (0.99999999,1.00000000,1.00000000) (0.60095656,0.60095656,0.99969024) (0.98537190,0.99212018,0.71611694) (0.60095656,0.60095656,1.00000000)
(1.00000000,1.00000000,0.99689963) (0.60095656,0.60095656,0.99964383) (0.99999995,1.00000000,1.00000000) (0.60095656,0.60095656,0.99579460) (0.98364799,0.99459420,0.93665858) (0.60095656,0.60095656,0.92406054)
(1.00000000,1.00000000,0.97361722) (0.60095656,0.60095656,0.85300625) (0.99999987,0.60096467,0.91283615) (0.60095656,0.60095656,0.94211684) (0.98143997,0.60098399,0.98826753) (0.60095656,0.60095656,0.96195329)
(1.00000000,0.60095656,1.00000000) (0.60095656,0.60095656,0.60177180) (0.99999991,1.00000000,1.00000000) (0.60095656,0.60095656,0.69680317) (0.98144398,0.99459401,0.99745027) (0.60095656,0.60095656,0.60889374)
(1.00000000,0.63775561,0.63107571) (0.60095656,0.60095656,0.99711918) (1.00000000,1.00000000,0.99999716) (0.60095656,0.60095656,0.99477344) (0.98372461,0.99459401,0.97439591) (0.60095656,0.60095656,0.99919388)
(1.00000000,0.60095656,0.99909992) (0.60095656,0.60095656,1.00000000) (1.00000000,0.60095656,1.00000000) (0.60095656,0.60095656,0.99999998) (0.98688804,0.60095656,0.79795206) (0.60095656,0.60095656,1.00000000)
(0.60095656,0.60095656,0.99999844) (0.60095656,0.60095656,1.00000000) (1.00000000,1.00000000,1.00000000) (0.60095656,0.60095656,0.99999992) (0.97705570,0.60095656,0.73794934) (0.60095656,0.60095656,1.00000000)
(0.60095656,0.60095656,0.95380103) (0.60095656,0.60095656,0.89072536) (0.60095656,0.60095656,0.82196631) (0.60095656,0.60095656,0.89103732) (0.60095656,0.60095656,0.94031220) (0.60095656,0.60095656,0.95811693)
(0.60095656,0.60095656,0.66551599) (0.60095656,0.60095656,0.69130970) (0.60095656,0.60095656,0.87574879) (0.60095656,0.60095656,0.80964566) (0.60095656,0.60095656,0.91040176) (0.60095656,0.60095656,0.96039537)
(0.60095656,0.60095656,0.63699582) (0.60095656,0.60095656,0.60469440) (0.60095656,0.60095656,0.63631063) (0.60095656,0.60095656,0.60119584) (0.60095656,0.60095656,0.60109347) (0.60095656,0.60095656,0.60291159)
(0.60095656,0.60095656,0.65756703) (0.60095656,0.60095656,0.93553134) (0.60095656,0.60095656,0.82129979) (0.60095656,0.60095656,0.85102412) (0.99585581,0.99865658,0.97438318) (0.60095656,0.60095656,0.94861483)
(0.60095656,0.60095656,0.63224303) (0.60095656,0.60095656,0.84974316) (0.60095656,0.60095656,0.79380851) (0.60095656,0.60095656,0.91971742) (0.60095656,0.60095656,0.88746364) (0.60095656,0.60095656,0.64573323)
(0.60095656,0.60095656,0.99932169) (0.60095656,0.60095656,0.99775327) (0.60095656,0.60095656,0.98710077) (0.60095656,0.60095656,0.99786868) (0.99714258,0.99935900,0.99997990) (0.60095656,0.60095656,0.99031322)
(0.60095656,0.60095656,0.60612789) (0.60095656,0.60095656,0.92574898) (0.60095656,0.60095656,0.84883013) (0.60095656,0.60095656,0.72102964) (0.60095656,0.60095656,0.91948409) (0.60095656,0.60095656,0.73655745)
(0.60095656,0.60095656,0.62573685) (0.60095656,0.60095656,0.68496501) (0.60095656,0.60095656,0.85364500) (0.60095656,0.60095656,0.63367980) (0.60095656,0.60095656,0.71205300) (0.60095656,0.60095656,0.60101148)
(0.60095656,0.60095656,0.65255499) (0.60095656,0.60095656,0.62642549) (0.60095656,0.60095656,0.81767799) (0.60095656,0.60095656,0.65126517) (0.60095656,0.60095656,0.74967626) (0.60095656,0.60095656,0.72336486)
(0.60095656,0.60095656,0.79434670) (0.60095656,0.60095656,0.60175751) (0.60095656,0.60095656,0.97422635) (0.60095656,0.60095656,0.76164875) (0.60095656,0.60095656,0.81506712) (0.60095656,0.60095656,0.72806515)
(0.60095656,0.60095656,0.88564992) (0.60095656,0.60095656,0.60959977) (0.60095656,0.60095656,0.79062853) (0.60095656,0.60095656,0.66499282) (0.60095656,0.60095656,0.74328272) (0.60095656,0.60095656,0.65466563)
(0.60095656,0.60095656,0.83539826) (0.60095656,0.60095656,0.60114021) (0.60095656,0.60095656,0.73023304) (0.60095656,0.60095656,0.94109010) (0.60095656,0.60095656,0.73182452) (0.60095656,0.60095656,0.60125699)
(0.60095656,0.60095656,0.61024748) (0.60095656,0.60095656,0.60217313) (0.60095656,0.60095656,0.61635559) (0.60095656,0.60095656,0.72727065) (0.60095656,0.60095656,0.61888505) (0.60095656,0.60095656,0.60290221)
(0.60095656,0.60095656,0.62519416) (0.60095656,0.60095656,0.61776582) (0.60095656,0.60095656,0.63463837) (0.60095656,0.60095656,0.76843127) (0.60095656,0.60095656,0.63747066) (0.60095656,0.60095656,0.60159104)
(0.60095656,0.60095656,0.63580886) (0.60095656,0.60095656,0.61363875) (0.60095656,0.60095656,0.60103127) (0.60095656,0.60095656,0.89936673) (0.60095656,0.60095656,0.67639520) (0.60095656,0.60095656,0.71392713)
(0.60095656,0.60095656,0.69615184) (0.60095656,0.60095656,0.60096729) (0.60095656,0.60095656,0.60169693) (0.60095656,0.60095656,0.85538254) (0.60095656,0.60095656,0.69578892) (0.60095656,0.60095656,0.68209309)
(0.60095656,0.60095656,0.60955892) (0.60095656,0.60095656,0.76218963) (0.60095656,0.60095656,0.69889618) (0.60095656,0.60095656,0.63564371) (0.60095656,0.60095656,0.60562098) (0.60095656,0.60095656,0.65745724)
(0.60095656,0.60095656,0.61580306) (0.60095656,0.60095656,0.66079077) (0.60095656,0.60095656,0.62800269) (0.60095656,0.60095656,0.66626614) (0.60095656,0.60095656,0.60383414) (0.60095656,0.60095656,0.70022524)
(0.60095656,0.60095656,0.62805070) (0.60095656,0.60095656,0.60418759) (0.60095656,0.60095656,0.63558156) (0.60095656,0.60095656,0.62002072) (0.60095656,0.60095656,0.60379618) (0.60095656,0.60095656,0.65044056)
(0.60095656,0.60095656,0.60097825) (0.60095656,0.60095656,0.61774447) (0.60095656,0.60095656,0.68220172) (0.60095656,0.60095656,0.60599456) (0.60095656,0.60095656,0.61796787) (0.60095656,0.60095656,0.87053487)
(0.60095656,0.60095656,0.60095694) (0.60095656,0.60095656,0.60599455) (0.60095656,0.60095656,0.60099480) (0.60095656,0.60095656,0.72392555) (0.60095656,0.60095656,0.65528124) (0.60095656,0.60095656,0.69111207)
(0.60095656,0.60095656,0.70978846) (0.60095656,0.60095656,0.62783231) (0.60095656,0.60095656,0.60305930) (0.60095656,0.60095656,0.64995502) (0.60095656,0.60095656,0.66273792) (0.60095656,0.60095656,0.63482937)
(0.60095656,0.60095656,0.83091852) (0.60095656,0.60095656,0.67228496) (0.60095656,0.60095656,0.60735230) (0.60095656,0.60095656,0.94432185) (0.60095656,0.60095656,0.60809958) (0.60095656,0.60095656,0.60107304)
(0.60095656,0.60095656,0.64647352) (0.60095656,0.60095656,0.60582473) (0.60095656,0.60095656,0.60226459) (0.60095656,0.60095656,0.62730927) (0.60095656,0.60095656,0.60095831) (0.60095656,0.60095656,0.61959966)
(0.60095656,0.60095656,0.89459653) (0.60095656,0.60095656,0.60133761) (0.60095656,0.60095656,0.60140224) (0.60095656,0.60095656,0.67211503) (0.60095656,0.60095656,0.62226468) (0.60095656,0.60095656,0.68789676)
(0.60095656,0.60095656,0.65405682) (0.60095656,0.60095656,0.67860307) (0.60095656,0.60095656,0.60488576) (0.60095656,0.60095656,0.85249452) (0.60095656,0.60095656,0.63104904) (0.60095656,0.60095656,0.68299676)
(0.60095656,0.60095656,0.69485214) (0.60095656,0.60095656,0.60889845) (0.60095656,0.60095656,0.60657358) (0.60095656,0.60095656,0.94649991) (0.60095656,0.60095656,0.73318470) (0.60095656,0.60095656,0.77069937)
(0.60095656,0.60095656,0.92242747) (0.60095656,0.60095656,0.73807738) (0.60095656,0.60095656,0.61463499) (0.60095656,0.60095656,0.67931690) (0.60095656,0.60095656,0.63952765) (0.60095656,0.60095656,0.60123516)
(0.60095656,0.60095656,0.72348638) (0.60095656,0.60095656,0.76483906) (0.60095656,0.60095656,0.61262970) (0.60095656,0.60095656,0.61050522) (0.60095656,0.60095656,0.63311844) (0.60095656,0.60095656,0.71711063)
(0.60095656,0.60095656,0.66194130) (0.60095656,0.60095656,0.60525693) (0.60095656,0.60095656,0.74648366) (0.60095656,0.60095656,0.77127482) (0.60095656,0.60095656,0.72027869) (0.60095656,0.60095656,0.62105042)
(0.60095656,0.60095656,0.65136596) (0.60095656,0.60095656,0.74557119) (0.60095656,0.60095656,0.66574943) (0.60095656,0.60095656,0.88984687) (0.60095656,0.60095656,0.64919991) (0.60095656,0.60095656,0.68202681)
(0.60095656,0.60095656,0.67492970) (0.60095656,0.60095656,0.60989590) (0.60095656,0.60095656,0.61389860) (0.60095656,0.60095656,0.75910698) (0.60095656,0.60095656,0.68245995) (0.60095656,0.60095656,0.70776409)
(0.60095656,0.60095656,0.60718925) (0.60095656,0.60095656,0.60766043) (0.60095656,0.60095656,0.60322606) (0.60095656,0.60095656,0.60235012) (0.60095656,0.60095656,0.60177828) (0.60095656,0.60095656,0.60098089)
(0.60095656,0.60095656,0.64827170) (0.60095656,0.60095656,0.72176393) (0.60095656,0.60095656,0.60148355) (0.60095656,0.60095656,0.72333101) (0.60095656,0.60095656,0.61754592) (0.60095656,0.60095656,0.60732893)
(0.60095656,0.60095656,0.69932171) (0.60095656,0.60095656,0.60115081) (0.60095656,0.60095656,0.60155490) (0.60095656,0.60095656,0.60559581) (0.60095656,0.60095656,0.61721949) (0.60095656,0.60095656,0.63744655)
(0.60095656,0.60095656,0.60113142) (0.60095656,0.60095656,0.62056339) (0.60095656,0.60095656,0.80968082) (0.60095656,0.60095656,0.68385267) (0.60095656,0.60095656,0.64617414) (0.60095656,0.60095656,0.62195177)
(0.60095656,0.60095656,0.73273382) (0.60095656,0.60095656,0.62400318) (0.60095656,0.60095656,0.60861312) (0.60095656,0.60095656,0.69355899) (0.60095656,0.60095656,0.66072417) (0.60095656,0.60095656,0.60170756)
(0.60095656,0.60095656,0.60939569) (0.60095656,0.60095656,0.62358089) (0.60095656,0.60095656,0.62695156) (0.60095656,0.60095656,0.60695876) (0.60095656,0.60095656,0.62698095) (0.60095656,0.60095656,0.60431178)
(0.60095656,0.60095656,0.60321150) (0.60095656,0.60095656,0.64107327) (0.60095656,0.60095656,0.60622034) (0.60095656,0.60095656,0.64281630) (0.60095656,0.60095656,0.63939678) (0.60095656,0.60095656,0.60098254)
(0.60095656,0.60095656,0.90510298) (0.60095656,0.60095656,0.60404442) (0.60095656,0.60095656,0.63850587) (0.60095656,0.60095656,0.73764408) (0.60095656,0.60095656,0.61913823) (0.60095656,0.60095656,0.71916475)
(0.60095656,0.60095656,0.85699009) (0.60095656,0.60095656,0.60838844) (0.60095656,0.60095656,0.64716547) (0.60095656,0.60095656,0.70381209) (0.60095656,0.60095656,0.62370320) (0.60095656,0.60095656,0.82527176)
(0.60095656,0.60095656,0.82606234) (0.60095656,0.60095656,0.60201070) (0.60095656,0.60095656,0.66456282) (0.60095656,0.60095656,0.85915947) (0.60095656,0.60095656,0.61528873) (0.60095656,0.60095656,0.71941706)
(0.60095656,0.60095656,0.86739426) (0.60095656,0.60095656,0.73003086) (0.60095656,0.60095656,0.60132897) (0.60095656,0.60095656,0.61078537) (0.60095656,0.60095656,0.63013485) (0.60095656,0.60095656,0.65487245)
(0.60095656,0.60095656,0.81784054) (0.60095656,0.60095656,0.60129441) (0.60095656,0.60095656,0.60109624) (0.60095656,0.60095656,0.74707875) (0.60095656,0.60095656,0.60564888) (0.60095656,0.60095656,0.64998536)
(0.60095656,0.60095656,0.62567759) (0.60095656,0.60095656,0.64018988) (0.60095656,0.60095656,0.61893483) (0.60095656,0.60095656,0.64304292) (0.60095656,0.60095656,0.62670370) (0.60095656,0.60095656,0.60696080)
(0.60095656,0.60095656,0.82510423) (0.60095656,0.60095656,0.64580211) (0.60095656,0.60095656,0.61272262) (0.60095656,0.60095656,0.77359341) (0.60095656,0.60095656,0.62276133) (0.60095656,0.60095656,0.64099897)
(0.60095656,0.60095656,0.77111005) (0.60095656,0.60095656,0.65420136) (0.60095656,0.60095656,0.61419874) (0.60095656,0.60095656,0.63474055) (0.60095656,0.60095656,0.62272019) (0.60095656,0.60095656,0.69884338)
(0.60095656,0.60095656,0.98358369) (0.60095656,0.60095656,0.72698315) (0.60095656,0.60095656,0.60602393) (0.60095656,0.60095656,0.61792428) (0.60095656,0.60095656,0.60127349) (0.60095656,0.60095656,0.60205564)
(0.60095656,0.60095656,0.97190022) (0.60095656,0.60095656,0.62994550) (0.60095656,0.60095656,0.60122587) (0.60095656,0.60095656,0.60177445) (0.60095656,0.60095656,0.60340567) (0.60095656,0.60095656,0.60936310)
(0.60095656,0.60095656,0.72541941) (0.60095656,0.60095656,0.61988850) (0.60095656,0.60095656,0.62716866) (0.60095656,0.60095656,0.73810782) (0.60095656,0.60095656,0.60121946) (0.60095656,0.60095656,0.60150505)
(0.60095656,0.60095656,0.90392702) (0.60095656,0.60095656,0.64144877) (0.60095656,0.60095656,0.63298710) (0.60095656,0.60095656,0.64651403) (0.60095656,0.60095656,0.60095656) (0.60095656,0.60095656,0.71872501)
(0.60095656,0.60095656,0.60096418) (0.60095656,0.60095656,0.61357152) (0.60095656,0.60095656,0.61065541) (0.60095656,0.60095656,0.64175931) (0.60095656,0.60095656,0.63409239) (0.60095656,0.60095656,0.63175218)
(0.60095656,0.60095656,0.74362846) (0.60095656,0.60095656,0.61068852) (0.60095656,0.60095656,0.86564195) (0.60095656,0.60095656,0.69290714) (0.60095656,0.60095656,0.85171972) (0.60095656,0.60095656,0.89973336)
(0.60095656,0.60095656,0.99972117) (0.60095656,0.60095656,0.93463233) (0.60095656,0.60095656,0.96916543) (0.60095656,0.60095656,0.83068452) (0.60095656,0.60095656,0.99896044) (0.60095656,0.60095656,0.99242531)
(0.60095656,0.60095656,0.99016357) (0.60095656,0.60095656,0.82985771) (0.99768281,1.00000000,0.99976685) (0.60095656,0.60095656,0.90305387) (0.84849775,1.00000000,0.70727891) (0.60095656,0.60095656,0.90433178)
(0.60095656,0.60095656,1.00000000) (0.60095656,0.60095656,1.00000000) (1.00000000,1.00000000,1.00000000) (0.60095656,0.60095656,1.00000000) (0.99723506,0.60095656,0.78698020) (0.60095656,0.60095656,1.00000000)
(0.60095656,0.60095656,0.99999994) (0.60095656,0.60095656,0.99999995) (1.00000000,1.00000000,1.00000000) (0.60095656,0.60095656,0.99979727) (0.99997194,1.00000000,0.75500271) (0.60095656,0.60095656,1.00000000)
(0.60095656,0.60095656,0.99707860) (0.60095656,0.60095656,0.99998132) (1.00000000,1.00000000,1.00000000) (0.60095656,0.60095656,0.99976727) (0.99998438,1.00000000,0.93104544) (0.60095656,0.60095656,1.00000000)
(1.00000000,0.60095656,0.99999969) (0.60095656,0.60095656,0.99283006) (1.00000000,1.00000000,0.99912798) (0.60095656,0.60095656,0.98780515) (0.99990150,1.00000000,0.98762235) (0.60095656,0.60095656,0.99672475)
(1.00000000,0.60095656,1.00000000) (0.60095656,0.60095656,0.74728436) (1.00000000,1.00000000,0.94456613) (0.60095656,0.60095656,0.74792229) (0.99975225,0.60095656,0.99780289) (0.60095656,0.60095656,0.92905026)
(1.00000000,1.00000000,1.00000000) (0.60095656,0.60095656,0.87913400) (1.00000000,0.60095656,1.00000000) (0.60095656,0.60095656,0.64487233) (0.99972952,0.99999413,0.99984591) (0.60095656,0.60095656,0.72383677)
(1.00000000,0.60095656,1.00000000) (0.60095656,0.60095656,0.65635479) (1.00000000,0.60095656,0.99993403) (0.60095656,0.60095656,0.64576077) (0.99984330,0.60095656,0.99971104) (0.60095656,0.60095656,0.79448705)
(1.00000000,0.60095656,0.95266896) (0.60095656,0.60095656,0.99999380) (1.00000000,1.00000000,1.00000000) (0.60095656,0.60095656,0.99999770) (0.99991088,0.99999999,0.98734535) (0.60095656,0.60095656,1.00000000)
(1.00000000,0.60095656,0.98462478) (0.60095656,0.60095656,0.99999992) (1.00000000,1.00000000,1.00000000) (0.60095656,0.60095656,0.99999402) (0.99988279,0.99999999,0.97280983) (0.60095656,0.60095656,0.99999993)
(0.60095656,0.60095656,1.00000000) (0.60095656,0.60095656,1.00000000) (0.99998518,1.00000000,1.00000000) (0.60095656,0.60095656,1.00000000) (0.96231557,0.60095656,0.84988353) (0.60095656,0.60095656,1.00000000)
(0.60095656,0.60095656,0.99842427) (0.60095656,0.60095656,0.99726668) (0.60095656,0.60095656,0.86202551) (0.60095656,0.60095656,0.91665555) (0.60095656,0.60095656,0.99967576) (0.60095656,0.60095656,0.98548132)
(0.60095656,0.60095656,0.99862779) (0.60095656,0.60095656,0.99901886) (0.60095656,0.60095656,0.82296851) (0.60095656,0.60095656,0.91538460) (0.60095656,0.60095656,0.99986391) (0.60095656,0.60095656,0.99567067)
(0.60095656,0.60095656,0.90842896) (0.60095656,0.60095656,0.98759905) (0.60095656,0.60095656,0.90090643) (0.60095656,0.60095656,0.86540751) (0.60095656,0.60095656,0.99735174) (0.60095656,0.60095656,0.96059324)
(0.60095656,0.60095656,0.60147504) (0.60095656,0.60095656,0.93564885) (0.60095656,0.60095656,0.60154474) (0.60095656,0.60095656,0.71315638) (0.60095656,0.60095656,0.87523447) (0.60095656,0.60095656,0.80707617)
(0.60095656,0.60095656,0.76025946) (0.60095656,0.60095656,0.60804938) (0.60095656,0.60095656,0.74708316) (0.60095656,0.60095656,0.68360428) (0.60095656,0.60095656,0.76445997) (0.60095656,0.60095656,0.73235561)
(0.60095656,0.60095656,0.62521758) (0.60095656,0.60095656,0.64070182) (0.60095656,0.60095656,0.71294180) (0.60095656,0.60095656,0.67155738) (0.60095656,0.60095656,0.69139511) (0.60095656,0.60095656,0.64088508)
(0.60095656,0.60095656,0.60987706) (0.60095656,0.60095656,0.68309889) (0.60095656,0.60095656,0.71089860) (0.60095656,0.60095656,0.60100713) (0.60095656,0.60095656,0.64301431) (0.60095656,0.60095656,0.66721445)
(0.60095656,0.60095656,0.66729864) (0.60095656,0.60095656,0.60569393) (0.60095656,0.60095656,0.60095920) (0.60095656,0.60095656,0.68610232) (0.60095656,0.60095656,0.67508849) (0.60095656,0.60095656,0.74443619)
(0.60095656,0.60095656,0.67602028) (0.60095656,0.60095656,0.68977940) (0.60095656,0.60095656,0.60284915) (0.60095656,0.60095656,0.74051074) (0.60095656,0.60095656,0.82800947) (0.60095656,0.60095656,0.93327710)
(0.60095656,0.60095656,0.80904852) (0.60095656,0.60095656,0.86328894) (0.60095656,0.60095656,0.60276978) (0.60095656,0.60095656,0.78899715) (0.60095656,0.60095656,0.88638738) (0.60095656,0.60095656,0.81032891)
(0.60095656,0.60095656,0.73031152) (0.60095656,0.60095656,0.97507708) (0.60095656,0.60095656,0.60474083) (0.60095656,0.60095656,0.61021839) (0.60095656,0.60095656,0.89327932) (0.60095656,0.60095656,0.74429617)
(0.60095656,0.60095656,0.61643932) (0.60095656,0.60095656,0.96597894) (0.60095656,0.60095656,0.61290390) (0.60095656,0.60095656,0.60097000) (0.60095656,0.60095656,0.78627329) (0.60095656,0.60095656,0.60420339)
(0.60095656,0.60095656,0.63380762) (0.60095656,0.60095656,0.91508638) (0.60095656,0.60095656,0.60356315) (0.60095656,0.60095656,0.62432376) (0.60095656,0.60095656,0.78315119) (0.60095656,0.60095656,0.69410055)
(0.60095656,0.60095656,0.79020462) (0.60095656,0.60095656,0.68183373) (0.60095656,0.60095656,0.60614642) (0.60095656,0.60095656,0.80787150) (0.60095656,0.60095656,0.78887406) (0.60095656,0.60095656,0.84417219)
(0.60095656,0.60095656,0.78728825) (0.60095656,0.60095656,0.63281977) (0.60095656,0.60095656,0.61348452) (0.60095656,0.60095656,0.94637987) (0.60095656,0.60095656,0.86623609) (0.60095656,0.60095656,0.93073770)
(0.60095656,0.60095656,0.67380756) (0.60095656,0.60095656,0.82077884) (0.60095656,0.60095656,0.60888784) (0.60095656,0.60095656,0.83644924) (0.60095656,0.60095656,0.88676806) (0.60095656,0.60095656,0.87989904)
(0.60095656,0.60095656,0.61072197) (0.60095656,0.60095656,0.87218341) (0.60095656,0.60095656,0.60102093) (0.60095656,0.60095656,0.60705578) (0.60095656,0.60095656,0.78117733) (0.60095656,0.60095656,0.68435194)
(0.60095656,0.60095656,0.68225469) (0.60095656,0.60095656,0.78363540) (0.60095656,0.60095656,0.60171728) (0.60095656,0.60095656,0.60172096) (0.60095656,0.60095656,0.70996493) (0.60095656,0.60095656,0.72665963)
(0.60095656,0.60095656,0.62588206) (0.60095656,0.60095656,0.60698402) (0.60095656,0.60095656,0.60095946) (0.60095656,0.60095656,0.82257427) (0.60095656,0.60095656,0.70338591) (0.60095656,0.60095656,0.76247249)
(0.60095656,0.60095656,0.89494020) (0.60095656,0.60095656,0.64420728) (0.60095656,0.60095656,0.63017735) (0.60095656,0.60095656,0.84674188) (0.60095656,0.60095656,0.72706633) (0.60095656,0.60095656,0.77976007)
(0.60095656,0.60095656,0.83583964) (0.60095656,0.60095656,0.63166457) (0.60095656,0.60095656,0.61490325) (0.60095656,0.60095656,0.92756551) (0.60095656,0.60095656,0.73967503) (0.60095656,0.60095656,0.81399064)
(0.60095656,0.60095656,0.88527161) (0.60095656,0.60095656,0.68622983) (0.60095656,0.60095656,0.60130656) (0.60095656,0.60095656,0.62420203) (0.60095656,0.60095656,0.71231645) (0.60095656,0.60095656,0.61842812)
(0.60095656,0.60095656,0.65179298) (0.60095656,0.60095656,0.81463982) (0.60095656,0.60095656,0.60095899) (0.60095656,0.60095656,0.62978010) (0.60095656,0.60095656,0.63700267) (0.60095656,0.60095656,0.61651969)
(0.60095656,0.60095656,0.60462514) (0.60095656,0.60095656,0.81090346) (0.60095656,0.60095656,0.60170419) (0.60095656,0.60095656,0.68880638) (0.60095656,0.60095656,0.64472567) (0.60095656,0.60095656,0.60637274)
(0.60095656,0.60095656,0.67158804) (0.60095656,0.60095656,0.65555602) (0.60095656,0.60095656,0.60107738) (0.60095656,0.60095656,0.60691170) (0.60095656,0.60095656,0.64896489) (0.60095656,0.60095656,0.61723312)
(0.60095656,0.60095656,0.82551349) (0.60095656,0.60095656,0.60095656) (0.60095656,0.60095656,0.60208647) (0.60095656,0.60095656,0.76050835) (0.60095656,0.60095656,0.67326915) (0.60095656,0.60095656,0.62519797)
(0.60095656,0.60095656,0.74816985) (0.60095656,0.60095656,0.61953079) (0.60095656,0.60095656,0.60161728) (0.60095656,0.60095656,0.75878568) (0.60095656,0.60095656,0.67187089) (0.60095656,0.60095656,0.61109786)
(0.60095656,0.60095656,0.85163358) (0.60095656,0.60095656,0.66937457) (0.60095656,0.60095656,0.62249477) (0.60095656,0.60095656,0.63191700) (0.60095656,0.60095656,0.62341472) (0.60095656,0.60095656,0.66982414)
(0.60095656,0.60095656,0.66347410) (0.60095656,0.60095656,0.69934523) (0.60095656,0.60095656,0.62720945) (0.60095656,0.60095656,0.64555650) (0.60095656,0.60095656,0.60995439) (0.60095656,0.60095656,0.61914670)
(0.60095656,0.60095656,0.63793521) (0.60095656,0.60095656,0.65417585) (0.60095656,0.60095656,0.60527713) (0.60095656,0.60095656,0.67782618) (0.60095656,0.60095656,0.62957876) (0.60095656,0.60095656,0.61132742)
(0.60095656,0.60095656,0.71113497) (0.60095656,0.60095656,0.68262733) (0.60095656,0.60095656,0.60707585) (0.60095656,0.60095656,0.88275749) (0.60095656,0.60095656,0.73817969) (0.60095656,0.60095656,0.63556814)
(0.60095656,0.60095656,0.63185024) (0.60095656,0.60095656,0.67785740) (0.60095656,0.60095656,0.60907054) (0.60095656,0.60095656,0.95492677) (0.60095656,0.60095656,0.68983645) (0.60095656,0.60095656,0.62637508)
(0.60095656,0.60095656,0.73121177) (0.60095656,0.60095656,0.80333074) (0.60095656,0.60095656,0.63650175) (0.60095656,0.60095656,0.64172286) (0.60095656,0.60095656,0.66453112) (0.60095656,0.60095656,0.65650810)
(0.60095656,0.60095656,0.60568418) (0.60095656,0.60095656,0.87735864) (0.60095656,0.60095656,0.60119281) (0.60095656,0.60095656,0.60974439) (0.60095656,0.60095656,0.66556848) (0.60095656,0.60095656,0.72856266)
(0.60095656,0.60095656,0.60733159) (0.60095656,0.60095656,0.85717181) (0.60095656,0.60095656,0.60127674) (0.60095656,0.60095656,0.66180621) (0.60095656,0.60095656,0.71728921) (0.60095656,0.60095656,0.60113118)
(0.60095656,0.60095656,0.72512958) (0.60095656,0.60095656,0.65299950) (0.60095656,0.60095656,0.60462472) (0.60095656,0.60095656,0.69914778) (0.60095656,0.60095656,0.68714991) (0.60095656,0.60095656,0.67559030)
(0.60095656,0.60095656,0.61422656) (0.60095656,0.60095656,0.69436988) (0.60095656,0.60095656,0.61089025) (0.60095656,0.60095656,0.66397647) (0.60095656,0.60095656,0.70029562) (0.60095656,0.60095656,0.74605311)
(0.60095656,0.60095656,0.60561967) (0.60095656,0.60095656,0.66320735) (0.60095656,0.60095656,0.61138227) (0.60095656,0.60095656,0.60471702) (0.60095656,0.60095656,0.64240587) (0.60095656,0.60095656,0.66769390)
(0.60095656,0.60095656,0.61310914) (0.60095656,0.60095656,0.68340019) (0.60095656,0.60095656,0.60096148) (0.60095656,0.60095656,0.61972797) (0.60095656,0.60095656,0.64062447) (0.60095656,0.60095656,0.60664822)
(0.60095656,0.60095656,0.63335536) (0.60095656,0.60095656,0.64545510) (0.60095656,0.60095656,0.60328380) (0.60095656,0.60095656,0.60163849) (0.60095656,0.60095656,0.63409621) (0.60095656,0.60095656,0.68987740)
(0.60095656,0.60095656,0.61866016) (0.60095656,0.60095656,0.62721549) (0.60095656,0.60095656,0.62123712) (0.60095656,0.60095656,0.71237523) (0.60095656,0.60095656,0.63128439) (0.60095656,0.60095656,0.78887064)
(0.60095656,0.60095656,0.67109915) (0.60095656,0.60095656,0.61450821) (0.60095656,0.60095656,0.64067816) (0.60095656,0.60095656,0.64363756) (0.60095656,0.60095656,0.63298554) (0.60095656,0.60095656,0.79383946)
(0.60095656,0.60095656,0.86112937) (0.60095656,0.60095656,0.99844160) (0.60095656,0.60095656,0.99175299) (0.60095656,0.60095656,0.99974690) (0.60095656,0.60095656,0.99931653) (0.60095656,0.60095656,0.99168967)
(0.60095656,0.60095656,0.79871675) (0.60095656,0.60095656,0.99571731) (0.60095656,0.60095656,0.92561121) (0.60095656,0.60095656,0.89940026) (0.60095656,0.60095656,0.99218550) (0.60095656,0.60095656,0.98804762)
(0.60095656,0.60095656,0.98945498) (0.60095656,0.60095656,0.99872001) (0.99999320,1.00000000,0.92079818) (0.60095656,0.60095656,0.99230631) (0.92318045,0.87201436,0.98955126) (0.60095656,0.60095656,0.99974913)
(0.60095656,0.60095656,0.99694595) (0.60095656,0.60095656,0.99970883) (0.99999981,1.00000000,0.99993228) (0.60095656,0.60095656,0.99886885) (0.95505790,0.60653875,0.98195091) (0.60095656,0.60095656,0.99994607)
(0.60095656,0.60095656,0.95873006) (0.60095656,0.60095656,0.98873502) (0.99999996,0.99999999,0.64461259) (0.60095656,0.60095656,0.95837645) (0.96460636,0.60095656,0.98392236) (0.60095656,0.60095656,0.99010702)
(0.60095656,0.60095656,0.99993294) (0.60095656,0.60095656,0.99998038) (0.99997270,1.00000000,0.99999992) (0.60095656,0.60095656,0.99995835) (0.90559254,1.00000000,0.99476486) (0.60095656,0.60095656,0.99999981)
(0.60095656,0.60095656,1.00000000) (0.60095656,0.60095656,1.00000000) (0.60095656,0.60095656,1.00000000) (0.60095656,0.60095656,1.00000000) (0.99999999,1.00000000,1.00000000) (0.60095656,0.60095656,1.00000000)
(0.60095656,0.60095656,1.00000000) (0.60095656,0.60095656,1.00000000) (0.60095656,0.60095656,1.00000000) (0.60095656,0.60095656,1.00000000) (0.99999999,1.00000000,1.00000000) (0.60095656,0.60095656,1.00000000)
(0.60095656,0.60095656,1.00000000) (0.60095656,0.60095656,1.00000000) (0.60095656,0.60095656,1.00000000) (0.60095656,0.60095656,1.00000000) (0.99999999,1.00000000,1.00000000) (0.60095656,0.60095656,1.00000000)
(0.60095656,0.60095656,1.00000000) (0.60095656,0.60095656,1.00000000) (0.60095656,0.60095656,1.00000000) (0.60095656,0.60095656,1.00000000) (0.99999998,1.00000000,1.00000000) (0.60095656,0.60095656,1.00000000)
