chh c1 sd mt lt rc2
(1.00000000,0.98987700,1.00000000) (0.60095656,0.60095656,1.00000000) (0.81658471,0.60095656,1.00000000) (0.60095656,0.60095656,1.00000000) (0.60095656,0.60095656,1.00000000) (0.60095656,0.60095656,1.00000000)
(1.00000000,0.98987700,0.99899635) (0.60095656,0.60095656,0.99974903) (0.82255085,0.60095656,0.77930976) (0.60095656,0.60095656,0.98501419) (0.60095656,0.60095656,0.62532088) (0.60095656,0.60095656,0.99997691)
(1.00000000,0.99024504,0.99931737) (0.60095656,0.60095656,0.99998206) (0.82489193,0.60095656,0.60709341) (0.60095656,0.60095656,0.95516861) (0.60095656,0.60095656,0.95297603) (0.60095656,0.60095656,0.99490495)
(1.00000000,0.99060008,0.99951668) (0.60095656,0.60095656,0.99957556) (0.82683302,0.60095656,0.70406645) (0.60095656,0.60095656,0.98259135) (0.60095656,0.60095656,0.72520967) (0.60095656,0.60095656,0.99999887)
(1.00000000,0.99094256,0.99966621) (0.60095656,0.60095656,0.99999327) (0.82868474,0.60095656,0.69096182) (0.60095656,0.60095656,0.94012026) (0.60095656,0.60095656,0.93846568) (0.60095656,0.60095656,0.99135829)
(1.00000000,0.99127289,0.99939495) (0.60095656,0.60095656,0.99999165) (0.83097275,0.60095656,0.63579634) (0.60095656,0.60095656,0.99778345) (0.60095656,0.60095656,0.63673104) (0.60095656,0.60095656,0.99999469)
(0.62187586,0.99159148,0.99980186) (0.60095656,0.60095656,0.99999930) (0.63478870,0.99980463,0.85089482) (0.60095656,0.60095656,0.92573183) (0.60095656,0.60095656,0.63370907) (0.60095656,0.60095656,0.99978954)
(0.65181494,0.99189879,0.80486584) (0.60095656,0.60095656,0.62240695) (0.64257735,0.99982017,0.61456420) (0.60095656,0.60095656,0.65650312) (0.60095656,0.60095656,0.99847588) (0.60095656,0.60095656,0.70260428)
(0.61365184,0.99016713,0.70766197) (0.60095656,0.60095656,0.71605024) (0.60761470,0.99953676,0.66327817) (0.60095656,0.60095656,0.60490671) (0.60095656,0.60095656,0.99537380) (0.60095656,0.60095656,0.61294073)
(0.60311075,0.60095656,0.65592869) (0.60095656,0.60095656,0.60904496) (0.60105153,0.60095656,0.73222723) (0.60095656,0.60095656,0.65879480) (0.60095656,0.60095656,0.99805370) (0.60095656,0.60095656,0.81408276)
(0.60183831,0.60095656,0.61538954) (0.60095656,0.60095656,0.70366328) (0.60104065,0.60095656,0.78610191) (0.60095656,0.60095656,0.61476661) (0.60095656,0.60095656,0.98141830) (0.60095656,0.60095656,0.67537220)
(0.60326925,0.60095656,0.63168400) (0.60095656,0.60095656,0.62477985) (0.60103890,0.60095656,0.88681962) (0.60095656,0.60095656,0.72990184) (0.60095656,0.60095656,0.99771451) (0.60095656,0.60095656,0.87998224)
(0.65428860,0.99275619,0.64507861) (0.60095656,0.60095656,0.60492333) (0.64176598,0.99985975,0.60163318) (0.60095656,0.60095656,0.82434151) (0.60095656,0.60095656,0.60345938) (0.60095656,0.60095656,0.69326826)
(0.72516456,0.60095656,0.63768327) (0.60095656,0.60095656,0.60095659) (0.71076600,0.60095656,0.70043806) (0.60095656,0.60095656,0.60224577) (0.60095656,0.60095656,0.77683049) (0.60095656,0.60095656,0.78153654)
(0.80141545,0.60095656,0.61958859) (0.60095656,0.60095656,0.60229092) (0.78789343,0.60095656,0.81099149) (0.60095656,0.60095656,0.60166373) (0.60095656,0.60095656,0.83113235) (0.60095656,0.60095656,0.75386559)
(0.83490701,0.60095656,0.62723614) (0.60095656,0.60095656,0.60095659) (0.82202210,0.60095656,0.85603082) (0.60095656,0.60095656,0.65339000) (0.60095656,0.60095656,0.60288073) (0.60095656,0.60095656,0.61321593)
(0.83567924,0.60095656,0.61342334) (0.60095656,0.60095656,0.61745833) (0.82974025,0.60095656,0.85640063) (0.60095656,0.60095656,0.98557711) (0.60095656,0.60095656,0.62199168) (0.60095656,0.60095656,0.78922122)
(0.77753270,0.60095656,0.61799709) (0.60095656,0.60095656,0.60354521) (0.83251424,0.60095656,0.90047766) (0.60095656,0.60095656,0.79460981) (0.60095656,0.60095656,0.69791232) (0.60095656,0.60095656,0.61461604)
(0.65563160,0.60095656,0.64704286) (0.60095656,0.60095656,0.61539934) (0.83917124,0.60095656,0.84959933) (0.60095656,0.60095656,0.60110772) (0.60095656,0.60095656,0.73028412) (0.60095656,0.60095656,0.86375716)
(0.63261828,0.60095656,0.63461638) (0.60095656,0.60095656,0.61300764) (0.83594731,0.60095656,0.85036781) (0.60095656,0.60095656,0.63983314) (0.60095656,0.60095656,0.60355919) (0.60095656,0.60095656,0.60371710)
(0.63292496,0.60095656,0.60898715) (0.60095656,0.60095656,0.61077716) (0.82706018,0.60095656,0.83809225) (0.60095656,0.60095656,0.60097312) (0.60095656,0.60095656,0.72406317) (0.60095656,0.60095656,0.66460347)
(0.62114011,0.60095656,0.61211280) (0.60095656,0.60095656,0.60154674) (0.79865810,0.60095656,0.85999342) (0.60095656,0.60095656,0.61937740) (0.60095656,0.60095656,0.61186956) (0.60095656,0.60095656,0.60352706)
(0.61690457,0.60095656,0.60225438) (0.60095656,0.60095656,0.61827803) (0.79851843,0.60095656,0.72116045) (0.60095656,0.60095656,0.61283436) (0.60095656,0.60095656,0.65721022) (0.60095656,0.60095656,0.63095607)
(0.61385383,0.97742515,0.60280755) (0.60095656,0.60095656,0.60254110) (0.79276757,0.99482905,0.69489384) (0.60095656,0.60095656,0.69289093) (0.60095656,0.60095656,0.70664666) (0.60095656,0.60095656,0.67597113)
(0.61234709,0.60096009,0.60584332) (0.60095656,0.60095656,0.67948944) (0.78480583,0.60096175,0.90324494) (0.60095656,0.60095656,0.71865863) (0.60095656,0.60095656,0.62056669) (0.60095656,0.60095656,0.62106185)
(0.61193589,0.97426671,0.61670108) (0.60095656,0.60095656,0.61476717) (0.78732380,0.99209539,0.74517138) (0.60095656,0.60095656,0.65626991) (0.60095656,0.60095656,0.69287881) (0.60095656,0.60095656,0.67836628)
(0.61114508,0.60095656,0.60099231) (0.60095656,0.60095656,0.61636327) (0.78621182,0.60095656,0.83690274) (0.60095656,0.60095656,0.66668666) (0.60095656,0.60095656,0.61679896) (0.60095656,0.60095656,0.62240732)
(0.60972060,0.60095656,0.60110402) (0.60095656,0.60095656,0.60146103) (0.73024045,0.60095656,0.82031924) (0.60095656,0.60095656,0.77296589) (0.60095656,0.60095656,0.64782416) (0.60095656,0.60095656,0.75234254)
(0.60952410,0.60095656,0.60101468) (0.60095656,0.60095656,0.60152382) (0.64118650,0.60095656,0.84845833) (0.60095656,0.60095656,0.72425965) (0.60095656,0.60095656,0.60142963) (0.60095656,0.60095656,0.64342792)
(0.60869272,0.96857764,0.60727704) (0.60095656,0.60095656,0.61396216) (0.62301601,0.98598361,0.67759679) (0.60095656,0.60095656,0.63062761) (0.60095656,0.60095656,0.72822126) (0.60095656,0.60095656,0.68406956)
(0.60857376,0.96857764,0.60264853) (0.60095656,0.60095656,0.62683221) (0.61631293,0.98404466,0.67044911) (0.60095656,0.60095656,0.62383974) (0.60095656,0.60095656,0.62378298) (0.60095656,0.60095656,0.61239400)
(0.60707485,0.60095656,0.60184784) (0.60095656,0.60095656,0.60852764) (0.61379334,0.60095656,0.62647576) (0.60095656,0.60095656,0.62149152) (0.60095656,0.60095656,0.74426422) (0.60095656,0.60095656,0.68993806)
(0.60558748,0.60095656,0.60532395) (0.60095656,0.60095656,0.60120980) (0.60826302,0.60095656,0.62413911) (0.60095656,0.60095656,0.73253346) (0.60095656,0.60095656,0.63350430) (0.60095656,0.60095656,0.60233782)
(0.60412390,0.60095656,0.60205742) (0.60095656,0.60095656,0.60270588) (0.60464036,0.60095656,0.60103937) (0.60095656,0.60095656,0.68623829) (0.60095656,0.60095656,0.61296812) (0.60095656,0.60095656,0.63414414)
(0.60332421,0.60095656,0.60207846) (0.60095656,0.60095656,0.67482859) (0.60310993,0.60095656,0.61564318) (0.60095656,0.60095656,0.80330302) (0.60095656,0.60095656,0.62339060) (0.60095656,0.60095656,0.69661548)
(0.60307257,0.60095656,0.60124751) (0.60095656,0.60095656,0.63783191) (0.60261963,0.60095656,0.71852943) (0.60095656,0.60095656,0.62731744) (0.60095656,0.60095656,0.65426929) (0.60095656,0.60095656,0.60276265)
(0.60262100,0.60095656,0.60110430) (0.60095656,0.60095656,0.63300861) (0.60215437,0.60095656,0.66909816) (0.60095656,0.60095656,0.60100558) (0.60095656,0.60095656,0.82952389) (0.60095656,0.60095656,0.94164821)
(0.60235642,0.60095656,0.60100780) (0.60095656,0.60095656,0.62701789) (0.60179823,0.60095656,0.72281037) (0.60095656,0.60095656,0.66226898) (0.60095656,0.60095656,0.60406545) (0.60095656,0.60095656,0.69967864)
(0.60222519,0.60095656,0.60136231) (0.60095656,0.60095656,0.61125996) (0.60174395,0.60095656,0.70801343) (0.60095656,0.60095656,0.64090469) (0.60095656,0.60095656,0.73106750) (0.60095656,0.60095656,0.76909904)
(0.60196350,0.60095656,0.60121022) (0.60095656,0.60095656,0.63566649) (0.60155192,0.60095656,0.79254775) (0.60095656,0.60095656,0.66171129) (0.60095656,0.60095656,0.60242875) (0.60095656,0.60095656,0.60321221)
(0.60172043,0.60095656,0.60252232) (0.60095656,0.60095656,0.61529035) (0.60129047,0.60095656,0.63179168) (0.60095656,0.60095656,0.65396833) (0.60095656,0.60095656,0.60181985) (0.60095656,0.60095656,0.64152630)
(0.60166848,0.60095656,0.60322178) (0.60095656,0.60095656,0.62738086) (0.60127035,0.60095656,0.62065490) (0.60095656,0.60095656,0.65682542) (0.60095656,0.60095656,0.70048304) (0.60095656,0.60095656,0.60189228)
(0.60159355,0.60095656,0.60165490) (0.60095656,0.60095656,0.61631896) (0.60120381,0.60095656,0.64252895) (0.60095656,0.60095656,0.66123542) (0.60095656,0.60095656,0.67632900) (0.60095656,0.60095656,0.67364671)
(0.60162368,0.60095656,0.60101219) (0.60095656,0.60095656,0.63604553) (0.60122446,0.60095656,0.63741074) (0.60095656,0.60095656,0.73323872) (0.60095656,0.60095656,0.63491568) (0.60095656,0.60095656,0.60271603)
(0.60168110,0.60095656,0.60293000) (0.60095656,0.60095656,0.60123142) (0.60117636,0.60095656,0.64083975) (0.60095656,0.60095656,0.66355806) (0.60095656,0.60095656,0.62762598) (0.60095656,0.60095656,0.62645818)
(0.60214571,0.60095656,0.60287818) (0.60095656,0.60095656,0.60123118) (0.60141158,0.60095656,0.62694906) (0.60095656,0.60095656,0.60268368) (0.60095656,0.60095656,0.64518096) (0.60095656,0.60095656,0.60614890)
(0.60228580,0.60095656,0.60547747) (0.60095656,0.60095656,0.60116159) (0.60157335,0.60095656,0.60260197) (0.60095656,0.60095656,0.60751295) (0.60095656,0.60095656,0.66918557) (0.60095656,0.60095656,0.63145166)
(0.60227218,0.60095656,0.60222629) (0.60095656,0.60095656,0.60627570) (0.60161561,0.60095656,0.62538018) (0.60095656,0.60095656,0.60604031) (0.60095656,0.60095656,0.66385200) (0.60095656,0.60095656,0.61881224)
(0.60213616,0.60095656,0.60229885) (0.60095656,0.60095656,0.60524347) (0.60151687,0.60095656,0.61687644) (0.60095656,0.60095656,0.61343662) (0.60095656,0.60095656,0.60115733) (0.60095656,0.60095656,0.62559281)
(0.60176740,0.60095656,0.60772833) (0.60095656,0.60095656,0.60095656) (0.60123743,0.60095656,0.68261957) (0.60095656,0.60095656,0.60213109) (0.60095656,0.60095656,0.68543896) (0.60095656,0.60095656,0.63940350)
(0.60151318,0.60095656,0.61624162) (0.60095656,0.60095656,0.60393950) (0.60106989,0.60095656,0.60096059) (0.60095656,0.60095656,0.65796692) (0.60095656,0.60095656,0.60167247) (0.60095656,0.60095656,0.61715926)
(0.60095939,0.60095656,0.70078329) (0.60095656,0.60095656,0.66132332) (0.60122236,0.60095656,0.87030304) (0.60095656,0.60095656,0.74099394) (0.60095656,0.60095656,0.61610290) (0.60095656,0.60095656,0.74860814)
(0.60602969,0.60095656,0.88590212) (0.60095656,0.60095656,0.87515886) (0.61351829,0.60095656,0.91929666) (0.60095656,0.60095656,0.94659752) (0.60095656,0.60095656,0.78746535) (0.60095656,0.60095656,0.82772462)
(0.98217228,0.60095656,0.90879247) (0.60095656,0.60095656,0.91817550) (0.99775434,0.60095656,0.93402512) (0.60095656,0.60095656,0.87033143) (0.60095656,0.60095656,0.67902925) (0.60095656,0.60095656,0.94683003)
(0.70941038,0.60095680,0.72407942) (0.60095656,0.60095656,0.67771339) (0.77321230,0.60095685,0.78394907) (0.60095656,0.60095656,0.81623220) (0.60095656,0.60095656,0.77498667) (0.60095656,0.60095656,0.61778034)
(0.61145704,0.60095656,0.60376503) (0.60095656,0.60095656,0.60500471) (0.62520473,0.60095656,0.60191745) (0.60095656,0.60095656,0.62817113) (0.60095656,0.60095656,0.67555330) (0.60095656,0.60095656,0.60188316)
(0.60253199,0.60095656,0.67947971) (0.60095656,0.60095656,0.65716981) (0.60707343,0.60095656,0.72448748) (0.60095656,0.60095656,0.77780388) (0.60095656,0.60095656,0.62292516) (0.60095656,0.60095656,0.82196804)
(0.60121001,0.60095656,0.75793449) (0.60095656,0.60095656,0.71772923) (0.60331859,0.60095656,0.88961344) (0.60095656,0.60095656,0.73912613) (0.60095656,0.60095656,0.83377655) (0.60095656,0.60095656,0.80646393)
(0.60099385,0.60095656,0.75863145) (0.60095656,0.60095656,0.66398565) (0.60281063,0.60095656,0.85793330) (0.60095656,0.60095656,0.83957070) (0.60095656,0.60095656,0.76962303) (0.60095656,0.60095656,0.91649385)
(0.60112750,0.60095656,0.72972633) (0.60095656,0.60095656,0.75699707) (0.60445137,0.60095656,0.89825935) (0.60095656,0.60095656,0.71169744) (0.60095656,0.60095656,0.74899734) (0.60095656,0.60095656,0.71101684)
(0.60154087,0.60095656,0.72923489) (0.60095656,0.60095656,0.74194823) (0.60669370,0.60095656,0.76845948) (0.60095656,0.60095656,0.86550104) (0.60095656,0.60095656,0.77998559) (0.60095656,0.60095656,0.73613321)
(0.60148550,0.60095656,0.73141961) (0.60095656,0.60095656,0.83179725) (0.60734914,0.60095656,0.68605478) (0.60095656,0.60095656,0.79818224) (0.60095656,0.60095656,0.90694948) (0.60095656,0.60095656,0.60451930)
(0.60117401,0.60095656,0.72116351) (0.60095656,0.60095656,0.78642765) (0.60673570,0.60095656,0.77173107) (0.60095656,0.60095656,0.87418341) (0.60095656,0.60095656,0.76461509) (0.60095656,0.60095656,0.65043889)
(0.60100276,0.60095656,0.72464423) (0.60095656,0.60095656,0.79034585) (0.60617810,0.60095656,0.83293945) (0.60095656,0.60095656,0.71359033) (0.60095656,0.60095656,0.91367705) (0.60095656,0.60095656,0.60498049)
(0.60096660,0.60095656,0.73205531) (0.60095656,0.60095656,0.83502338) (0.60618238,0.60095656,0.78808160) (0.60095656,0.60095656,0.81179032) (0.60095656,0.60095656,0.79348229) (0.60095656,0.60095656,0.62897758)
(0.60096867,0.60095656,0.73697353) (0.60095656,0.60095656,0.84145598) (0.60653797,0.60095656,0.72109977) (0.60095656,0.60095656,0.76091015) (0.60095656,0.60095656,0.86904896) (0.60095656,0.60095656,0.62500362)
(0.60103500,0.60095656,0.72401718) (0.60095656,0.60095656,0.74501911) (0.60736676,0.60095656,0.67448019) (0.60095656,0.60095656,0.66860785) (0.60095656,0.60095656,0.92429424) (0.60095656,0.60095656,0.71240590)
(0.60111615,0.95294569,0.72697936) (0.60095656,0.60095656,0.81901142) (0.60791488,0.97154494,0.83986002) (0.60095656,0.60095656,0.71061751) (0.60095656,0.60095656,0.89099750) (0.60095656,0.60095656,0.60704167)
(0.60121765,0.60095656,0.72361273) (0.60095656,0.60095656,0.81952416) (0.60850431,0.60095656,0.74788160) (0.60095656,0.60095656,0.81049187) (0.60095656,0.60095656,0.80276736) (0.60095656,0.60095656,0.64017206)
(0.60101823,0.60095656,0.72993503) (0.60095656,0.60095656,0.84014162) (0.60736848,0.60095656,0.71867382) (0.60095656,0.60095656,0.83703624) (0.60095656,0.60095656,0.88432014) (0.60095656,0.60095656,0.60309145)
(0.60097942,0.60095656,0.72221965) (0.60095656,0.60095656,0.80578195) (0.60679643,0.60095656,0.90077829) (0.60095656,0.60095656,0.72241502) (0.60095656,0.60095656,0.68553562) (0.60095656,0.60095656,0.71054588)
(0.60097667,0.60095656,0.71915159) (0.60095656,0.60095656,0.81611460) (0.60674210,0.60095656,0.81612883) (0.60095656,0.60095656,0.65992470) (0.60095656,0.60095656,0.81927909) (0.60095656,0.60095656,0.64912792)
(0.60095739,0.60095656,0.71511126) (0.60095656,0.60095656,0.72111567) (0.60575876,0.60095656,0.72515839) (0.60095656,0.60095656,0.87437716) (0.60095656,0.60095656,0.61945401) (0.60095656,0.60095656,0.89488717)
(0.60095734,0.60095656,0.71937996) (0.60095656,0.60095656,0.81224588) (0.60544977,0.60095656,0.62273713) (0.60095656,0.60095656,0.74272204) (0.60095656,0.60095656,0.71658093) (0.60095656,0.60095656,0.79843778)
(0.60095866,0.95007592,0.71085663) (0.60095656,0.60095656,0.75951379) (0.60544434,0.96780352,0.66700936) (0.60095656,0.60095656,0.80621182) (0.60095656,0.60095656,0.62351039) (0.60095656,0.60095656,0.88376365)
(0.60095812,0.60095656,0.71575694) (0.60095656,0.60095656,0.78002491) (0.60532511,0.60095656,0.71601188) (0.60095656,0.60095656,0.82497574) (0.60095656,0.60095656,0.77744025) (0.60095656,0.60095656,0.71518805)
(0.60095749,0.60095656,0.71311922) (0.60095656,0.60095656,0.68686382) (0.60503387,0.60095656,0.73238254) (0.60095656,0.60095656,0.92316931) (0.60095656,0.60095656,0.68872928) (0.60095656,0.60095656,0.86253132)
(0.60099451,0.60095656,0.73084795) (0.60095656,0.60095656,0.72365895) (0.60625408,0.60095656,0.83441899) (0.60095656,0.60095656,0.84114464) (0.60095656,0.60095656,0.83083238) (0.60095656,0.60095656,0.77241761)
(0.60098139,0.94879620,0.72324140) (0.60095656,0.60095656,0.69514788) (0.60631129,0.96792445,0.86449303) (0.60095656,0.60095656,0.93054469) (0.60095656,0.60095656,0.69991315) (0.60095656,0.60095656,0.82834113)
(0.60132486,0.94852333,0.68814186) (0.60095656,0.60095656,0.69973962) (0.60945167,0.96827643,0.80304834) (0.60095656,0.60095656,0.84286166) (0.60095656,0.60095656,0.81664372) (0.60095656,0.60095656,0.65815783)
(0.60476706,0.94852333,0.62705331) (0.60095656,0.60095656,0.66769041) (0.60101455,0.96699624,0.64382242) (0.60095656,0.60095656,0.68891502) (0.60095656,0.60095656,0.61483315) (0.60095656,0.60095656,0.70643992)
(0.60523513,0.94808611,0.60724507) (0.60095656,0.60095656,0.64176883) (0.60113861,0.96699624,0.64853751) (0.60095656,0.60095656,0.60592875) (0.60095656,0.60095656,0.73939417) (0.60095656,0.60095656,0.62197953)
(0.60579334,0.60095656,0.60221521) (0.60095656,0.60095656,0.60680755) (0.60130749,0.60095656,0.60805216) (0.60095656,0.60095656,0.62599309) (0.60095656,0.60095656,0.60613230) (0.60095656,0.60095656,0.70440637)
(0.60595479,0.60095656,0.60295355) (0.60095656,0.60095656,0.61178616) (0.60136841,0.60095656,0.66758888) (0.60095656,0.60095656,0.67717307) (0.60095656,0.60095656,0.82239266) (0.60095656,0.60095656,0.60211270)
(0.60613998,0.60095656,0.60133751) (0.60095656,0.60095656,0.60869230) (0.60152136,0.60095656,0.61196617) (0.60095656,0.60095656,0.61062172) (0.60095656,0.60095656,0.60233737) (0.60095656,0.60095656,0.72786789)
(0.60695656,0.60095656,0.60496225) (0.60095656,0.60095656,0.66501934) (0.60198707,0.60095656,0.60102670) (0.60095656,0.60095656,0.69139528) (0.60095656,0.60095656,0.61707995) (0.60095656,0.60095656,0.60299229)
(0.60731476,0.94709752,0.60703563) (0.60095656,0.60095656,0.68491002) (0.60231050,0.96277299,0.63414534) (0.60095656,0.60095656,0.64653566) (0.60095656,0.60095656,0.60095843) (0.60095656,0.60095656,0.61616763)
(0.60781932,0.60095656,0.60729039) (0.60095656,0.60095656,0.69042579) (0.60275254,0.60095656,0.65233952) (0.60095656,0.60095656,0.60483920) (0.60095656,0.60095656,0.62366610) (0.60095656,0.60095656,0.61005395)
(0.61219796,0.60095656,0.60162012) (0.60095656,0.60095656,0.60172825) (0.60565927,0.60095656,0.72430088) (0.60095656,0.60095656,0.60244083) (0.60095656,0.60095656,0.64068710) (0.60095656,0.60095656,0.78792406)
(0.61454992,0.60095656,0.60199641) (0.60095656,0.60095656,0.61371174) (0.60734260,0.60095656,0.77508741) (0.60095656,0.60095656,0.60096681) (0.60095656,0.60095656,0.64905143) (0.60095656,0.60095656,0.72959149)
(0.61582994,0.60095656,0.60138189) (0.60095656,0.60095656,0.60095728) (0.60823918,0.60095656,0.82715499) (0.60095656,0.60095656,0.61069743) (0.60095656,0.60095656,0.76362427) (0.60095656,0.60095656,0.80757254)
(0.61513747,0.94646998,0.60189607) (0.60095656,0.60095656,0.60254754) (0.60775647,0.95955044,0.97939740) (0.60095656,0.60095656,0.61906121) (0.60095656,0.60095656,0.67564246) (0.60095656,0.60095656,0.72312237)
(0.61471868,0.60095656,0.60113287) (0.60095656,0.60095656,0.60127855) (0.60739802,0.60095656,0.90173078) (0.60095656,0.60095656,0.63480196) (0.60095656,0.60095656,0.71334615) (0.60095656,0.60095656,0.82250390)
(0.61253622,0.60095656,0.60099588) (0.60095656,0.60095656,0.61078506) (0.60572702,0.60095656,0.84402980) (0.60095656,0.60095656,0.60152437) (0.60095656,0.60095656,0.66105130) (0.60095656,0.60095656,0.68262991)
(0.60963208,0.60095656,0.60126625) (0.60095656,0.60095656,0.60419155) (0.60398301,0.60095656,0.71056152) (0.60095656,0.60095656,0.68317623) (0.60095656,0.60095656,0.79126205) (0.60095656,0.60095656,0.77002120)
(0.60780473,0.60095656,0.60137023) (0.60095656,0.60095656,0.60836282) (0.60304564,0.60095656,0.68091529) (0.60095656,0.60095656,0.60105469) (0.60095656,0.60095656,0.60095656) (0.60095656,0.60095656,0.70358255)
(0.60766490,0.60095663,0.60103273) (0.60095656,0.60095656,0.62434310) (0.60309919,0.60095656,0.87275630) (0.60095656,0.60095656,0.73271180) (0.60095656,0.60095656,0.61957870) (0.60095656,0.60095656,0.72646260)
(0.60681882,0.60095656,0.60441384) (0.60095656,0.60095656,0.61425344) (0.60271051,0.60095679,0.60655938) (0.60095656,0.60095656,0.71811731) (0.60095656,0.60095656,0.68346619) (0.60095656,0.60095656,0.62469964)
(0.60613004,0.94593108,0.60166084) (0.60095656,0.60095656,0.62150788) (0.60236203,0.95541229,0.61525475) (0.60095656,0.60095656,0.74552770) (0.60095656,0.60095656,0.61291263) (0.60095656,0.60095656,0.67796700)
(0.60503092,0.60095677,0.60257202) (0.60095656,0.60095656,0.63837758) (0.60181741,0.60095656,0.62787506) (0.60095656,0.60095656,0.65385474) (0.60095656,0.60095656,0.67865531) (0.60095656,0.60095656,0.62916558)
(0.60456067,0.60095760,0.60096540) (0.60095656,0.60095656,0.63732779) (0.60184023,0.60095656,0.85236384) (0.60095656,0.60095656,0.71887959) (0.60095656,0.60095656,0.62771668) (0.60095656,0.60095656,0.65948519)
(0.60433522,0.60095760,0.60381900) (0.60095656,0.60095656,0.65051208) (0.60215219,0.60095656,0.70064509) (0.60095656,0.60095656,0.71957503) (0.60095656,0.60095656,0.77661617) (0.60095656,0.60095656,0.60575306)
(0.60347587,0.60095760,0.60406456) (0.60095656,0.60095656,0.65594518) (0.60196562,0.60095656,0.74654027) (0.60095656,0.60095656,0.73458446) (0.60095656,0.60095656,0.73585401) (0.60095656,0.60095656,0.62365227)
(0.60335302,0.60095760,0.60542953) (0.60095656,0.60095656,0.65587614) (0.60236554,0.60095656,0.73441624) (0.60095656,0.60095656,0.71944676) (0.60095656,0.60095656,0.86248867) (0.60095656,0.60095656,0.60104833)
(0.60428759,0.60095760,0.60376143) (0.60095656,0.60095656,0.64309341) (0.60343230,0.60095656,0.72741219) (0.60095656,0.60095656,0.70986732) (0.60095656,0.60095656,0.71969986) (0.60095656,0.60095656,0.64612727)
(0.60481141,0.60095760,0.60119839) (0.60095656,0.60095656,0.64918254) (0.60405959,0.60095656,0.70148295) (0.60095656,0.60095656,0.60566498) (0.60095656,0.60095656,0.85655387) (0.60095656,0.60095656,0.60539456)
(0.60454909,0.60095747,0.60225953) (0.60095656,0.60095656,0.63446223) (0.60393741,0.60095656,0.60166244) (0.60095656,0.60095656,0.60265797) (0.60095656,0.60095656,0.70564028) (0.60095656,0.60095656,0.63218294)
(0.60470220,0.94577240,0.60303650) (0.60095656,0.60095656,0.65192259) (0.60398007,0.95031960,0.60352151) (0.60095656,0.60095656,0.60098467) (0.60095656,0.60095656,0.85397551) (0.60095656,0.60095656,0.60104029)
(0.60410990,0.60095760,0.60192391) (0.60095656,0.60095656,0.62064444) (0.60334148,0.60095656,0.72299236) (0.60095656,0.60095656,0.80621719) (0.60095656,0.60095656,0.66192774) (0.60095656,0.60095656,0.67999671)
(0.60384625,0.60095760,0.60365886) (0.60095656,0.60095656,0.70266684) (0.60292093,0.60095656,0.77191584) (0.60095656,0.60095656,0.65633536) (0.60095656,0.60095656,0.84123649) (0.60095656,0.60095656,0.60128618)
(0.60330528,0.75839982,0.60138251) (0.60095656,0.60095656,0.68016729) (0.60239294,0.60095656,0.92280956) (0.60095656,0.60095656,0.83314187) (0.60095656,0.60095656,0.72582301) (0.60095656,0.60095656,0.61039255)
(0.60312052,0.94601705,0.60325029) (0.60095656,0.60095656,0.73731953) (0.60214213,0.60095656,0.96588634) (0.60095656,0.60095656,0.72735081) (0.60095656,0.60095656,0.89996415) (0.60095656,0.60095656,0.60458128)
(0.60318257,0.94607087,0.60106339) (0.60095656,0.60095656,0.72197993) (0.60201352,0.60095656,0.95108823) (0.60095656,0.60095656,0.78736065) (0.60095656,0.60095656,0.69701318) (0.60095656,0.60095656,0.60826703)
(0.93532955,0.60095656,0.93217140) (0.60095656,0.60095656,0.90740266) (0.61656026,0.60095656,0.63980866) (0.60095656,0.60095656,0.79947346) (0.60095656,0.60095656,0.70038075) (0.60095656,0.60095656,0.97035569)
(0.93447949,0.60095656,0.93529040) (0.60095656,0.60095656,0.90645889) (0.61657073,0.60095656,0.70396533) (0.60095656,0.60095656,0.68802531) (0.60095656,0.60095656,0.93221976) (0.60095656,0.60095656,0.87591883)
(0.93308161,0.60095656,0.92966398) (0.60095656,0.60095656,0.88923628) (0.94387787,0.94804393,0.75311413) (0.60095656,0.60095656,0.68338848) (0.60095656,0.60095656,0.87571952) (0.60095656,0.60095656,0.90589873)
(0.93093356,0.60095656,0.90059277) (0.60095656,0.60095656,0.90423094) (0.94311345,0.94768972,0.81694048) (0.60095656,0.60095656,0.68155342) (0.60095656,0.60095656,0.91153900) (0.60095656,0.60095656,0.81854484)
(0.92783649,0.60095656,0.84296039) (0.60095656,0.60095656,0.88443212) (0.94245170,0.94736923,0.76356661) (0.60095656,0.60095656,0.63235695) (0.60095656,0.60095656,0.83125729) (0.60095656,0.60095656,0.86869613)
(0.91887514,0.60095656,0.80421916) (0.60095656,0.60095656,0.87579344) (0.94230185,0.94736923,0.88071037) (0.60095656,0.60095656,0.61342281) (0.60095656,0.60095656,0.90743605) (0.60095656,0.60095656,0.74032284)
(0.88367106,0.60095656,0.73570004) (0.60095656,0.60095656,0.79158275) (0.94270670,0.94736923,0.92684267) (0.60095656,0.60095656,0.68022701) (0.60095656,0.60095656,0.73810474) (0.60095656,0.60095656,0.78402734)
(0.86427257,0.60095656,0.70905709) (0.60095656,0.60095656,0.83995701) (0.94316858,0.94736923,0.73576922) (0.60095656,0.60095656,0.60951779) (0.60095656,0.60095656,0.96973939) (0.60095656,0.60095656,0.60100752)
(0.86460726,0.60095656,0.66306966) (0.60095656,0.60095656,0.80455632) (0.94345231,0.94736923,0.79647794) (0.60095656,0.60095656,0.70071391) (0.60095656,0.60095656,0.89438503) (0.60095656,0.60095656,0.73562901)
(0.86483362,0.60095656,0.66973714) (0.60095656,0.60095656,0.85527776) (0.94367194,0.94736923,0.72652943) (0.60095656,0.60095656,0.61050419) (0.60095656,0.60095656,0.96343557) (0.60095656,0.60095656,0.61939961)
(0.86497274,0.60095656,0.65982634) (0.60095656,0.60095656,0.81426879) (0.94383999,0.94736923,0.72961838) (0.60095656,0.60095656,0.69570586) (0.60095656,0.60095656,0.87891847) (0.60095656,0.60095656,0.67771213)
(0.86503378,0.60095656,0.65840091) (0.60095656,0.60095656,0.81992493) (0.94396882,0.94768972,0.60631915) (0.60095656,0.60095656,0.62633060) (0.60095656,0.60095656,0.89437646) (0.60095656,0.60095656,0.61944059)
(0.86531112,0.60095656,0.65062002) (0.60095656,0.60095656,0.73250164) (0.94423393,0.94736498,0.60936068) (0.60095656,0.60095656,0.70620057) (0.60095656,0.60095656,0.81265789) (0.60095656,0.60095656,0.74169316)
(0.84409310,0.60095656,0.64831902) (0.60095656,0.60095656,0.80299934) (0.94423393,0.94768545,0.61688366) (0.60095656,0.60095656,0.62785202) (0.60095656,0.60095656,0.92466947) (0.60095656,0.60095656,0.63141757)
(0.80687213,0.60095656,0.62851258) (0.60095656,0.60095656,0.70564440) (0.94462659,0.94736490,0.82234965) (0.60095656,0.60095656,0.71759965) (0.60095656,0.60095656,0.73480884) (0.60095656,0.60095656,0.71731364)
(0.77375260,0.60095656,0.61514404) (0.60095656,0.60095656,0.61086282) (0.94434121,0.94707807,0.99515199) (0.60095656,0.60095656,0.74466341) (0.60095656,0.60095656,0.77742548) (0.60095656,0.60095656,0.67208161)
(0.69678851,0.60095656,0.61081189) (0.60095656,0.60095656,0.61649514) (0.94368353,0.94682498,0.99611091) (0.60095656,0.60095656,0.73301843) (0.60095656,0.60095656,0.60242322) (0.60095656,0.60095656,0.80993360)
(0.63240404,0.60095656,0.60678471) (0.60095656,0.60095656,0.61126121) (0.94281811,0.94707807,0.96803360) (0.60095656,0.60095656,0.66454673) (0.60095656,0.60095656,0.68497834) (0.60095656,0.60095656,0.69706495)
(0.62874194,0.60095656,0.60664085) (0.60095656,0.60095656,0.60118251) (0.94222772,0.94707807,0.99249082) (0.60095656,0.60095656,0.67358097) (0.60095656,0.60095656,0.60100509) (0.60095656,0.60095656,0.82944824)
(0.61938692,0.60095656,0.60938933) (0.60095656,0.60095656,0.61604468) (0.94150158,0.94682498,0.96835149) (0.60095656,0.60095656,0.68547989) (0.60095656,0.60095656,0.64784010) (0.60095656,0.60095656,0.72000290)
(0.61192015,0.60095656,0.60330252) (0.60095656,0.60095656,0.61165465) (0.94062654,0.94660562,0.67497170) (0.60095656,0.60095656,0.76162974) (0.60095656,0.60095656,0.60413949) (0.60095656,0.60095656,0.82035325)
(0.61145486,0.60095656,0.60347448) (0.60095656,0.60095656,0.62976646) (0.94002767,0.94660562,0.60276332) (0.60095656,0.60095656,0.73924331) (0.60095656,0.60095656,0.61055780) (0.60095656,0.60095656,0.80319498)
(0.61013324,0.60095656,0.60096138) (0.60095656,0.60095656,0.60879581) (0.62157596,0.60095656,0.67236763) (0.60095656,0.60095656,0.77380635) (0.60095656,0.60095656,0.63793436) (0.60095656,0.60095656,0.89149996)
(0.60471372,0.60095656,0.60171158) (0.60095656,0.60095656,0.61895065) (0.93762057,0.94642001,0.60373305) (0.60095656,0.60095656,0.64216480) (0.60095656,0.60095656,0.61764616) (0.60095656,0.60095656,0.80153750)
(0.60154721,0.60095656,0.60112017) (0.60095656,0.60095656,0.60182987) (0.93537830,0.94626788,0.61954935) (0.60095656,0.60095656,0.69454078) (0.60095656,0.60095656,0.62825971) (0.60095656,0.60095656,0.92457816)
(0.60116689,0.60095656,0.60225183) (0.60095656,0.60095656,0.60838878) (0.93225355,0.94614195,0.61305024) (0.60095656,0.60095656,0.71372651) (0.60095656,0.60095656,0.63023486) (0.60095656,0.60095656,0.80944344)
(0.60116809,0.60095656,0.60115119) (0.60095656,0.60095656,0.60780274) (0.92291648,0.94600275,0.79354679) (0.60095656,0.60095656,0.66707084) (0.60095656,0.60095656,0.60153140) (0.60095656,0.60095656,0.84940514)
(0.61004213,0.94979444,0.60095659) (0.60095656,0.60095656,0.60299427) (0.85345117,0.60095677,0.91534580) (0.60095656,0.60095656,0.61208760) (0.60095656,0.60095656,0.62229373) (0.60095656,0.60095656,0.64766680)
(0.60931476,0.95031687,0.60182238) (0.60095656,0.60095656,0.60251024) (0.81899752,0.75809511,0.96331631) (0.60095656,0.60095656,0.60709511) (0.60095656,0.60095656,0.67527923) (0.60095656,0.60095656,0.76897081)
(0.61039533,0.95087276,0.60512625) (0.60095656,0.60095656,0.64496533) (0.79227359,0.94601521,0.98255264) (0.60095656,0.60095656,0.60756925) (0.60095656,0.60095656,0.60586408) (0.60095656,0.60095656,0.66230344)
(0.62894300,0.95146202,0.60679231) (0.60095656,0.60095656,0.63550293) (0.71633895,0.94606588,0.99283279) (0.60095656,0.60095656,0.60123464) (0.60095656,0.60095656,0.63896996) (0.60095656,0.60095656,0.69815602)
(0.84455384,0.95208456,0.61195954) (0.60095656,0.60095656,0.60553622) (0.61527807,0.94615031,0.95495921) (0.60095656,0.60095656,0.60918073) (0.60095656,0.60095656,0.81955965) (0.60095656,0.60095656,0.77290538)
(0.92372334,0.95274025,0.76474390) (0.60095656,0.60095656,0.82792125) (0.76264755,0.94626848,0.95587951) (0.60095656,0.60095656,0.62418778) (0.60095656,0.60095656,0.62950266) (0.60095656,0.60095656,0.79443291)
(0.94304632,0.95274025,0.91992693) (0.60095656,0.60095656,0.91912686) (0.86995640,0.94626848,0.73307054) (0.60095656,0.60095656,0.82298600) (0.60095656,0.60095656,0.72546194) (0.60095656,0.60095656,0.97671104)
(0.94793522,0.95274025,0.97034268) (0.60095656,0.60095656,0.97827727) (0.88177995,0.94626848,0.79667148) (0.60095656,0.60095656,0.87711150) (0.60095656,0.60095656,0.94417650) (0.60095656,0.60095656,0.98711921)
(0.95069558,0.95342896,0.98581478) (0.60095656,0.60095656,0.98413728) (0.89799007,0.94642040,0.81146837) (0.60095656,0.60095656,0.97513445) (0.60095656,0.60095656,0.95185277) (0.60095656,0.60095656,0.99862768)
(0.95251214,0.95415050,0.99275537) (0.60095656,0.60095656,0.99014639) (0.91132627,0.94660607,0.60953181) (0.60095656,0.60095656,0.98711348) (0.60095656,0.60095656,0.97729555) (0.60095656,0.60095656,0.99726165)
(0.95453548,0.95415050,0.99623899) (0.60095656,0.60095656,0.99204370) (0.91415993,0.94660607,0.60147877) (0.60095656,0.60095656,0.99811544) (0.60095656,0.60095656,0.96910207) (0.60095656,0.60095656,0.99984165)
(0.95504031,0.95415050,0.99709860) (0.60095656,0.60095656,0.99195063) (0.91620469,0.94660607,0.66381844) (0.60095656,0.60095656,0.99882829) (0.60095656,0.60095656,0.99118769) (0.60095656,0.60095656,0.99941220)
(0.95157717,0.60095656,0.99374735) (0.60095656,0.60095656,0.99359341) (0.92167526,0.60095656,0.64046914) (0.60095656,0.60095656,0.99939422) (0.60095656,0.60095656,0.93479431) (0.60095656,0.60095656,0.99916222)
(0.64146304,0.60095656,0.63137117) (0.60095656,0.60095656,0.63848534) (0.62806988,0.60095656,0.99391196) (0.60095656,0.60095656,0.67003635) (0.60095656,0.60095656,0.60415850) (0.60095656,0.60095656,0.72574929)
(0.60095656,0.60095656,0.60100906) (0.60095656,0.60095656,0.60817308) (0.60135794,0.60095656,0.92211657) (0.60095656,0.60095656,0.60095871) (0.60095656,0.60095656,0.79052050) (0.60095656,0.60095656,0.67704938)
(0.60095656,0.60095656,0.60456208) (0.60095656,0.60095656,0.62570093) (0.60128385,0.60095656,0.61641629) (0.60095656,0.60095656,0.70746457) (0.60095656,0.60095656,0.75413173) (0.60095656,0.60095656,0.63729534)
(0.60095656,0.60095656,0.60509127) (0.60095656,0.60095656,0.66879152) (0.60124914,0.60095656,0.60809199) (0.60095656,0.60095656,0.62339272) (0.60095656,0.60095656,0.87701718) (0.60095656,0.60095656,0.60177530)
(0.60095656,0.60095656,0.60118641) (0.60095656,0.60095656,0.62150041) (0.60123552,0.60095656,0.64409240) (0.60095656,0.60095656,0.62771775) (0.60095656,0.60095656,0.74890990) (0.60095656,0.60095656,0.62324316)
(0.60095656,0.60095656,0.60138958) (0.60095656,0.60095656,0.61776656) (0.96919853,0.94842696,0.62040949) (0.60095656,0.60095656,0.63676954) (0.60095656,0.60095656,0.79347020) (0.60095656,0.60095656,0.60848336)
(0.60095656,0.60095656,0.60109009) (0.60095656,0.60095656,0.60524966) (0.96998324,0.94884863,0.60133265) (0.60095656,0.60095656,0.70302185) (0.60095656,0.60095656,0.60462116) (0.60095656,0.60095656,0.66591181)
(0.60095656,0.60095656,0.60140103) (0.60095656,0.60095656,0.60573032) (0.97032984,0.94930392,0.62197242) (0.60095656,0.60095656,0.73749418) (0.60095656,0.60095656,0.63689655) (0.60095656,0.60095656,0.63103176)
(0.60095656,0.60095656,0.60110474) (0.60095656,0.60095656,0.60560615) (0.97070266,0.94979281,0.60186364) (0.60095656,0.60095656,0.79857558) (0.60095656,0.60095656,0.60521217) (0.60095656,0.60095656,0.73350804)
(0.60095656,0.60095656,0.60113513) (0.60095656,0.60095656,0.61725096) (0.97105113,0.95031522,0.68704281) (0.60095656,0.60095656,0.65843905) (0.60095656,0.60095656,0.65523912) (0.60095656,0.60095656,0.71346210)
(0.60095656,0.60095656,0.60095677) (0.60095656,0.60095656,0.61379507) (0.97142221,0.95087109,0.60953305) (0.60095656,0.60095656,0.70006677) (0.60095656,0.60095656,0.60737058) (0.60095656,0.60095656,0.66875323)
(0.60095656,0.60095656,0.60205719) (0.60095656,0.60095656,0.64200802) (0.60106894,0.60095656,0.70048181) (0.60095656,0.60095656,0.63186772) (0.60095656,0.60095656,0.70261955) (0.60095656,0.60095656,0.60213727)
(0.60095656,0.60095656,0.60107009) (0.60095656,0.60095656,0.61711055) (0.60106844,0.60095656,0.62858733) (0.60095656,0.60095656,0.78019981) (0.60095656,0.60095656,0.61928935) (0.60095656,0.60095656,0.62681809)
(0.60095656,0.60095656,0.60132719) (0.60095656,0.60095656,0.61796253) (0.60106578,0.60095656,0.61368139) (0.60095656,0.60095656,0.61542763) (0.60095656,0.60095656,0.77885632) (0.60095656,0.60095656,0.61987896)
(0.60095656,0.60095656,0.60098018) (0.60095656,0.60095656,0.60953334) (0.60106020,0.60095656,0.65756018) (0.60095656,0.60095656,0.62861608) (0.60095656,0.60095656,0.67481237) (0.60095656,0.60095656,0.70510767)
(0.60095656,0.60095656,0.60493308) (0.60095656,0.60095656,0.70633135) (0.97368514,0.95342723,0.63918286) (0.60095656,0.60095656,0.66625477) (0.60095656,0.60095656,0.97251060) (0.60095656,0.60095656,0.72002986)
(0.60095656,0.60095656,0.60135067) (0.60095656,0.60095656,0.63657024) (0.97415818,0.95414875,0.61672432) (0.60095656,0.60095656,0.62777442) (0.60095656,0.60095656,0.73141320) (0.60095656,0.60095656,0.61242379)
(0.60095656,0.60095656,0.60276847) (0.60095656,0.60095656,0.65355824) (0.60105012,0.60095656,0.61609139) (0.60095656,0.60095656,0.78610048) (0.60095656,0.60095656,0.77859413) (0.60095656,0.60095656,0.60382857)
(0.60095656,0.60095656,0.60125129) (0.60095656,0.60095656,0.64096929) (0.60097906,0.60095656,0.64103298) (0.60095656,0.60095656,0.62246436) (0.60095656,0.60095656,0.70880417) (0.60095656,0.60095656,0.63203483)
(0.60095656,0.60095656,0.60262511) (0.60095656,0.60095656,0.61983958) (0.60095656,0.60095656,0.65793606) (0.60095656,0.60095656,0.74349384) (0.60095656,0.60095656,0.86897622) (0.60095656,0.60095656,0.60993896)
(0.60095656,0.60095656,0.60394067) (0.60095656,0.60095656,0.65280441) (0.60095656,0.60095656,0.65210386) (0.60095656,0.60095656,0.86876212) (0.60095656,0.60095656,0.60589984) (0.60095656,0.60095656,0.73051601)
(0.60095656,0.60095656,0.60588971) (0.60095656,0.60095656,0.62274592) (0.60095656,0.60095656,0.65451505) (0.60095656,0.60095656,0.84624229) (0.60095656,0.60095656,0.73743410) (0.60095656,0.60095656,0.67699788)
(0.60095656,0.60095656,0.60096059) (0.60095656,0.60095656,0.64044530) (0.97869854,0.95824068,0.70307215) (0.60095656,0.60095656,0.80290176) (0.60095656,0.60095656,0.60230091) (0.60095656,0.60095656,0.68574321)
(0.60095656,0.60095656,0.60102595) (0.60095656,0.60095656,0.65342516) (0.97930264,0.95915369,0.75970301) (0.60095656,0.60095656,0.71138002) (0.60095656,0.60095656,0.77406845) (0.60095656,0.60095656,0.62701789)
(0.60095656,0.60095656,0.60150763) (0.60095656,0.60095656,0.62588264) (0.97992817,0.96009727,0.70393941) (0.60095656,0.60095656,0.65474230) (0.60095656,0.60095656,0.63045161) (0.60095656,0.60095656,0.81520765)
(0.60095656,0.60095656,0.60215748) (0.60095656,0.60095656,0.67193384) (0.98055075,0.96107087,0.65081308) (0.60095656,0.60095656,0.60711743) (0.60095656,0.60095656,0.64594466) (0.60095656,0.60095656,0.68451263)
(0.60095656,0.60095656,0.60096777) (0.60095656,0.60095656,0.61806350) (0.60095656,0.60095656,0.63254331) (0.60095656,0.60095656,0.61499489) (0.60095656,0.60095656,0.72185578) (0.60095656,0.60095656,0.89392096)
(0.60095656,0.60095656,0.60114903) (0.60095656,0.60095656,0.68807978) (0.60095656,0.60095656,0.68249348) (0.60095656,0.60095656,0.60230538) (0.60095656,0.60095656,0.90081910) (0.60095656,0.60095656,0.60993307)
(0.60095656,0.60095656,0.60108499) (0.60095656,0.60095656,0.62943081) (0.60095656,0.60095656,0.61725643) (0.60095656,0.60095656,0.65839282) (0.60095656,0.60095656,0.60913625) (0.60095656,0.60095656,0.65045931)
(0.60095656,0.60095656,0.60097206) (0.60095656,0.60095656,0.62225423) (0.60095656,0.60095656,0.60201281) (0.60095656,0.60095656,0.61030267) (0.60095656,0.60095656,0.69904340) (0.60095656,0.60095656,0.62721393)
(0.60095656,0.60095656,0.60122439) (0.60095656,0.60095656,0.61640015) (0.60095656,0.60095656,0.60164693) (0.60095656,0.60095656,0.64727789) (0.60095656,0.60095656,0.60128489) (0.60095656,0.60095656,0.66932297)
(0.60095656,0.60095656,0.60151343) (0.60095656,0.60095656,0.61871529) (0.60095656,0.60095656,0.60288541) (0.60095656,0.60095656,0.67021708) (0.60095656,0.60095656,0.70280734) (0.60095656,0.60095656,0.60890181)
(0.60095656,0.60095656,0.60146751) (0.60095656,0.60095656,0.60099945) (0.60095656,0.60095656,0.61624354) (0.60095656,0.60095656,0.60095661) (0.60095656,0.60095656,0.65848533) (0.60095656,0.60095656,0.62808009)
(0.60095656,0.60095656,0.60096069) (0.60095656,0.60095656,0.63582325) (0.60095656,0.60095656,0.62053510) (0.60095656,0.60095656,0.60169381) (0.60095656,0.60095656,0.80157499) (0.60095656,0.60095656,0.64259739)
(0.60095656,0.60095656,0.60199049) (0.60095656,0.60095656,0.60096591) (0.60095656,0.60095656,0.61326968) (0.60095656,0.60095656,0.78616804) (0.60095656,0.60095656,0.63078477) (0.60095656,0.60095656,0.60156307)
(0.60095656,0.60095656,0.60107731) (0.60095656,0.60095656,0.60351991) (0.60095656,0.60095656,0.71034089) (0.60095656,0.60095656,0.60190671) (0.60095656,0.60095656,0.82528200) (0.60095656,0.60095656,0.62993196)
(0.60095656,0.60095656,0.60108368) (0.60095656,0.60095656,0.60539584) (0.60095656,0.60095656,0.62065440) (0.60095656,0.60095656,0.67083352) (0.60095656,0.60095656,0.61395641) (0.60095656,0.60095656,0.61097440)
(0.60095656,0.60095656,0.60746604) (0.60095656,0.60095656,0.68371592) (0.60095656,0.60095656,0.61136195) (0.60095656,0.60095656,0.60539514) (0.60095656,0.60095656,0.91946952) (0.60095656,0.60095656,0.65789161)
(0.60095656,0.60095656,0.60327978) (0.60095656,0.60095656,0.62028969) (0.60095656,0.60095656,0.60713049) (0.60095656,0.60095656,0.62771760) (0.60095656,0.60095656,0.66414258) (0.60095656,0.60095656,0.64575618)
(0.60095656,0.60095656,0.60168519) (0.60095656,0.60095656,0.73263779) (0.60095656,0.60095656,0.62490609) (0.60095656,0.60095656,0.64051041) (0.60095656,0.60095656,0.76752945) (0.60095656,0.60095656,0.60269027)
(0.60095656,0.60095656,0.60148369) (0.60095656,0.60095656,0.73222646) (0.60095656,0.60095656,0.60152246) (0.60095656,0.60095656,0.63280267) (0.60095656,0.60095656,0.74769887) (0.60095656,0.60095656,0.78260566)
(0.60095656,0.60095656,0.60199625) (0.60095656,0.60095656,0.76683156) (0.60095656,0.60095656,0.60100925) (0.60095656,0.60095656,0.67934077) (0.60095656,0.60095656,0.60393260) (0.60095656,0.60095656,0.61940301)
(0.60095656,0.60095656,0.60293702) (0.60095656,0.60095656,0.65728077) (0.60095656,0.60095656,0.60278813) (0.60095656,0.60095656,0.60115474) (0.60095656,0.60095656,0.69359572) (0.60095656,0.60095656,0.68928530)
(0.60095656,0.60095656,0.60315199) (0.60095656,0.60095656,0.67888984) (0.60095656,0.60095656,0.60418266) (0.60095656,0.60095656,0.73138506) (0.60095656,0.60095656,0.62255550) (0.60095656,0.60095656,0.61773716)
(0.60095656,0.60095656,0.60285455) (0.60095656,0.60095656,0.60695044) (0.60095656,0.60095656,0.60145793) (0.60095656,0.60095656,0.61208098) (0.60095656,0.60095656,0.64319096) (0.60095656,0.60095656,0.89788532)
(0.60095656,0.60095656,0.60231486) (0.60095656,0.60095656,0.60767239) (0.60095656,0.60095656,0.62555441) (0.60095656,0.60095656,0.77967417) (0.60095656,0.60095656,0.61330914) (0.60095656,0.60095656,0.67603674)
(0.60095656,0.60095656,0.60532119) (0.60095656,0.60095656,0.60097796) (0.60095656,0.60095656,0.64073474) (0.60095656,0.60095656,0.76157388) (0.60095656,0.60095656,0.62425702) (0.60095656,0.60095656,0.83589342)
(0.60095656,0.60095656,0.60164111) (0.60095656,0.60095656,0.62653012) (0.60095656,0.60095656,0.62537599) (0.60095656,0.60095656,0.90517388) (0.60095656,0.60095656,0.60342438) (0.60095656,0.60095656,0.62626963)
(0.60095656,0.60095656,0.60113240) (0.60095656,0.60095656,0.64096918) (0.60095656,0.60095656,0.61281574) (0.60095656,0.60095656,0.71307493) (0.60095656,0.60095656,0.60464644) (0.60095656,0.60095656,0.86107386)
(0.60095656,0.60095656,0.60102780) (0.60095656,0.60095656,0.61445319) (0.60095656,0.60095656,0.60553528) (0.60095656,0.60095656,0.70422618) (0.60095656,0.60095656,0.79697467) (0.60095656,0.60095656,0.69366470)
(0.60095656,0.60095656,0.60654583) (0.60095656,0.60095656,0.64909163) (0.60095656,0.60095656,0.60164673) (0.60095656,0.60095656,0.61981608) (0.60095656,0.60095656,0.60920932) (0.60095656,0.60095656,0.90335212)
(0.60095656,0.60095656,0.60964705) (0.60095656,0.60095656,0.60993939) (0.60095656,0.60095656,0.69924547) (0.60095656,0.60095656,0.94112822) (0.60095656,0.60095656,0.99097023) (0.60095656,0.60095656,0.86749374)
(0.60095656,0.60095656,0.62214433) (0.60095656,0.60095656,0.63104820) (0.60095656,0.60095656,0.66054488) (0.60095656,0.60095656,0.79970313) (0.60095656,0.60095656,0.74457745) (0.60095656,0.60095656,0.67070286)
(0.60095656,0.60095656,0.60229528) (0.60095656,0.60095656,0.62331924) (0.60095656,0.60095656,0.66936016) (0.60095656,0.60095656,0.68220115) (0.60095656,0.60095656,0.93088248) (0.60095656,0.60095656,0.60532771)
(0.60095656,0.60095656,0.60732864) (0.60095656,0.60095656,0.70602834) (0.60095656,0.60095656,0.70816963) (0.60095656,0.60095656,0.71175032) (0.60095656,0.60095656,0.70304153) (0.60095656,0.60095656,0.63880890)
(0.60095656,0.60095656,0.60362033) (0.60095656,0.60095656,0.60173815) (0.60095656,0.60095656,0.63301326) (0.60095656,0.60095656,0.72277614) (0.60095656,0.60095656,0.94558538) (0.60095656,0.60095656,0.60801018)
(0.60095656,0.60095656,0.69716890) (0.60095656,0.60095656,0.74822151) (0.60095656,0.60095656,0.66300581) (0.60095656,0.60095656,0.63064925) (0.60095656,0.60095656,0.60635753) (0.60095656,0.60095656,0.64082130)
(0.60095656,0.60095656,0.68051552) (0.60095656,0.60095656,0.73864238) (0.60095656,0.60095656,0.64603137) (0.60095656,0.60095656,0.60589264) (0.60095656,0.60095656,0.80002767) (0.60095656,0.60095656,0.67906382)
(0.60095656,0.60095656,0.64720155) (0.60095656,0.60095656,0.63403710) (0.60095656,0.60095656,0.66179555) (0.60095656,0.60095656,0.88258252) (0.60095656,0.60095656,0.73298916) (0.60095656,0.60095656,0.75922135)
(0.60095656,0.60095656,0.60101751) (0.60095656,0.60095656,0.76656962) (0.60095656,0.60095656,0.71344248) (0.60095656,0.60095656,0.91425618) (0.60095656,0.60095656,0.85634579) (0.60095656,0.60095656,0.60124544)
(0.60095656,0.60095656,0.75243535) (0.60095656,0.60095656,0.63227330) (0.60095656,0.60095656,0.72067640) (0.60095656,0.60095656,0.96675868) (0.60095656,0.60095656,0.60112947) (0.60095656,0.60095656,0.73563766)
(0.60095656,0.60095656,0.62793611) (0.60095656,0.60095656,0.60859198) (0.60095656,0.60095656,0.64786604) (0.60095656,0.60095656,0.95803076) (0.60095656,0.60095656,0.74372091) (0.60095656,0.60095656,0.68179810)
(0.60095656,0.60095656,0.70430585) (0.60095656,0.60095656,0.61035078) (0.60095656,0.60095656,0.68725016) (0.60095656,0.60095656,0.97006620) (0.60095656,0.60095656,0.60126317) (0.60095656,0.60095656,0.88925417)
(0.60095656,0.60095656,0.67559904) (0.60095656,0.60095656,0.97611305) (0.60095656,0.60095656,0.73702614) (0.60095656,0.60095656,0.92136868) (0.60095656,0.60095656,0.86905450) (0.60095656,0.60095656,0.65336142)
(0.84978602,0.99733222,0.79050321) (0.60095656,0.60095656,0.67823073) (0.67284415,0.98246725,0.65380244) (0.60095656,0.60095656,0.60182398) (0.60095656,0.60095656,0.67092247) (0.60095656,0.60095656,0.83802398)
(0.99986283,0.99733222,0.99078866) (0.60095656,0.60095656,0.73633099) (0.92114810,0.98246725,0.67562248) (0.60095656,0.60095656,0.60906507) (0.60095656,0.60095656,0.64603669) (0.60095656,0.60095656,0.67910083)
(0.99999997,0.99733222,0.98828382) (0.60095656,0.60095656,0.60581696) (0.98563449,0.98246725,0.65898419) (0.60095656,0.60095656,0.60252032) (0.60095656,0.60095656,0.63757254) (0.60095656,0.60095656,0.68981360)
(1.00000000,0.99733222,0.99998158) (0.60095656,0.60095656,0.78201464) (0.99855292,0.98246725,0.66627513) (0.60095656,0.60095656,0.60149157) (0.60095656,0.60095656,0.62624485) (0.60095656,0.60095656,0.60095912)
(1.00000000,0.99733222,1.00000000) (0.60095656,0.60095656,0.99998416) (0.99897368,0.98246725,0.78091985) (0.60095656,0.60095656,0.99380510) (0.60095656,0.60095656,0.99948022) (0.60095656,0.60095656,0.98478331)
(1.00000000,0.99733222,1.00000000) (0.60095656,0.60095656,1.00000000) (0.99921212,0.98246725,0.88382109) (0.60095656,0.60095656,1.00000000) (0.60095656,0.60095656,0.99999895) (0.60095656,0.60095656,1.00000000)
(1.00000000,0.99733222,1.00000000) (0.60095656,0.60095656,1.00000000) (0.99935154,0.98246725,0.89345297) (0.60095656,0.60095656,1.00000000) (0.60095656,0.60095656,1.00000000) (0.60095656,0.60095656,1.00000000)
(1.00000000,0.60095656,1.00000000) (0.60095656,0.60095656,0.94467828) (0.99868166,0.60095656,0.82727668) (0.60095656,0.60095656,0.99964455) (0.60095656,0.60095656,0.88724810) (0.60095656,0.60095656,0.99711668)
(0.60095656,0.60095656,0.84857721) (0.60095656,0.60095656,0.84387328) (0.99968706,0.98246725,0.74266230) (0.60095656,0.60095656,0.71580361) (0.60095656,0.60095656,0.70244543) (0.60095656,0.60095656,0.60266844)
(0.99979994,0.60095656,0.72360801) (0.60095656,0.60095656,0.94943665) (0.91486051,0.60095656,0.60095717) (0.60095656,0.60095656,0.71727204) (0.60095656,0.60095656,0.88869568) (0.60095656,0.60095656,0.81316122)
(0.69939553,0.60095656,0.62134026) (0.60095656,0.60095656,0.61720370) (0.62328901,0.60095656,0.60670009) (0.60095656,0.60095656,0.69509667) (0.60095656,0.60095656,0.71175267) (0.60095656,0.60095656,0.65808685)
(0.60095656,0.60095656,0.89813256) (0.60095656,0.60095656,0.80763719) (0.60095656,0.60095656,0.65312890) (0.60095656,0.60095656,0.60096177) (0.60095656,0.60095656,0.99585301) (0.60095656,0.60095656,0.97641841)
(0.60222757,0.99733222,0.83105305) (0.60095656,0.60095656,0.62159745) (0.60121529,0.98246725,0.80544286) (0.60095656,0.60095656,0.71085976) (0.60095656,0.60095656,0.60325955) (0.60095656,0.60095656,0.69300255)
(0.60095656,0.60095656,0.86711373) (0.60095656,0.60095656,0.60601628) (0.60095656,0.60095656,0.91323763) (0.60095656,0.60095656,0.84052027) (0.60095656,0.60095656,0.62830661) (0.60095656,0.60095656,0.80755345)
(0.60095656,0.60095656,0.65374683) (0.60095656,0.60095656,0.63769809) (0.60095656,0.60095656,0.83446071) (0.60095656,0.60095656,0.88409114) (0.60095656,0.60095656,0.68460497) (0.60095656,0.60095656,0.66535290)
(0.60503674,0.60095656,0.92258121) (0.60095656,0.60095656,0.62898607) (0.60178949,0.60095656,0.81962891) (0.60095656,0.60095656,0.60744375) (0.60095656,0.60095656,0.69517259) (0.60095656,0.60095656,0.77148251)
(0.60241529,0.99733222,0.76873864) (0.60095656,0.60095656,0.60526797) (0.60125356,0.98246725,0.73982010) (0.60095656,0.60095656,0.72203059) (0.60095656,0.60095656,0.69373126) (0.60095656,0.60095656,0.66027353)
(0.60268555,0.99733222,0.80952709) (0.60095656,0.60095656,0.61004410) (0.60130868,0.98246725,0.68889990) (0.60095656,0.60095656,0.61678448) (0.60095656,0.60095656,0.80933496) (0.60095656,0.60095656,0.68731735)
(0.60095656,0.60095656,0.72667332) (0.60095656,0.60095656,0.60097538) (0.60095656,0.60095656,0.71042281) (0.60095656,0.60095656,0.60410866) (0.60095656,0.60095656,0.67381794) (0.60095656,0.60095656,0.68355370)
(0.60095656,0.60095656,0.73420052) (0.60095656,0.60095656,0.70538008) (0.60095656,0.60095656,0.79831285) (0.60095656,0.60095656,0.60102354) (0.60095656,0.60095656,0.65353847) (0.60095656,0.60095656,0.61246358)
(0.60247658,0.60095656,0.68949001) (0.60095656,0.60095656,0.76410334) (0.60128645,0.60095656,0.78384635) (0.60095656,0.60095656,0.79423134) (0.60095656,0.60095656,0.80115181) (0.60095656,0.60095656,0.76908493)
(0.60700200,0.60095656,0.63365510) (0.60095656,0.60095656,0.65852790) (0.60219313,0.60095656,0.70517974) (0.60095656,0.60095656,0.63244494) (0.60095656,0.60095656,0.65644384) (0.60095656,0.60095656,0.69333644)
(0.60095656,0.60095656,0.65519491) (0.60095656,0.60095656,0.66102499) (0.60095656,0.60095656,0.68593555) (0.60095656,0.60095656,0.63485173) (0.60095656,0.60095656,0.76452343) (0.60095656,0.60095656,0.60185826)
(0.60095656,0.60095656,0.68659269) (0.60095656,0.60095656,0.73387889) (0.60095656,0.60095656,0.71918858) (0.60095656,0.60095656,0.91336699) (0.60095656,0.60095656,0.76844695) (0.60095656,0.60095656,0.88757685)
(0.60095656,0.60095656,0.61099099) (0.60095656,0.60095656,0.62555639) (0.60095656,0.60095656,0.70947770) (0.60095656,0.60095656,0.67901220) (0.60095656,0.60095656,0.81627118) (0.60095656,0.60095656,0.60387424)
(0.60095656,0.60095656,0.62127388) (0.60095656,0.60095656,0.60171720) (0.60095656,0.60095656,0.72964352) (0.60095656,0.60095656,0.93866237) (0.60095656,0.60095656,0.68896832) (0.60095656,0.60095656,0.76111448)
(0.60464550,0.60095656,0.62253882) (0.60095656,0.60095656,0.64185931) (0.60155409,0.60095656,0.70445863) (0.60095656,0.60095656,0.93044279) (0.60095656,0.60095656,0.64186892) (0.60095656,0.60095656,0.61939747)
(0.60565613,0.60095656,0.63553218) (0.60095656,0.60095656,0.60117451) (0.60171257,0.60095656,0.64481600) (0.60095656,0.60095656,0.65899089) (0.60095656,0.60095656,0.91489311) (0.60095656,0.60095656,0.85157145)
(0.60236972,0.99944818,0.60247417) (0.60095656,0.60095656,0.63145581) (0.60115453,0.98299009,0.62425544) (0.60095656,0.60095656,0.60527014) (0.60095656,0.60095656,0.61638883) (0.60095656,0.60095656,0.64285305)
(0.60326767,0.99965097,0.63760672) (0.60095656,0.60095656,0.60928770) (0.60119351,0.98404100,0.61671923) (0.60095656,0.60095656,0.80242347) (0.60095656,0.60095656,0.94131848) (0.60095656,0.60095656,0.80736039)
(0.60445571,0.60095656,0.72282079) (0.60095656,0.60095656,0.60974425) (0.60121148,0.60095656,0.60592268) (0.60095656,0.60095656,0.60133977) (0.60095656,0.60095656,0.60984991) (0.60095656,0.60095656,0.68569536)
(0.60533958,0.60095656,0.79699961) (0.60095656,0.60095656,0.64080358) (0.60121549,0.60095656,0.62142453) (0.60095656,0.60095656,0.60425283) (0.60095656,0.60095656,0.78690168) (0.60095656,0.60095656,0.75998046)
(0.60697310,0.99995227,0.81964180) (0.60095656,0.60095656,0.66410985) (0.60122592,0.98721089,0.60526018) (0.60095656,0.60095656,0.73714340) (0.60095656,0.60095656,0.60099512) (0.60095656,0.60095656,0.61569743)
(0.60956793,0.99998238,0.62740656) (0.60095656,0.60095656,0.60178338) (0.60122126,0.98826215,0.61820413) (0.60095656,0.60095656,0.61580086) (0.60095656,0.60095656,0.77721178) (0.60095656,0.60095656,0.91577652)
(0.60863834,0.99998238,0.60914655) (0.60095656,0.60095656,0.62026559) (0.60120507,0.98950766,0.62482302) (0.60095656,0.60095656,0.60456726) (0.60095656,0.60095656,0.62663347) (0.60095656,0.60095656,0.64677653)
(0.60095656,0.60095656,0.60681316) (0.60095656,0.60095656,0.60095879) (0.60095656,0.60095656,0.67462252) (0.60095656,0.60095656,0.63533438) (0.60095656,0.60095656,0.62109746) (0.60095656,0.60095656,0.97358093)
(0.60095656,0.60095656,0.72309769) (0.60095656,0.60095656,0.66718818) (0.60095656,0.60095656,0.62406668) (0.60095656,0.60095656,0.60111790) (0.60095656,0.60095656,0.82934608) (0.60095656,0.60095656,0.61987291)
(0.60095656,0.60095656,0.78030056) (0.60095656,0.60095656,0.60643309) (0.60095656,0.60095656,0.66924937) (0.60095656,0.60095656,0.78735859) (0.60095656,0.60095656,0.65739474) (0.60095656,0.60095656,0.79781962)
(0.66692207,0.60095656,0.86732303) (0.60095656,0.60095656,0.64859711) (0.60173364,0.60095656,0.68145352) (0.60095656,0.60095656,0.76212014) (0.60095656,0.60095656,0.99277097) (0.60095656,0.60095656,0.62512753)
(0.60095656,0.60095656,0.87937129) (0.60095656,0.60095656,0.62271307) (0.60095656,0.60095656,0.63650787) (0.60095656,0.60095656,0.72443963) (0.60095656,0.60095656,0.74117051) (0.60095656,0.60095656,0.65626985)
(0.60095656,0.60095656,0.85176038) (0.60095656,0.60095656,0.61557439) (0.60095656,0.60095656,0.66283618) (0.60095656,0.60095656,0.60377075) (0.60095656,0.60095656,0.90370491) (0.60095656,0.60095656,0.72685607)
(0.60095656,0.60095656,0.67652954) (0.60095656,0.60095656,0.61039291) (0.60095656,0.60095656,0.63965673) (0.60095656,0.60095656,0.60957339) (0.60095656,0.60095656,0.79826771) (0.60095656,0.60095656,0.60155558)
(0.66735930,0.60095656,0.60889837) (0.60095656,0.60095656,0.94702511) (0.60180549,0.60095656,0.66169683) (0.60095656,0.60095656,0.99056769) (0.60095656,0.60095656,0.96342308) (0.60095656,0.60095656,0.77311186)
(0.60095656,0.60095656,0.61019209) (0.60095656,0.60095656,0.85347832) (0.60095656,0.60095656,0.65031711) (0.60095656,0.60095656,0.60731658) (0.60095656,0.60095656,0.70504174) (0.60095656,0.60095656,0.70297667)
(0.60095656,0.60095656,0.60345784) (0.60095656,0.60095656,0.97599524) (0.60095656,0.60095656,0.67179602) (0.60095656,0.60095656,0.60236005) (0.60095656,0.60095656,0.92044114) (0.60095656,0.60095656,0.97473919)
(0.60095656,0.60095656,0.70646357) (0.60095656,0.60095656,0.74683097) (0.60095656,0.60095656,0.63489598) (0.60095656,0.60095656,0.61441765) (0.60095656,0.60095656,0.71603463) (0.60095656,0.60095656,0.74644725)
(0.60095656,0.60095656,0.60096879) (0.60095656,0.60095656,0.93031475) (0.60095656,0.60095656,0.64275910) (0.60095656,0.60095656,0.74876641) (0.60095656,0.60095656,0.93046369) (0.60095656,0.60095656,0.95420145)
(0.60095656,0.60095656,0.70776433) (0.60095656,0.60095656,0.60268503) (0.60095656,0.60095656,0.61966149) (0.60095656,0.60095656,0.71758357) (0.60095656,0.60095656,0.61946151) (0.60095656,0.60095656,0.62806043)
(0.61213905,0.60095656,0.64920643) (0.60095656,0.60095656,0.68948056) (0.60131233,0.60095656,0.61992477) (0.60095656,0.60095656,0.60095915) (0.60095656,0.60095656,0.87583128) (0.60095656,0.60095656,0.89783481)
(0.60095656,0.60095656,0.78732187) (0.60095656,0.60095656,0.71122308) (0.60095656,0.60095656,0.60096064) (0.60095656,0.60095656,0.60522733) (0.60095656,0.60095656,0.65880155) (0.60095656,0.60095656,0.83075045)
(0.60095656,0.60095656,0.66537871) (0.60095656,0.60095656,0.60706247) (0.60095656,0.60095656,0.60135570) (0.60095656,0.60095656,0.81222402) (0.60095656,0.60095656,0.83864125) (0.60095656,0.60095656,0.80119505)
(0.60095656,0.60095656,0.67272967) (0.60095656,0.60095656,0.60771909) (0.60095656,0.60095656,0.60544816) (0.60095656,0.60095656,0.78805870) (0.60095656,0.60095656,0.60120373) (0.60095656,0.60095656,0.60199035)
(0.60095656,0.60095656,0.73402890) (0.60095656,0.60095656,0.60099199) (0.60095656,0.60095656,0.60097406) (0.60095656,0.60095656,0.90064707) (0.60095656,0.60095656,0.81923655) (0.60095656,0.60095656,0.79070311)
(0.60095656,0.60095656,0.67666787) (0.60095656,0.60095656,0.60098658) (0.60095656,0.60095656,0.60102279) (0.60095656,0.60095656,0.60576607) (0.60095656,0.60095656,0.74572714) (0.60095656,0.60095656,0.69858678)
(0.60095656,0.60095656,0.60101187) (0.60095656,0.60095656,0.62384821) (0.60095656,0.60095656,0.62183248) (0.60095656,0.60095656,0.88714966) (0.60095656,0.60095656,0.85176439) (0.60095656,0.60095656,0.60398825)
(0.60095656,0.60095656,0.66016927) (0.60095656,0.60095656,0.75605485) (0.60095656,0.60095656,0.60211003) (0.60095656,0.60095656,0.73221067) (0.60095656,0.60095656,0.74176658) (0.60095656,0.60095656,0.91740350)
(0.60095656,0.60095656,0.61977976) (0.60095656,0.60095656,0.60114430) (0.60095656,0.60095656,0.60214530) (0.60095656,0.60095656,0.79551447) (0.60095656,0.60095656,0.61275609) (0.60095656,0.60095656,0.65777556)
(0.60095656,0.60095656,0.67557816) (0.60095656,0.60095656,0.66235248) (0.60095656,0.60095656,0.60583821) (0.60095656,0.60095656,0.73743555) (0.60095656,0.60095656,0.84816703) (0.60095656,0.60095656,0.92238657)
(0.60095656,0.60095656,0.71918843) (0.60095656,0.60095656,0.63360836) (0.60095656,0.60095656,0.60800690) (0.60095656,0.60095656,0.69491801) (0.60095656,0.60095656,0.60241868) (0.60095656,0.60095656,0.60413052)
(0.60095656,0.60095656,0.83153396) (0.60095656,0.60095656,0.69754832) (0.60095656,0.60095656,0.60111846) (0.60095656,0.60095656,0.82740149) (0.60095656,0.60095656,0.93854651) (0.60095656,0.60095656,0.82916038)
(0.60095656,0.60095656,0.74539223) (0.60095656,0.60095656,0.73682968) (0.60095656,0.60095656,0.60539002) (0.60095656,0.60095656,0.90944420) (0.60095656,0.60095656,0.67066935) (0.60095656,0.60095656,0.60341927)
(0.60095656,0.60095656,0.88969180) (0.60095656,0.60095656,0.72543947) (0.60095656,0.60095656,0.62801469) (0.60095656,0.60095656,0.65457256) (0.60095656,0.60095656,0.93363110) (0.60095656,0.60095656,0.61047695)
(0.60095656,0.60095656,0.67826258) (0.60095656,0.60095656,0.60225836) (0.60095656,0.60095656,0.63264352) (0.60095656,0.60095656,0.73424786) (0.60095656,0.60095656,0.62304180) (0.60095656,0.60095656,0.73357114)
(0.60095656,0.60095656,0.80446875) (0.60095656,0.60095656,0.67073581) (0.60095656,0.60095656,0.61937221) (0.60095656,0.60095656,0.67076904) (0.60095656,0.60095656,0.90362773) (0.60095656,0.60095656,0.60902296)
(0.60095656,0.60095656,0.63466499) (0.60095656,0.60095656,0.60610761) (0.60095656,0.60095656,0.60096030) (0.60095656,0.60095656,0.62711945) (0.60095656,0.60095656,0.80450641) (0.60095656,0.60095656,0.91861938)
(0.60095656,0.60095656,0.61826099) (0.60095656,0.60095656,0.61074986) (0.60095656,0.60095656,0.60204273) (0.60095656,0.60095656,0.62163158) (0.60095656,0.60095656,0.60682458) (0.60095656,0.60095656,0.66247327)
(0.60095656,0.60095656,0.62230341) (0.60095656,0.60095656,0.84969728) (0.60095656,0.60095656,0.62676945) (0.60095656,0.60095656,0.62982595) (0.60095656,0.60095656,0.81628198) (0.60095656,0.60095656,0.88741637)
(0.60095656,0.60095656,0.61436415) (0.60095656,0.60095656,0.71297539) (0.60095656,0.60095656,0.61014687) (0.60095656,0.60095656,0.62777613) (0.60095656,0.60095656,0.60237242) (0.60095656,0.60095656,0.65079110)
(0.60095656,0.60095656,0.64172858) (0.60095656,0.60095656,0.80838991) (0.60095656,0.60095656,0.60642867) (0.60095656,0.60095656,0.81319784) (0.60095656,0.60095656,0.89119277) (0.60095656,0.60095656,0.88010216)
(0.60095656,0.60095656,0.71473284) (0.60095656,0.60095656,0.62068422) (0.60095656,0.60095656,0.60105896) (0.60095656,0.60095656,0.67207125) (0.60095656,0.60095656,0.67785011) (0.60095656,0.60095656,0.61752780)
(0.60095656,0.60095656,0.61962562) (0.60095656,0.60095656,0.62926898) (0.60095656,0.60095656,0.60223320) (0.60095656,0.60095656,0.84475988) (0.60095656,0.60095656,0.65925447) (0.60095656,0.60095656,0.96391477)
(0.60095656,0.60095656,0.76097310) (0.60095656,0.60095656,0.89556620) (0.60095656,0.60095656,0.69325410) (0.60095656,0.60095656,0.86683847) (0.60095656,0.60095656,0.72941323) (0.60095656,0.60095656,0.61071095)
(0.68451749,0.99945446,0.60855135) (0.60095656,0.60095656,0.90885651) (0.61465637,0.99488780,0.79397463) (0.60095656,0.60095656,0.98742016) (0.60095656,0.60095656,0.63775175) (0.60095656,0.60095656,0.70352631)
(0.99909679,0.99942672,0.62331324) (0.60095656,0.60095656,0.76081816) (0.83869938,0.99472938,0.80814165) (0.60095656,0.60095656,0.91367255) (0.60095656,0.60095656,0.84539120) (0.60095656,0.60095656,0.60420512)
(0.99987152,0.99901581,0.97648323) (0.60095656,0.60095656,0.68237432) (0.92595073,0.99472938,0.85044839) (0.60095656,0.60095656,0.60631309) (0.60095656,0.60095656,0.60486709) (0.60095656,0.60095656,0.64541883)
(0.99998649,0.99901581,0.98901942) (0.60095656,0.60095656,0.66545958) (0.93243198,0.99346525,0.80627547) (0.60095656,0.60095656,0.83414461) (0.60095656,0.60095656,0.91896997) (0.60095656,0.60095656,0.85235269)
(1.00000000,0.99897052,0.99897251) (0.60095656,0.60095656,0.60098450) (0.99997289,0.99327564,0.79752449) (0.60095656,0.60095656,0.69123476) (0.60095656,0.60095656,0.71870373) (0.60095656,0.60095656,0.64830209)
(1.00000000,0.99892316,1.00000000) (0.60095656,0.60095656,0.99999128) (0.99999944,0.99308064,0.90488385) (0.60095656,0.60095656,0.92341461) (0.60095656,0.60095656,0.75008944) (0.60095656,0.60095656,0.99949934)
(1.00000000,0.99887363,1.00000000) (0.60095656,0.60095656,1.00000000) (0.99999963,0.99288010,0.97168277) (0.60095656,0.60095656,0.99733210) (0.60095656,0.60095656,0.99999914) (0.60095656,0.60095656,0.99999966)
(1.00000000,0.99882183,1.00000000) (0.60095656,0.60095656,1.00000000) (0.99999967,0.99267387,0.99321445) (0.60095656,0.60095656,0.99999999) (0.60095656,0.60095656,0.99990732) (0.60095656,0.60095656,1.00000000)
(1.00000000,0.99876766,1.00000000) (0.60095656,0.60095656,1.00000000) (0.99999968,0.99246181,0.99224772) (0.60095656,0.60095656,1.00000000) (0.60095656,0.60095656,1.00000000) (0.60095656,0.60095656,1.00000000)
(1.00000000,0.99871102,1.00000000) (0.60095656,0.60095656,1.00000000) (0.99999966,0.99224374,0.99620399) (0.60095656,0.60095656,1.00000000) (0.60095656,0.60095656,1.00000000) (0.60095656,0.60095656,1.00000000)
(1.00000000,0.60095656,1.00000000) (0.60095656,0.60095656,1.00000000) (0.99999964,0.60095656,0.99776921) (0.60095656,0.60095656,0.99997665) (0.60095656,0.60095656,1.00000000) (0.60095656,0.60095656,1.00000000)
(1.00000000,0.60095656,0.99999996) (0.60095656,0.60095656,0.75333521) (0.99998830,0.60095656,0.90993597) (0.60095656,0.60095656,0.60409387) (0.60095656,0.60095656,0.68589634) (0.60095656,0.60095656,0.93316384)
(0.99999813,0.60095656,0.96561314) (0.60095656,0.60095656,0.70091988) (0.97465234,0.60095656,0.75152524) (0.60095656,0.60095656,0.68393490) (0.60095656,0.60095656,0.72394736) (0.60095656,0.60095656,0.86145830)
(0.92397765,0.99785658,0.68640832) (0.60095656,0.60095656,0.86459554) (0.70892067,0.99020165,0.61021354) (0.60095656,0.60095656,0.66543250) (0.60095656,0.60095656,0.60439991) (0.60095656,0.60095656,0.79849946)
(0.60095656,0.60095656,0.60233540) (0.60095656,0.60095656,0.77006095) (0.60095656,0.60095656,0.70978218) (0.60095656,0.60095656,0.60845003) (0.60095656,0.60095656,0.96324734) (0.60095656,0.60095656,0.81149277)
(0.60095656,0.60095656,0.61168786) (0.60095656,0.60095656,0.91188773) (0.60095656,0.60095656,0.80964289) (0.60095656,0.60095656,0.88318547) (0.60095656,0.60095656,0.75400629) (0.60095656,0.60095656,0.61302250)
(0.60095656,0.60095656,0.61901063) (0.60095656,0.60095656,0.98371834) (0.60095656,0.60095656,0.90839541) (0.60095656,0.60095656,0.83896094) (0.60095656,0.60095656,0.91058184) (0.60095656,0.60095656,0.87735636)
(0.60095656,0.60095656,0.60521774) (0.60095656,0.60095656,0.82939053) (0.60095656,0.60095656,0.91355103) (0.60095656,0.60095656,0.84726207) (0.60095656,0.60095656,0.92566961) (0.60095656,0.60095656,0.61429978)
(0.60095656,0.60095656,0.62903233) (0.60095656,0.60095656,0.95450815) (0.60095656,0.60095656,0.96727731) (0.60095656,0.60095656,0.97397468) (0.60095656,0.60095656,0.98904044) (0.60095656,0.60095656,0.78027116)
(0.60153870,0.60095656,0.60125750) (0.60095656,0.60095656,0.98096394) (0.60106761,0.60095656,0.94453600) (0.60095656,0.60095656,0.99174495) (0.60095656,0.60095656,0.70932124) (0.60095656,0.60095656,0.60559490)
(0.60095656,0.60095656,0.60097346) (0.60095656,0.60095656,0.96130582) (0.60095656,0.60095656,0.91822390) (0.60095656,0.60095656,0.87465425) (0.60095656,0.60095656,0.87477142) (0.60095656,0.60095656,0.62446696)
(0.60095656,0.60095656,0.63043732) (0.60095656,0.60095656,0.76353698) (0.60095656,0.60095656,0.94093671) (0.60095656,0.60095656,0.99989842) (0.60095656,0.60095656,0.67547017) (0.60095656,0.60095656,0.89748195)
(0.60095656,0.60095656,0.60780338) (0.60095656,0.60095656,0.97784646) (0.60095656,0.60095656,0.93079404) (0.60095656,0.60095656,0.63841640) (0.60095656,0.60095656,0.63866657) (0.60095656,0.60095656,0.64351943)
(0.60095656,0.60095656,0.60927800) (0.60095656,0.60095656,0.73919791) (0.60095656,0.60095656,0.85266462) (0.60095656,0.60095656,0.71264401) (0.60095656,0.60095656,0.68893764) (0.60095656,0.60095656,0.99090278)
(0.60095656,0.60095656,0.62298949) (0.60095656,0.60095656,0.90505327) (0.60095656,0.60095656,0.88759702) (0.60095656,0.60095656,0.85652377) (0.60095656,0.60095656,0.62595922) (0.60095656,0.60095656,0.81581080)
(0.60095656,0.60095656,0.61163569) (0.60095656,0.60095656,0.66198072) (0.60095656,0.60095656,0.83225628) (0.60095656,0.60095656,0.65382221) (0.60095656,0.60095656,0.60690428) (0.60095656,0.60095656,0.97767896)
(0.60095656,0.60095656,0.61648660) (0.60095656,0.60095656,0.96025821) (0.60095656,0.60095656,0.89029976) (0.60095656,0.60095656,0.63027149) (0.60095656,0.60095656,0.70432292) (0.60095656,0.60095656,0.68125243)
(0.60095656,0.60095656,0.64215599) (0.60095656,0.60095656,0.86545516) (0.60095656,0.60095656,0.87463980) (0.60095656,0.60095656,0.96277531) (0.60095656,0.60095656,0.66120739) (0.60095656,0.60095656,0.93287957)
(0.60095656,0.60095656,0.62914766) (0.60095656,0.60095656,0.89897062) (0.60095656,0.60095656,0.86845822) (0.60095656,0.60095656,0.62231180) (0.60095656,0.60095656,0.89589406) (0.60095656,0.60095656,0.60508971)
(0.60095656,0.60095656,0.60807616) (0.60095656,0.60095656,0.67315127) (0.60095656,0.60095656,0.89335215) (0.60095656,0.60095656,0.84723320) (0.60095656,0.60095656,0.77808036) (0.60095656,0.60095656,0.73207536)
(0.60095656,0.60095656,0.60264021) (0.60095656,0.60095656,0.92541435) (0.60095656,0.60095656,0.92134843) (0.60095656,0.60095656,0.60096717) (0.60095656,0.60095656,0.89661378) (0.60095656,0.60095656,0.73213507)
(0.60095656,0.60095656,0.60098520) (0.60095656,0.60095656,0.87287911) (0.60095656,0.60095656,0.92705239) (0.60095656,0.60095656,0.75223735) (0.60095656,0.60095656,0.70864656) (0.60095656,0.60095656,0.60095656)
(0.60095656,0.60095656,0.60295647) (0.60095656,0.60095656,0.92561698) (0.60095656,0.60095656,0.90896395) (0.60095656,0.60095656,0.64104388) (0.60095656,0.60095656,0.94752062) (0.60095656,0.60095656,0.83806730)
(0.60095656,0.60095656,0.60259766) (0.60095656,0.60095656,0.85512247) (0.60095656,0.60095656,0.89807994) (0.60095656,0.60095656,0.60658598) (0.60095656,0.60095656,0.71955322) (0.60095656,0.60095656,0.62192733)
(0.60095656,0.60095656,0.61955811) (0.60095656,0.60095656,0.82809173) (0.60095656,0.60095656,0.93056907) (0.60095656,0.60095656,0.83876083) (0.60095656,0.60095656,0.96924969) (0.60095656,0.60095656,0.62863526)
(0.60095656,0.60095656,0.62519774) (0.60095656,0.60095656,0.78423983) (0.60095656,0.60095656,0.87489081) (0.60095656,0.60095656,0.82403836) (0.60095656,0.60095656,0.79028819) (0.60095656,0.60095656,0.97322533)
(0.60095656,0.60095656,0.65446442) (0.60095656,0.60095656,0.78322441) (0.60095656,0.60095656,0.88756597) (0.60095656,0.60095656,0.91011616) (0.60095656,0.60095656,0.60159857) (0.60095656,0.60095656,0.84359305)
(0.60095656,0.60095656,0.67319594) (0.60095656,0.60095656,0.91613572) (0.60095656,0.60095656,0.86604038) (0.60095656,0.60095656,0.72793500) (0.60095656,0.60095656,0.96722156) (0.60095656,0.60095656,0.89630612)
(0.60095656,0.60095656,0.60570438) (0.60095656,0.60095656,0.76734221) (0.60095656,0.60095656,0.88899348) (0.60095656,0.60095656,0.99115684) (0.60095656,0.60095656,0.68696127) (0.60095656,0.60095656,0.80863603)
(0.60095656,0.60095656,0.63098336) (0.60095656,0.60095656,0.78130243) (0.60095656,0.60095656,0.90798206) (0.60095656,0.60095656,0.87019001) (0.60095656,0.60095656,0.90490558) (0.60095656,0.60095656,0.96130595)
(0.60095656,0.60095656,0.62257628) (0.60095656,0.60095656,0.87161313) (0.60095656,0.60095656,0.93273232) (0.60095656,0.60095656,0.89663143) (0.60095656,0.60095656,0.60530594) (0.60095656,0.60095656,0.76664595)
(0.60095656,0.60095656,0.60893260) (0.60095656,0.60095656,0.64762165) (0.60095656,0.60095656,0.86110333) (0.60095656,0.60095656,0.61004835) (0.60095656,0.60095656,0.68865423) (0.60095656,0.60095656,0.98057657)
(0.60095656,0.60095656,0.60142019) (0.60095656,0.60095656,0.65070979) (0.60095656,0.60095656,0.89914720) (0.60095656,0.60095656,0.73213699) (0.60095656,0.60095656,0.78529978) (0.60095656,0.60095656,0.64687233)
(0.60095656,0.60095656,0.60971292) (0.60095656,0.60095656,0.75484625) (0.60095656,0.60095656,0.89113330) (0.60095656,0.60095656,0.75143500) (0.60095656,0.60095656,0.63639383) (0.60095656,0.60095656,0.76472368)
(0.60095656,0.60095656,0.60295106) (0.60095656,0.60095656,0.72473346) (0.60095656,0.60095656,0.88099187) (0.60095656,0.60095656,0.60171041) (0.60095656,0.60095656,0.78306819) (0.60095656,0.60095656,0.62481441)
(0.60095656,0.60095656,0.60136248) (0.60095656,0.60095656,0.82720344) (0.60095656,0.60095656,0.85991992) (0.60095656,0.60095656,0.81671634) (0.60095656,0.60095656,0.60866115) (0.60095656,0.60095656,0.61521218)
(0.60095656,0.60095656,0.62225956) (0.60095656,0.60095656,0.66822267) (0.60095656,0.60095656,0.84412662) (0.60095656,0.60095656,0.64769665) (0.60095656,0.60095656,0.88669667) (0.60095656,0.60095656,0.60134415)
(0.60095656,0.60095656,0.60486184) (0.60095656,0.60095656,0.69174746) (0.60095656,0.60095656,0.79995240) (0.60095656,0.60095656,0.69156475) (0.60095656,0.60095656,0.60662398) (0.60095656,0.60095656,0.74512214)
(0.60095656,0.60095656,1.00000000) (0.60095656,0.60095656,1.00000000) (1.00000000,0.99643709,1.00000000) (0.60095656,0.60095656,1.00000000) (0.60095656,0.60095656,1.00000000) (0.60095656,0.60095656,1.00000000)
(0.60095656,0.60095656,1.00000000) (0.60095656,0.60095656,1.00000000) (1.00000000,0.99625798,1.00000000) (0.60095656,0.60095656,1.00000000) (0.60095656,0.60095656,1.00000000) (0.60095656,0.60095656,1.00000000)
(0.60095656,0.60095656,1.00000000) (0.60095656,0.60095656,1.00000000) (1.00000000,0.99606997,1.00000000) (0.60095656,0.60095656,1.00000000) (0.60095656,0.60095656,1.00000000) (0.60095656,0.60095656,1.00000000)
(0.60095656,0.60095656,1.00000000) (0.60095656,0.60095656,1.00000000) (1.00000000,0.99587262,1.00000000) (0.60095656,0.60095656,1.00000000) (0.60095656,0.60095656,1.00000000) (0.60095656,0.60095656,1.00000000)
